CBMC version 5.0 64-bit x86_64 linux
Parsing /nas/schram/gitcbmc-lazy-po/experiments/wmm-core/bclwdww001.c
Converting
Type-checking bclwdww001
Generating GOTO Program
Adding CPROVER library
Function Pointer Removal
Partial Inlining
Generic Property Instrumentation
Starting Bounded Model Checking
Adding SC constraints
size of program expression: 405 steps
no slicing due to threads
Generated 1 VCC(s), 1 remaining after simplification
Passing problem to refinement loop with MiniSAT 2.2.0 with simplifier
converting SSA
Running refinement loop with MiniSAT 2.2.0 with simplifier
BV-Refinement: post-processing
BV-Refinement: iteration 1
3249 variables, 11165 clauses
SAT checker: negated claim is SATISFIABLE, i.e., does not hold
BV-Refinement: 5 partial order constraints become active
BV-Refinement: 64 inactive partial order constraints
BV-Refinement: got SAT, and it is spurious, refining
BV-Refinement: iteration 2
3319 variables, 9668 clauses
SAT checker: negated claim is UNSATISFIABLE, i.e., holds
BV-Refinement: got UNSAT, and the proof passes => UNSAT
Total iterations: 2
PROFILING: main_solver: 0.153
PROFILING: sat_check: 0.003
Runtime decision procedure: 0.184s
VERIFICATION SUCCESSFUL
Partial order constraints used: 175/239
  fr: 5/69
  po: 49/49
  rf: 26/26
  rf-order: 26/26
  rf-some: 15/15
  rfi: 11/11
  thread-spawn: 3/3
  ws-ext: 40/40
Time: 0.516056
