CBMC version 5.0 64-bit x86_64 linux
Parsing /nas/schram/gitcbmc-lazy-po/experiments/wmm-core/podrwposwr012.c
Converting
Type-checking podrwposwr012
Generating GOTO Program
Adding CPROVER library
Function Pointer Removal
Partial Inlining
Generic Property Instrumentation
Starting Bounded Model Checking
Adding SC constraints
size of program expression: 445 steps
no slicing due to threads
Generated 1 VCC(s), 1 remaining after simplification
Passing problem to refinement loop with MiniSAT 2.2.0 with simplifier
converting SSA
Running refinement loop with MiniSAT 2.2.0 with simplifier
BV-Refinement: post-processing
BV-Refinement: iteration 1
3628 variables, 12655 clauses
SAT checker: negated claim is SATISFIABLE, i.e., does not hold
BV-Refinement: 7 partial order constraints become active
BV-Refinement: 66 inactive partial order constraints
BV-Refinement: got SAT, and it is spurious, refining
BV-Refinement: iteration 2
3726 variables, 11048 clauses
SAT checker: negated claim is UNSATISFIABLE, i.e., holds
BV-Refinement: got UNSAT, and the proof passes => UNSAT
Total iterations: 2
PROFILING: main_solver: 0.171
PROFILING: sat_check: 0.003
Runtime decision procedure: 0.206s
VERIFICATION SUCCESSFUL
Partial order constraints used: 199/265
  fr: 7/73
  po: 57/57
  rf: 28/28
  rf-order: 28/28
  rf-some: 17/17
  rfi: 13/13
  thread-spawn: 3/3
  ws-ext: 46/46
Time: 0.565839
