CBMC version 5.0 64-bit x86_64 linux
Parsing /nas/schram/gitcbmc-lazy-po/experiments/wmm-core/safe107.c
Converting
Type-checking safe107
Generating GOTO Program
Adding CPROVER library
Function Pointer Removal
Partial Inlining
Generic Property Instrumentation
Starting Bounded Model Checking
Adding SC constraints
size of program expression: 386 steps
no slicing due to threads
Generated 1 VCC(s), 1 remaining after simplification
Passing problem to refinement loop with MiniSAT 2.2.0 with simplifier
converting SSA
Running refinement loop with MiniSAT 2.2.0 with simplifier
BV-Refinement: post-processing
BV-Refinement: iteration 1
3006 variables, 10302 clauses
SAT checker: negated claim is SATISFIABLE, i.e., does not hold
BV-Refinement: 1 partial order constraints become active
BV-Refinement: 70 inactive partial order constraints
BV-Refinement: got SAT, and it is spurious, refining
BV-Refinement: iteration 2
3020 variables, 8499 clauses
SAT checker: negated claim is UNSATISFIABLE, i.e., holds
BV-Refinement: got UNSAT, and the proof passes => UNSAT
Total iterations: 2
PROFILING: main_solver: 0.092
PROFILING: sat_check: 0.002
Runtime decision procedure: 0.12s
VERIFICATION SUCCESSFUL
Partial order constraints used: 157/227
  fr: 1/71
  po: 43/43
  rf: 28/28
  rf-order: 28/28
  rf-some: 14/14
  rfi: 8/8
  thread-spawn: 3/3
  ws-ext: 32/32
Time: 0.466163
