CBMC version 5.0 64-bit x86_64 linux
Parsing /nas/schram/gitcbmc-lazy-po/experiments/pthread/fib_bench_true-unreach-call.cil.c
Converting
Type-checking fib_bench_true-unreach-call.cil
Generating GOTO Program
Adding CPROVER library
Function Pointer Removal
Partial Inlining
Generic Property Instrumentation
Starting Bounded Model Checking
Unwinding loop t1.0 iteration 1 (5 max) file fib_bench.c line 12 function t1 thread 1
Unwinding loop t1.0 iteration 2 (5 max) file fib_bench.c line 12 function t1 thread 1
Unwinding loop t1.0 iteration 3 (5 max) file fib_bench.c line 12 function t1 thread 1
Unwinding loop t1.0 iteration 4 (5 max) file fib_bench.c line 12 function t1 thread 1
Not unwinding loop t1.0 iteration 5 (5 max) file fib_bench.c line 12 function t1 thread 1
Unwinding loop t2.0 iteration 1 (5 max) file fib_bench.c line 23 function t2 thread 2
Unwinding loop t2.0 iteration 2 (5 max) file fib_bench.c line 23 function t2 thread 2
Unwinding loop t2.0 iteration 3 (5 max) file fib_bench.c line 23 function t2 thread 2
Unwinding loop t2.0 iteration 4 (5 max) file fib_bench.c line 23 function t2 thread 2
Not unwinding loop t2.0 iteration 5 (5 max) file fib_bench.c line 23 function t2 thread 2
Adding initial SC constraints
size of program expression: 294 steps
no slicing due to threads
Generated 2 VCC(s), 2 remaining after simplification
Passing problem to refinement loop with MiniSAT 2.2.0 with simplifier
converting SSA
Running refinement loop with MiniSAT 2.2.0 with simplifier
BV-Refinement: post-processing
BV-Refinement: iteration 1
4102 variables, 8952 clauses
SAT checker: negated claim is SATISFIABLE, i.e., does not hold
BV-Refinement: 153 partial order constraints become active
BV-Refinement: 393 inactive partial order constraints
BV-Refinement: got SAT, and it is spurious, refining
BV-Refinement: iteration 2
5591 variables, 14756 clauses
SAT checker: negated claim is SATISFIABLE, i.e., does not hold
BV-Refinement: 229 partial order constraints become active
BV-Refinement: 863 inactive partial order constraints
BV-Refinement: got SAT, and it is spurious, refining
BV-Refinement: iteration 3
7844 variables, 24476 clauses
SAT checker: negated claim is SATISFIABLE, i.e., does not hold
BV-Refinement: 274 partial order constraints become active
BV-Refinement: 1395 inactive partial order constraints
BV-Refinement: got SAT, and it is spurious, refining
BV-Refinement: iteration 4
8802 variables, 28954 clauses
SAT checker: negated claim is SATISFIABLE, i.e., does not hold
BV-Refinement: 220 partial order constraints become active
BV-Refinement: 2015 inactive partial order constraints
BV-Refinement: got SAT, and it is spurious, refining
BV-Refinement: iteration 5
8984 variables, 29378 clauses
SAT checker: negated claim is SATISFIABLE, i.e., does not hold
BV-Refinement: 282 partial order constraints become active
BV-Refinement: 2530 inactive partial order constraints
BV-Refinement: got SAT, and it is spurious, refining
BV-Refinement: iteration 6
9326 variables, 30803 clauses
SAT checker: negated claim is UNSATISFIABLE, i.e., holds
BV-Refinement: got UNSAT, and the proof passes => UNSAT
Total iterations: 6
PROFILING: main_solver: 34.869
PROFILING: sat_check: 0.669
PROFILING: clustering: 0
Runtime decision procedure: 35.562s
VERIFICATION SUCCESSFUL
Time: 36.244556
