CBMC version 5.0 64-bit x86_64 linux
Parsing /nas/schram/gitcbmc-lazy-po/experiments/pthread/queue_ok_true-unreach-call.cil.c
Converting
Type-checking queue_ok_true-unreach-call.cil
Generating GOTO Program
Adding CPROVER library
Function Pointer Removal
Partial Inlining
Generic Property Instrumentation
Starting Bounded Model Checking
Unwinding loop t1.0 iteration 1 (5 max) file queue_ok.c line 92 function t1 thread 1
Unwinding loop t1.0 iteration 2 (5 max) file queue_ok.c line 92 function t1 thread 1
Unwinding loop t1.0 iteration 3 (5 max) file queue_ok.c line 92 function t1 thread 1
Unwinding loop t1.0 iteration 4 (5 max) file queue_ok.c line 92 function t1 thread 1
Not unwinding loop t1.0 iteration 5 (5 max) file queue_ok.c line 92 function t1 thread 1
Unwinding loop t2.0 iteration 1 (5 max) file queue_ok.c line 113 function t2 thread 2
Unwinding loop t2.0 iteration 2 (5 max) file queue_ok.c line 113 function t2 thread 2
Unwinding loop t2.0 iteration 3 (5 max) file queue_ok.c line 113 function t2 thread 2
Unwinding loop t2.0 iteration 4 (5 max) file queue_ok.c line 113 function t2 thread 2
Not unwinding loop t2.0 iteration 5 (5 max) file queue_ok.c line 113 function t2 thread 2
Adding initial SC constraints
size of program expression: 2167 steps
no slicing due to threads
Generated 14 VCC(s), 14 remaining after simplification
Passing problem to refinement loop with MiniSAT 2.2.0 with simplifier
converting SSA
Running refinement loop with MiniSAT 2.2.0 with simplifier
BV-Refinement: post-processing
BV-Refinement: iteration 1
125926 variables, 157012 clauses
SAT checker: negated claim is SATISFIABLE, i.e., does not hold
BV-Refinement: 53 partial order constraints become active
BV-Refinement: 134 inactive partial order constraints
BV-Refinement: got SAT, and it is spurious, refining
BV-Refinement: iteration 2
128759 variables, 84957 clauses
SAT checker: negated claim is SATISFIABLE, i.e., does not hold
BV-Refinement: 15 partial order constraints become active
BV-Refinement: 197 inactive partial order constraints
BV-Refinement: got SAT, and it is spurious, refining
BV-Refinement: iteration 3
128773 variables, 85938 clauses
SAT checker: negated claim is SATISFIABLE, i.e., does not hold
BV-Refinement: 5293 partial order constraints become active
BV-Refinement: 8907 inactive partial order constraints
BV-Refinement: got SAT, and it is spurious, refining
BV-Refinement: iteration 4
475149 variables, 1841446 clauses
SAT checker: negated claim is SATISFIABLE, i.e., does not hold
BV-Refinement: 2777 partial order constraints become active
BV-Refinement: 22265 inactive partial order constraints
BV-Refinement: got SAT, and it is spurious, refining
BV-Refinement: iteration 5
558516 variables, 2305117 clauses
SAT checker: negated claim is UNSATISFIABLE, i.e., holds
BV-Refinement: got UNSAT, and the proof passes => UNSAT
Total iterations: 5
PROFILING: main_solver: 70.822
PROFILING: sat_check: 15.295
PROFILING: clustering: 0
Runtime decision procedure: 86.578s
VERIFICATION SUCCESSFUL
Time: 87.818151
