CBMC version 5.0 64-bit x86_64 linux
Parsing /nas/schram/gitcbmc-lazy-po/experiments/pthread/queue_false-unreach-call.cil.c
Converting
Type-checking queue_false-unreach-call.cil
Generating GOTO Program
Adding CPROVER library
Function Pointer Removal
Partial Inlining
Generic Property Instrumentation
Starting Bounded Model Checking
Unwinding loop t1.0 iteration 1 (5 max) file queue_bad.c line 102 function t1 thread 1
Unwinding loop t1.0 iteration 2 (5 max) file queue_bad.c line 102 function t1 thread 1
Unwinding loop t1.0 iteration 3 (5 max) file queue_bad.c line 102 function t1 thread 1
Unwinding loop t1.0 iteration 4 (5 max) file queue_bad.c line 102 function t1 thread 1
Not unwinding loop t1.0 iteration 5 (5 max) file queue_bad.c line 102 function t1 thread 1
Unwinding loop t2.0 iteration 1 (5 max) file queue_bad.c line 126 function t2 thread 2
Unwinding loop t2.0 iteration 2 (5 max) file queue_bad.c line 126 function t2 thread 2
Unwinding loop t2.0 iteration 3 (5 max) file queue_bad.c line 126 function t2 thread 2
Unwinding loop t2.0 iteration 4 (5 max) file queue_bad.c line 126 function t2 thread 2
Not unwinding loop t2.0 iteration 5 (5 max) file queue_bad.c line 126 function t2 thread 2
Adding initial SC constraints
size of program expression: 2460 steps
no slicing due to threads
Generated 34 VCC(s), 34 remaining after simplification
Passing problem to refinement loop with MiniSAT 2.2.0 with simplifier
converting SSA
Running refinement loop with MiniSAT 2.2.0 with simplifier
BV-Refinement: post-processing
BV-Refinement: iteration 1
139940 variables, 174478 clauses
SAT checker: negated claim is SATISFIABLE, i.e., does not hold
BV-Refinement: 2691 partial order constraints become active
BV-Refinement: 6933 inactive partial order constraints
BV-Refinement: got SAT, and it is spurious, refining
BV-Refinement: iteration 2
231517 variables, 550638 clauses
SAT checker: negated claim is SATISFIABLE, i.e., does not hold
BV-Refinement: 17 partial order constraints become active
BV-Refinement: 9748 inactive partial order constraints
BV-Refinement: got SAT, and it is spurious, refining
BV-Refinement: iteration 3
231554 variables, 546256 clauses
SAT checker: negated claim is SATISFIABLE, i.e., does not hold
BV-Refinement: 222 partial order constraints become active
BV-Refinement: 10750 inactive partial order constraints
BV-Refinement: got SAT, and it is spurious, refining
BV-Refinement: iteration 4
240121 variables, 605392 clauses
SAT checker: negated claim is UNSATISFIABLE, i.e., holds
BV-Refinement: got UNSAT, and the proof passes => UNSAT
Total iterations: 4
PROFILING: main_solver: 17.857
PROFILING: sat_check: 10.231
PROFILING: clustering: 0
Runtime decision procedure: 28.621s
VERIFICATION SUCCESSFUL
Time: 29.782810
