CBMC version 5.0 64-bit x86_64 linux
Parsing /nas/schram/gitcbmc-lazy-po/experiments/pthread/queue_ok_longer_true-unreach-call.c
Converting
Type-checking queue_ok_longer_true-unreach-call
Generating GOTO Program
Adding CPROVER library
Function Pointer Removal
Partial Inlining
Generic Property Instrumentation
Starting Bounded Model Checking
Unwinding loop t1.0 iteration 1 (5 max) file /nas/schram/gitcbmc-lazy-po/experiments/pthread/queue_ok_longer_true-unreach-call.c line 93 function t1 thread 1
Unwinding loop t1.0 iteration 2 (5 max) file /nas/schram/gitcbmc-lazy-po/experiments/pthread/queue_ok_longer_true-unreach-call.c line 93 function t1 thread 1
Unwinding loop t1.0 iteration 3 (5 max) file /nas/schram/gitcbmc-lazy-po/experiments/pthread/queue_ok_longer_true-unreach-call.c line 93 function t1 thread 1
Unwinding loop t1.0 iteration 4 (5 max) file /nas/schram/gitcbmc-lazy-po/experiments/pthread/queue_ok_longer_true-unreach-call.c line 93 function t1 thread 1
Not unwinding loop t1.0 iteration 5 (5 max) file /nas/schram/gitcbmc-lazy-po/experiments/pthread/queue_ok_longer_true-unreach-call.c line 93 function t1 thread 1
Unwinding loop t2.0 iteration 1 (5 max) file /nas/schram/gitcbmc-lazy-po/experiments/pthread/queue_ok_longer_true-unreach-call.c line 114 function t2 thread 2
Unwinding loop t2.0 iteration 2 (5 max) file /nas/schram/gitcbmc-lazy-po/experiments/pthread/queue_ok_longer_true-unreach-call.c line 114 function t2 thread 2
Unwinding loop t2.0 iteration 3 (5 max) file /nas/schram/gitcbmc-lazy-po/experiments/pthread/queue_ok_longer_true-unreach-call.c line 114 function t2 thread 2
Unwinding loop t2.0 iteration 4 (5 max) file /nas/schram/gitcbmc-lazy-po/experiments/pthread/queue_ok_longer_true-unreach-call.c line 114 function t2 thread 2
Not unwinding loop t2.0 iteration 5 (5 max) file /nas/schram/gitcbmc-lazy-po/experiments/pthread/queue_ok_longer_true-unreach-call.c line 114 function t2 thread 2
Adding initial SC constraints
size of program expression: 930 steps
no slicing due to threads
Generated 14 VCC(s), 14 remaining after simplification
Passing problem to refinement loop with MiniSAT 2.2.0 with simplifier
converting SSA
Running refinement loop with MiniSAT 2.2.0 with simplifier
BV-Refinement: post-processing
BV-Refinement: iteration 1
1502156 variables, 744297 clauses
SAT checker: negated claim is SATISFIABLE, i.e., does not hold
BV-Refinement: 52 partial order constraints become active
BV-Refinement: 135 inactive partial order constraints
BV-Refinement: got SAT, and it is spurious, refining
BV-Refinement: iteration 2
1504839 variables, 551868 clauses
SAT checker: negated claim is SATISFIABLE, i.e., does not hold
BV-Refinement: 25 partial order constraints become active
BV-Refinement: 246 inactive partial order constraints
BV-Refinement: got SAT, and it is spurious, refining
BV-Refinement: iteration 3
1505177 variables, 554578 clauses
SAT checker: negated claim is SATISFIABLE, i.e., does not hold
BV-Refinement: 2833 partial order constraints become active
BV-Refinement: 4828 inactive partial order constraints
BV-Refinement: got SAT, and it is spurious, refining
BV-Refinement: iteration 4
4028659 variables, 13493446 clauses
SAT checker: negated claim is SATISFIABLE, i.e., does not hold
BV-Refinement: 2781 partial order constraints become active
BV-Refinement: 12487 inactive partial order constraints
BV-Refinement: got SAT, and it is spurious, refining
BV-Refinement: iteration 5
5512841 variables, 22510918 clauses
Time: 900.154962
