CBMC version 5.0 64-bit x86_64 linux
Parsing /nas/schram/gitcbmc-lazy-po/experiments/pthread/reorder_5_false-unreach-call.cil.c
Converting
Type-checking reorder_5_false-unreach-call.cil
Generating GOTO Program
Adding CPROVER library
Function Pointer Removal
Partial Inlining
Generic Property Instrumentation
Starting Bounded Model Checking
Unwinding loop main.0 iteration 1 (5 max) file reorder_bad.c line 38 function main thread 0
Unwinding loop main.0 iteration 2 (5 max) file reorder_bad.c line 38 function main thread 0
Unwinding loop main.0 iteration 3 (5 max) file reorder_bad.c line 38 function main thread 0
Unwinding loop main.0 iteration 4 (5 max) file reorder_bad.c line 38 function main thread 0
Not unwinding loop main.0 iteration 5 (5 max) file reorder_bad.c line 38 function main thread 0
Unwinding loop main.1 iteration 1 (5 max) file reorder_bad.c line 45 function main thread 0
Unwinding loop main.1 iteration 2 (5 max) file reorder_bad.c line 45 function main thread 0
Unwinding loop main.1 iteration 3 (5 max) file reorder_bad.c line 45 function main thread 0
Unwinding loop main.1 iteration 4 (5 max) file reorder_bad.c line 45 function main thread 0
Not unwinding loop main.1 iteration 5 (5 max) file reorder_bad.c line 45 function main thread 0
Unwinding loop main.2 iteration 1 (5 max) file reorder_bad.c line 53 function main thread 0
Unwinding loop main.2 iteration 2 (5 max) file reorder_bad.c line 53 function main thread 0
Unwinding loop main.2 iteration 3 (5 max) file reorder_bad.c line 53 function main thread 0
Unwinding loop main.2 iteration 4 (5 max) file reorder_bad.c line 53 function main thread 0
Not unwinding loop main.2 iteration 5 (5 max) file reorder_bad.c line 53 function main thread 0
Unwinding loop main.3 iteration 1 (5 max) file reorder_bad.c line 60 function main thread 0
Unwinding loop main.3 iteration 2 (5 max) file reorder_bad.c line 60 function main thread 0
Unwinding loop main.3 iteration 3 (5 max) file reorder_bad.c line 60 function main thread 0
Unwinding loop main.3 iteration 4 (5 max) file reorder_bad.c line 60 function main thread 0
Not unwinding loop main.3 iteration 5 (5 max) file reorder_bad.c line 60 function main thread 0
Adding initial SC constraints
size of program expression: 3696 steps
no slicing due to threads
Generated 18 VCC(s), 18 remaining after simplification
Passing problem to refinement loop with MiniSAT 2.2.0 with simplifier
converting SSA
Running refinement loop with MiniSAT 2.2.0 with simplifier
BV-Refinement: post-processing
BV-Refinement: iteration 1
79480 variables, 162579 clauses
SAT checker: negated claim is SATISFIABLE, i.e., does not hold
BV-Refinement: 99 partial order constraints become active
BV-Refinement: 255 inactive partial order constraints
BV-Refinement: got SAT, and it is spurious, refining
BV-Refinement: iteration 2
81515 variables, 160764 clauses
SAT checker: negated claim is SATISFIABLE, i.e., does not hold
BV-Refinement: 115 partial order constraints become active
BV-Refinement: 843 inactive partial order constraints
BV-Refinement: got SAT, and it is spurious, refining
BV-Refinement: iteration 3
84355 variables, 169115 clauses
SAT checker: negated claim is SATISFIABLE, i.e., does not hold
BV-Refinement: 119 partial order constraints become active
BV-Refinement: 1550 inactive partial order constraints
BV-Refinement: got SAT, and it is spurious, refining
BV-Refinement: iteration 4
86160 variables, 165037 clauses
SAT checker: negated claim is UNSATISFIABLE, i.e., holds
BV-Refinement: got UNSAT, and the proof passes => UNSAT
Total iterations: 4
PROFILING: main_solver: 2.19
PROFILING: sat_check: 0.889
PROFILING: clustering: 0
Runtime decision procedure: 3.562s
VERIFICATION SUCCESSFUL
Time: 5.226758
