CBMC version 5.0 64-bit x86_64 linux
Parsing /nas/schram/gitcbmc-lazy-po/experiments/pthread-atomic/read_write_lock_false-unreach-call.c
Converting
Type-checking read_write_lock_false-unreach-call
Generating GOTO Program
Adding CPROVER library
Function Pointer Removal
Partial Inlining
Generic Property Instrumentation
Starting Bounded Model Checking
Adding SC constraints
size of program expression: 1168 steps
no slicing due to threads
Generated 4 VCC(s), 4 remaining after simplification
Passing problem to refinement loop with MiniSAT 2.2.0 with simplifier
converting SSA
Running refinement loop with MiniSAT 2.2.0 with simplifier
BV-Refinement: post-processing
BV-Refinement: iteration 1
10735 variables, 32972 clauses
SAT checker: negated claim is SATISFIABLE, i.e., does not hold
BV-Refinement: 30 partial order constraints become active
BV-Refinement: 509 inactive partial order constraints
BV-Refinement: got SAT, and it is spurious, refining
BV-Refinement: iteration 2
11306 variables, 31539 clauses
SAT checker: negated claim is SATISFIABLE, i.e., does not hold
BV-Refinement: 30 partial order constraints become active
BV-Refinement: 479 inactive partial order constraints
BV-Refinement: got SAT, and it is spurious, refining
BV-Refinement: iteration 3
11851 variables, 34009 clauses
SAT checker: negated claim is SATISFIABLE, i.e., does not hold
BV-Refinement: 29 partial order constraints become active
BV-Refinement: 450 inactive partial order constraints
BV-Refinement: got SAT, and it is spurious, refining
BV-Refinement: iteration 4
12403 variables, 36419 clauses
SAT checker: negated claim is SATISFIABLE, i.e., does not hold
BV-Refinement: 32 partial order constraints become active
BV-Refinement: 418 inactive partial order constraints
BV-Refinement: got SAT, and it is spurious, refining
BV-Refinement: iteration 5
12758 variables, 38329 clauses
SAT checker: negated claim is SATISFIABLE, i.e., does not hold
BV-Refinement: 20 partial order constraints become active
BV-Refinement: 398 inactive partial order constraints
BV-Refinement: got SAT, and it is spurious, refining
BV-Refinement: iteration 6
13209 variables, 40510 clauses
SAT checker: negated claim is SATISFIABLE, i.e., does not hold
BV-Refinement: 12 partial order constraints become active
BV-Refinement: 386 inactive partial order constraints
BV-Refinement: got SAT, and it is spurious, refining
BV-Refinement: iteration 7
13378 variables, 41397 clauses
SAT checker: negated claim is SATISFIABLE, i.e., does not hold
BV-Refinement: 9 partial order constraints become active
BV-Refinement: 377 inactive partial order constraints
BV-Refinement: got SAT, and it is spurious, refining
BV-Refinement: iteration 8
13466 variables, 41872 clauses
SAT checker: negated claim is SATISFIABLE, i.e., does not hold
BV-Refinement: 3 partial order constraints become active
BV-Refinement: 374 inactive partial order constraints
BV-Refinement: got SAT, and it is spurious, refining
BV-Refinement: iteration 9
13532 variables, 42176 clauses
SAT checker: negated claim is SATISFIABLE, i.e., does not hold
BV-Refinement: 1 partial order constraints become active
BV-Refinement: 373 inactive partial order constraints
BV-Refinement: got SAT, and it is spurious, refining
BV-Refinement: iteration 10
13548 variables, 42242 clauses
SAT checker: negated claim is SATISFIABLE, i.e., does not hold
BV-Refinement: 5 partial order constraints become active
BV-Refinement: 368 inactive partial order constraints
BV-Refinement: got SAT, and it is spurious, refining
BV-Refinement: iteration 11
13613 variables, 42589 clauses
SAT checker: negated claim is SATISFIABLE, i.e., does not hold
BV-Refinement: 8 partial order constraints become active
BV-Refinement: 360 inactive partial order constraints
BV-Refinement: got SAT, and it is spurious, refining
BV-Refinement: iteration 12
13710 variables, 43043 clauses
SAT checker: negated claim is SATISFIABLE, i.e., does not hold
BV-Refinement: 8 partial order constraints become active
BV-Refinement: 352 inactive partial order constraints
BV-Refinement: got SAT, and it is spurious, refining
BV-Refinement: iteration 13
13823 variables, 43562 clauses
SAT checker: negated claim is SATISFIABLE, i.e., does not hold
BV-Refinement: 10 partial order constraints become active
BV-Refinement: 342 inactive partial order constraints
BV-Refinement: got SAT, and it is spurious, refining
BV-Refinement: iteration 14
13951 variables, 44155 clauses
SAT checker: negated claim is SATISFIABLE, i.e., does not hold
BV-Refinement: 9 partial order constraints become active
BV-Refinement: 333 inactive partial order constraints
BV-Refinement: got SAT, and it is spurious, refining
BV-Refinement: iteration 15
14033 variables, 44540 clauses
SAT checker: negated claim is SATISFIABLE, i.e., does not hold
BV-Refinement: 3 partial order constraints become active
BV-Refinement: 330 inactive partial order constraints
BV-Refinement: got SAT, and it is spurious, refining
BV-Refinement: iteration 16
14034 variables, 44508 clauses
SAT checker: negated claim is SATISFIABLE, i.e., does not hold
BV-Refinement: 3 partial order constraints become active
BV-Refinement: 327 inactive partial order constraints
BV-Refinement: got SAT, and it is spurious, refining
BV-Refinement: iteration 17
14050 variables, 44590 clauses
SAT checker: negated claim is SATISFIABLE, i.e., does not hold
BV-Refinement: 1 partial order constraints become active
BV-Refinement: 326 inactive partial order constraints
BV-Refinement: got SAT, and it is spurious, refining
BV-Refinement: iteration 18
14050 variables, 44584 clauses
SAT checker: negated claim is SATISFIABLE, i.e., does not hold
BV-Refinement: 1 partial order constraints become active
BV-Refinement: 325 inactive partial order constraints
BV-Refinement: got SAT, and it is spurious, refining
BV-Refinement: iteration 19
14052 variables, 44622 clauses
SAT checker: negated claim is SATISFIABLE, i.e., does not hold
BV-Refinement: 1 partial order constraints become active
BV-Refinement: 324 inactive partial order constraints
BV-Refinement: got SAT, and it is spurious, refining
BV-Refinement: iteration 20
14068 variables, 44702 clauses
SAT checker: negated claim is SATISFIABLE, i.e., does not hold
BV-Refinement: 0 partial order constraints become active
BV-Refinement: 324 inactive partial order constraints
BV-Refinement: got SAT, and it simulates => SAT
Total iterations: 20
PROFILING: main_solver: 1.098
PROFILING: sat_check: 0.361
PROFILING: clustering: 0
Runtime decision procedure: 1.587s
Building error trace

Counterexample:

State 19 file /nas/schram/gitcbmc-lazy-po/experiments/pthread-atomic/read_write_lock_false-unreach-call.c line 43 function main thread 0
----------------------------------------------------
  t1=0 (0000000000000000000000000000000000000000000000000000000000000000)

State 20 file /nas/schram/gitcbmc-lazy-po/experiments/pthread-atomic/read_write_lock_false-unreach-call.c line 43 function main thread 0
----------------------------------------------------
  t2=0 (0000000000000000000000000000000000000000000000000000000000000000)

State 21 file /nas/schram/gitcbmc-lazy-po/experiments/pthread-atomic/read_write_lock_false-unreach-call.c line 43 function main thread 0
----------------------------------------------------
  t3=0 (0000000000000000000000000000000000000000000000000000000000000000)

State 22 file /nas/schram/gitcbmc-lazy-po/experiments/pthread-atomic/read_write_lock_false-unreach-call.c line 43 function main thread 0
----------------------------------------------------
  t4=0 (0000000000000000000000000000000000000000000000000000000000000000)

State 92 file <builtin-library>-pthread_create line 20 function __actual_thread_spawn thread 1
----------------------------------------------------
  va_arg0=NULL (0000000000000000000000000000000000000000000000000000000000000000)

State 95 file <builtin-library>-pthread_create line 20 function __actual_thread_spawn thread 2
----------------------------------------------------
  va_arg0=NULL (0000000000000000000000000000000000000000000000000000000000000000)

State 96 file /nas/schram/gitcbmc-lazy-po/experiments/pthread-atomic/read_write_lock_false-unreach-call.c line 33 function reader thread 2
----------------------------------------------------
  l=0 (00000000000000000000000000000000)

State 130 file /nas/schram/gitcbmc-lazy-po/experiments/pthread-atomic/read_write_lock_false-unreach-call.c line 23 function __VERIFIER_atomic_take_read_lock thread 2
----------------------------------------------------
  r=1 (00000000000000000000000000000001)

State 132 file /nas/schram/gitcbmc-lazy-po/experiments/pthread-atomic/read_write_lock_false-unreach-call.c line 35 function reader thread 2
----------------------------------------------------
  l=0 (00000000000000000000000000000000)

State 133 file <builtin-library>-pthread_create line 20 function __actual_thread_spawn thread 3
----------------------------------------------------
  va_arg1=NULL (0000000000000000000000000000000000000000000000000000000000000000)

State 136 file /nas/schram/gitcbmc-lazy-po/experiments/pthread-atomic/read_write_lock_false-unreach-call.c line 36 function reader thread 2
----------------------------------------------------
  y=0 (00000000000000000000000000000000)

State 173 file /nas/schram/gitcbmc-lazy-po/experiments/pthread-atomic/read_write_lock_false-unreach-call.c line 38 function reader thread 2
----------------------------------------------------
  l=0 (00000000000000000000000000000000)

State 174 file <builtin-library>-pthread_create line 20 function __actual_thread_spawn thread 4
----------------------------------------------------
  va_arg1=NULL (0000000000000000000000000000000000000000000000000000000000000000)

State 175 file /nas/schram/gitcbmc-lazy-po/experiments/pthread-atomic/read_write_lock_false-unreach-call.c line 33 function reader thread 4
----------------------------------------------------
  l=0 (00000000000000000000000000000000)

State 178 file /nas/schram/gitcbmc-lazy-po/experiments/pthread-atomic/read_write_lock_false-unreach-call.c line 23 function __VERIFIER_atomic_take_read_lock thread 4
----------------------------------------------------
  r=2 (00000000000000000000000000000010)

State 180 file /nas/schram/gitcbmc-lazy-po/experiments/pthread-atomic/read_write_lock_false-unreach-call.c line 39 function reader thread 2
----------------------------------------------------
  r=0 (00000000000000000000000000000000)

State 188 file /nas/schram/gitcbmc-lazy-po/experiments/pthread-atomic/read_write_lock_false-unreach-call.c line 35 function reader thread 4
----------------------------------------------------
  l=0 (00000000000000000000000000000000)

State 189 file /nas/schram/gitcbmc-lazy-po/experiments/pthread-atomic/read_write_lock_false-unreach-call.c line 36 function reader thread 4
----------------------------------------------------
  y=0 (00000000000000000000000000000000)

State 199 file /nas/schram/gitcbmc-lazy-po/experiments/pthread-atomic/read_write_lock_false-unreach-call.c line 18 function __VERIFIER_atomic_take_write_lock thread 3
----------------------------------------------------
  w=1 (00000000000000000000000000000001)

State 201 file /nas/schram/gitcbmc-lazy-po/experiments/pthread-atomic/read_write_lock_false-unreach-call.c line 28 function writer thread 3
----------------------------------------------------
  x=3 (00000000000000000000000000000011)

Violated property:
  file /nas/schram/gitcbmc-lazy-po/experiments/pthread-atomic/read_write_lock_false-unreach-call.c line 37 function reader
  error label ERROR
  FALSE

VERIFICATION FAILED
Partial order constraints used: 315/639
  fr: 80/302
  po: 71/71
  rf: 50/54
  rf-order: 52/86
  rf-some: 25/25
  rfi: 21/33
  thread-spawn: 4/4
  ws-ext: 12/64
Time: 2.420231
