CBMC version 5.0 64-bit x86_64 linux
Parsing /nas/schram/gitcbmc-lazy-po/experiments/pthread/queue_ok_true-unreach-call.c
Converting
Type-checking queue_ok_true-unreach-call
Generating GOTO Program
Adding CPROVER library
Function Pointer Removal
Partial Inlining
Generic Property Instrumentation
Starting Bounded Model Checking
Unwinding loop t1.0 iteration 1 (5 max) file /nas/schram/gitcbmc-lazy-po/experiments/pthread/queue_ok_true-unreach-call.c line 94 function t1 thread 1
Unwinding loop t1.0 iteration 2 (5 max) file /nas/schram/gitcbmc-lazy-po/experiments/pthread/queue_ok_true-unreach-call.c line 94 function t1 thread 1
Unwinding loop t1.0 iteration 3 (5 max) file /nas/schram/gitcbmc-lazy-po/experiments/pthread/queue_ok_true-unreach-call.c line 94 function t1 thread 1
Unwinding loop t1.0 iteration 4 (5 max) file /nas/schram/gitcbmc-lazy-po/experiments/pthread/queue_ok_true-unreach-call.c line 94 function t1 thread 1
Not unwinding loop t1.0 iteration 5 (5 max) file /nas/schram/gitcbmc-lazy-po/experiments/pthread/queue_ok_true-unreach-call.c line 94 function t1 thread 1
Unwinding loop t2.0 iteration 1 (5 max) file /nas/schram/gitcbmc-lazy-po/experiments/pthread/queue_ok_true-unreach-call.c line 115 function t2 thread 2
Unwinding loop t2.0 iteration 2 (5 max) file /nas/schram/gitcbmc-lazy-po/experiments/pthread/queue_ok_true-unreach-call.c line 115 function t2 thread 2
Unwinding loop t2.0 iteration 3 (5 max) file /nas/schram/gitcbmc-lazy-po/experiments/pthread/queue_ok_true-unreach-call.c line 115 function t2 thread 2
Unwinding loop t2.0 iteration 4 (5 max) file /nas/schram/gitcbmc-lazy-po/experiments/pthread/queue_ok_true-unreach-call.c line 115 function t2 thread 2
Not unwinding loop t2.0 iteration 5 (5 max) file /nas/schram/gitcbmc-lazy-po/experiments/pthread/queue_ok_true-unreach-call.c line 115 function t2 thread 2
Adding SC constraints
size of program expression: 95159 steps
no slicing due to threads
Generated 14 VCC(s), 14 remaining after simplification
Passing problem to refinement loop with MiniSAT 2.2.0 with simplifier
converting SSA
Running refinement loop with MiniSAT 2.2.0 with simplifier
BV-Refinement: post-processing
BV-Refinement: iteration 1
1948510 variables, 9614368 clauses
SAT checker: negated claim is SATISFIABLE, i.e., does not hold
BV-Refinement: 6 partial order constraints become active
BV-Refinement: 87268 inactive partial order constraints
BV-Refinement: got SAT, and it is spurious, refining
BV-Refinement: iteration 2
1948618 variables, 9577306 clauses
SAT checker: negated claim is SATISFIABLE, i.e., does not hold
BV-Refinement: 145 partial order constraints become active
BV-Refinement: 87123 inactive partial order constraints
BV-Refinement: got SAT, and it is spurious, refining
BV-Refinement: iteration 3
1951210 variables, 9590361 clauses
SAT checker: negated claim is SATISFIABLE, i.e., does not hold
BV-Refinement: 157 partial order constraints become active
BV-Refinement: 86966 inactive partial order constraints
BV-Refinement: got SAT, and it is spurious, refining
BV-Refinement: iteration 4
1952848 variables, 9597678 clauses
SAT checker: negated claim is UNSATISFIABLE, i.e., holds
BV-Refinement: got UNSAT, and the proof passes => UNSAT
Total iterations: 4
PROFILING: main_solver: 265.247
PROFILING: sat_check: 6.081
Runtime decision procedure: 290.695s
VERIFICATION SUCCESSFUL
Partial order constraints used: 6484/93450
  fr: 308/87274
  po: 185/185
  rf: 2075/2075
  rf-order: 2118/2118
  rf-some: 116/116
  rfi: 760/760
  thread-spawn: 2/2
  ws-ext: 920/920
Time: 313.873705
