CBMC version 5.0 64-bit x86_64 linux
Parsing /nas/schram/gitcbmc-lazy-po/experiments/pthread/twostage_3_false-unreach-call.cil.c
Converting
Type-checking twostage_3_false-unreach-call.cil
Generating GOTO Program
Adding CPROVER library
Function Pointer Removal
Partial Inlining
Generic Property Instrumentation
Starting Bounded Model Checking
Unwinding loop main.0 iteration 1 (5 max) file twostage_3_bad.c line 82 function main thread 0
Unwinding loop main.0 iteration 2 (5 max) file twostage_3_bad.c line 82 function main thread 0
Unwinding loop main.0 iteration 3 (5 max) file twostage_3_bad.c line 82 function main thread 0
Unwinding loop main.0 iteration 4 (5 max) file twostage_3_bad.c line 82 function main thread 0
Not unwinding loop main.0 iteration 5 (5 max) file twostage_3_bad.c line 82 function main thread 0
Unwinding loop main.1 iteration 1 (5 max) file twostage_3_bad.c line 89 function main thread 0
Unwinding loop main.1 iteration 2 (5 max) file twostage_3_bad.c line 89 function main thread 0
Unwinding loop main.1 iteration 3 (5 max) file twostage_3_bad.c line 89 function main thread 0
Unwinding loop main.1 iteration 4 (5 max) file twostage_3_bad.c line 89 function main thread 0
Not unwinding loop main.1 iteration 5 (5 max) file twostage_3_bad.c line 89 function main thread 0
Unwinding loop main.2 iteration 1 (5 max) file twostage_3_bad.c line 96 function main thread 0
Unwinding loop main.2 iteration 2 (5 max) file twostage_3_bad.c line 96 function main thread 0
Unwinding loop main.2 iteration 3 (5 max) file twostage_3_bad.c line 96 function main thread 0
Unwinding loop main.2 iteration 4 (5 max) file twostage_3_bad.c line 96 function main thread 0
Not unwinding loop main.2 iteration 5 (5 max) file twostage_3_bad.c line 96 function main thread 0
Unwinding loop main.3 iteration 1 (5 max) file twostage_3_bad.c line 103 function main thread 0
Unwinding loop main.3 iteration 2 (5 max) file twostage_3_bad.c line 103 function main thread 0
Unwinding loop main.3 iteration 3 (5 max) file twostage_3_bad.c line 103 function main thread 0
Unwinding loop main.3 iteration 4 (5 max) file twostage_3_bad.c line 103 function main thread 0
Not unwinding loop main.3 iteration 5 (5 max) file twostage_3_bad.c line 103 function main thread 0
Adding SC constraints
size of program expression: 172091 steps
no slicing due to threads
Generated 103 VCC(s), 103 remaining after simplification
Passing problem to refinement loop with MiniSAT 2.2.0 with simplifier
converting SSA
Running refinement loop with MiniSAT 2.2.0 with simplifier
BV-Refinement: post-processing
BV-Refinement: iteration 1
1749150 variables, 8214309 clauses
SAT checker: negated claim is SATISFIABLE, i.e., does not hold
BV-Refinement: 3 partial order constraints become active
BV-Refinement: 1370 inactive partial order constraints
BV-Refinement: got SAT, and it is spurious, refining
BV-Refinement: iteration 2
1749216 variables, 7910398 clauses
SAT checker: negated claim is SATISFIABLE, i.e., does not hold
BV-Refinement: 3 partial order constraints become active
BV-Refinement: 1367 inactive partial order constraints
BV-Refinement: got SAT, and it is spurious, refining
BV-Refinement: iteration 3
1749260 variables, 7884085 clauses
SAT checker: negated claim is SATISFIABLE, i.e., does not hold
BV-Refinement: 0 partial order constraints become active
BV-Refinement: 1367 inactive partial order constraints
BV-Refinement: got SAT, and it simulates => SAT
Total iterations: 3
PROFILING: main_solver: 644.486
PROFILING: sat_check: 0.079
Runtime decision procedure: 667.726s
Building error trace

Counterexample:

State 23  thread 0
----------------------------------------------------
  argv'[3]=irep("(\"nil\")")[3] (?)

State 26 file twostage_3_bad.c line 55 thread 0
----------------------------------------------------
  argc=3 (00000000000000000000000000000011)

State 27 file twostage_3_bad.c line 55 thread 0
----------------------------------------------------
  argv=argv' (0000001000000000000000000000000000000000000000000000000000000000)

State 28 file twostage_3_bad.c line 56 function main thread 0
----------------------------------------------------
  i=0 (00000000000000000000000000000000)

State 29 file twostage_3_bad.c line 57 function main thread 0
----------------------------------------------------
  err=0 (00000000000000000000000000000000)

State 30 file twostage_3_bad.c line 58 function main thread 0
----------------------------------------------------
  tmp=NULL (0000000000000000000000000000000000000000000000000000000000000000)

State 31 file twostage_3_bad.c line 59 function main thread 0
----------------------------------------------------
  tmp___0=NULL (0000000000000000000000000000000000000000000000000000000000000000)

State 32 file twostage_3_bad.c line 60 function main thread 0
----------------------------------------------------
  tPool=((unsigned long int *)NULL) (0000000000000000000000000000000000000000000000000000000000000000)

State 33 file twostage_3_bad.c line 61 function main thread 0
----------------------------------------------------
  __lengthoftPool=0 (00000000000000000000000000000000)

State 34 file twostage_3_bad.c line 62 function main thread 0
----------------------------------------------------
  tmp___1=NULL (0000000000000000000000000000000000000000000000000000000000000000)

State 35 file twostage_3_bad.c line 63 function main thread 0
----------------------------------------------------
  rPool=((unsigned long int *)NULL) (0000000000000000000000000000000000000000000000000000000000000000)

State 36 file twostage_3_bad.c line 64 function main thread 0
----------------------------------------------------
  __lengthofrPool=0 (00000000000000000000000000000000)

State 37 file twostage_3_bad.c line 65 function main thread 0
----------------------------------------------------
  tmp___2=NULL (0000000000000000000000000000000000000000000000000000000000000000)

State 38 file twostage_3_bad.c line 66 function main thread 0
----------------------------------------------------
  __cil_tmp13=((struct _IO_FILE *)NULL) (0000000000000000000000000000000000000000000000000000000000000000)

State 39 file twostage_3_bad.c line 67 function main thread 0
----------------------------------------------------
  __cil_tmp14=INVALID (0000000100000000000000000000000000000000000000000000000000000000)

State 40 file twostage_3_bad.c line 68 function main thread 0
----------------------------------------------------
  __cil_tmp15=((signed char **)NULL) (0000000000000000000000000000000000000000000000000000000000000000)

State 41 file twostage_3_bad.c line 69 function main thread 0
----------------------------------------------------
  __cil_tmp16=((signed char *)NULL) (0000000000000000000000000000000000000000000000000000000000000000)

State 42 file twostage_3_bad.c line 70 function main thread 0
----------------------------------------------------
  __cil_tmp17=((signed char *)NULL) (0000000000000000000000000000000000000000000000000000000000000000)

State 43 file twostage_3_bad.c line 71 function main thread 0
----------------------------------------------------
  __cil_tmp18=((signed char *)NULL) (0000000000000000000000000000000000000000000000000000000000000000)

State 44 file twostage_3_bad.c line 72 function main thread 0
----------------------------------------------------
  __cil_tmp19=((signed char **)NULL) (0000000000000000000000000000000000000000000000000000000000000000)

State 45 file twostage_3_bad.c line 73 function main thread 0
----------------------------------------------------
  __cil_tmp20=((signed char *)NULL) (0000000000000000000000000000000000000000000000000000000000000000)

State 46 file twostage_3_bad.c line 74 function main thread 0
----------------------------------------------------
  __cil_tmp21=((signed char *)NULL) (0000000000000000000000000000000000000000000000000000000000000000)

State 47 file twostage_3_bad.c line 75 function main thread 0
----------------------------------------------------
  __cil_tmp22=((signed char *)NULL) (0000000000000000000000000000000000000000000000000000000000000000)

State 48 file twostage_3_bad.c line 76 function main thread 0
----------------------------------------------------
  __cil_tmp23=0 (0000000000000000000000000000000000000000000000000000000000000000)

State 49 file twostage_3_bad.c line 77 function main thread 0
----------------------------------------------------
  __cil_tmp24=0 (0000000000000000000000000000000000000000000000000000000000000000)

State 50 file twostage_3_bad.c line 78 function main thread 0
----------------------------------------------------
  __cil_tmp25=NULL (0000000000000000000000000000000000000000000000000000000000000000)

State 51 file twostage_3_bad.c line 79 function main thread 0
----------------------------------------------------
  __cil_tmp26=((union __anonunion_pthread_mutexattr_t_16 *)NULL) (0000000000000000000000000000000000000000000000000000000000000000)

State 52 file twostage_3_bad.c line 80 function main thread 0
----------------------------------------------------
  __cil_tmp27=((struct _IO_FILE *)NULL) (0000000000000000000000000000000000000000000000000000000000000000)

State 53 file twostage_3_bad.c line 81 function main thread 0
----------------------------------------------------
  __cil_tmp28=((signed char *)NULL) (0000000000000000000000000000000000000000000000000000000000000000)

State 54 file twostage_3_bad.c line 82 function main thread 0
----------------------------------------------------
  __cil_tmp29=NULL (0000000000000000000000000000000000000000000000000000000000000000)

State 55 file twostage_3_bad.c line 83 function main thread 0
----------------------------------------------------
  __cil_tmp30=((union __anonunion_pthread_mutexattr_t_16 *)NULL) (0000000000000000000000000000000000000000000000000000000000000000)

State 56 file twostage_3_bad.c line 84 function main thread 0
----------------------------------------------------
  __cil_tmp31=((struct _IO_FILE *)NULL) (0000000000000000000000000000000000000000000000000000000000000000)

State 57 file twostage_3_bad.c line 85 function main thread 0
----------------------------------------------------
  __cil_tmp32=((signed char *)NULL) (0000000000000000000000000000000000000000000000000000000000000000)

State 58 file twostage_3_bad.c line 86 function main thread 0
----------------------------------------------------
  __cil_tmp33=((int *)NULL) (0000000000000000000000000000000000000000000000000000000000000000)

State 59 file twostage_3_bad.c line 87 function main thread 0
----------------------------------------------------
  __cil_tmp34=0 (00000000000000000000000000000000)

State 60 file twostage_3_bad.c line 88 function main thread 0
----------------------------------------------------
  __cil_tmp35=0 (00000000000000000000000000000000)

State 61 file twostage_3_bad.c line 89 function main thread 0
----------------------------------------------------
  __cil_tmp36=((int *)NULL) (0000000000000000000000000000000000000000000000000000000000000000)

State 62 file twostage_3_bad.c line 90 function main thread 0
----------------------------------------------------
  __cil_tmp37=0 (00000000000000000000000000000000)

State 63 file twostage_3_bad.c line 91 function main thread 0
----------------------------------------------------
  __cil_tmp38=0 (00000000000000000000000000000000)

State 64 file twostage_3_bad.c line 92 function main thread 0
----------------------------------------------------
  __cil_tmp39=((int *)NULL) (0000000000000000000000000000000000000000000000000000000000000000)

State 65 file twostage_3_bad.c line 93 function main thread 0
----------------------------------------------------
  __cil_tmp40=0 (00000000000000000000000000000000)

State 66 file twostage_3_bad.c line 94 function main thread 0
----------------------------------------------------
  __cil_tmp41=((unsigned long int *)NULL) (0000000000000000000000000000000000000000000000000000000000000000)

State 67 file twostage_3_bad.c line 95 function main thread 0
----------------------------------------------------
  __cil_tmp42=((unsigned long int *)NULL) (0000000000000000000000000000000000000000000000000000000000000000)

State 68 file twostage_3_bad.c line 96 function main thread 0
----------------------------------------------------
  __cil_tmp43=NULL (0000000000000000000000000000000000000000000000000000000000000000)

State 69 file twostage_3_bad.c line 97 function main thread 0
----------------------------------------------------
  __cil_tmp44=((union __anonunion_pthread_attr_t_14 *)NULL) (0000000000000000000000000000000000000000000000000000000000000000)

State 70 file twostage_3_bad.c line 98 function main thread 0
----------------------------------------------------
  __cil_tmp45=NULL (0000000000000000000000000000000000000000000000000000000000000000)

State 71 file twostage_3_bad.c line 99 function main thread 0
----------------------------------------------------
  __cil_tmp46=NULL (0000000000000000000000000000000000000000000000000000000000000000)

State 72 file twostage_3_bad.c line 100 function main thread 0
----------------------------------------------------
  __cil_tmp47=((struct _IO_FILE *)NULL) (0000000000000000000000000000000000000000000000000000000000000000)

State 73 file twostage_3_bad.c line 101 function main thread 0
----------------------------------------------------
  __cil_tmp48=((signed char *)NULL) (0000000000000000000000000000000000000000000000000000000000000000)

State 74 file twostage_3_bad.c line 102 function main thread 0
----------------------------------------------------
  __cil_tmp49=((int *)NULL) (0000000000000000000000000000000000000000000000000000000000000000)

State 75 file twostage_3_bad.c line 103 function main thread 0
----------------------------------------------------
  __cil_tmp50=0 (00000000000000000000000000000000)

State 76 file twostage_3_bad.c line 104 function main thread 0
----------------------------------------------------
  __cil_tmp51=((unsigned long int *)NULL) (0000000000000000000000000000000000000000000000000000000000000000)

State 77 file twostage_3_bad.c line 105 function main thread 0
----------------------------------------------------
  __cil_tmp52=((unsigned long int *)NULL) (0000000000000000000000000000000000000000000000000000000000000000)

State 78 file twostage_3_bad.c line 106 function main thread 0
----------------------------------------------------
  __cil_tmp53=NULL (0000000000000000000000000000000000000000000000000000000000000000)

State 79 file twostage_3_bad.c line 107 function main thread 0
----------------------------------------------------
  __cil_tmp54=((union __anonunion_pthread_attr_t_14 *)NULL) (0000000000000000000000000000000000000000000000000000000000000000)

State 80 file twostage_3_bad.c line 108 function main thread 0
----------------------------------------------------
  __cil_tmp55=NULL (0000000000000000000000000000000000000000000000000000000000000000)

State 81 file twostage_3_bad.c line 109 function main thread 0
----------------------------------------------------
  __cil_tmp56=NULL (0000000000000000000000000000000000000000000000000000000000000000)

State 82 file twostage_3_bad.c line 110 function main thread 0
----------------------------------------------------
  __cil_tmp57=((struct _IO_FILE *)NULL) (0000000000000000000000000000000000000000000000000000000000000000)

State 83 file twostage_3_bad.c line 111 function main thread 0
----------------------------------------------------
  __cil_tmp58=((signed char *)NULL) (0000000000000000000000000000000000000000000000000000000000000000)

State 84 file twostage_3_bad.c line 112 function main thread 0
----------------------------------------------------
  __cil_tmp59=((int *)NULL) (0000000000000000000000000000000000000000000000000000000000000000)

State 85 file twostage_3_bad.c line 113 function main thread 0
----------------------------------------------------
  __cil_tmp60=0 (00000000000000000000000000000000)

State 86 file twostage_3_bad.c line 114 function main thread 0
----------------------------------------------------
  __cil_tmp61=((unsigned long int *)NULL) (0000000000000000000000000000000000000000000000000000000000000000)

State 87 file twostage_3_bad.c line 115 function main thread 0
----------------------------------------------------
  __cil_tmp62=0 (0000000000000000000000000000000000000000000000000000000000000000)

State 88 file twostage_3_bad.c line 116 function main thread 0
----------------------------------------------------
  __cil_tmp63=NULL (0000000000000000000000000000000000000000000000000000000000000000)

State 89 file twostage_3_bad.c line 117 function main thread 0
----------------------------------------------------
  __cil_tmp64=((void **)NULL) (0000000000000000000000000000000000000000000000000000000000000000)

State 90 file twostage_3_bad.c line 118 function main thread 0
----------------------------------------------------
  __cil_tmp65=((struct _IO_FILE *)NULL) (0000000000000000000000000000000000000000000000000000000000000000)

State 91 file twostage_3_bad.c line 119 function main thread 0
----------------------------------------------------
  __cil_tmp66=((signed char *)NULL) (0000000000000000000000000000000000000000000000000000000000000000)

State 92 file twostage_3_bad.c line 120 function main thread 0
----------------------------------------------------
  __cil_tmp67=((int *)NULL) (0000000000000000000000000000000000000000000000000000000000000000)

State 93 file twostage_3_bad.c line 121 function main thread 0
----------------------------------------------------
  __cil_tmp68=0 (00000000000000000000000000000000)

State 94 file twostage_3_bad.c line 122 function main thread 0
----------------------------------------------------
  __cil_tmp69=((unsigned long int *)NULL) (0000000000000000000000000000000000000000000000000000000000000000)

State 95 file twostage_3_bad.c line 123 function main thread 0
----------------------------------------------------
  __cil_tmp70=0 (0000000000000000000000000000000000000000000000000000000000000000)

State 96 file twostage_3_bad.c line 124 function main thread 0
----------------------------------------------------
  __cil_tmp71=NULL (0000000000000000000000000000000000000000000000000000000000000000)

State 97 file twostage_3_bad.c line 125 function main thread 0
----------------------------------------------------
  __cil_tmp72=((void **)NULL) (0000000000000000000000000000000000000000000000000000000000000000)

State 98 file twostage_3_bad.c line 126 function main thread 0
----------------------------------------------------
  __cil_tmp73=((struct _IO_FILE *)NULL) (0000000000000000000000000000000000000000000000000000000000000000)

State 99 file twostage_3_bad.c line 127 function main thread 0
----------------------------------------------------
  __cil_tmp74=((signed char *)NULL) (0000000000000000000000000000000000000000000000000000000000000000)

State 102 file twostage_3_bad.c line 63 function main thread 0
----------------------------------------------------
  __cil_tmp15=argv' + 1 (0000001000000000000000000000000000000000000000000000000000001000)

State 103 file twostage_3_bad.c line 63 function main thread 0
----------------------------------------------------
  __cil_tmp16=((signed char *)NULL) + 1 (0000000000000000000000000000000000000000000000000000000000000001)

State 104 file twostage_3_bad.c line 63 function main thread 0
----------------------------------------------------
  __cil_tmp17=((signed char *)NULL) + 1 (0000000000000000000000000000000000000000000000000000000000000001)

State 105 file twostage_3_bad.c line 63 function main thread 0
----------------------------------------------------
  __cil_tmp18="%d" (0000010100000000000000000000000000000000000000000000000000000000)

State 107 file twostage_3_bad.c line 63 function main thread 0
----------------------------------------------------
  s=((signed char *)NULL) (0000000000000000000000000000000000000000000000000000000000000000)

State 108 file twostage_3_bad.c line 63 function main thread 0
----------------------------------------------------
  s=((signed char *)NULL) + 1 (0000000000000000000000000000000000000000000000000000000000000001)

State 109 file twostage_3_bad.c line 63 function main thread 0
----------------------------------------------------
  format=((signed char *)NULL) (0000000000000000000000000000000000000000000000000000000000000000)

State 110 file twostage_3_bad.c line 63 function main thread 0
----------------------------------------------------
  format="%d" (0000010100000000000000000000000000000000000000000000000000000000)

State 111 file <builtin-library>-sscanf line 15 function sscanf thread 0
----------------------------------------------------
  list=((void **)NULL) (0000000000000000000000000000000000000000000000000000000000000000)

State 112 file <builtin-library>-sscanf line 16 function sscanf thread 0
----------------------------------------------------
  list=&format!0@1 (0000011000000000000000000000000000000000000000000000000000000000)

State 113 file <builtin-library>-sscanf line 17 function sscanf thread 0
----------------------------------------------------
  result=0 (00000000000000000000000000000000)

State 125 file <builtin-library>-sscanf line 18 function sscanf thread 0
----------------------------------------------------
  list=((void **)NULL) (0000000000000000000000000000000000000000000000000000000000000000)

State 128 file twostage_3_bad.c line 64 function main thread 0
----------------------------------------------------
  __cil_tmp19=argv' + 2 (0000001000000000000000000000000000000000000000000000000000010000)

State 129 file twostage_3_bad.c line 64 function main thread 0
----------------------------------------------------
  __cil_tmp20=((signed char *)NULL) + 1 (0000000000000000000000000000000000000000000000000000000000000001)

State 130 file twostage_3_bad.c line 64 function main thread 0
----------------------------------------------------
  __cil_tmp21=((signed char *)NULL) + 1 (0000000000000000000000000000000000000000000000000000000000000001)

State 131 file twostage_3_bad.c line 64 function main thread 0
----------------------------------------------------
  __cil_tmp22="%d" (0000010100000000000000000000000000000000000000000000000000000000)

State 133 file twostage_3_bad.c line 64 function main thread 0
----------------------------------------------------
  s=((signed char *)NULL) (0000000000000000000000000000000000000000000000000000000000000000)

State 134 file twostage_3_bad.c line 64 function main thread 0
----------------------------------------------------
  s=((signed char *)NULL) + 1 (0000000000000000000000000000000000000000000000000000000000000001)

State 135 file twostage_3_bad.c line 64 function main thread 0
----------------------------------------------------
  format=((signed char *)NULL) (0000000000000000000000000000000000000000000000000000000000000000)

State 136 file twostage_3_bad.c line 64 function main thread 0
----------------------------------------------------
  format="%d" (0000010100000000000000000000000000000000000000000000000000000000)

State 137 file <builtin-library>-sscanf line 15 function sscanf thread 0
----------------------------------------------------
  list=((void **)NULL) (0000000000000000000000000000000000000000000000000000000000000000)

State 138 file <builtin-library>-sscanf line 16 function sscanf thread 0
----------------------------------------------------
  list=&format!0@1 (0000011000000000000000000000000000000000000000000000000000000000)

State 139 file <builtin-library>-sscanf line 17 function sscanf thread 0
----------------------------------------------------
  result=0 (00000000000000000000000000000000)

State 151 file <builtin-library>-sscanf line 18 function sscanf thread 0
----------------------------------------------------
  list=((void **)NULL) (0000000000000000000000000000000000000000000000000000000000000000)

State 154 file twostage_3_bad.c line 68 function main thread 0
----------------------------------------------------
  __cil_tmp23=40 (0000000000000000000000000000000000000000000000000000000000101000)

State 171 file twostage_3_bad.c line 68 function main thread 0
----------------------------------------------------
  data1Lock=dynamic_object1 (0000011100000000000000000000000000000000000000000000000000000000)

State 172 file twostage_3_bad.c line 69 function main thread 0
----------------------------------------------------
  __cil_tmp24=40 (0000000000000000000000000000000000000000000000000000000000101000)

State 189 file twostage_3_bad.c line 69 function main thread 0
----------------------------------------------------
  data2Lock=dynamic_object2 (0000100000000000000000000000000000000000000000000000000000000000)

State 190 file twostage_3_bad.c line 70 function main thread 0
----------------------------------------------------
  __cil_tmp25=NULL (0000000000000000000000000000000000000000000000000000000000000000)

State 191 file twostage_3_bad.c line 70 function main thread 0
----------------------------------------------------
  __cil_tmp26=((union __anonunion_pthread_mutexattr_t_16 *)NULL) (0000000000000000000000000000000000000000000000000000000000000000)

State 202 file twostage_3_bad.c line 74 function main thread 0
----------------------------------------------------
  __cil_tmp29=NULL (0000000000000000000000000000000000000000000000000000000000000000)

State 203 file twostage_3_bad.c line 74 function main thread 0
----------------------------------------------------
  __cil_tmp30=((union __anonunion_pthread_mutexattr_t_16 *)NULL) (0000000000000000000000000000000000000000000000000000000000000000)

State 214 file twostage_3_bad.c line 79 function main thread 0
----------------------------------------------------
  __cil_tmp33=&iTThreads (0000100100000000000000000000000000000000000000000000000000000000)

State 215 file twostage_3_bad.c line 79 function main thread 0
----------------------------------------------------
  __cil_tmp34=2 (00000000000000000000000000000010)

State 216 file twostage_3_bad.c line 79 function main thread 0
----------------------------------------------------
  __lengthoftPool=2 (00000000000000000000000000000010)

State 217 file twostage_3_bad.c line 79 function main thread 0
----------------------------------------------------
  __cil_tmp35=8 (00000000000000000000000000001000)

State 232 file twostage_3_bad.c line 79 function main thread 0
----------------------------------------------------
  tPool=dynamic_object3 (0000101000000000000000000000000000000000000000000000000000000000)

State 233 file twostage_3_bad.c line 80 function main thread 0
----------------------------------------------------
  __cil_tmp36=&iRThreads (0000101100000000000000000000000000000000000000000000000000000000)

State 234 file twostage_3_bad.c line 80 function main thread 0
----------------------------------------------------
  __cil_tmp37=1 (00000000000000000000000000000001)

State 235 file twostage_3_bad.c line 80 function main thread 0
----------------------------------------------------
  __lengthofrPool=1 (00000000000000000000000000000001)

State 236 file twostage_3_bad.c line 80 function main thread 0
----------------------------------------------------
  __cil_tmp38=4 (00000000000000000000000000000100)

State 251 file twostage_3_bad.c line 80 function main thread 0
----------------------------------------------------
  rPool=dynamic_object4 (0000110000000000000000000000000000000000000000000000000000000000)

State 252 file twostage_3_bad.c line 82 function main thread 0
----------------------------------------------------
  i=0 (00000000000000000000000000000000)

State 253 file twostage_3_bad.c line 82 function main thread 0
----------------------------------------------------
  __cil_tmp39=&iTThreads (0000100100000000000000000000000000000000000000000000000000000000)

State 254 file twostage_3_bad.c line 82 function main thread 0
----------------------------------------------------
  __cil_tmp40=2 (00000000000000000000000000000010)

State 256 file twostage_3_bad.c line 83 function main thread 0
----------------------------------------------------
  __cil_tmp41=dynamic_object3 (0000101000000000000000000000000000000000000000000000000000000000)

State 257 file twostage_3_bad.c line 83 function main thread 0
----------------------------------------------------
  __cil_tmp42=dynamic_object3 (0000101000000000000000000000000000000000000000000000000000000000)

State 258 file twostage_3_bad.c line 83 function main thread 0
----------------------------------------------------
  __cil_tmp43=NULL (0000000000000000000000000000000000000000000000000000000000000000)

State 259 file twostage_3_bad.c line 83 function main thread 0
----------------------------------------------------
  __cil_tmp44=((union __anonunion_pthread_attr_t_14 *)NULL) (0000000000000000000000000000000000000000000000000000000000000000)

State 260 file twostage_3_bad.c line 83 function main thread 0
----------------------------------------------------
  __cil_tmp45=NULL (0000000000000000000000000000000000000000000000000000000000000000)

State 261 file twostage_3_bad.c line 83 function main thread 0
----------------------------------------------------
  __cil_tmp46=NULL (0000000000000000000000000000000000000000000000000000000000000000)

State 302 file twostage_3_bad.c line 83 function main thread 0
----------------------------------------------------
  err=0 (00000000000000000000000000000000)

State 304 file twostage_3_bad.c line 82 function main thread 0
----------------------------------------------------
  i=1 (00000000000000000000000000000001)

State 306 file twostage_3_bad.c line 82 function main thread 0
----------------------------------------------------
  __cil_tmp39=&iTThreads (0000100100000000000000000000000000000000000000000000000000000000)

State 307 file twostage_3_bad.c line 82 function main thread 0
----------------------------------------------------
  __cil_tmp40=2 (00000000000000000000000000000010)

State 310 file twostage_3_bad.c line 83 function main thread 0
----------------------------------------------------
  __cil_tmp41=dynamic_object3 + 8 (0000101000000000000000000000000000000000000000000000000000001000)

State 311 file twostage_3_bad.c line 83 function main thread 0
----------------------------------------------------
  __cil_tmp42=dynamic_object3 + 8 (0000101000000000000000000000000000000000000000000000000000001000)

State 312 file twostage_3_bad.c line 83 function main thread 0
----------------------------------------------------
  __cil_tmp43=NULL (0000000000000000000000000000000000000000000000000000000000000000)

State 313 file twostage_3_bad.c line 83 function main thread 0
----------------------------------------------------
  __cil_tmp44=((union __anonunion_pthread_attr_t_14 *)NULL) (0000000000000000000000000000000000000000000000000000000000000000)

State 314 file twostage_3_bad.c line 83 function main thread 0
----------------------------------------------------
  __cil_tmp45=NULL (0000000000000000000000000000000000000000000000000000000000000000)

State 315 file twostage_3_bad.c line 83 function main thread 0
----------------------------------------------------
  __cil_tmp46=NULL (0000000000000000000000000000000000000000000000000000000000000000)

State 331 file twostage_3_bad.c line 20 function funcA thread 1
----------------------------------------------------
  data1Value=1 (00000000000000000000000000000001)

State 365 file twostage_3_bad.c line 83 function main thread 0
----------------------------------------------------
  err=0 (00000000000000000000000000000000)

State 367 file twostage_3_bad.c line 82 function main thread 0
----------------------------------------------------
  i=2 (00000000000000000000000000000010)

State 369 file twostage_3_bad.c line 82 function main thread 0
----------------------------------------------------
  __cil_tmp39=&iTThreads (0000100100000000000000000000000000000000000000000000000000000000)

State 370 file twostage_3_bad.c line 82 function main thread 0
----------------------------------------------------
  __cil_tmp40=2 (00000000000000000000000000000010)

State 373 file twostage_3_bad.c line 89 function main thread 0
----------------------------------------------------
  i=0 (00000000000000000000000000000000)

State 374 file twostage_3_bad.c line 89 function main thread 0
----------------------------------------------------
  __cil_tmp49=&iRThreads (0000101100000000000000000000000000000000000000000000000000000000)

State 375 file twostage_3_bad.c line 89 function main thread 0
----------------------------------------------------
  __cil_tmp50=1 (00000000000000000000000000000001)

State 378 file twostage_3_bad.c line 90 function main thread 0
----------------------------------------------------
  __cil_tmp51=dynamic_object4 (0000110000000000000000000000000000000000000000000000000000000000)

State 379 file twostage_3_bad.c line 90 function main thread 0
----------------------------------------------------
  __cil_tmp52=dynamic_object4 (0000110000000000000000000000000000000000000000000000000000000000)

State 380 file twostage_3_bad.c line 90 function main thread 0
----------------------------------------------------
  __cil_tmp53=NULL (0000000000000000000000000000000000000000000000000000000000000000)

State 381 file twostage_3_bad.c line 90 function main thread 0
----------------------------------------------------
  __cil_tmp54=((union __anonunion_pthread_attr_t_14 *)NULL) (0000000000000000000000000000000000000000000000000000000000000000)

State 382 file twostage_3_bad.c line 90 function main thread 0
----------------------------------------------------
  __cil_tmp55=NULL (0000000000000000000000000000000000000000000000000000000000000000)

State 383 file twostage_3_bad.c line 90 function main thread 0
----------------------------------------------------
  __cil_tmp56=NULL (0000000000000000000000000000000000000000000000000000000000000000)

State 424 file twostage_3_bad.c line 90 function main thread 0
----------------------------------------------------
  err=0 (00000000000000000000000000000000)

State 426 file twostage_3_bad.c line 89 function main thread 0
----------------------------------------------------
  i=1 (00000000000000000000000000000001)

State 428 file twostage_3_bad.c line 89 function main thread 0
----------------------------------------------------
  __cil_tmp49=&iRThreads (0000101100000000000000000000000000000000000000000000000000000000)

State 429 file twostage_3_bad.c line 89 function main thread 0
----------------------------------------------------
  __cil_tmp50=1 (00000000000000000000000000000001)

State 432 file twostage_3_bad.c line 96 function main thread 0
----------------------------------------------------
  i=0 (00000000000000000000000000000000)

State 433 file twostage_3_bad.c line 96 function main thread 0
----------------------------------------------------
  __cil_tmp59=&iTThreads (0000100100000000000000000000000000000000000000000000000000000000)

State 441 file <builtin-library>-pthread_create line 20 function __actual_thread_spawn thread 6
----------------------------------------------------
  param=NULL (0000000000000000000000000000000000000000000000000000000000000000)

State 442 file twostage_3_bad.c line 31 function funcB thread 6
----------------------------------------------------
  t1=0 (00000000000000000000000000000000)

State 443 file twostage_3_bad.c line 32 function funcB thread 6
----------------------------------------------------
  t2=0 (00000000000000000000000000000000)

State 444 file twostage_3_bad.c line 33 function funcB thread 6
----------------------------------------------------
  __cil_tmp4=0 (00000000000000000000000000000000)

State 445 file twostage_3_bad.c line 34 function funcB thread 6
----------------------------------------------------
  __cil_tmp5=((struct _IO_FILE *)NULL) (0000000000000000000000000000000000000000000000000000000000000000)

State 446 file twostage_3_bad.c line 35 function funcB thread 6
----------------------------------------------------
  __cil_tmp6=((signed char *)NULL) (0000000000000000000000000000000000000000000000000000000000000000)

State 447 file twostage_3_bad.c line 31 function funcB thread 6
----------------------------------------------------
  t1=-1 (11111111111111111111111111111111)

State 448 file twostage_3_bad.c line 32 function funcB thread 6
----------------------------------------------------
  t2=-1 (11111111111111111111111111111111)

State 464 file twostage_3_bad.c line 39 function funcB thread 6
----------------------------------------------------
  t1=1 (00000000000000000000000000000001)

State 480 file twostage_3_bad.c line 43 function funcB thread 6
----------------------------------------------------
  t2=0 (00000000000000000000000000000000)

State 488 file twostage_3_bad.c line 46 function funcB thread 6
----------------------------------------------------
  __cil_tmp4=2 (00000000000000000000000000000010)

State 494 file twostage_3_bad.c line 24 function funcA thread 1
----------------------------------------------------
  data2Value=2 (00000000000000000000000000000010)

State 507 file twostage_3_bad.c line 96 function main thread 0
----------------------------------------------------
  __cil_tmp60=2 (00000000000000000000000000000010)

State 510 file twostage_3_bad.c line 97 function main thread 0
----------------------------------------------------
  __cil_tmp61=dynamic_object3 (0000101000000000000000000000000000000000000000000000000000000000)

State 511 file twostage_3_bad.c line 97 function main thread 0
----------------------------------------------------
  __cil_tmp62=1 (0000000000000000000000000000000000000000000000000000000000000001)

State 512 file twostage_3_bad.c line 97 function main thread 0
----------------------------------------------------
  __cil_tmp63=NULL (0000000000000000000000000000000000000000000000000000000000000000)

State 513 file twostage_3_bad.c line 97 function main thread 0
----------------------------------------------------
  __cil_tmp64=((void **)NULL) (0000000000000000000000000000000000000000000000000000000000000000)

State 526 file <builtin-library>-pthread_create line 20 function __actual_thread_spawn thread 1
----------------------------------------------------
  param=NULL (0000000000000000000000000000000000000000000000000000000000000000)

State 529 file twostage_3_bad.c line 47 function funcB thread 6
----------------------------------------------------
  __cil_tmp5=((struct _IO_FILE *)NULL) (0000000000000000000000000000000000000000000000000000000000000000)

State 530 file twostage_3_bad.c line 47 function funcB thread 6
----------------------------------------------------
  __cil_tmp6="Bug found!\n" (0001000000000000000000000000000000000000000000000000000000000000)

Violated property:
  file twostage_3_bad.c line 48 function funcB
  error label ERROR
  FALSE

VERIFICATION FAILED
Partial order constraints used: 8861/10228
  fr: 6/1373
  po: 481/481
  rf: 216/216
  rf-order: 4110/4110
  rf-some: 69/69
  rfi: 193/193
  thread-spawn: 10/10
  ws-ext: 3776/3776
Time: 747.352506
