CBMC version 5.0 64-bit x86_64 linux
Parsing /nas/schram/gitcbmc-lazy-po/experiments/pthread/twostage_3_false-unreach-call.c
Converting
Type-checking twostage_3_false-unreach-call
Generating GOTO Program
Adding CPROVER library
Function Pointer Removal
Partial Inlining
Generic Property Instrumentation
Starting Bounded Model Checking
Unwinding loop main.0 iteration 1 (5 max) file /nas/schram/gitcbmc-lazy-po/experiments/pthread/twostage_3_false-unreach-call.c line 84 function main thread 0
Unwinding loop main.0 iteration 2 (5 max) file /nas/schram/gitcbmc-lazy-po/experiments/pthread/twostage_3_false-unreach-call.c line 84 function main thread 0
Unwinding loop main.0 iteration 3 (5 max) file /nas/schram/gitcbmc-lazy-po/experiments/pthread/twostage_3_false-unreach-call.c line 84 function main thread 0
Unwinding loop main.0 iteration 4 (5 max) file /nas/schram/gitcbmc-lazy-po/experiments/pthread/twostage_3_false-unreach-call.c line 84 function main thread 0
Not unwinding loop main.0 iteration 5 (5 max) file /nas/schram/gitcbmc-lazy-po/experiments/pthread/twostage_3_false-unreach-call.c line 84 function main thread 0
Unwinding loop main.1 iteration 1 (5 max) file /nas/schram/gitcbmc-lazy-po/experiments/pthread/twostage_3_false-unreach-call.c line 91 function main thread 0
Unwinding loop main.1 iteration 2 (5 max) file /nas/schram/gitcbmc-lazy-po/experiments/pthread/twostage_3_false-unreach-call.c line 91 function main thread 0
Unwinding loop main.1 iteration 3 (5 max) file /nas/schram/gitcbmc-lazy-po/experiments/pthread/twostage_3_false-unreach-call.c line 91 function main thread 0
Unwinding loop main.1 iteration 4 (5 max) file /nas/schram/gitcbmc-lazy-po/experiments/pthread/twostage_3_false-unreach-call.c line 91 function main thread 0
Not unwinding loop main.1 iteration 5 (5 max) file /nas/schram/gitcbmc-lazy-po/experiments/pthread/twostage_3_false-unreach-call.c line 91 function main thread 0
Unwinding loop main.2 iteration 1 (5 max) file /nas/schram/gitcbmc-lazy-po/experiments/pthread/twostage_3_false-unreach-call.c line 98 function main thread 0
Unwinding loop main.2 iteration 2 (5 max) file /nas/schram/gitcbmc-lazy-po/experiments/pthread/twostage_3_false-unreach-call.c line 98 function main thread 0
Unwinding loop main.2 iteration 3 (5 max) file /nas/schram/gitcbmc-lazy-po/experiments/pthread/twostage_3_false-unreach-call.c line 98 function main thread 0
Unwinding loop main.2 iteration 4 (5 max) file /nas/schram/gitcbmc-lazy-po/experiments/pthread/twostage_3_false-unreach-call.c line 98 function main thread 0
Not unwinding loop main.2 iteration 5 (5 max) file /nas/schram/gitcbmc-lazy-po/experiments/pthread/twostage_3_false-unreach-call.c line 98 function main thread 0
Unwinding loop main.3 iteration 1 (5 max) file /nas/schram/gitcbmc-lazy-po/experiments/pthread/twostage_3_false-unreach-call.c line 105 function main thread 0
Unwinding loop main.3 iteration 2 (5 max) file /nas/schram/gitcbmc-lazy-po/experiments/pthread/twostage_3_false-unreach-call.c line 105 function main thread 0
Unwinding loop main.3 iteration 3 (5 max) file /nas/schram/gitcbmc-lazy-po/experiments/pthread/twostage_3_false-unreach-call.c line 105 function main thread 0
Unwinding loop main.3 iteration 4 (5 max) file /nas/schram/gitcbmc-lazy-po/experiments/pthread/twostage_3_false-unreach-call.c line 105 function main thread 0
Not unwinding loop main.3 iteration 5 (5 max) file /nas/schram/gitcbmc-lazy-po/experiments/pthread/twostage_3_false-unreach-call.c line 105 function main thread 0
Adding SC constraints
size of program expression: 170989 steps
no slicing due to threads
Generated 103 VCC(s), 103 remaining after simplification
Passing problem to refinement loop with MiniSAT 2.2.0 with simplifier
converting SSA
Running refinement loop with MiniSAT 2.2.0 with simplifier
BV-Refinement: post-processing
BV-Refinement: iteration 1
1635713 variables, 7700321 clauses
SAT checker: negated claim is SATISFIABLE, i.e., does not hold
BV-Refinement: 12 partial order constraints become active
BV-Refinement: 151360 inactive partial order constraints
BV-Refinement: got SAT, and it is spurious, refining
BV-Refinement: iteration 2
1635973 variables, 7445586 clauses
SAT checker: negated claim is SATISFIABLE, i.e., does not hold
BV-Refinement: 2 partial order constraints become active
BV-Refinement: 151358 inactive partial order constraints
BV-Refinement: got SAT, and it is spurious, refining
BV-Refinement: iteration 3
1635995 variables, 7422923 clauses
SAT checker: negated claim is SATISFIABLE, i.e., does not hold
BV-Refinement: 4 partial order constraints become active
BV-Refinement: 151354 inactive partial order constraints
BV-Refinement: got SAT, and it is spurious, refining
BV-Refinement: iteration 4
1636059 variables, 7423230 clauses
SAT checker: negated claim is SATISFIABLE, i.e., does not hold
BV-Refinement: 4 partial order constraints become active
BV-Refinement: 151350 inactive partial order constraints
BV-Refinement: got SAT, and it is spurious, refining
BV-Refinement: iteration 5
1636145 variables, 7423623 clauses
SAT checker: negated claim is SATISFIABLE, i.e., does not hold
BV-Refinement: 2 partial order constraints become active
BV-Refinement: 151348 inactive partial order constraints
BV-Refinement: got SAT, and it is spurious, refining
BV-Refinement: iteration 6
1636188 variables, 7423797 clauses
SAT checker: negated claim is SATISFIABLE, i.e., does not hold
BV-Refinement: 6 partial order constraints become active
BV-Refinement: 151342 inactive partial order constraints
BV-Refinement: got SAT, and it is spurious, refining
BV-Refinement: iteration 7
1636293 variables, 7424305 clauses
SAT checker: negated claim is SATISFIABLE, i.e., does not hold
BV-Refinement: 2 partial order constraints become active
BV-Refinement: 151340 inactive partial order constraints
BV-Refinement: got SAT, and it is spurious, refining
BV-Refinement: iteration 8
1636314 variables, 7424366 clauses
Time: 900.063910
