CBMC version 5.0 64-bit x86_64 linux
Parsing queue_ok_true-unreach-call.i
Converting
Type-checking queue_ok_true-unreach-call
Generating GOTO Program
Adding CPROVER library
Function Pointer Removal
Partial Inlining
Generic Property Instrumentation
Starting Bounded Model Checking
Unwinding loop t1.0 iteration 1 (5 max) file queue_ok_true-unreach-call.i line 1002 function t1 thread 1
Unwinding loop t1.0 iteration 2 (5 max) file queue_ok_true-unreach-call.i line 1002 function t1 thread 1
Unwinding loop t1.0 iteration 3 (5 max) file queue_ok_true-unreach-call.i line 1002 function t1 thread 1
Unwinding loop t1.0 iteration 4 (5 max) file queue_ok_true-unreach-call.i line 1002 function t1 thread 1
Not unwinding loop t1.0 iteration 5 (5 max) file queue_ok_true-unreach-call.i line 1002 function t1 thread 1
Unwinding loop t2.0 iteration 1 (5 max) file queue_ok_true-unreach-call.i line 1020 function t2 thread 2
Unwinding loop t2.0 iteration 2 (5 max) file queue_ok_true-unreach-call.i line 1020 function t2 thread 2
Unwinding loop t2.0 iteration 3 (5 max) file queue_ok_true-unreach-call.i line 1020 function t2 thread 2
Unwinding loop t2.0 iteration 4 (5 max) file queue_ok_true-unreach-call.i line 1020 function t2 thread 2
Not unwinding loop t2.0 iteration 5 (5 max) file queue_ok_true-unreach-call.i line 1020 function t2 thread 2
Adding SC constraints
size of program expression: 95154 steps
no slicing due to threads
Generated 9 VCC(s), 9 remaining after simplification
Passing problem to propositional reduction
converting SSA
Running propositional reduction
Post-processing
Solving with MiniSAT 2.2.0 with simplifier
2108757 variables, 10673310 clauses
SAT checker: negated claim is UNSATISFIABLE, i.e., holds
Runtime decision procedure: 211.698s
Partial order constraints used: 109/93516
  fr: 3/87283
  po: 85/185
  rf: 13/2118
  rf-order: 0/2118
  rf-some: 5/118
  rfi: 1/772
  thread-spawn: 2/2
  ws-ext: 0/920
VERIFICATION SUCCESSFUL
