CBMC version 5.0 64-bit x86_64 linux
Parsing /nas/schram/gitcbmc-lazy-po/experiments/pthread/bigshot_p_false-unreach-call.c
Converting
Type-checking bigshot_p_false-unreach-call
Generating GOTO Program
Adding CPROVER library
Function Pointer Removal
Partial Inlining
Generic Property Instrumentation
Starting Bounded Model Checking
Unwinding loop thread2.0 iteration 1 (5 max) file /nas/schram/gitcbmc-lazy-po/experiments/pthread/bigshot_p_false-unreach-call.c line 18 function thread2 thread 2
Unwinding loop thread2.0 iteration 2 (5 max) file /nas/schram/gitcbmc-lazy-po/experiments/pthread/bigshot_p_false-unreach-call.c line 18 function thread2 thread 2
Unwinding loop thread2.0 iteration 3 (5 max) file /nas/schram/gitcbmc-lazy-po/experiments/pthread/bigshot_p_false-unreach-call.c line 18 function thread2 thread 2
Unwinding loop thread2.0 iteration 4 (5 max) file /nas/schram/gitcbmc-lazy-po/experiments/pthread/bigshot_p_false-unreach-call.c line 18 function thread2 thread 2
Not unwinding loop thread2.0 iteration 5 (5 max) file /nas/schram/gitcbmc-lazy-po/experiments/pthread/bigshot_p_false-unreach-call.c line 18 function thread2 thread 2
Adding TSO constraints
size of program expression: 1275 steps
no slicing due to threads
Generated 2 VCC(s), 2 remaining after simplification
Passing problem to propositional reduction
converting SSA
Running propositional reduction
Post-processing
Solving with MiniSAT 2.2.0 with simplifier
23599 variables, 96861 clauses
SAT checker: negated claim is SATISFIABLE, i.e., does not hold
Runtime decision procedure: 1.141s
Building error trace

Counterexample:

State 21 file /nas/schram/gitcbmc-lazy-po/experiments/pthread/bigshot_p_false-unreach-call.c line 24 function main thread 0
----------------------------------------------------
  t1=0 (0000000000000000000000000000000000000000000000000000000000000000)

State 22 file /nas/schram/gitcbmc-lazy-po/experiments/pthread/bigshot_p_false-unreach-call.c line 24 function main thread 0
----------------------------------------------------
  t2=0 (0000000000000000000000000000000000000000000000000000000000000000)

State 108 file /nas/schram/gitcbmc-lazy-po/experiments/pthread/bigshot_p_false-unreach-call.c line 13 function thread1 thread 1
----------------------------------------------------
  v=dynamic_object1 (0000001000000000000000000000000000000000000000000000000000000000)

State 119 file <builtin-library>-pthread_create line 20 function __actual_thread_spawn thread 2
----------------------------------------------------
  arg=NULL (0000000000000000000000000000000000000000000000000000000000000000)

State 139 file /nas/schram/gitcbmc-lazy-po/experiments/pthread/bigshot_p_false-unreach-call.c line 31 function main thread 0
----------------------------------------------------
  expression=0 (00000000000000000000000000000000)

Violated property:
  file /nas/schram/gitcbmc-lazy-po/experiments/pthread/bigshot_p_false-unreach-call.c line 7 function __VERIFIER_assert
  error label ERROR
  FALSE

VERIFICATION FAILED
Time: 2.019381
