CBMC version 5.0 64-bit x86_64 linux
Parsing /nas/schram/gitcbmc-lazy-po/experiments/pthread/sync01_true-unreach-call.c
Converting
Type-checking sync01_true-unreach-call
Generating GOTO Program
Adding CPROVER library
Function Pointer Removal
Partial Inlining
Generic Property Instrumentation
Starting Bounded Model Checking
Unwinding loop thread1.0 iteration 1 (5 max) file /nas/schram/gitcbmc-lazy-po/experiments/pthread/sync01_true-unreach-call.c line 15 function thread1 thread 1
Unwinding loop thread1.0 iteration 2 (5 max) file /nas/schram/gitcbmc-lazy-po/experiments/pthread/sync01_true-unreach-call.c line 15 function thread1 thread 1
Unwinding loop thread1.0 iteration 3 (5 max) file /nas/schram/gitcbmc-lazy-po/experiments/pthread/sync01_true-unreach-call.c line 15 function thread1 thread 1
Unwinding loop thread1.0 iteration 4 (5 max) file /nas/schram/gitcbmc-lazy-po/experiments/pthread/sync01_true-unreach-call.c line 15 function thread1 thread 1
Not unwinding loop thread1.0 iteration 5 (5 max) file /nas/schram/gitcbmc-lazy-po/experiments/pthread/sync01_true-unreach-call.c line 15 function thread1 thread 1
Unwinding loop thread2.0 iteration 1 (5 max) file /nas/schram/gitcbmc-lazy-po/experiments/pthread/sync01_true-unreach-call.c line 29 function thread2 thread 2
Unwinding loop thread2.0 iteration 2 (5 max) file /nas/schram/gitcbmc-lazy-po/experiments/pthread/sync01_true-unreach-call.c line 29 function thread2 thread 2
Unwinding loop thread2.0 iteration 3 (5 max) file /nas/schram/gitcbmc-lazy-po/experiments/pthread/sync01_true-unreach-call.c line 29 function thread2 thread 2
Unwinding loop thread2.0 iteration 4 (5 max) file /nas/schram/gitcbmc-lazy-po/experiments/pthread/sync01_true-unreach-call.c line 29 function thread2 thread 2
Not unwinding loop thread2.0 iteration 5 (5 max) file /nas/schram/gitcbmc-lazy-po/experiments/pthread/sync01_true-unreach-call.c line 29 function thread2 thread 2
Adding TSO constraints
size of program expression: 14606 steps
no slicing due to threads
Generated 26 VCC(s), 26 remaining after simplification
Passing problem to propositional reduction
converting SSA
Running propositional reduction
Post-processing
Solving with MiniSAT 2.2.0 with simplifier
271205 variables, 1237088 clauses
SAT checker: negated claim is UNSATISFIABLE, i.e., holds
Runtime decision procedure: 36.839s
VERIFICATION SUCCESSFUL
Time: 49.376956
