CBMC version 5.0 64-bit x86_64 linux
Parsing /nas/schram/gitcbmc-lazy-po/experiments/wmm-core/mix051.c
Converting
Type-checking mix051
Generating GOTO Program
Adding CPROVER library
Function Pointer Removal
Partial Inlining
Generic Property Instrumentation
Starting Bounded Model Checking
Adding PSO constraints
size of program expression: 453 steps
no slicing due to threads
Generated 1 VCC(s), 1 remaining after simplification
Passing problem to refinement loop with MiniSAT 2.2.0 with simplifier
converting SSA
Running refinement loop with MiniSAT 2.2.0 with simplifier
BV-Refinement: post-processing
BV-Refinement: iteration 1
1014 variables, 1468 clauses
SAT checker: negated claim is SATISFIABLE, i.e., does not hold
BV-Refinement: 6 partial order constraints become active
BV-Refinement: 290 inactive partial order constraints
BV-Refinement: got SAT, and it is spurious, refining
BV-Refinement: iteration 2
1071 variables, 1512 clauses
SAT checker: negated claim is SATISFIABLE, i.e., does not hold
BV-Refinement: 4 partial order constraints become active
BV-Refinement: 286 inactive partial order constraints
BV-Refinement: got SAT, and it is spurious, refining
BV-Refinement: iteration 3
1138 variables, 1662 clauses
SAT checker: negated claim is SATISFIABLE, i.e., does not hold
BV-Refinement: 3 partial order constraints become active
BV-Refinement: 283 inactive partial order constraints
BV-Refinement: got SAT, and it is spurious, refining
BV-Refinement: iteration 4
1186 variables, 1819 clauses
SAT checker: negated claim is SATISFIABLE, i.e., does not hold
BV-Refinement: 2 partial order constraints become active
BV-Refinement: 281 inactive partial order constraints
BV-Refinement: got SAT, and it is spurious, refining
BV-Refinement: iteration 5
1220 variables, 1930 clauses
SAT checker: negated claim is SATISFIABLE, i.e., does not hold
BV-Refinement: 1 partial order constraints become active
BV-Refinement: 280 inactive partial order constraints
BV-Refinement: got SAT, and it is spurious, refining
BV-Refinement: iteration 6
1253 variables, 2028 clauses
SAT checker: negated claim is SATISFIABLE, i.e., does not hold
BV-Refinement: 1 partial order constraints become active
BV-Refinement: 279 inactive partial order constraints
BV-Refinement: got SAT, and it is spurious, refining
BV-Refinement: iteration 7
1254 variables, 2062 clauses
SAT checker: negated claim is SATISFIABLE, i.e., does not hold
BV-Refinement: 1 partial order constraints become active
BV-Refinement: 278 inactive partial order constraints
BV-Refinement: got SAT, and it is spurious, refining
BV-Refinement: iteration 8
1287 variables, 2224 clauses
SAT checker: negated claim is SATISFIABLE, i.e., does not hold
BV-Refinement: 1 partial order constraints become active
BV-Refinement: 277 inactive partial order constraints
BV-Refinement: got SAT, and it is spurious, refining
BV-Refinement: iteration 9
1320 variables, 2386 clauses
SAT checker: negated claim is SATISFIABLE, i.e., does not hold
BV-Refinement: 1 partial order constraints become active
BV-Refinement: 276 inactive partial order constraints
BV-Refinement: got SAT, and it is spurious, refining
BV-Refinement: iteration 10
1353 variables, 2548 clauses
SAT checker: negated claim is SATISFIABLE, i.e., does not hold
BV-Refinement: 21 partial order constraints become active
BV-Refinement: 255 inactive partial order constraints
BV-Refinement: got SAT, and it is spurious, refining
BV-Refinement: iteration 11
1935 variables, 4796 clauses
SAT checker: negated claim is SATISFIABLE, i.e., does not hold
BV-Refinement: 23 partial order constraints become active
BV-Refinement: 232 inactive partial order constraints
BV-Refinement: got SAT, and it is spurious, refining
BV-Refinement: iteration 12
2485 variables, 7108 clauses
SAT checker: negated claim is SATISFIABLE, i.e., does not hold
BV-Refinement: 8 partial order constraints become active
BV-Refinement: 224 inactive partial order constraints
BV-Refinement: got SAT, and it is spurious, refining
BV-Refinement: iteration 13
2697 variables, 7759 clauses
SAT checker: negated claim is SATISFIABLE, i.e., does not hold
BV-Refinement: 7 partial order constraints become active
BV-Refinement: 217 inactive partial order constraints
BV-Refinement: got SAT, and it is spurious, refining
BV-Refinement: iteration 14
2876 variables, 8502 clauses
SAT checker: negated claim is SATISFIABLE, i.e., does not hold
BV-Refinement: 9 partial order constraints become active
BV-Refinement: 208 inactive partial order constraints
BV-Refinement: got SAT, and it is spurious, refining
BV-Refinement: iteration 15
3125 variables, 9643 clauses
SAT checker: negated claim is SATISFIABLE, i.e., does not hold
BV-Refinement: 10 partial order constraints become active
BV-Refinement: 198 inactive partial order constraints
BV-Refinement: got SAT, and it is spurious, refining
BV-Refinement: iteration 16
3246 variables, 10113 clauses
SAT checker: negated claim is SATISFIABLE, i.e., does not hold
BV-Refinement: 4 partial order constraints become active
BV-Refinement: 194 inactive partial order constraints
BV-Refinement: got SAT, and it is spurious, refining
BV-Refinement: iteration 17
3335 variables, 10439 clauses
SAT checker: negated claim is SATISFIABLE, i.e., does not hold
BV-Refinement: 3 partial order constraints become active
BV-Refinement: 191 inactive partial order constraints
BV-Refinement: got SAT, and it is spurious, refining
BV-Refinement: iteration 18
3390 variables, 10606 clauses
SAT checker: negated claim is SATISFIABLE, i.e., does not hold
BV-Refinement: 0 partial order constraints become active
BV-Refinement: 191 inactive partial order constraints
BV-Refinement: got SAT, and it simulates => SAT
Total iterations: 18
PROFILING: main_solver: 0.117
PROFILING: sat_check: 0.75
PROFILING: clustering: 0
Runtime decision procedure: 0.873s
Building error trace

Counterexample:

State 57 file /nas/schram/gitcbmc-lazy-po/experiments/wmm-core/mix051.c line 23 function P1 thread 2
----------------------------------------------------
  x=2 (00000000000000000000000000000010)

State 58 file /nas/schram/gitcbmc-lazy-po/experiments/wmm-core/mix051.c line 24 function P1 thread 2
----------------------------------------------------
  __unbuffered_p1_EAX=0 (00000000000000000000000000000000)

State 63 file /nas/schram/gitcbmc-lazy-po/experiments/wmm-core/mix051.c line 31 function P2 thread 3
----------------------------------------------------
  y=1 (00000000000000000000000000000001)

State 64 file /nas/schram/gitcbmc-lazy-po/experiments/wmm-core/mix051.c line 32 function P2 thread 3
----------------------------------------------------
  __unbuffered_p2_EAX=0 (00000000000000000000000000000000)

State 69 file /nas/schram/gitcbmc-lazy-po/experiments/wmm-core/mix051.c line 27 function P1 thread 2
----------------------------------------------------
  __unbuffered_cnt=1 (00000000000000000000000000000001)

State 75 file /nas/schram/gitcbmc-lazy-po/experiments/wmm-core/mix051.c line 49 function main thread 3
----------------------------------------------------
  arg=NULL (0000000000000000000000000000000000000000000000000000000000000000)

State 76 file /nas/schram/gitcbmc-lazy-po/experiments/wmm-core/mix051.c line 15 function P0 thread 1
----------------------------------------------------
  a=1 (00000000000000000000000000000001)

State 77 file /nas/schram/gitcbmc-lazy-po/experiments/wmm-core/mix051.c line 16 function P0 thread 1
----------------------------------------------------
  x=1 (00000000000000000000000000000001)

State 82 file /nas/schram/gitcbmc-lazy-po/experiments/wmm-core/mix051.c line 19 function P0 thread 1
----------------------------------------------------
  __unbuffered_cnt=2 (00000000000000000000000000000010)

State 88 file /nas/schram/gitcbmc-lazy-po/experiments/wmm-core/mix051.c line 48 function main thread 2
----------------------------------------------------
  arg=NULL (0000000000000000000000000000000000000000000000000000000000000000)

State 89 file /nas/schram/gitcbmc-lazy-po/experiments/wmm-core/mix051.c line 39 function P3 thread 4
----------------------------------------------------
  z=1 (00000000000000000000000000000001)

State 90 file /nas/schram/gitcbmc-lazy-po/experiments/wmm-core/mix051.c line 40 function P3 thread 4
----------------------------------------------------
  __unbuffered_p3_EAX=0 (00000000000000000000000000000000)

State 95 file /nas/schram/gitcbmc-lazy-po/experiments/wmm-core/mix051.c line 43 function P3 thread 4
----------------------------------------------------
  __unbuffered_cnt=3 (00000000000000000000000000000011)

State 99 file /nas/schram/gitcbmc-lazy-po/experiments/wmm-core/mix051.c line 35 function P2 thread 3
----------------------------------------------------
  __unbuffered_cnt=4 (00000000000000000000000000000100)

State 105 file /nas/schram/gitcbmc-lazy-po/experiments/wmm-core/mix051.c line 50 function main thread 4
----------------------------------------------------
  arg=NULL (0000000000000000000000000000000000000000000000000000000000000000)

Violated property:
  file /nas/schram/gitcbmc-lazy-po/experiments/wmm-core/mix051.c line 54 function main
  Program proven to be relaxed for X86, model checker says YES.
  !(x == 2 && __unbuffered_p1_EAX == 0 && __unbuffered_p2_EAX == 0 && __unbuffered_p3_EAX == 0)

VERIFICATION FAILED
Partial order constraints used: 125/316
  fr: 25/102
  po: 30/89
  rf: 21/31
  rf-order: 13/31
  rf-some: 12/12
  rfi: 2/5
  thread-spawn: 8/8
  ws-ext: 14/38
Time: 1.267669
