CBMC version 5.0 64-bit x86_64 linux
Parsing /nas/schram/gitcbmc-lazy-po/experiments/wmm-core/mix027.c
Converting
Type-checking mix027
Generating GOTO Program
Adding CPROVER library
Function Pointer Removal
Partial Inlining
Generic Property Instrumentation
Starting Bounded Model Checking
Adding PSO constraints
size of program expression: 488 steps
no slicing due to threads
Generated 1 VCC(s), 1 remaining after simplification
Passing problem to refinement loop with MiniSAT 2.2.0 with simplifier
converting SSA
Running refinement loop with MiniSAT 2.2.0 with simplifier
BV-Refinement: post-processing
BV-Refinement: iteration 1
1018 variables, 1469 clauses
SAT checker: negated claim is SATISFIABLE, i.e., does not hold
BV-Refinement: 13 partial order constraints become active
BV-Refinement: 315 inactive partial order constraints
BV-Refinement: got SAT, and it is spurious, refining
BV-Refinement: iteration 2
1215 variables, 2069 clauses
SAT checker: negated claim is SATISFIABLE, i.e., does not hold
BV-Refinement: 12 partial order constraints become active
BV-Refinement: 303 inactive partial order constraints
BV-Refinement: got SAT, and it is spurious, refining
BV-Refinement: iteration 3
1421 variables, 2791 clauses
SAT checker: negated claim is SATISFIABLE, i.e., does not hold
BV-Refinement: 4 partial order constraints become active
BV-Refinement: 299 inactive partial order constraints
BV-Refinement: got SAT, and it is spurious, refining
BV-Refinement: iteration 4
1514 variables, 3049 clauses
SAT checker: negated claim is SATISFIABLE, i.e., does not hold
BV-Refinement: 6 partial order constraints become active
BV-Refinement: 293 inactive partial order constraints
BV-Refinement: got SAT, and it is spurious, refining
BV-Refinement: iteration 5
1655 variables, 3611 clauses
SAT checker: negated claim is SATISFIABLE, i.e., does not hold
BV-Refinement: 6 partial order constraints become active
BV-Refinement: 287 inactive partial order constraints
BV-Refinement: got SAT, and it is spurious, refining
BV-Refinement: iteration 6
1772 variables, 4067 clauses
SAT checker: negated claim is SATISFIABLE, i.e., does not hold
BV-Refinement: 11 partial order constraints become active
BV-Refinement: 276 inactive partial order constraints
BV-Refinement: got SAT, and it is spurious, refining
BV-Refinement: iteration 7
2072 variables, 5120 clauses
SAT checker: negated claim is SATISFIABLE, i.e., does not hold
BV-Refinement: 8 partial order constraints become active
BV-Refinement: 268 inactive partial order constraints
BV-Refinement: got SAT, and it is spurious, refining
BV-Refinement: iteration 8
2261 variables, 5738 clauses
SAT checker: negated claim is SATISFIABLE, i.e., does not hold
BV-Refinement: 12 partial order constraints become active
BV-Refinement: 256 inactive partial order constraints
BV-Refinement: got SAT, and it is spurious, refining
BV-Refinement: iteration 9
2561 variables, 6911 clauses
SAT checker: negated claim is SATISFIABLE, i.e., does not hold
BV-Refinement: 14 partial order constraints become active
BV-Refinement: 242 inactive partial order constraints
BV-Refinement: got SAT, and it is spurious, refining
BV-Refinement: iteration 10
2985 variables, 8795 clauses
SAT checker: negated claim is SATISFIABLE, i.e., does not hold
BV-Refinement: 7 partial order constraints become active
BV-Refinement: 235 inactive partial order constraints
BV-Refinement: got SAT, and it is spurious, refining
BV-Refinement: iteration 11
3211 variables, 9641 clauses
SAT checker: negated claim is SATISFIABLE, i.e., does not hold
BV-Refinement: 10 partial order constraints become active
BV-Refinement: 225 inactive partial order constraints
BV-Refinement: got SAT, and it is spurious, refining
BV-Refinement: iteration 12
3461 variables, 10739 clauses
SAT checker: negated claim is SATISFIABLE, i.e., does not hold
BV-Refinement: 5 partial order constraints become active
BV-Refinement: 220 inactive partial order constraints
BV-Refinement: got SAT, and it is spurious, refining
BV-Refinement: iteration 13
3589 variables, 11186 clauses
SAT checker: negated claim is SATISFIABLE, i.e., does not hold
BV-Refinement: 7 partial order constraints become active
BV-Refinement: 213 inactive partial order constraints
BV-Refinement: got SAT, and it is spurious, refining
BV-Refinement: iteration 14
3751 variables, 11874 clauses
SAT checker: negated claim is SATISFIABLE, i.e., does not hold
BV-Refinement: 7 partial order constraints become active
BV-Refinement: 206 inactive partial order constraints
BV-Refinement: got SAT, and it is spurious, refining
BV-Refinement: iteration 15
3888 variables, 12382 clauses
SAT checker: negated claim is SATISFIABLE, i.e., does not hold
BV-Refinement: 2 partial order constraints become active
BV-Refinement: 204 inactive partial order constraints
BV-Refinement: got SAT, and it is spurious, refining
BV-Refinement: iteration 16
3891 variables, 12254 clauses
SAT checker: negated claim is SATISFIABLE, i.e., does not hold
BV-Refinement: 1 partial order constraints become active
BV-Refinement: 203 inactive partial order constraints
BV-Refinement: got SAT, and it is spurious, refining
BV-Refinement: iteration 17
3891 variables, 12255 clauses
SAT checker: negated claim is SATISFIABLE, i.e., does not hold
BV-Refinement: 0 partial order constraints become active
BV-Refinement: 203 inactive partial order constraints
BV-Refinement: got SAT, and it simulates => SAT
Total iterations: 17
PROFILING: main_solver: 0.147
PROFILING: sat_check: 0.669
PROFILING: clustering: 0
Runtime decision procedure: 0.822s
Building error trace

Counterexample:

State 49 file /nas/schram/gitcbmc-lazy-po/experiments/wmm-core/mix027.c line 40 function P3 thread 4
----------------------------------------------------
  __unbuffered_p3_EAX=2 (00000000000000000000000000000010)

State 50 file /nas/schram/gitcbmc-lazy-po/experiments/wmm-core/mix027.c line 41 function P3 thread 4
----------------------------------------------------
  __unbuffered_p3_EBX=0 (00000000000000000000000000000000)

State 63 file /nas/schram/gitcbmc-lazy-po/experiments/wmm-core/mix027.c line 32 function P2 thread 3
----------------------------------------------------
  z=1 (00000000000000000000000000000001)

State 68 file /nas/schram/gitcbmc-lazy-po/experiments/wmm-core/mix027.c line 15 function P0 thread 1
----------------------------------------------------
  a=1 (00000000000000000000000000000001)

State 69 file /nas/schram/gitcbmc-lazy-po/experiments/wmm-core/mix027.c line 16 function P0 thread 1
----------------------------------------------------
  x=1 (00000000000000000000000000000001)

State 74 file /nas/schram/gitcbmc-lazy-po/experiments/wmm-core/mix027.c line 23 function P1 thread 2
----------------------------------------------------
  x=2 (00000000000000000000000000000010)

State 75 file /nas/schram/gitcbmc-lazy-po/experiments/wmm-core/mix027.c line 24 function P1 thread 2
----------------------------------------------------
  __unbuffered_p1_EAX=0 (00000000000000000000000000000000)

State 80 file /nas/schram/gitcbmc-lazy-po/experiments/wmm-core/mix027.c line 31 function P2 thread 3
----------------------------------------------------
  y=1 (00000000000000000000000000000001)

State 81 file /nas/schram/gitcbmc-lazy-po/experiments/wmm-core/mix027.c line 39 function P3 thread 4
----------------------------------------------------
  z=2 (00000000000000000000000000000010)

State 82 file /nas/schram/gitcbmc-lazy-po/experiments/wmm-core/mix027.c line 19 function P0 thread 1
----------------------------------------------------
  __unbuffered_cnt=1 (00000000000000000000000000000001)

State 88 file /nas/schram/gitcbmc-lazy-po/experiments/wmm-core/mix027.c line 49 function main thread 2
----------------------------------------------------
  arg=NULL (0000000000000000000000000000000000000000000000000000000000000000)

State 89 file /nas/schram/gitcbmc-lazy-po/experiments/wmm-core/mix027.c line 35 function P2 thread 3
----------------------------------------------------
  __unbuffered_cnt=2 (00000000000000000000000000000010)

State 95 file /nas/schram/gitcbmc-lazy-po/experiments/wmm-core/mix027.c line 51 function main thread 4
----------------------------------------------------
  arg=NULL (0000000000000000000000000000000000000000000000000000000000000000)

State 96 file /nas/schram/gitcbmc-lazy-po/experiments/wmm-core/mix027.c line 27 function P1 thread 2
----------------------------------------------------
  __unbuffered_cnt=3 (00000000000000000000000000000011)

State 102 file /nas/schram/gitcbmc-lazy-po/experiments/wmm-core/mix027.c line 50 function main thread 3
----------------------------------------------------
  arg=NULL (0000000000000000000000000000000000000000000000000000000000000000)

State 103 file /nas/schram/gitcbmc-lazy-po/experiments/wmm-core/mix027.c line 44 function P3 thread 4
----------------------------------------------------
  __unbuffered_cnt=4 (00000000000000000000000000000100)

Violated property:
  file /nas/schram/gitcbmc-lazy-po/experiments/wmm-core/mix027.c line 55 function main
  Program proven to be relaxed for X86, model checker says YES.
  !(x == 2 && z == 2 && __unbuffered_p1_EAX == 0 && __unbuffered_p3_EAX == 2 && __unbuffered_p3_EBX == 0)

VERIFICATION FAILED
Partial order constraints used: 146/349
  fr: 18/112
  po: 42/101
  rf: 24/33
  rf-order: 17/33
  rf-some: 13/13
  rfi: 4/7
  thread-spawn: 8/8
  ws-ext: 20/42
Time: 1.217713
