CBMC version 5.0 64-bit x86_64 linux
Parsing /nas/schram/gitcbmc-lazy-po/experiments/wmm-core/podrw001.c
Converting
Type-checking podrw001
Generating GOTO Program
Adding CPROVER library
Function Pointer Removal
Partial Inlining
Generic Property Instrumentation
Starting Bounded Model Checking
Adding PSO constraints
size of program expression: 419 steps
no slicing due to threads
Generated 1 VCC(s), 1 remaining after simplification
Passing problem to refinement loop with MiniSAT 2.2.0 with simplifier
converting SSA
Running refinement loop with MiniSAT 2.2.0 with simplifier
BV-Refinement: post-processing
BV-Refinement: iteration 1
896 variables, 1116 clauses
SAT checker: negated claim is SATISFIABLE, i.e., does not hold
BV-Refinement: 12 partial order constraints become active
BV-Refinement: 258 inactive partial order constraints
BV-Refinement: got SAT, and it is spurious, refining
BV-Refinement: iteration 2
1098 variables, 1788 clauses
SAT checker: negated claim is SATISFIABLE, i.e., does not hold
BV-Refinement: 14 partial order constraints become active
BV-Refinement: 244 inactive partial order constraints
BV-Refinement: got SAT, and it is spurious, refining
BV-Refinement: iteration 3
1362 variables, 2812 clauses
SAT checker: negated claim is SATISFIABLE, i.e., does not hold
BV-Refinement: 9 partial order constraints become active
BV-Refinement: 235 inactive partial order constraints
BV-Refinement: got SAT, and it is spurious, refining
BV-Refinement: iteration 4
1448 variables, 3001 clauses
SAT checker: negated claim is SATISFIABLE, i.e., does not hold
BV-Refinement: 6 partial order constraints become active
BV-Refinement: 229 inactive partial order constraints
BV-Refinement: got SAT, and it is spurious, refining
BV-Refinement: iteration 5
1616 variables, 3568 clauses
SAT checker: negated claim is SATISFIABLE, i.e., does not hold
BV-Refinement: 5 partial order constraints become active
BV-Refinement: 224 inactive partial order constraints
BV-Refinement: got SAT, and it is spurious, refining
BV-Refinement: iteration 6
1706 variables, 3787 clauses
SAT checker: negated claim is SATISFIABLE, i.e., does not hold
BV-Refinement: 5 partial order constraints become active
BV-Refinement: 219 inactive partial order constraints
BV-Refinement: got SAT, and it is spurious, refining
BV-Refinement: iteration 7
1788 variables, 4120 clauses
SAT checker: negated claim is SATISFIABLE, i.e., does not hold
BV-Refinement: 7 partial order constraints become active
BV-Refinement: 212 inactive partial order constraints
BV-Refinement: got SAT, and it is spurious, refining
BV-Refinement: iteration 8
1987 variables, 4843 clauses
SAT checker: negated claim is SATISFIABLE, i.e., does not hold
BV-Refinement: 17 partial order constraints become active
BV-Refinement: 195 inactive partial order constraints
BV-Refinement: got SAT, and it is spurious, refining
BV-Refinement: iteration 9
2410 variables, 6355 clauses
SAT checker: negated claim is SATISFIABLE, i.e., does not hold
BV-Refinement: 5 partial order constraints become active
BV-Refinement: 190 inactive partial order constraints
BV-Refinement: got SAT, and it is spurious, refining
BV-Refinement: iteration 10
2534 variables, 6566 clauses
SAT checker: negated claim is SATISFIABLE, i.e., does not hold
BV-Refinement: 18 partial order constraints become active
BV-Refinement: 172 inactive partial order constraints
BV-Refinement: got SAT, and it is spurious, refining
BV-Refinement: iteration 11
2880 variables, 8123 clauses
SAT checker: negated claim is SATISFIABLE, i.e., does not hold
BV-Refinement: 7 partial order constraints become active
BV-Refinement: 165 inactive partial order constraints
BV-Refinement: got SAT, and it is spurious, refining
BV-Refinement: iteration 12
3115 variables, 8801 clauses
SAT checker: negated claim is SATISFIABLE, i.e., does not hold
BV-Refinement: 9 partial order constraints become active
BV-Refinement: 156 inactive partial order constraints
BV-Refinement: got SAT, and it is spurious, refining
BV-Refinement: iteration 13
3289 variables, 9520 clauses
SAT checker: negated claim is SATISFIABLE, i.e., does not hold
BV-Refinement: 6 partial order constraints become active
BV-Refinement: 150 inactive partial order constraints
BV-Refinement: got SAT, and it is spurious, refining
BV-Refinement: iteration 14
3438 variables, 10101 clauses
SAT checker: negated claim is SATISFIABLE, i.e., does not hold
BV-Refinement: 15 partial order constraints become active
BV-Refinement: 135 inactive partial order constraints
BV-Refinement: got SAT, and it is spurious, refining
BV-Refinement: iteration 15
3641 variables, 10961 clauses
SAT checker: negated claim is UNSATISFIABLE, i.e., holds
BV-Refinement: got UNSAT, and the proof passes => UNSAT
Total iterations: 15
PROFILING: main_solver: 0.28
PROFILING: sat_check: 0.573
PROFILING: clustering: 0
Runtime decision procedure: 0.858s
VERIFICATION SUCCESSFUL
Partial order constraints used: 154/289
  fr: 19/61
  po: 63/119
  rf: 20/24
  rf-order: 12/24
  rf-some: 13/13
  rfi: 7/8
  thread-spawn: 6/6
  ws-ext: 14/34
Time: 1.217818
