CBMC version 5.0 64-bit x86_64 linux
Parsing /nas/schram/gitcbmc-lazy-po/experiments/wmm-core/podrr001.c
Converting
Type-checking podrr001
Generating GOTO Program
Adding CPROVER library
Function Pointer Removal
Partial Inlining
Generic Property Instrumentation
Starting Bounded Model Checking
Adding PSO constraints
size of program expression: 404 steps
no slicing due to threads
Generated 1 VCC(s), 1 remaining after simplification
Passing problem to refinement loop with MiniSAT 2.2.0 with simplifier
converting SSA
Running refinement loop with MiniSAT 2.2.0 with simplifier
BV-Refinement: post-processing
BV-Refinement: iteration 1
895 variables, 1116 clauses
SAT checker: negated claim is SATISFIABLE, i.e., does not hold
BV-Refinement: 10 partial order constraints become active
BV-Refinement: 247 inactive partial order constraints
BV-Refinement: got SAT, and it is spurious, refining
BV-Refinement: iteration 2
1080 variables, 1712 clauses
SAT checker: negated claim is SATISFIABLE, i.e., does not hold
BV-Refinement: 21 partial order constraints become active
BV-Refinement: 226 inactive partial order constraints
BV-Refinement: got SAT, and it is spurious, refining
BV-Refinement: iteration 3
1570 variables, 3527 clauses
SAT checker: negated claim is SATISFIABLE, i.e., does not hold
BV-Refinement: 13 partial order constraints become active
BV-Refinement: 213 inactive partial order constraints
BV-Refinement: got SAT, and it is spurious, refining
BV-Refinement: iteration 4
1780 variables, 4122 clauses
SAT checker: negated claim is SATISFIABLE, i.e., does not hold
BV-Refinement: 6 partial order constraints become active
BV-Refinement: 207 inactive partial order constraints
BV-Refinement: got SAT, and it is spurious, refining
BV-Refinement: iteration 5
1967 variables, 4713 clauses
SAT checker: negated claim is SATISFIABLE, i.e., does not hold
BV-Refinement: 9 partial order constraints become active
BV-Refinement: 198 inactive partial order constraints
BV-Refinement: got SAT, and it is spurious, refining
BV-Refinement: iteration 6
2136 variables, 5267 clauses
SAT checker: negated claim is SATISFIABLE, i.e., does not hold
BV-Refinement: 6 partial order constraints become active
BV-Refinement: 192 inactive partial order constraints
BV-Refinement: got SAT, and it is spurious, refining
BV-Refinement: iteration 7
2330 variables, 5949 clauses
SAT checker: negated claim is SATISFIABLE, i.e., does not hold
BV-Refinement: 6 partial order constraints become active
BV-Refinement: 186 inactive partial order constraints
BV-Refinement: got SAT, and it is spurious, refining
BV-Refinement: iteration 8
2448 variables, 6383 clauses
SAT checker: negated claim is SATISFIABLE, i.e., does not hold
BV-Refinement: 3 partial order constraints become active
BV-Refinement: 183 inactive partial order constraints
BV-Refinement: got SAT, and it is spurious, refining
BV-Refinement: iteration 9
2511 variables, 6589 clauses
SAT checker: negated claim is SATISFIABLE, i.e., does not hold
BV-Refinement: 2 partial order constraints become active
BV-Refinement: 181 inactive partial order constraints
BV-Refinement: got SAT, and it is spurious, refining
BV-Refinement: iteration 10
2570 variables, 6813 clauses
SAT checker: negated claim is SATISFIABLE, i.e., does not hold
BV-Refinement: 3 partial order constraints become active
BV-Refinement: 178 inactive partial order constraints
BV-Refinement: got SAT, and it is spurious, refining
BV-Refinement: iteration 11
2616 variables, 7000 clauses
SAT checker: negated claim is SATISFIABLE, i.e., does not hold
BV-Refinement: 6 partial order constraints become active
BV-Refinement: 172 inactive partial order constraints
BV-Refinement: got SAT, and it is spurious, refining
BV-Refinement: iteration 12
2730 variables, 7502 clauses
SAT checker: negated claim is SATISFIABLE, i.e., does not hold
BV-Refinement: 6 partial order constraints become active
BV-Refinement: 166 inactive partial order constraints
BV-Refinement: got SAT, and it is spurious, refining
BV-Refinement: iteration 13
2856 variables, 7992 clauses
SAT checker: negated claim is SATISFIABLE, i.e., does not hold
BV-Refinement: 4 partial order constraints become active
BV-Refinement: 162 inactive partial order constraints
BV-Refinement: got SAT, and it is spurious, refining
BV-Refinement: iteration 14
2890 variables, 8014 clauses
SAT checker: negated claim is SATISFIABLE, i.e., does not hold
BV-Refinement: 6 partial order constraints become active
BV-Refinement: 156 inactive partial order constraints
BV-Refinement: got SAT, and it is spurious, refining
BV-Refinement: iteration 15
3056 variables, 8580 clauses
SAT checker: negated claim is SATISFIABLE, i.e., does not hold
BV-Refinement: 4 partial order constraints become active
BV-Refinement: 152 inactive partial order constraints
BV-Refinement: got SAT, and it is spurious, refining
BV-Refinement: iteration 16
3146 variables, 8913 clauses
SAT checker: negated claim is SATISFIABLE, i.e., does not hold
BV-Refinement: 1 partial order constraints become active
BV-Refinement: 151 inactive partial order constraints
BV-Refinement: got SAT, and it is spurious, refining
BV-Refinement: iteration 17
3147 variables, 8891 clauses
SAT checker: negated claim is SATISFIABLE, i.e., does not hold
BV-Refinement: 5 partial order constraints become active
BV-Refinement: 146 inactive partial order constraints
BV-Refinement: got SAT, and it is spurious, refining
BV-Refinement: iteration 18
3224 variables, 9236 clauses
SAT checker: negated claim is SATISFIABLE, i.e., does not hold
BV-Refinement: 0 partial order constraints become active
BV-Refinement: 146 inactive partial order constraints
BV-Refinement: got SAT, and it simulates => SAT
Total iterations: 18
PROFILING: main_solver: 0.135
PROFILING: sat_check: 0.573
PROFILING: clustering: 0
Runtime decision procedure: 0.713s
Building error trace

Counterexample:

State 14 file /nas/schram/gitcbmc-lazy-po/experiments/wmm-core/podrr001.c line 18 function P0 thread 1
----------------------------------------------------
  z=1 (00000000000000000000000000000001)

State 53 file /nas/schram/gitcbmc-lazy-po/experiments/wmm-core/podrr001.c line 17 function P0 thread 1
----------------------------------------------------
  __unbuffered_p0_r1=1 (00000000000000000000000000000001)

State 54 file /nas/schram/gitcbmc-lazy-po/experiments/wmm-core/podrr001.c line 20 function P0 thread 1
----------------------------------------------------
  __unbuffered_p0_r3=1 (00000000000000000000000000000001)

State 55 file /nas/schram/gitcbmc-lazy-po/experiments/wmm-core/podrr001.c line 21 function P0 thread 1
----------------------------------------------------
  x=1 (00000000000000000000000000000001)

State 60 file /nas/schram/gitcbmc-lazy-po/experiments/wmm-core/podrr001.c line 28 function P1 thread 2
----------------------------------------------------
  __unbuffered_p1_r1=1 (00000000000000000000000000000001)

State 65 file /nas/schram/gitcbmc-lazy-po/experiments/wmm-core/podrr001.c line 30 function P1 thread 2
----------------------------------------------------
  __unbuffered_p1_r3=1 (00000000000000000000000000000001)

State 66 file /nas/schram/gitcbmc-lazy-po/experiments/wmm-core/podrr001.c line 24 function P0 thread 1
----------------------------------------------------
  __unbuffered_cnt=1 (00000000000000000000000000000001)

State 72 file /nas/schram/gitcbmc-lazy-po/experiments/wmm-core/podrr001.c line 47 function main thread 2
----------------------------------------------------
  arg=NULL (0000000000000000000000000000000000000000000000000000000000000000)

State 73 file /nas/schram/gitcbmc-lazy-po/experiments/wmm-core/podrr001.c line 31 function P1 thread 2
----------------------------------------------------
  y=1 (00000000000000000000000000000001)

State 78 file /nas/schram/gitcbmc-lazy-po/experiments/wmm-core/podrr001.c line 38 function P2 thread 3
----------------------------------------------------
  __unbuffered_p2_r1=1 (00000000000000000000000000000001)

State 79 file /nas/schram/gitcbmc-lazy-po/experiments/wmm-core/podrr001.c line 34 function P1 thread 2
----------------------------------------------------
  __unbuffered_cnt=2 (00000000000000000000000000000010)

State 85 file /nas/schram/gitcbmc-lazy-po/experiments/wmm-core/podrr001.c line 48 function main thread 3
----------------------------------------------------
  arg=NULL (0000000000000000000000000000000000000000000000000000000000000000)

State 86 file /nas/schram/gitcbmc-lazy-po/experiments/wmm-core/podrr001.c line 39 function P2 thread 3
----------------------------------------------------
  __unbuffered_p2_r3=0 (00000000000000000000000000000000)

State 91 file /nas/schram/gitcbmc-lazy-po/experiments/wmm-core/podrr001.c line 42 function P2 thread 3
----------------------------------------------------
  __unbuffered_cnt=3 (00000000000000000000000000000011)

Violated property:
  file /nas/schram/gitcbmc-lazy-po/experiments/wmm-core/podrr001.c line 52 function main
  Program proven to be relaxed for PPC, model checker says YES.
  !(__unbuffered_p1_r1 == 1 && __unbuffered_p2_r1 == 1 && __unbuffered_p2_r3 == 0)

VERIFICATION FAILED
Partial order constraints used: 130/276
  fr: 16/57
  po: 42/115
  rf: 22/24
  rf-order: 15/24
  rf-some: 13/13
  rfi: 4/7
  thread-spawn: 6/6
  ws-ext: 12/30
Time: 1.067371
