CBMC version 5.0 64-bit x86_64 linux
Parsing /nas/schram/gitcbmc-lazy-po/experiments/wmm-core/rfi000.c
Converting
Type-checking rfi000
Generating GOTO Program
Adding CPROVER library
Function Pointer Removal
Partial Inlining
Generic Property Instrumentation
Starting Bounded Model Checking
Adding PSO constraints
size of program expression: 273 steps
no slicing due to threads
Generated 1 VCC(s), 1 remaining after simplification
Passing problem to refinement loop with MiniSAT 2.2.0 with simplifier
converting SSA
Running refinement loop with MiniSAT 2.2.0 with simplifier
BV-Refinement: post-processing
BV-Refinement: iteration 1
549 variables, 759 clauses
SAT checker: negated claim is SATISFIABLE, i.e., does not hold
BV-Refinement: 7 partial order constraints become active
BV-Refinement: 170 inactive partial order constraints
BV-Refinement: got SAT, and it is spurious, refining
BV-Refinement: iteration 2
578 variables, 759 clauses
SAT checker: negated claim is SATISFIABLE, i.e., does not hold
BV-Refinement: 4 partial order constraints become active
BV-Refinement: 166 inactive partial order constraints
BV-Refinement: got SAT, and it is spurious, refining
BV-Refinement: iteration 3
613 variables, 879 clauses
SAT checker: negated claim is SATISFIABLE, i.e., does not hold
BV-Refinement: 3 partial order constraints become active
BV-Refinement: 163 inactive partial order constraints
BV-Refinement: got SAT, and it is spurious, refining
BV-Refinement: iteration 4
616 variables, 846 clauses
SAT checker: negated claim is SATISFIABLE, i.e., does not hold
BV-Refinement: 2 partial order constraints become active
BV-Refinement: 161 inactive partial order constraints
BV-Refinement: got SAT, and it is spurious, refining
BV-Refinement: iteration 5
618 variables, 846 clauses
SAT checker: negated claim is SATISFIABLE, i.e., does not hold
BV-Refinement: 0 partial order constraints become active
BV-Refinement: 161 inactive partial order constraints
BV-Refinement: got SAT, and it simulates => SAT
Total iterations: 5
PROFILING: main_solver: 0.005
PROFILING: sat_check: 0.154
PROFILING: clustering: 0
Runtime decision procedure: 0.162s
Building error trace

Counterexample:

Violated property:
  file /nas/schram/gitcbmc-lazy-po/experiments/wmm-core/rfi000.c line 35 function main
  Program proven to be relaxed for X86, model checker says YES.
  !(x == 2 && y == 2 && __unbuffered_p1_EAX == 1 && __unbuffered_p1_EBX == 1)

VERIFICATION FAILED
Partial order constraints used: 29/190
  fr: 0/42
  po: 2/74
  rf: 9/16
  rf-order: 0/16
  rf-some: 9/9
  rfi: 5/7
  thread-spawn: 4/4
  ws-ext: 0/22
Time: 0.515884
