CBMC version 5.0 64-bit x86_64 linux
Parsing /nas/schram/gitcbmc-lazy-po/experiments/pthread/fib_bench_false-unreach-call.cil.c
Converting
Type-checking fib_bench_false-unreach-call.cil
Generating GOTO Program
Adding CPROVER library
Function Pointer Removal
Partial Inlining
Generic Property Instrumentation
Starting Bounded Model Checking
Unwinding loop t1.0 iteration 1 (5 max) file fib_bench_BUG.c line 12 function t1 thread 1
Unwinding loop t1.0 iteration 2 (5 max) file fib_bench_BUG.c line 12 function t1 thread 1
Unwinding loop t1.0 iteration 3 (5 max) file fib_bench_BUG.c line 12 function t1 thread 1
Unwinding loop t1.0 iteration 4 (5 max) file fib_bench_BUG.c line 12 function t1 thread 1
Not unwinding loop t1.0 iteration 5 (5 max) file fib_bench_BUG.c line 12 function t1 thread 1
Unwinding loop t2.0 iteration 1 (5 max) file fib_bench_BUG.c line 23 function t2 thread 2
Unwinding loop t2.0 iteration 2 (5 max) file fib_bench_BUG.c line 23 function t2 thread 2
Unwinding loop t2.0 iteration 3 (5 max) file fib_bench_BUG.c line 23 function t2 thread 2
Unwinding loop t2.0 iteration 4 (5 max) file fib_bench_BUG.c line 23 function t2 thread 2
Not unwinding loop t2.0 iteration 5 (5 max) file fib_bench_BUG.c line 23 function t2 thread 2
Adding PSO constraints
size of program expression: 1061 steps
no slicing due to threads
Generated 2 VCC(s), 2 remaining after simplification
Partial order constraints used: 0/815
  fr: 0/373
  po: 0/213
  rf: 0/80
  rf-order: 0/80
  rf-some: 0/23
  rfi: 0/24
  thread-spawn: 0/2
  ws-ext: 0/20
Partial order constraint sizes: 
  fr: 4923 variables, 21367 clauses
  po: 3836 variables, 15788 clauses
  rf: 3808 variables, 12960 clauses
  rf-order: 2808 variables, 11200 clauses
  rf-some: 105 variables, 21 clauses
  rfi: 1712 variables, 4208 clauses
  thread-spawn: 104 variables, 272 clauses
  ws-ext: 734 variables, 2800 clauses
Time: 1.616810
