CBMC version 5.0 64-bit x86_64 linux
Parsing /nas/schram/gitcbmc-lazy-po/experiments/pthread/singleton_false-unreach-call.c
Converting
Type-checking singleton_false-unreach-call
Generating GOTO Program
Adding CPROVER library
Function Pointer Removal
Partial Inlining
Generic Property Instrumentation
Starting Bounded Model Checking
Unwinding recursion pthread_create iteration 1 (5 max)
Unwinding recursion __actual_thread_spawn iteration 1 (5 max)
Unwinding recursion pthread_create iteration 1 (5 max)
Unwinding recursion __actual_thread_spawn iteration 1 (5 max)
Unwinding recursion pthread_create iteration 1 (5 max)
Unwinding recursion __actual_thread_spawn iteration 1 (5 max)
Unwinding recursion pthread_create iteration 1 (5 max)
Unwinding recursion __actual_thread_spawn iteration 1 (5 max)
Unwinding recursion pthread_create iteration 1 (5 max)
Unwinding recursion __actual_thread_spawn iteration 1 (5 max)
Adding PSO constraints
size of program expression: 2189 steps
no slicing due to threads
Generated 2 VCC(s), 2 remaining after simplification
Partial order constraints used: 0/1641
  fr: 0/811
  po: 0/353
  rf: 0/142
  rf-order: 0/142
  rf-some: 0/52
  rfi: 0/43
  thread-spawn: 0/6
  ws-ext: 0/92
Partial order constraint sizes: 
  fr: 11541 variables, 48802 clauses
  po: 7885 variables, 31694 clauses
  rf: 6979 variables, 18377 clauses
  rf-order: 5822 variables, 23004 clauses
  rf-some: 544 variables, 112 clauses
  rfi: 3859 variables, 11643 clauses
  thread-spawn: 360 variables, 948 clauses
  ws-ext: 3516 variables, 14904 clauses
Time: 1.467998
