CBMC version 5.0 64-bit x86_64 linux
Parsing /nas/schram/gitcbmc-lazy-po/experiments/pthread/stack_longest_false-unreach-call.c
Converting
Type-checking stack_longest_false-unreach-call
Generating GOTO Program
Adding CPROVER library
Function Pointer Removal
Partial Inlining
Generic Property Instrumentation
Starting Bounded Model Checking
Unwinding loop t1.0 iteration 1 (5 max) file /nas/schram/gitcbmc-lazy-po/experiments/pthread/stack_longest_false-unreach-call.c line 77 function t1 thread 1
Unwinding loop t1.0 iteration 2 (5 max) file /nas/schram/gitcbmc-lazy-po/experiments/pthread/stack_longest_false-unreach-call.c line 77 function t1 thread 1
Unwinding loop t1.0 iteration 3 (5 max) file /nas/schram/gitcbmc-lazy-po/experiments/pthread/stack_longest_false-unreach-call.c line 77 function t1 thread 1
Unwinding loop t1.0 iteration 4 (5 max) file /nas/schram/gitcbmc-lazy-po/experiments/pthread/stack_longest_false-unreach-call.c line 77 function t1 thread 1
Not unwinding loop t1.0 iteration 5 (5 max) file /nas/schram/gitcbmc-lazy-po/experiments/pthread/stack_longest_false-unreach-call.c line 77 function t1 thread 1
Unwinding loop t2.0 iteration 1 (5 max) file /nas/schram/gitcbmc-lazy-po/experiments/pthread/stack_longest_false-unreach-call.c line 92 function t2 thread 2
Unwinding loop t2.0 iteration 2 (5 max) file /nas/schram/gitcbmc-lazy-po/experiments/pthread/stack_longest_false-unreach-call.c line 92 function t2 thread 2
Unwinding loop t2.0 iteration 3 (5 max) file /nas/schram/gitcbmc-lazy-po/experiments/pthread/stack_longest_false-unreach-call.c line 92 function t2 thread 2
Unwinding loop t2.0 iteration 4 (5 max) file /nas/schram/gitcbmc-lazy-po/experiments/pthread/stack_longest_false-unreach-call.c line 92 function t2 thread 2
Not unwinding loop t2.0 iteration 5 (5 max) file /nas/schram/gitcbmc-lazy-po/experiments/pthread/stack_longest_false-unreach-call.c line 92 function t2 thread 2
Adding PSO constraints
size of program expression: 13408 steps
no slicing due to threads
Generated 40 VCC(s), 40 remaining after simplification
Partial order constraints used: 0/12429
  fr: 0/8124
  po: 0/2718
  rf: 0/485
  rf-order: 0/485
  rf-some: 0/70
  rfi: 0/175
  thread-spawn: 0/2
  ws-ext: 0/370
Partial order constraint sizes: 
  fr: 45544 variables, 204139 clauses
  po: 48552 variables, 216116 clauses
  rf: 1407835 variables, 4897310 clauses
  rf-order: 18030 variables, 78570 clauses
  rf-some: 3891 variables, 166 clauses
  rfi: 508923 variables, 1438183 clauses
  thread-spawn: 120 variables, 316 clauses
  ws-ext: 13025 variables, 59940 clauses
Time: 15.651208
