CBMC version 5.0 64-bit x86_64 linux
Parsing /nas/schram/gitcbmc-lazy-po/experiments/pthread/stateful01_true-unreach-call.c
Converting
Type-checking stateful01_true-unreach-call
Generating GOTO Program
Adding CPROVER library
Function Pointer Removal
Partial Inlining
Generic Property Instrumentation
Starting Bounded Model Checking
Adding PSO constraints
size of program expression: 1388 steps
no slicing due to threads
Generated 10 VCC(s), 10 remaining after simplification
Partial order constraints used: 0/1074
  fr: 0/559
  po: 0/232
  rf: 0/72
  rf-order: 0/72
  rf-some: 0/21
  rfi: 0/26
  thread-spawn: 0/2
  ws-ext: 0/90
Partial order constraint sizes: 
  fr: 7916 variables, 29145 clauses
  po: 5476 variables, 17328 clauses
  rf: 23554 variables, 79696 clauses
  rf-order: 2628 variables, 10080 clauses
  rf-some: 1458 variables, 75 clauses
  rfi: 10244 variables, 22524 clauses
  thread-spawn: 104 variables, 272 clauses
  ws-ext: 2907 variables, 12600 clauses
Time: 1.267716
