Tool:
executable,/users/bjowac/bin/cbmc-no-mus
parameters,--lazy-encoding --error-label ERROR --unwind 5 --no-unwinding-assertions
=======
Detailed outcomes:
/nas/schram/gitcbmc-lazy-po/experiments/pthread/bigshot_p_false-unreach-call.c,CORRECT ALARM,2.669729
/nas/schram/gitcbmc-lazy-po/experiments/pthread/bigshot_s2_true-unreach-call.c,CORRECT PROOF,3.231658
/nas/schram/gitcbmc-lazy-po/experiments/pthread/bigshot_s_true-unreach-call.c,CORRECT PROOF,3.378782
/nas/schram/gitcbmc-lazy-po/experiments/pthread/fib_bench_false-unreach-call.c,CORRECT ALARM,14.650824
/nas/schram/gitcbmc-lazy-po/experiments/pthread/fib_bench_false-unreach-call.cil.c,CORRECT ALARM,24.261248
/nas/schram/gitcbmc-lazy-po/experiments/pthread/fib_bench_longer_false-unreach-call.c,WRONG PROOF,56.515065
/nas/schram/gitcbmc-lazy-po/experiments/pthread/fib_bench_longer_false-unreach-call.cil.c,WRONG PROOF,124.212416
/nas/schram/gitcbmc-lazy-po/experiments/pthread/fib_bench_longer_true-unreach-call.c,CORRECT PROOF,134.790098
/nas/schram/gitcbmc-lazy-po/experiments/pthread/fib_bench_longer_true-unreach-call.cil.c,CORRECT PROOF,79.127474
/nas/schram/gitcbmc-lazy-po/experiments/pthread/fib_bench_longest_false-unreach-call.c,WRONG PROOF,83.937989
/nas/schram/gitcbmc-lazy-po/experiments/pthread/fib_bench_longest_true-unreach-call.c,CORRECT PROOF,54.018756
/nas/schram/gitcbmc-lazy-po/experiments/pthread/fib_bench_true-unreach-call.c,CORRECT PROOF,88.927637
/nas/schram/gitcbmc-lazy-po/experiments/pthread/fib_bench_true-unreach-call.cil.c,CORRECT PROOF,63.499479
/nas/schram/gitcbmc-lazy-po/experiments/pthread/indexer_true-unreach-call.c,ERROR,900.056008
/nas/schram/gitcbmc-lazy-po/experiments/pthread/lazy01_false-unreach-call.c,CORRECT ALARM,5.799994
/nas/schram/gitcbmc-lazy-po/experiments/pthread/queue_false-unreach-call.c,ERROR,900.215357
/nas/schram/gitcbmc-lazy-po/experiments/pthread/queue_false-unreach-call.cil.c,ERROR,900.215688
/nas/schram/gitcbmc-lazy-po/experiments/pthread/queue_longer_false-unreach-call.c,ERROR,900.177273
/nas/schram/gitcbmc-lazy-po/experiments/pthread/queue_longest_false-unreach-call.c,ERROR,900.140004
/nas/schram/gitcbmc-lazy-po/experiments/pthread/queue_ok_longer_true-unreach-call.c,ERROR,900.192275
/nas/schram/gitcbmc-lazy-po/experiments/pthread/queue_ok_longest_true-unreach-call.c,ERROR,901.358459
/nas/schram/gitcbmc-lazy-po/experiments/pthread/queue_ok_true-unreach-call.c,CORRECT PROOF,195.252291
/nas/schram/gitcbmc-lazy-po/experiments/pthread/queue_ok_true-unreach-call.cil.c,CORRECT PROOF,151.023289
/nas/schram/gitcbmc-lazy-po/experiments/pthread/reorder_2_false-unreach-call.c,CORRECT ALARM,47.314244
/nas/schram/gitcbmc-lazy-po/experiments/pthread/reorder_5_false-unreach-call.c,CORRECT ALARM,47.229312
/nas/schram/gitcbmc-lazy-po/experiments/pthread/reorder_5_false-unreach-call.cil.c,CORRECT ALARM,52.400366
/nas/schram/gitcbmc-lazy-po/experiments/pthread/sigma_false-unreach-call.c,WRONG PROOF,13.174968
/nas/schram/gitcbmc-lazy-po/experiments/pthread/singleton_false-unreach-call.c,CORRECT ALARM,8.912000
/nas/schram/gitcbmc-lazy-po/experiments/pthread/singleton_with-uninit-problems-true.c,WRONG ALARM,9.954991
/nas/schram/gitcbmc-lazy-po/experiments/pthread/stack_false-unreach-call.c,CORRECT ALARM,223.227032
/nas/schram/gitcbmc-lazy-po/experiments/pthread/stack_longer_false-unreach-call.c,CORRECT ALARM,675.290024
/nas/schram/gitcbmc-lazy-po/experiments/pthread/stack_longer_true-unreach-call.c,ERROR,900.111059
/nas/schram/gitcbmc-lazy-po/experiments/pthread/stack_longest_false-unreach-call.c,ERROR,900.090707
/nas/schram/gitcbmc-lazy-po/experiments/pthread/stack_longest_true-unreach-call.c,ERROR,900.082994
/nas/schram/gitcbmc-lazy-po/experiments/pthread/stack_true-unreach-call.c,ERROR,900.040518
/nas/schram/gitcbmc-lazy-po/experiments/pthread/stateful01_false-unreach-call.c,CORRECT ALARM,8.352239
/nas/schram/gitcbmc-lazy-po/experiments/pthread/stateful01_true-unreach-call.c,CORRECT PROOF,17.018998
/nas/schram/gitcbmc-lazy-po/experiments/pthread/sync01_true-unreach-call.c,CORRECT PROOF,78.862994
/nas/schram/gitcbmc-lazy-po/experiments/pthread/twostage_3_false-unreach-call.c,ERROR,900.187318
/nas/schram/gitcbmc-lazy-po/experiments/pthread/twostage_3_false-unreach-call.cil.c,ERROR,900.122023
=======
Summary:
available results,40
correct results,22
correct proofs,11
correct alarms,11
wrong proofs,4
wrong alarms,1
unknown results,13
CPU time,13970.023579120636
score,-3
