Tool:
executable,/users/bjowac/bin/cbmc-no-mus
parameters,--error-label ERROR --unwind 5 --no-unwinding-assertions
=======
Detailed outcomes:
/nas/schram/gitcbmc-lazy-po/experiments/pthread/bigshot_p_false-unreach-call.c,CORRECT ALARM,6.305917
/nas/schram/gitcbmc-lazy-po/experiments/pthread/bigshot_s2_true-unreach-call.c,CORRECT PROOF,7.167808
/nas/schram/gitcbmc-lazy-po/experiments/pthread/bigshot_s_true-unreach-call.c,CORRECT PROOF,6.738396
/nas/schram/gitcbmc-lazy-po/experiments/pthread/fib_bench_false-unreach-call.c,CORRECT ALARM,41.084441
/nas/schram/gitcbmc-lazy-po/experiments/pthread/fib_bench_false-unreach-call.cil.c,CORRECT ALARM,36.821036
/nas/schram/gitcbmc-lazy-po/experiments/pthread/fib_bench_longer_false-unreach-call.c,WRONG PROOF,372.624342
/nas/schram/gitcbmc-lazy-po/experiments/pthread/fib_bench_longer_false-unreach-call.cil.c,WRONG PROOF,410.470912
/nas/schram/gitcbmc-lazy-po/experiments/pthread/fib_bench_longer_true-unreach-call.c,CORRECT PROOF,234.820388
/nas/schram/gitcbmc-lazy-po/experiments/pthread/fib_bench_longer_true-unreach-call.cil.c,CORRECT PROOF,139.843905
/nas/schram/gitcbmc-lazy-po/experiments/pthread/fib_bench_longest_false-unreach-call.c,WRONG PROOF,114.616802
/nas/schram/gitcbmc-lazy-po/experiments/pthread/fib_bench_longest_true-unreach-call.c,CORRECT PROOF,134.237076
/nas/schram/gitcbmc-lazy-po/experiments/pthread/fib_bench_true-unreach-call.c,CORRECT PROOF,170.537520
/nas/schram/gitcbmc-lazy-po/experiments/pthread/fib_bench_true-unreach-call.cil.c,CORRECT PROOF,137.049931
/nas/schram/gitcbmc-lazy-po/experiments/pthread/indexer_true-unreach-call.c,ERROR,900.081938
/nas/schram/gitcbmc-lazy-po/experiments/pthread/lazy01_false-unreach-call.c,CORRECT ALARM,5.788999
/nas/schram/gitcbmc-lazy-po/experiments/pthread/queue_false-unreach-call.c,ERROR,900.135679
/nas/schram/gitcbmc-lazy-po/experiments/pthread/queue_false-unreach-call.cil.c,ERROR,900.239138
/nas/schram/gitcbmc-lazy-po/experiments/pthread/queue_longer_false-unreach-call.c,ERROR,901.576120
/nas/schram/gitcbmc-lazy-po/experiments/pthread/queue_longest_false-unreach-call.c,ERROR,901.936386
/nas/schram/gitcbmc-lazy-po/experiments/pthread/queue_ok_longer_true-unreach-call.c,ERROR,902.756492
/nas/schram/gitcbmc-lazy-po/experiments/pthread/queue_ok_longest_true-unreach-call.c,ERROR,902.466966
/nas/schram/gitcbmc-lazy-po/experiments/pthread/queue_ok_true-unreach-call.c,CORRECT PROOF,718.611505
/nas/schram/gitcbmc-lazy-po/experiments/pthread/queue_ok_true-unreach-call.cil.c,CORRECT PROOF,652.090508
/nas/schram/gitcbmc-lazy-po/experiments/pthread/reorder_2_false-unreach-call.c,CORRECT ALARM,31.691846
/nas/schram/gitcbmc-lazy-po/experiments/pthread/reorder_5_false-unreach-call.c,CORRECT ALARM,32.271486
/nas/schram/gitcbmc-lazy-po/experiments/pthread/reorder_5_false-unreach-call.cil.c,CORRECT ALARM,35.781888
/nas/schram/gitcbmc-lazy-po/experiments/pthread/sigma_false-unreach-call.c,WRONG PROOF,4.236907
/nas/schram/gitcbmc-lazy-po/experiments/pthread/singleton_false-unreach-call.c,CORRECT ALARM,9.294954
/nas/schram/gitcbmc-lazy-po/experiments/pthread/singleton_with-uninit-problems-true.c,WRONG ALARM,9.137760
/nas/schram/gitcbmc-lazy-po/experiments/pthread/stack_false-unreach-call.c,CORRECT ALARM,39.944271
/nas/schram/gitcbmc-lazy-po/experiments/pthread/stack_longer_false-unreach-call.c,ERROR,900.067999
/nas/schram/gitcbmc-lazy-po/experiments/pthread/stack_longer_true-unreach-call.c,ERROR,900.077330
/nas/schram/gitcbmc-lazy-po/experiments/pthread/stack_longest_false-unreach-call.c,ERROR,900.166009
/nas/schram/gitcbmc-lazy-po/experiments/pthread/stack_longest_true-unreach-call.c,ERROR,900.139161
/nas/schram/gitcbmc-lazy-po/experiments/pthread/stack_true-unreach-call.c,CORRECT PROOF,802.395825
/nas/schram/gitcbmc-lazy-po/experiments/pthread/stateful01_false-unreach-call.c,CORRECT ALARM,5.773883
/nas/schram/gitcbmc-lazy-po/experiments/pthread/stateful01_true-unreach-call.c,CORRECT PROOF,8.928866
/nas/schram/gitcbmc-lazy-po/experiments/pthread/sync01_true-unreach-call.c,CORRECT PROOF,47.540716
/nas/schram/gitcbmc-lazy-po/experiments/pthread/twostage_3_false-unreach-call.c,CORRECT ALARM,271.152787
/nas/schram/gitcbmc-lazy-po/experiments/pthread/twostage_3_false-unreach-call.cil.c,CORRECT ALARM,275.684158
=======
Summary:
available results,40
correct results,24
correct proofs,12
correct alarms,12
wrong proofs,4
wrong alarms,1
unknown results,11
CPU time,14672.288051128387
score,0
