Tool:
executable,/users/bjowac/bin/cbmc-mus
parameters,--mm tso --lazy-encoding --error-label ERROR --unwind 5 --no-unwinding-assertions
=======
Detailed outcomes:
/nas/schram/gitcbmc-lazy-po/experiments/wmm-core/aclwdrr002.c,PROOF,15.379484
/nas/schram/gitcbmc-lazy-po/experiments/wmm-core/aclwdrr006.c,PROOF,4.113640
/nas/schram/gitcbmc-lazy-po/experiments/wmm-core/aclwdrr008.c,PROOF,7.730206
/nas/schram/gitcbmc-lazy-po/experiments/wmm-core/aclwdrr010.c,PROOF,7.990519
/nas/schram/gitcbmc-lazy-po/experiments/wmm-core/aclwdrr011.c,PROOF,7.851115
/nas/schram/gitcbmc-lazy-po/experiments/wmm-core/aclwdrr013.c,PROOF,8.936813
/nas/schram/gitcbmc-lazy-po/experiments/wmm-core/aclwsrr002.c,PROOF,4.337722
/nas/schram/gitcbmc-lazy-po/experiments/wmm-core/bclwdww001.c,PROOF,9.395203
/nas/schram/gitcbmc-lazy-po/experiments/wmm-core/bclwdww003.c,PROOF,16.073167
/nas/schram/gitcbmc-lazy-po/experiments/wmm-core/bclwdww005.c,PROOF,17.801554
/nas/schram/gitcbmc-lazy-po/experiments/wmm-core/iriw+lwsyncs.c,PROOF,27.587441
/nas/schram/gitcbmc-lazy-po/experiments/wmm-core/lwdwr000.c,PROOF,20.046355
/nas/schram/gitcbmc-lazy-po/experiments/wmm-core/lwdwr001.c,PROOF,18.404894
/nas/schram/gitcbmc-lazy-po/experiments/wmm-core/lwdwr004.c,PROOF,19.734749
/nas/schram/gitcbmc-lazy-po/experiments/wmm-core/lwdwr006.c,PROOF,19.476476
/nas/schram/gitcbmc-lazy-po/experiments/wmm-core/lwdwr007.c,PROOF,18.514440
/nas/schram/gitcbmc-lazy-po/experiments/wmm-core/lwdwr010.c,PROOF,20.600592
/nas/schram/gitcbmc-lazy-po/experiments/wmm-core/lwdwr016.c,PROOF,20.359794
/nas/schram/gitcbmc-lazy-po/experiments/wmm-core/lwdwr017.c,PROOF,20.678928
/nas/schram/gitcbmc-lazy-po/experiments/wmm-core/lwdwr019.c,PROOF,19.384334
/nas/schram/gitcbmc-lazy-po/experiments/wmm-core/mix004.c,ALARM,16.582468
/nas/schram/gitcbmc-lazy-po/experiments/wmm-core/mix005.c,ALARM,16.664896
/nas/schram/gitcbmc-lazy-po/experiments/wmm-core/mix007.c,ALARM,17.516091
/nas/schram/gitcbmc-lazy-po/experiments/wmm-core/mix008.c,ALARM,14.514977
/nas/schram/gitcbmc-lazy-po/experiments/wmm-core/mix013.c,ALARM,15.517616
/nas/schram/gitcbmc-lazy-po/experiments/wmm-core/mix014.c,ALARM,18.012363
/nas/schram/gitcbmc-lazy-po/experiments/wmm-core/mix017.c,ALARM,15.307737
/nas/schram/gitcbmc-lazy-po/experiments/wmm-core/mix018.c,ALARM,15.073119
/nas/schram/gitcbmc-lazy-po/experiments/wmm-core/mix020.c,ALARM,14.748274
/nas/schram/gitcbmc-lazy-po/experiments/wmm-core/mix021.c,ALARM,17.386642
/nas/schram/gitcbmc-lazy-po/experiments/wmm-core/mix023.c,ALARM,16.038913
/nas/schram/gitcbmc-lazy-po/experiments/wmm-core/mix026.c,ALARM,16.145140
/nas/schram/gitcbmc-lazy-po/experiments/wmm-core/mix027.c,ALARM,14.804066
/nas/schram/gitcbmc-lazy-po/experiments/wmm-core/mix029.c,ALARM,15.806592
/nas/schram/gitcbmc-lazy-po/experiments/wmm-core/mix030.c,ALARM,17.500570
/nas/schram/gitcbmc-lazy-po/experiments/wmm-core/mix036.c,ALARM,16.358874
/nas/schram/gitcbmc-lazy-po/experiments/wmm-core/mix037.c,ALARM,14.953677
/nas/schram/gitcbmc-lazy-po/experiments/wmm-core/mix039.c,ALARM,14.597106
/nas/schram/gitcbmc-lazy-po/experiments/wmm-core/mix040.c,ALARM,17.130051
/nas/schram/gitcbmc-lazy-po/experiments/wmm-core/mix043.c,ALARM,15.950684
/nas/schram/gitcbmc-lazy-po/experiments/wmm-core/mix044.c,ALARM,15.548773
/nas/schram/gitcbmc-lazy-po/experiments/wmm-core/mix046.c,ALARM,14.583037
/nas/schram/gitcbmc-lazy-po/experiments/wmm-core/mix047.c,ALARM,15.248887
/nas/schram/gitcbmc-lazy-po/experiments/wmm-core/mix050.c,ALARM,12.343277
/nas/schram/gitcbmc-lazy-po/experiments/wmm-core/mix051.c,ALARM,14.105683
/nas/schram/gitcbmc-lazy-po/experiments/wmm-core/mix053.c,ALARM,14.253849
/nas/schram/gitcbmc-lazy-po/experiments/wmm-core/mix055.c,ALARM,12.213770
/nas/schram/gitcbmc-lazy-po/experiments/wmm-core/mix057.c,ALARM,14.160638
/nas/schram/gitcbmc-lazy-po/experiments/wmm-core/podrr001.c,PROOF,13.839272
/nas/schram/gitcbmc-lazy-po/experiments/wmm-core/podrw001.c,PROOF,12.033517
/nas/schram/gitcbmc-lazy-po/experiments/wmm-core/podrwposwr001.c,PROOF,21.615582
/nas/schram/gitcbmc-lazy-po/experiments/wmm-core/podrwposwr002.c,PROOF,21.146058
/nas/schram/gitcbmc-lazy-po/experiments/wmm-core/podrwposwr003.c,PROOF,18.949653
/nas/schram/gitcbmc-lazy-po/experiments/wmm-core/podrwposwr006.c,PROOF,17.914169
/nas/schram/gitcbmc-lazy-po/experiments/wmm-core/podrwposwr007.c,PROOF,18.055701
/nas/schram/gitcbmc-lazy-po/experiments/wmm-core/podrwposwr008.c,PROOF,17.655463
/nas/schram/gitcbmc-lazy-po/experiments/wmm-core/podrwposwr010.c,PROOF,16.280914
/nas/schram/gitcbmc-lazy-po/experiments/wmm-core/podrwposwr011.c,PROOF,20.046270
/nas/schram/gitcbmc-lazy-po/experiments/wmm-core/podrwposwr012.c,PROOF,16.199123
/nas/schram/gitcbmc-lazy-po/experiments/wmm-core/podrwposwr013.c,PROOF,12.805554
/nas/schram/gitcbmc-lazy-po/experiments/wmm-core/podrwposwr014.c,PROOF,15.776185
/nas/schram/gitcbmc-lazy-po/experiments/wmm-core/podrwposwr015.c,PROOF,13.508813
/nas/schram/gitcbmc-lazy-po/experiments/wmm-core/posrr004.c,PROOF,9.418276
/nas/schram/gitcbmc-lazy-po/experiments/wmm-core/rfe000.c,PROOF,6.097261
/nas/schram/gitcbmc-lazy-po/experiments/wmm-core/rfe001.c,PROOF,11.075734
/nas/schram/gitcbmc-lazy-po/experiments/wmm-core/rfi000.c,PROOF,5.585641
/nas/schram/gitcbmc-lazy-po/experiments/wmm-core/rfi003.c,PROOF,5.882233
/nas/schram/gitcbmc-lazy-po/experiments/wmm-core/safe002.c,PROOF,6.209493
/nas/schram/gitcbmc-lazy-po/experiments/wmm-core/safe019.c,ALARM,8.775829
/nas/schram/gitcbmc-lazy-po/experiments/wmm-core/safe025.c,ALARM,7.286494
/nas/schram/gitcbmc-lazy-po/experiments/wmm-core/safe027.c,ALARM,8.683782
/nas/schram/gitcbmc-lazy-po/experiments/wmm-core/safe034.c,PROOF,9.381868
/nas/schram/gitcbmc-lazy-po/experiments/wmm-core/safe044.c,ALARM,9.235269
/nas/schram/gitcbmc-lazy-po/experiments/wmm-core/safe049.c,PROOF,11.769610
/nas/schram/gitcbmc-lazy-po/experiments/wmm-core/safe051.c,PROOF,11.313150
/nas/schram/gitcbmc-lazy-po/experiments/wmm-core/safe057.c,PROOF,5.063280
/nas/schram/gitcbmc-lazy-po/experiments/wmm-core/safe075.c,PROOF,6.015702
/nas/schram/gitcbmc-lazy-po/experiments/wmm-core/safe078.c,PROOF,11.295931
/nas/schram/gitcbmc-lazy-po/experiments/wmm-core/safe081.c,PROOF,9.445190
/nas/schram/gitcbmc-lazy-po/experiments/wmm-core/safe087.c,PROOF,12.219237
/nas/schram/gitcbmc-lazy-po/experiments/wmm-core/safe090.c,PROOF,10.999123
/nas/schram/gitcbmc-lazy-po/experiments/wmm-core/safe100.c,PROOF,11.247478
/nas/schram/gitcbmc-lazy-po/experiments/wmm-core/safe102.c,PROOF,8.445856
/nas/schram/gitcbmc-lazy-po/experiments/wmm-core/safe104.c,PROOF,5.924929
/nas/schram/gitcbmc-lazy-po/experiments/wmm-core/safe105.c,PROOF,9.812534
/nas/schram/gitcbmc-lazy-po/experiments/wmm-core/safe107.c,PROOF,8.895622
/nas/schram/gitcbmc-lazy-po/experiments/wmm-core/safe110.c,PROOF,8.844992
/nas/schram/gitcbmc-lazy-po/experiments/wmm-core/thin000.c,PROOF,6.436246
/nas/schram/gitcbmc-lazy-po/experiments/wmm-core/thin001.c,PROOF,8.794495
/nas/schram/gitcbmc-lazy-po/experiments/wmm-core/thin002.c,PROOF,5.027451
=======
Summary:
available results,0
correct results,0
correct proofs,0
correct alarms,0
wrong proofs,0
wrong alarms,0
unknown results,0
CPU time,1212.4741759300232
score,0
