Tool:
executable,/users/bjowac/bin/cbmc-mus
parameters,--lazy-encoding --error-label ERROR --unwind 5 --no-unwinding-assertions
=======
Detailed outcomes:
/nas/schram/gitcbmc-lazy-po/experiments/wmm-core/aclwdrr002.c,PROOF,5.098769
/nas/schram/gitcbmc-lazy-po/experiments/wmm-core/aclwdrr006.c,PROOF,2.346676
/nas/schram/gitcbmc-lazy-po/experiments/wmm-core/aclwdrr008.c,PROOF,3.652515
/nas/schram/gitcbmc-lazy-po/experiments/wmm-core/aclwdrr010.c,PROOF,4.148608
/nas/schram/gitcbmc-lazy-po/experiments/wmm-core/aclwdrr011.c,PROOF,4.099188
/nas/schram/gitcbmc-lazy-po/experiments/wmm-core/aclwdrr013.c,PROOF,3.806126
/nas/schram/gitcbmc-lazy-po/experiments/wmm-core/aclwsrr002.c,PROOF,2.490583
/nas/schram/gitcbmc-lazy-po/experiments/wmm-core/bclwdww001.c,PROOF,4.336460
/nas/schram/gitcbmc-lazy-po/experiments/wmm-core/bclwdww003.c,PROOF,3.856563
/nas/schram/gitcbmc-lazy-po/experiments/wmm-core/bclwdww005.c,PROOF,4.017179
/nas/schram/gitcbmc-lazy-po/experiments/wmm-core/iriw+lwsyncs.c,PROOF,5.493549
/nas/schram/gitcbmc-lazy-po/experiments/wmm-core/lwdwr000.c,PROOF,4.429247
/nas/schram/gitcbmc-lazy-po/experiments/wmm-core/lwdwr001.c,PROOF,4.208081
/nas/schram/gitcbmc-lazy-po/experiments/wmm-core/lwdwr004.c,PROOF,4.938284
/nas/schram/gitcbmc-lazy-po/experiments/wmm-core/lwdwr006.c,PROOF,4.503874
/nas/schram/gitcbmc-lazy-po/experiments/wmm-core/lwdwr007.c,PROOF,4.298136
/nas/schram/gitcbmc-lazy-po/experiments/wmm-core/lwdwr010.c,PROOF,7.645731
/nas/schram/gitcbmc-lazy-po/experiments/wmm-core/lwdwr016.c,PROOF,10.168976
/nas/schram/gitcbmc-lazy-po/experiments/wmm-core/lwdwr017.c,PROOF,10.013738
/nas/schram/gitcbmc-lazy-po/experiments/wmm-core/lwdwr019.c,PROOF,9.379381
/nas/schram/gitcbmc-lazy-po/experiments/wmm-core/mix004.c,PROOF,15.072312
/nas/schram/gitcbmc-lazy-po/experiments/wmm-core/mix005.c,PROOF,16.099844
/nas/schram/gitcbmc-lazy-po/experiments/wmm-core/mix007.c,PROOF,15.516803
/nas/schram/gitcbmc-lazy-po/experiments/wmm-core/mix008.c,PROOF,15.296097
/nas/schram/gitcbmc-lazy-po/experiments/wmm-core/mix013.c,PROOF,19.318425
/nas/schram/gitcbmc-lazy-po/experiments/wmm-core/mix014.c,PROOF,15.925666
/nas/schram/gitcbmc-lazy-po/experiments/wmm-core/mix017.c,PROOF,14.865711
/nas/schram/gitcbmc-lazy-po/experiments/wmm-core/mix018.c,PROOF,16.099973
/nas/schram/gitcbmc-lazy-po/experiments/wmm-core/mix020.c,PROOF,17.677299
/nas/schram/gitcbmc-lazy-po/experiments/wmm-core/mix021.c,PROOF,15.262491
/nas/schram/gitcbmc-lazy-po/experiments/wmm-core/mix023.c,PROOF,15.535848
/nas/schram/gitcbmc-lazy-po/experiments/wmm-core/mix026.c,PROOF,17.441316
/nas/schram/gitcbmc-lazy-po/experiments/wmm-core/mix027.c,PROOF,15.805412
/nas/schram/gitcbmc-lazy-po/experiments/wmm-core/mix029.c,PROOF,15.199050
/nas/schram/gitcbmc-lazy-po/experiments/wmm-core/mix030.c,PROOF,15.681008
/nas/schram/gitcbmc-lazy-po/experiments/wmm-core/mix036.c,PROOF,18.999290
/nas/schram/gitcbmc-lazy-po/experiments/wmm-core/mix037.c,PROOF,16.312983
/nas/schram/gitcbmc-lazy-po/experiments/wmm-core/mix039.c,PROOF,16.193640
/nas/schram/gitcbmc-lazy-po/experiments/wmm-core/mix040.c,PROOF,16.714707
/nas/schram/gitcbmc-lazy-po/experiments/wmm-core/mix043.c,PROOF,19.267066
/nas/schram/gitcbmc-lazy-po/experiments/wmm-core/mix044.c,PROOF,16.608924
/nas/schram/gitcbmc-lazy-po/experiments/wmm-core/mix046.c,PROOF,13.531877
/nas/schram/gitcbmc-lazy-po/experiments/wmm-core/mix047.c,PROOF,15.168502
/nas/schram/gitcbmc-lazy-po/experiments/wmm-core/mix050.c,PROOF,17.274784
/nas/schram/gitcbmc-lazy-po/experiments/wmm-core/mix051.c,PROOF,17.011517
/nas/schram/gitcbmc-lazy-po/experiments/wmm-core/mix053.c,PROOF,16.868795
/nas/schram/gitcbmc-lazy-po/experiments/wmm-core/mix055.c,PROOF,18.976484
/nas/schram/gitcbmc-lazy-po/experiments/wmm-core/mix057.c,PROOF,15.766583
/nas/schram/gitcbmc-lazy-po/experiments/wmm-core/podrr001.c,PROOF,6.399958
/nas/schram/gitcbmc-lazy-po/experiments/wmm-core/podrw001.c,PROOF,6.915774
/nas/schram/gitcbmc-lazy-po/experiments/wmm-core/podrwposwr001.c,PROOF,8.043284
/nas/schram/gitcbmc-lazy-po/experiments/wmm-core/podrwposwr002.c,PROOF,7.890397
/nas/schram/gitcbmc-lazy-po/experiments/wmm-core/podrwposwr003.c,PROOF,6.603243
/nas/schram/gitcbmc-lazy-po/experiments/wmm-core/podrwposwr006.c,PROOF,7.707987
/nas/schram/gitcbmc-lazy-po/experiments/wmm-core/podrwposwr007.c,PROOF,7.501461
/nas/schram/gitcbmc-lazy-po/experiments/wmm-core/podrwposwr008.c,PROOF,8.305741
/nas/schram/gitcbmc-lazy-po/experiments/wmm-core/podrwposwr010.c,PROOF,7.388421
/nas/schram/gitcbmc-lazy-po/experiments/wmm-core/podrwposwr011.c,PROOF,8.799275
/nas/schram/gitcbmc-lazy-po/experiments/wmm-core/podrwposwr012.c,PROOF,9.136048
/nas/schram/gitcbmc-lazy-po/experiments/wmm-core/podrwposwr013.c,PROOF,7.599768
/nas/schram/gitcbmc-lazy-po/experiments/wmm-core/podrwposwr014.c,PROOF,7.949660
/nas/schram/gitcbmc-lazy-po/experiments/wmm-core/podrwposwr015.c,PROOF,7.491838
/nas/schram/gitcbmc-lazy-po/experiments/wmm-core/posrr004.c,PROOF,6.724802
/nas/schram/gitcbmc-lazy-po/experiments/wmm-core/rfe000.c,PROOF,4.845019
/nas/schram/gitcbmc-lazy-po/experiments/wmm-core/rfe001.c,PROOF,6.776378
/nas/schram/gitcbmc-lazy-po/experiments/wmm-core/rfi000.c,PROOF,4.073372
/nas/schram/gitcbmc-lazy-po/experiments/wmm-core/rfi003.c,PROOF,4.874236
/nas/schram/gitcbmc-lazy-po/experiments/wmm-core/safe002.c,PROOF,4.713385
/nas/schram/gitcbmc-lazy-po/experiments/wmm-core/safe019.c,PROOF,7.856286
/nas/schram/gitcbmc-lazy-po/experiments/wmm-core/safe025.c,PROOF,6.577038
/nas/schram/gitcbmc-lazy-po/experiments/wmm-core/safe027.c,PROOF,6.242349
/nas/schram/gitcbmc-lazy-po/experiments/wmm-core/safe034.c,PROOF,6.950322
/nas/schram/gitcbmc-lazy-po/experiments/wmm-core/safe044.c,PROOF,7.796779
/nas/schram/gitcbmc-lazy-po/experiments/wmm-core/safe049.c,PROOF,7.033058
/nas/schram/gitcbmc-lazy-po/experiments/wmm-core/safe051.c,PROOF,6.044614
/nas/schram/gitcbmc-lazy-po/experiments/wmm-core/safe057.c,PROOF,4.424217
/nas/schram/gitcbmc-lazy-po/experiments/wmm-core/safe075.c,PROOF,5.221097
/nas/schram/gitcbmc-lazy-po/experiments/wmm-core/safe078.c,PROOF,7.703988
/nas/schram/gitcbmc-lazy-po/experiments/wmm-core/safe081.c,PROOF,7.083310
/nas/schram/gitcbmc-lazy-po/experiments/wmm-core/safe087.c,PROOF,8.106012
/nas/schram/gitcbmc-lazy-po/experiments/wmm-core/safe090.c,PROOF,8.631722
/nas/schram/gitcbmc-lazy-po/experiments/wmm-core/safe100.c,PROOF,6.827289
/nas/schram/gitcbmc-lazy-po/experiments/wmm-core/safe102.c,PROOF,6.798703
/nas/schram/gitcbmc-lazy-po/experiments/wmm-core/safe104.c,PROOF,4.414560
/nas/schram/gitcbmc-lazy-po/experiments/wmm-core/safe105.c,PROOF,7.119080
/nas/schram/gitcbmc-lazy-po/experiments/wmm-core/safe107.c,PROOF,6.871998
/nas/schram/gitcbmc-lazy-po/experiments/wmm-core/safe110.c,PROOF,6.773775
/nas/schram/gitcbmc-lazy-po/experiments/wmm-core/thin000.c,PROOF,5.044991
/nas/schram/gitcbmc-lazy-po/experiments/wmm-core/thin001.c,PROOF,7.058281
/nas/schram/gitcbmc-lazy-po/experiments/wmm-core/thin002.c,PROOF,5.865006
=======
Summary:
available results,0
correct results,0
correct proofs,0
correct alarms,0
wrong proofs,0
wrong alarms,0
unknown results,0
CPU time,848.6085932254791
score,0
