Tool:
executable,/users/bjowac/bin/cbmc-no-mus
parameters,--error-label ERROR --unwind 5 --no-unwinding-assertions
=======
Detailed outcomes:
/nas/schram/gitcbmc-lazy-po/experiments/wmm-core/aclwdrr002.c,PROOF,1.974436
/nas/schram/gitcbmc-lazy-po/experiments/wmm-core/aclwdrr006.c,PROOF,1.077908
/nas/schram/gitcbmc-lazy-po/experiments/wmm-core/aclwdrr008.c,PROOF,1.324391
/nas/schram/gitcbmc-lazy-po/experiments/wmm-core/aclwdrr010.c,PROOF,1.683819
/nas/schram/gitcbmc-lazy-po/experiments/wmm-core/aclwdrr011.c,PROOF,1.533479
/nas/schram/gitcbmc-lazy-po/experiments/wmm-core/aclwdrr013.c,PROOF,1.575211
/nas/schram/gitcbmc-lazy-po/experiments/wmm-core/aclwsrr002.c,PROOF,1.228502
/nas/schram/gitcbmc-lazy-po/experiments/wmm-core/bclwdww001.c,PROOF,1.325590
/nas/schram/gitcbmc-lazy-po/experiments/wmm-core/bclwdww003.c,PROOF,1.726139
/nas/schram/gitcbmc-lazy-po/experiments/wmm-core/bclwdww005.c,PROOF,1.478303
/nas/schram/gitcbmc-lazy-po/experiments/wmm-core/iriw+lwsyncs.c,PROOF,2.074462
/nas/schram/gitcbmc-lazy-po/experiments/wmm-core/lwdwr000.c,PROOF,1.580924
/nas/schram/gitcbmc-lazy-po/experiments/wmm-core/lwdwr001.c,PROOF,1.577320
/nas/schram/gitcbmc-lazy-po/experiments/wmm-core/lwdwr004.c,PROOF,2.076841
/nas/schram/gitcbmc-lazy-po/experiments/wmm-core/lwdwr006.c,PROOF,1.676747
/nas/schram/gitcbmc-lazy-po/experiments/wmm-core/lwdwr007.c,PROOF,1.477540
/nas/schram/gitcbmc-lazy-po/experiments/wmm-core/lwdwr010.c,PROOF,1.779223
/nas/schram/gitcbmc-lazy-po/experiments/wmm-core/lwdwr016.c,PROOF,1.679144
/nas/schram/gitcbmc-lazy-po/experiments/wmm-core/lwdwr017.c,PROOF,1.430781
/nas/schram/gitcbmc-lazy-po/experiments/wmm-core/lwdwr019.c,PROOF,1.972680
/nas/schram/gitcbmc-lazy-po/experiments/wmm-core/mix004.c,PROOF,2.275159
/nas/schram/gitcbmc-lazy-po/experiments/wmm-core/mix005.c,PROOF,2.674486
/nas/schram/gitcbmc-lazy-po/experiments/wmm-core/mix007.c,PROOF,2.422870
/nas/schram/gitcbmc-lazy-po/experiments/wmm-core/mix008.c,PROOF,2.927474
/nas/schram/gitcbmc-lazy-po/experiments/wmm-core/mix013.c,PROOF,3.030706
/nas/schram/gitcbmc-lazy-po/experiments/wmm-core/mix014.c,PROOF,2.780168
/nas/schram/gitcbmc-lazy-po/experiments/wmm-core/mix017.c,PROOF,3.124408
/nas/schram/gitcbmc-lazy-po/experiments/wmm-core/mix018.c,PROOF,2.532802
/nas/schram/gitcbmc-lazy-po/experiments/wmm-core/mix020.c,PROOF,2.875580
/nas/schram/gitcbmc-lazy-po/experiments/wmm-core/mix021.c,PROOF,2.276156
/nas/schram/gitcbmc-lazy-po/experiments/wmm-core/mix023.c,PROOF,2.685920
/nas/schram/gitcbmc-lazy-po/experiments/wmm-core/mix026.c,PROOF,2.832531
/nas/schram/gitcbmc-lazy-po/experiments/wmm-core/mix027.c,PROOF,2.276889
/nas/schram/gitcbmc-lazy-po/experiments/wmm-core/mix029.c,PROOF,2.336471
/nas/schram/gitcbmc-lazy-po/experiments/wmm-core/mix030.c,PROOF,2.574942
/nas/schram/gitcbmc-lazy-po/experiments/wmm-core/mix036.c,PROOF,2.676875
/nas/schram/gitcbmc-lazy-po/experiments/wmm-core/mix037.c,PROOF,2.575512
/nas/schram/gitcbmc-lazy-po/experiments/wmm-core/mix039.c,PROOF,2.826116
/nas/schram/gitcbmc-lazy-po/experiments/wmm-core/mix040.c,PROOF,2.675956
/nas/schram/gitcbmc-lazy-po/experiments/wmm-core/mix043.c,PROOF,2.375502
/nas/schram/gitcbmc-lazy-po/experiments/wmm-core/mix044.c,PROOF,2.826325
/nas/schram/gitcbmc-lazy-po/experiments/wmm-core/mix046.c,PROOF,2.044958
/nas/schram/gitcbmc-lazy-po/experiments/wmm-core/mix047.c,PROOF,2.744829
/nas/schram/gitcbmc-lazy-po/experiments/wmm-core/mix050.c,PROOF,5.517271
/nas/schram/gitcbmc-lazy-po/experiments/wmm-core/mix051.c,PROOF,5.242292
/nas/schram/gitcbmc-lazy-po/experiments/wmm-core/mix053.c,PROOF,5.149292
/nas/schram/gitcbmc-lazy-po/experiments/wmm-core/mix055.c,PROOF,5.521902
/nas/schram/gitcbmc-lazy-po/experiments/wmm-core/mix057.c,PROOF,4.803944
/nas/schram/gitcbmc-lazy-po/experiments/wmm-core/podrr001.c,PROOF,2.901622
/nas/schram/gitcbmc-lazy-po/experiments/wmm-core/podrw001.c,PROOF,2.589570
/nas/schram/gitcbmc-lazy-po/experiments/wmm-core/podrwposwr001.c,PROOF,3.029011
/nas/schram/gitcbmc-lazy-po/experiments/wmm-core/podrwposwr002.c,PROOF,3.026165
/nas/schram/gitcbmc-lazy-po/experiments/wmm-core/podrwposwr003.c,PROOF,2.721701
/nas/schram/gitcbmc-lazy-po/experiments/wmm-core/podrwposwr006.c,PROOF,2.905558
/nas/schram/gitcbmc-lazy-po/experiments/wmm-core/podrwposwr007.c,PROOF,3.137951
/nas/schram/gitcbmc-lazy-po/experiments/wmm-core/podrwposwr008.c,PROOF,3.049326
/nas/schram/gitcbmc-lazy-po/experiments/wmm-core/podrwposwr010.c,PROOF,3.009544
/nas/schram/gitcbmc-lazy-po/experiments/wmm-core/podrwposwr011.c,PROOF,3.204099
/nas/schram/gitcbmc-lazy-po/experiments/wmm-core/podrwposwr012.c,PROOF,2.814428
/nas/schram/gitcbmc-lazy-po/experiments/wmm-core/podrwposwr013.c,PROOF,2.659144
/nas/schram/gitcbmc-lazy-po/experiments/wmm-core/podrwposwr014.c,PROOF,2.942726
/nas/schram/gitcbmc-lazy-po/experiments/wmm-core/podrwposwr015.c,PROOF,2.834100
/nas/schram/gitcbmc-lazy-po/experiments/wmm-core/posrr004.c,PROOF,2.443283
/nas/schram/gitcbmc-lazy-po/experiments/wmm-core/rfe000.c,PROOF,2.198383
/nas/schram/gitcbmc-lazy-po/experiments/wmm-core/rfe001.c,PROOF,2.395194
/nas/schram/gitcbmc-lazy-po/experiments/wmm-core/rfi000.c,PROOF,2.153246
/nas/schram/gitcbmc-lazy-po/experiments/wmm-core/rfi003.c,PROOF,2.416562
/nas/schram/gitcbmc-lazy-po/experiments/wmm-core/safe002.c,PROOF,2.347580
/nas/schram/gitcbmc-lazy-po/experiments/wmm-core/safe019.c,PROOF,2.834602
/nas/schram/gitcbmc-lazy-po/experiments/wmm-core/safe025.c,PROOF,2.840418
/nas/schram/gitcbmc-lazy-po/experiments/wmm-core/safe027.c,PROOF,2.909911
/nas/schram/gitcbmc-lazy-po/experiments/wmm-core/safe034.c,PROOF,3.206173
/nas/schram/gitcbmc-lazy-po/experiments/wmm-core/safe044.c,PROOF,2.938522
/nas/schram/gitcbmc-lazy-po/experiments/wmm-core/safe049.c,PROOF,2.867367
/nas/schram/gitcbmc-lazy-po/experiments/wmm-core/safe051.c,PROOF,2.815063
/nas/schram/gitcbmc-lazy-po/experiments/wmm-core/safe057.c,PROOF,2.307202
/nas/schram/gitcbmc-lazy-po/experiments/wmm-core/safe075.c,PROOF,2.452964
/nas/schram/gitcbmc-lazy-po/experiments/wmm-core/safe078.c,PROOF,2.936276
/nas/schram/gitcbmc-lazy-po/experiments/wmm-core/safe081.c,PROOF,2.582518
/nas/schram/gitcbmc-lazy-po/experiments/wmm-core/safe087.c,PROOF,3.286230
/nas/schram/gitcbmc-lazy-po/experiments/wmm-core/safe090.c,PROOF,2.837584
/nas/schram/gitcbmc-lazy-po/experiments/wmm-core/safe100.c,PROOF,2.657675
/nas/schram/gitcbmc-lazy-po/experiments/wmm-core/safe102.c,PROOF,2.496534
/nas/schram/gitcbmc-lazy-po/experiments/wmm-core/safe104.c,PROOF,2.256591
/nas/schram/gitcbmc-lazy-po/experiments/wmm-core/safe105.c,PROOF,2.651564
/nas/schram/gitcbmc-lazy-po/experiments/wmm-core/safe107.c,PROOF,2.977576
/nas/schram/gitcbmc-lazy-po/experiments/wmm-core/safe110.c,PROOF,2.513699
/nas/schram/gitcbmc-lazy-po/experiments/wmm-core/thin000.c,PROOF,2.220550
/nas/schram/gitcbmc-lazy-po/experiments/wmm-core/thin001.c,PROOF,2.344470
/nas/schram/gitcbmc-lazy-po/experiments/wmm-core/thin002.c,PROOF,2.466615
=======
Summary:
available results,0
correct results,0
correct proofs,0
correct alarms,0
wrong proofs,0
wrong alarms,0
unknown results,0
CPU time,233.0400731563568
score,0
