Tool:
executable,cbmc-mus2
parameters,--mm pso --lazy-encoding --error-label ERROR --unwind 5 --no-unwinding-assertions
=======
Detailed outcomes:
/nas/schram/gitcbmc-lazy-po/experiments/wmm-core/aclwdrr002.c,PROOF,2.169554
/nas/schram/gitcbmc-lazy-po/experiments/wmm-core/aclwdrr006.c,ALARM,0.516096
/nas/schram/gitcbmc-lazy-po/experiments/wmm-core/aclwdrr008.c,PROOF,0.816269
/nas/schram/gitcbmc-lazy-po/experiments/wmm-core/aclwdrr010.c,ALARM,0.716809
/nas/schram/gitcbmc-lazy-po/experiments/wmm-core/aclwdrr011.c,ALARM,0.716029
/nas/schram/gitcbmc-lazy-po/experiments/wmm-core/aclwdrr013.c,ALARM,0.716537
/nas/schram/gitcbmc-lazy-po/experiments/wmm-core/aclwsrr002.c,ALARM,0.615993
/nas/schram/gitcbmc-lazy-po/experiments/wmm-core/bclwdww001.c,PROOF,1.167569
/nas/schram/gitcbmc-lazy-po/experiments/wmm-core/bclwdww003.c,ALARM,0.716193
/nas/schram/gitcbmc-lazy-po/experiments/wmm-core/bclwdww005.c,ALARM,0.666192
/nas/schram/gitcbmc-lazy-po/experiments/wmm-core/iriw+lwsyncs.c,PROOF,2.119468
/nas/schram/gitcbmc-lazy-po/experiments/wmm-core/lwdwr000.c,ALARM,0.716395
/nas/schram/gitcbmc-lazy-po/experiments/wmm-core/lwdwr001.c,ALARM,0.716191
/nas/schram/gitcbmc-lazy-po/experiments/wmm-core/lwdwr004.c,ALARM,0.666547
/nas/schram/gitcbmc-lazy-po/experiments/wmm-core/lwdwr006.c,ALARM,0.716230
/nas/schram/gitcbmc-lazy-po/experiments/wmm-core/lwdwr007.c,ALARM,0.716366
/nas/schram/gitcbmc-lazy-po/experiments/wmm-core/lwdwr010.c,ALARM,0.665835
/nas/schram/gitcbmc-lazy-po/experiments/wmm-core/lwdwr016.c,ALARM,0.666425
/nas/schram/gitcbmc-lazy-po/experiments/wmm-core/lwdwr017.c,ALARM,0.666035
/nas/schram/gitcbmc-lazy-po/experiments/wmm-core/lwdwr019.c,ALARM,0.666227
/nas/schram/gitcbmc-lazy-po/experiments/wmm-core/mix004.c,ALARM,0.867003
/nas/schram/gitcbmc-lazy-po/experiments/wmm-core/mix005.c,ALARM,0.716311
/nas/schram/gitcbmc-lazy-po/experiments/wmm-core/mix007.c,ALARM,0.716768
/nas/schram/gitcbmc-lazy-po/experiments/wmm-core/mix008.c,ALARM,0.716629
/nas/schram/gitcbmc-lazy-po/experiments/wmm-core/mix013.c,ALARM,0.666245
/nas/schram/gitcbmc-lazy-po/experiments/wmm-core/mix014.c,ALARM,0.816605
/nas/schram/gitcbmc-lazy-po/experiments/wmm-core/mix017.c,ALARM,0.716124
/nas/schram/gitcbmc-lazy-po/experiments/wmm-core/mix018.c,ALARM,0.666335
/nas/schram/gitcbmc-lazy-po/experiments/wmm-core/mix020.c,ALARM,0.716290
/nas/schram/gitcbmc-lazy-po/experiments/wmm-core/mix021.c,ALARM,0.666246
/nas/schram/gitcbmc-lazy-po/experiments/wmm-core/mix023.c,ALARM,0.766245
/nas/schram/gitcbmc-lazy-po/experiments/wmm-core/mix026.c,ALARM,0.766400
/nas/schram/gitcbmc-lazy-po/experiments/wmm-core/mix027.c,ALARM,0.716574
/nas/schram/gitcbmc-lazy-po/experiments/wmm-core/mix029.c,ALARM,0.716146
/nas/schram/gitcbmc-lazy-po/experiments/wmm-core/mix030.c,ALARM,0.666269
/nas/schram/gitcbmc-lazy-po/experiments/wmm-core/mix036.c,ALARM,0.766785
/nas/schram/gitcbmc-lazy-po/experiments/wmm-core/mix037.c,ALARM,0.766634
/nas/schram/gitcbmc-lazy-po/experiments/wmm-core/mix039.c,ALARM,0.666370
/nas/schram/gitcbmc-lazy-po/experiments/wmm-core/mix040.c,ALARM,0.716910
/nas/schram/gitcbmc-lazy-po/experiments/wmm-core/mix043.c,ALARM,0.666276
/nas/schram/gitcbmc-lazy-po/experiments/wmm-core/mix044.c,ALARM,0.666511
/nas/schram/gitcbmc-lazy-po/experiments/wmm-core/mix046.c,ALARM,0.716335
/nas/schram/gitcbmc-lazy-po/experiments/wmm-core/mix047.c,ALARM,0.716519
/nas/schram/gitcbmc-lazy-po/experiments/wmm-core/mix050.c,ALARM,0.616331
/nas/schram/gitcbmc-lazy-po/experiments/wmm-core/mix051.c,ALARM,0.666093
/nas/schram/gitcbmc-lazy-po/experiments/wmm-core/mix053.c,ALARM,0.616154
/nas/schram/gitcbmc-lazy-po/experiments/wmm-core/mix055.c,ALARM,0.666186
/nas/schram/gitcbmc-lazy-po/experiments/wmm-core/mix057.c,ALARM,0.616624
/nas/schram/gitcbmc-lazy-po/experiments/wmm-core/podrr001.c,ALARM,0.666326
/nas/schram/gitcbmc-lazy-po/experiments/wmm-core/podrw001.c,PROOF,0.716537
/nas/schram/gitcbmc-lazy-po/experiments/wmm-core/podrwposwr001.c,ALARM,0.866742
/nas/schram/gitcbmc-lazy-po/experiments/wmm-core/podrwposwr002.c,PROOF,0.967084
/nas/schram/gitcbmc-lazy-po/experiments/wmm-core/podrwposwr003.c,PROOF,0.866856
/nas/schram/gitcbmc-lazy-po/experiments/wmm-core/podrwposwr006.c,ALARM,0.766508
/nas/schram/gitcbmc-lazy-po/experiments/wmm-core/podrwposwr007.c,ALARM,0.816515
/nas/schram/gitcbmc-lazy-po/experiments/wmm-core/podrwposwr008.c,ALARM,0.716385
/nas/schram/gitcbmc-lazy-po/experiments/wmm-core/podrwposwr010.c,PROOF,1.117322
/nas/schram/gitcbmc-lazy-po/experiments/wmm-core/podrwposwr011.c,ALARM,0.816587
/nas/schram/gitcbmc-lazy-po/experiments/wmm-core/podrwposwr012.c,PROOF,1.017048
/nas/schram/gitcbmc-lazy-po/experiments/wmm-core/podrwposwr013.c,PROOF,0.916789
/nas/schram/gitcbmc-lazy-po/experiments/wmm-core/podrwposwr014.c,ALARM,0.716363
/nas/schram/gitcbmc-lazy-po/experiments/wmm-core/podrwposwr015.c,PROOF,0.966951
/nas/schram/gitcbmc-lazy-po/experiments/wmm-core/posrr004.c,PROOF,0.666254
/nas/schram/gitcbmc-lazy-po/experiments/wmm-core/rfe000.c,PROOF,0.515775
/nas/schram/gitcbmc-lazy-po/experiments/wmm-core/rfe001.c,PROOF,0.666584
/nas/schram/gitcbmc-lazy-po/experiments/wmm-core/rfi000.c,ALARM,0.516326
/nas/schram/gitcbmc-lazy-po/experiments/wmm-core/rfi003.c,ALARM,0.515767
/nas/schram/gitcbmc-lazy-po/experiments/wmm-core/safe002.c,PROOF,0.566014
/nas/schram/gitcbmc-lazy-po/experiments/wmm-core/safe019.c,PROOF,1.067317
/nas/schram/gitcbmc-lazy-po/experiments/wmm-core/safe025.c,PROOF,0.917203
/nas/schram/gitcbmc-lazy-po/experiments/wmm-core/safe027.c,PROOF,0.917223
/nas/schram/gitcbmc-lazy-po/experiments/wmm-core/safe034.c,ALARM,0.566083
/nas/schram/gitcbmc-lazy-po/experiments/wmm-core/safe044.c,PROOF,1.067287
/nas/schram/gitcbmc-lazy-po/experiments/wmm-core/safe049.c,PROOF,0.917358
/nas/schram/gitcbmc-lazy-po/experiments/wmm-core/safe051.c,PROOF,0.917467
/nas/schram/gitcbmc-lazy-po/experiments/wmm-core/safe057.c,PROOF,0.515882
/nas/schram/gitcbmc-lazy-po/experiments/wmm-core/safe075.c,ALARM,0.515661
/nas/schram/gitcbmc-lazy-po/experiments/wmm-core/safe078.c,PROOF,0.816573
/nas/schram/gitcbmc-lazy-po/experiments/wmm-core/safe081.c,PROOF,0.716533
/nas/schram/gitcbmc-lazy-po/experiments/wmm-core/safe087.c,ALARM,0.716386
/nas/schram/gitcbmc-lazy-po/experiments/wmm-core/safe090.c,ALARM,0.716851
/nas/schram/gitcbmc-lazy-po/experiments/wmm-core/safe100.c,PROOF,0.967224
/nas/schram/gitcbmc-lazy-po/experiments/wmm-core/safe102.c,PROOF,0.666429
/nas/schram/gitcbmc-lazy-po/experiments/wmm-core/safe104.c,ALARM,0.515982
/nas/schram/gitcbmc-lazy-po/experiments/wmm-core/safe105.c,PROOF,0.766416
/nas/schram/gitcbmc-lazy-po/experiments/wmm-core/safe107.c,PROOF,0.666299
/nas/schram/gitcbmc-lazy-po/experiments/wmm-core/safe110.c,PROOF,0.716553
/nas/schram/gitcbmc-lazy-po/experiments/wmm-core/thin000.c,PROOF,0.515760
/nas/schram/gitcbmc-lazy-po/experiments/wmm-core/thin001.c,PROOF,0.666228
/nas/schram/gitcbmc-lazy-po/experiments/wmm-core/thin002.c,PROOF,0.566073
=======
Summary:
available results,0
correct results,0
correct proofs,0
correct alarms,0
wrong proofs,0
wrong alarms,0
unknown results,0
CPU time,68.68839979171753
score,0
