Tool:
executable,/users/bjowac/bin/cbmc-mus
parameters,--mm tso --lazy-encoding --error-label ERROR --unwind 5 --no-unwinding-assertions
=======
Detailed outcomes:
/nas/schram/gitcbmc-lazy-po/experiments/wmm-core/aclwdrr002.c,PROOF,8.341790
/nas/schram/gitcbmc-lazy-po/experiments/wmm-core/aclwdrr006.c,PROOF,1.976196
/nas/schram/gitcbmc-lazy-po/experiments/wmm-core/aclwdrr008.c,PROOF,3.879909
/nas/schram/gitcbmc-lazy-po/experiments/wmm-core/aclwdrr010.c,PROOF,3.881250
/nas/schram/gitcbmc-lazy-po/experiments/wmm-core/aclwdrr011.c,PROOF,4.276534
/nas/schram/gitcbmc-lazy-po/experiments/wmm-core/aclwdrr013.c,PROOF,4.234911
/nas/schram/gitcbmc-lazy-po/experiments/wmm-core/aclwsrr002.c,PROOF,2.573637
/nas/schram/gitcbmc-lazy-po/experiments/wmm-core/bclwdww001.c,PROOF,4.128762
/nas/schram/gitcbmc-lazy-po/experiments/wmm-core/bclwdww003.c,PROOF,4.177997
/nas/schram/gitcbmc-lazy-po/experiments/wmm-core/bclwdww005.c,PROOF,4.676934
/nas/schram/gitcbmc-lazy-po/experiments/wmm-core/iriw+lwsyncs.c,PROOF,6.693308
/nas/schram/gitcbmc-lazy-po/experiments/wmm-core/lwdwr000.c,PROOF,5.182015
/nas/schram/gitcbmc-lazy-po/experiments/wmm-core/lwdwr001.c,PROOF,4.728071
/nas/schram/gitcbmc-lazy-po/experiments/wmm-core/lwdwr004.c,PROOF,5.329912
/nas/schram/gitcbmc-lazy-po/experiments/wmm-core/lwdwr006.c,PROOF,4.586726
/nas/schram/gitcbmc-lazy-po/experiments/wmm-core/lwdwr007.c,PROOF,5.339114
/nas/schram/gitcbmc-lazy-po/experiments/wmm-core/lwdwr010.c,PROOF,5.183922
/nas/schram/gitcbmc-lazy-po/experiments/wmm-core/lwdwr016.c,PROOF,5.341255
/nas/schram/gitcbmc-lazy-po/experiments/wmm-core/lwdwr017.c,PROOF,5.184988
/nas/schram/gitcbmc-lazy-po/experiments/wmm-core/lwdwr019.c,PROOF,7.089856
/nas/schram/gitcbmc-lazy-po/experiments/wmm-core/mix004.c,ALARM,7.878823
/nas/schram/gitcbmc-lazy-po/experiments/wmm-core/mix005.c,ALARM,8.505935
/nas/schram/gitcbmc-lazy-po/experiments/wmm-core/mix007.c,ALARM,8.801892
/nas/schram/gitcbmc-lazy-po/experiments/wmm-core/mix008.c,ALARM,7.240687
/nas/schram/gitcbmc-lazy-po/experiments/wmm-core/mix013.c,ALARM,7.687660
/nas/schram/gitcbmc-lazy-po/experiments/wmm-core/mix014.c,ALARM,8.654458
/nas/schram/gitcbmc-lazy-po/experiments/wmm-core/mix017.c,ALARM,7.606379
/nas/schram/gitcbmc-lazy-po/experiments/wmm-core/mix018.c,ALARM,7.486624
/nas/schram/gitcbmc-lazy-po/experiments/wmm-core/mix020.c,ALARM,7.203104
/nas/schram/gitcbmc-lazy-po/experiments/wmm-core/mix021.c,ALARM,8.119335
/nas/schram/gitcbmc-lazy-po/experiments/wmm-core/mix023.c,ALARM,7.659164
/nas/schram/gitcbmc-lazy-po/experiments/wmm-core/mix026.c,ALARM,7.860562
/nas/schram/gitcbmc-lazy-po/experiments/wmm-core/mix027.c,ALARM,6.742639
/nas/schram/gitcbmc-lazy-po/experiments/wmm-core/mix029.c,ALARM,7.410573
/nas/schram/gitcbmc-lazy-po/experiments/wmm-core/mix030.c,ALARM,8.656423
/nas/schram/gitcbmc-lazy-po/experiments/wmm-core/mix036.c,ALARM,8.032302
/nas/schram/gitcbmc-lazy-po/experiments/wmm-core/mix037.c,ALARM,7.375940
/nas/schram/gitcbmc-lazy-po/experiments/wmm-core/mix039.c,ALARM,7.237978
/nas/schram/gitcbmc-lazy-po/experiments/wmm-core/mix040.c,ALARM,7.612140
/nas/schram/gitcbmc-lazy-po/experiments/wmm-core/mix043.c,ALARM,7.518878
/nas/schram/gitcbmc-lazy-po/experiments/wmm-core/mix044.c,ALARM,7.498392
/nas/schram/gitcbmc-lazy-po/experiments/wmm-core/mix046.c,ALARM,6.631506
/nas/schram/gitcbmc-lazy-po/experiments/wmm-core/mix047.c,ALARM,6.989889
/nas/schram/gitcbmc-lazy-po/experiments/wmm-core/mix050.c,ALARM,5.841054
/nas/schram/gitcbmc-lazy-po/experiments/wmm-core/mix051.c,ALARM,6.836358
/nas/schram/gitcbmc-lazy-po/experiments/wmm-core/mix053.c,ALARM,5.965511
/nas/schram/gitcbmc-lazy-po/experiments/wmm-core/mix055.c,ALARM,5.525312
/nas/schram/gitcbmc-lazy-po/experiments/wmm-core/mix057.c,ALARM,6.111509
/nas/schram/gitcbmc-lazy-po/experiments/wmm-core/podrr001.c,PROOF,6.014643
/nas/schram/gitcbmc-lazy-po/experiments/wmm-core/podrw001.c,PROOF,5.596017
/nas/schram/gitcbmc-lazy-po/experiments/wmm-core/podrwposwr001.c,PROOF,9.662776
/nas/schram/gitcbmc-lazy-po/experiments/wmm-core/podrwposwr002.c,PROOF,10.199461
/nas/schram/gitcbmc-lazy-po/experiments/wmm-core/podrwposwr003.c,PROOF,8.298100
/nas/schram/gitcbmc-lazy-po/experiments/wmm-core/podrwposwr006.c,PROOF,8.398259
/nas/schram/gitcbmc-lazy-po/experiments/wmm-core/podrwposwr007.c,PROOF,9.394615
/nas/schram/gitcbmc-lazy-po/experiments/wmm-core/podrwposwr008.c,PROOF,7.456546
/nas/schram/gitcbmc-lazy-po/experiments/wmm-core/podrwposwr010.c,PROOF,6.880938
/nas/schram/gitcbmc-lazy-po/experiments/wmm-core/podrwposwr011.c,PROOF,8.099856
/nas/schram/gitcbmc-lazy-po/experiments/wmm-core/podrwposwr012.c,PROOF,6.387849
/nas/schram/gitcbmc-lazy-po/experiments/wmm-core/podrwposwr013.c,PROOF,5.483882
/nas/schram/gitcbmc-lazy-po/experiments/wmm-core/podrwposwr014.c,PROOF,6.684037
/nas/schram/gitcbmc-lazy-po/experiments/wmm-core/podrwposwr015.c,PROOF,6.591956
/nas/schram/gitcbmc-lazy-po/experiments/wmm-core/posrr004.c,PROOF,4.590021
/nas/schram/gitcbmc-lazy-po/experiments/wmm-core/rfe000.c,PROOF,3.030383
/nas/schram/gitcbmc-lazy-po/experiments/wmm-core/rfe001.c,PROOF,5.250436
/nas/schram/gitcbmc-lazy-po/experiments/wmm-core/rfi000.c,PROOF,2.677611
/nas/schram/gitcbmc-lazy-po/experiments/wmm-core/rfi003.c,PROOF,3.070041
/nas/schram/gitcbmc-lazy-po/experiments/wmm-core/safe002.c,PROOF,3.070173
/nas/schram/gitcbmc-lazy-po/experiments/wmm-core/safe019.c,ALARM,4.684865
/nas/schram/gitcbmc-lazy-po/experiments/wmm-core/safe025.c,ALARM,4.402059
/nas/schram/gitcbmc-lazy-po/experiments/wmm-core/safe027.c,ALARM,4.200482
/nas/schram/gitcbmc-lazy-po/experiments/wmm-core/safe034.c,PROOF,4.497357
/nas/schram/gitcbmc-lazy-po/experiments/wmm-core/safe044.c,ALARM,4.752273
/nas/schram/gitcbmc-lazy-po/experiments/wmm-core/safe049.c,PROOF,5.534992
/nas/schram/gitcbmc-lazy-po/experiments/wmm-core/safe051.c,PROOF,5.348319
/nas/schram/gitcbmc-lazy-po/experiments/wmm-core/safe057.c,PROOF,2.627944
/nas/schram/gitcbmc-lazy-po/experiments/wmm-core/safe075.c,PROOF,3.254320
/nas/schram/gitcbmc-lazy-po/experiments/wmm-core/safe078.c,PROOF,5.982008
/nas/schram/gitcbmc-lazy-po/experiments/wmm-core/safe081.c,PROOF,4.749459
/nas/schram/gitcbmc-lazy-po/experiments/wmm-core/safe087.c,PROOF,5.932104
/nas/schram/gitcbmc-lazy-po/experiments/wmm-core/safe090.c,PROOF,5.952703
/nas/schram/gitcbmc-lazy-po/experiments/wmm-core/safe100.c,PROOF,5.832746
/nas/schram/gitcbmc-lazy-po/experiments/wmm-core/safe102.c,PROOF,4.300346
/nas/schram/gitcbmc-lazy-po/experiments/wmm-core/safe104.c,PROOF,2.688075
/nas/schram/gitcbmc-lazy-po/experiments/wmm-core/safe105.c,PROOF,4.684376
/nas/schram/gitcbmc-lazy-po/experiments/wmm-core/safe107.c,PROOF,4.257236
/nas/schram/gitcbmc-lazy-po/experiments/wmm-core/safe110.c,PROOF,4.375063
/nas/schram/gitcbmc-lazy-po/experiments/wmm-core/thin000.c,PROOF,3.298056
/nas/schram/gitcbmc-lazy-po/experiments/wmm-core/thin001.c,PROOF,4.854040
/nas/schram/gitcbmc-lazy-po/experiments/wmm-core/thin002.c,PROOF,3.847046
=======
Summary:
available results,0
correct results,0
correct proofs,0
correct alarms,0
wrong proofs,0
wrong alarms,0
unknown results,0
CPU time,530.3915824890137
score,0
