CBMC version 5.0 64-bit x86_64 linux
Parsing /nas/schram/gitcbmc-lazy-po/experiments/pthread-atomic/peterson_true-unreach-call.c
Converting
Type-checking peterson_true-unreach-call
Generating GOTO Program
Adding CPROVER library
Function Pointer Removal
Partial Inlining
Generic Property Instrumentation
Starting Bounded Model Checking
Unwinding loop thr1.0 iteration 1 (5 max) file /nas/schram/gitcbmc-lazy-po/experiments/pthread-atomic/peterson_true-unreach-call.c line 17 function thr1 thread 1
Unwinding loop thr1.0 iteration 2 (5 max) file /nas/schram/gitcbmc-lazy-po/experiments/pthread-atomic/peterson_true-unreach-call.c line 17 function thr1 thread 1
Unwinding loop thr1.0 iteration 3 (5 max) file /nas/schram/gitcbmc-lazy-po/experiments/pthread-atomic/peterson_true-unreach-call.c line 17 function thr1 thread 1
Unwinding loop thr1.0 iteration 4 (5 max) file /nas/schram/gitcbmc-lazy-po/experiments/pthread-atomic/peterson_true-unreach-call.c line 17 function thr1 thread 1
Not unwinding loop thr1.0 iteration 5 (5 max) file /nas/schram/gitcbmc-lazy-po/experiments/pthread-atomic/peterson_true-unreach-call.c line 17 function thr1 thread 1
Unwinding loop thr2.0 iteration 1 (5 max) file /nas/schram/gitcbmc-lazy-po/experiments/pthread-atomic/peterson_true-unreach-call.c line 28 function thr2 thread 2
Unwinding loop thr2.0 iteration 2 (5 max) file /nas/schram/gitcbmc-lazy-po/experiments/pthread-atomic/peterson_true-unreach-call.c line 28 function thr2 thread 2
Unwinding loop thr2.0 iteration 3 (5 max) file /nas/schram/gitcbmc-lazy-po/experiments/pthread-atomic/peterson_true-unreach-call.c line 28 function thr2 thread 2
Unwinding loop thr2.0 iteration 4 (5 max) file /nas/schram/gitcbmc-lazy-po/experiments/pthread-atomic/peterson_true-unreach-call.c line 28 function thr2 thread 2
Not unwinding loop thr2.0 iteration 5 (5 max) file /nas/schram/gitcbmc-lazy-po/experiments/pthread-atomic/peterson_true-unreach-call.c line 28 function thr2 thread 2
Adding initial SC constraints
size of program expression: 329 steps
no slicing due to threads
Generated 4 VCC(s), 4 remaining after simplification
Passing problem to refinement loop with MiniSAT 2.2.0 with simplifier
converting SSA
Running refinement loop with MiniSAT 2.2.0 with simplifier
BV-Refinement: post-processing
BV-Refinement: iteration 1
3354 variables, 6823 clauses
SAT checker: negated claim is SATISFIABLE, i.e., does not hold
BV-Refinement: 28 partial order constraints become active
BV-Refinement: 73 inactive partial order constraints
BV-Refinement: got SAT, and it is spurious, refining
BV-Refinement: iteration 2
3819 variables, 7639 clauses
SAT checker: negated claim is SATISFIABLE, i.e., does not hold
BV-Refinement: 47 partial order constraints become active
BV-Refinement: 166 inactive partial order constraints
BV-Refinement: got SAT, and it is spurious, refining
BV-Refinement: iteration 3
4026 variables, 8664 clauses
SAT checker: negated claim is SATISFIABLE, i.e., does not hold
BV-Refinement: 46 partial order constraints become active
BV-Refinement: 312 inactive partial order constraints
BV-Refinement: got SAT, and it is spurious, refining
BV-Refinement: iteration 4
4225 variables, 9615 clauses
SAT checker: negated claim is SATISFIABLE, i.e., does not hold
BV-Refinement: 43 partial order constraints become active
BV-Refinement: 443 inactive partial order constraints
BV-Refinement: got SAT, and it is spurious, refining
BV-Refinement: iteration 5
4295 variables, 9818 clauses
SAT checker: negated claim is SATISFIABLE, i.e., does not hold
BV-Refinement: 68 partial order constraints become active
BV-Refinement: 618 inactive partial order constraints
BV-Refinement: got SAT, and it is spurious, refining
BV-Refinement: iteration 6
4497 variables, 10890 clauses
SAT checker: negated claim is SATISFIABLE, i.e., does not hold
BV-Refinement: 59 partial order constraints become active
BV-Refinement: 816 inactive partial order constraints
BV-Refinement: got SAT, and it is spurious, refining
BV-Refinement: iteration 7
4544 variables, 10990 clauses
SAT checker: negated claim is SATISFIABLE, i.e., does not hold
BV-Refinement: 52 partial order constraints become active
BV-Refinement: 1001 inactive partial order constraints
BV-Refinement: got SAT, and it is spurious, refining
BV-Refinement: iteration 8
4585 variables, 11152 clauses
SAT checker: negated claim is SATISFIABLE, i.e., does not hold
BV-Refinement: 55 partial order constraints become active
BV-Refinement: 1182 inactive partial order constraints
BV-Refinement: got SAT, and it is spurious, refining
BV-Refinement: iteration 9
4628 variables, 11283 clauses
SAT checker: negated claim is SATISFIABLE, i.e., does not hold
BV-Refinement: 42 partial order constraints become active
BV-Refinement: 1357 inactive partial order constraints
BV-Refinement: got SAT, and it is spurious, refining
BV-Refinement: iteration 10
4659 variables, 11398 clauses
SAT checker: negated claim is SATISFIABLE, i.e., does not hold
BV-Refinement: 69 partial order constraints become active
BV-Refinement: 1519 inactive partial order constraints
BV-Refinement: got SAT, and it is spurious, refining
BV-Refinement: iteration 11
4733 variables, 11742 clauses
SAT checker: negated claim is SATISFIABLE, i.e., does not hold
BV-Refinement: 55 partial order constraints become active
BV-Refinement: 1700 inactive partial order constraints
BV-Refinement: got SAT, and it is spurious, refining
BV-Refinement: iteration 12
4763 variables, 11823 clauses
SAT checker: negated claim is SATISFIABLE, i.e., does not hold
BV-Refinement: 71 partial order constraints become active
BV-Refinement: 1885 inactive partial order constraints
BV-Refinement: got SAT, and it is spurious, refining
BV-Refinement: iteration 13
4812 variables, 11969 clauses
SAT checker: negated claim is SATISFIABLE, i.e., does not hold
BV-Refinement: 49 partial order constraints become active
BV-Refinement: 2080 inactive partial order constraints
BV-Refinement: got SAT, and it is spurious, refining
BV-Refinement: iteration 14
4847 variables, 12126 clauses
SAT checker: negated claim is SATISFIABLE, i.e., does not hold
BV-Refinement: 92 partial order constraints become active
BV-Refinement: 2215 inactive partial order constraints
BV-Refinement: got SAT, and it is spurious, refining
BV-Refinement: iteration 15
4912 variables, 12494 clauses
SAT checker: negated claim is SATISFIABLE, i.e., does not hold
BV-Refinement: 51 partial order constraints become active
BV-Refinement: 2456 inactive partial order constraints
BV-Refinement: got SAT, and it is spurious, refining
BV-Refinement: iteration 16
5013 variables, 13011 clauses
SAT checker: negated claim is SATISFIABLE, i.e., does not hold
BV-Refinement: 48 partial order constraints become active
BV-Refinement: 2653 inactive partial order constraints
BV-Refinement: got SAT, and it is spurious, refining
BV-Refinement: iteration 17
5050 variables, 13105 clauses
SAT checker: negated claim is SATISFIABLE, i.e., does not hold
BV-Refinement: 60 partial order constraints become active
BV-Refinement: 2863 inactive partial order constraints
BV-Refinement: got SAT, and it is spurious, refining
BV-Refinement: iteration 18
5157 variables, 13648 clauses
SAT checker: negated claim is SATISFIABLE, i.e., does not hold
BV-Refinement: 57 partial order constraints become active
BV-Refinement: 3082 inactive partial order constraints
BV-Refinement: got SAT, and it is spurious, refining
BV-Refinement: iteration 19
5200 variables, 13755 clauses
SAT checker: negated claim is SATISFIABLE, i.e., does not hold
BV-Refinement: 65 partial order constraints become active
BV-Refinement: 3307 inactive partial order constraints
BV-Refinement: got SAT, and it is spurious, refining
BV-Refinement: iteration 20
5279 variables, 14101 clauses
SAT checker: negated claim is SATISFIABLE, i.e., does not hold
BV-Refinement: 69 partial order constraints become active
BV-Refinement: 3547 inactive partial order constraints
BV-Refinement: got SAT, and it is spurious, refining
BV-Refinement: iteration 21
5362 variables, 14443 clauses
SAT checker: negated claim is SATISFIABLE, i.e., does not hold
BV-Refinement: 74 partial order constraints become active
BV-Refinement: 3797 inactive partial order constraints
BV-Refinement: got SAT, and it is spurious, refining
BV-Refinement: iteration 22
5447 variables, 14789 clauses
SAT checker: negated claim is UNSATISFIABLE, i.e., holds
BV-Refinement: got UNSAT, and the proof passes => UNSAT
Total iterations: 22
PROFILING: main_solver: 0.566
PROFILING: sat_check: 2.617
PROFILING: clustering: 0
Runtime decision procedure: 3.206s
VERIFICATION SUCCESSFUL
Time: 3.923694
