CBMC version 5.0 64-bit x86_64 linux
Parsing /nas/schram/gitcbmc-lazy-po/experiments/pthread-atomic/lamport_true-unreach-call.c
Converting
Type-checking lamport_true-unreach-call
Generating GOTO Program
Adding CPROVER library
Function Pointer Removal
Partial Inlining
Generic Property Instrumentation
Starting Bounded Model Checking
Unwinding loop thr1.0 iteration 1 (5 max) file /nas/schram/gitcbmc-lazy-po/experiments/pthread-atomic/lamport_true-unreach-call.c line 20 function thr1 thread 1
Unwinding loop thr1.0 iteration 2 (5 max) file /nas/schram/gitcbmc-lazy-po/experiments/pthread-atomic/lamport_true-unreach-call.c line 20 function thr1 thread 1
Unwinding loop thr1.0 iteration 3 (5 max) file /nas/schram/gitcbmc-lazy-po/experiments/pthread-atomic/lamport_true-unreach-call.c line 20 function thr1 thread 1
Unwinding loop thr1.0 iteration 4 (5 max) file /nas/schram/gitcbmc-lazy-po/experiments/pthread-atomic/lamport_true-unreach-call.c line 20 function thr1 thread 1
Not unwinding loop thr1.0 iteration 5 (5 max) file /nas/schram/gitcbmc-lazy-po/experiments/pthread-atomic/lamport_true-unreach-call.c line 20 function thr1 thread 1
Unwinding loop thr1.1 iteration 1 (5 max) file /nas/schram/gitcbmc-lazy-po/experiments/pthread-atomic/lamport_true-unreach-call.c line 26 function thr1 thread 1
Unwinding loop thr1.1 iteration 2 (5 max) file /nas/schram/gitcbmc-lazy-po/experiments/pthread-atomic/lamport_true-unreach-call.c line 26 function thr1 thread 1
Unwinding loop thr1.1 iteration 3 (5 max) file /nas/schram/gitcbmc-lazy-po/experiments/pthread-atomic/lamport_true-unreach-call.c line 26 function thr1 thread 1
Unwinding loop thr1.1 iteration 4 (5 max) file /nas/schram/gitcbmc-lazy-po/experiments/pthread-atomic/lamport_true-unreach-call.c line 26 function thr1 thread 1
Not unwinding loop thr1.1 iteration 5 (5 max) file /nas/schram/gitcbmc-lazy-po/experiments/pthread-atomic/lamport_true-unreach-call.c line 26 function thr1 thread 1
Unwinding loop thr1.2 iteration 1 (5 max) file /nas/schram/gitcbmc-lazy-po/experiments/pthread-atomic/lamport_true-unreach-call.c line 28 function thr1 thread 1
Unwinding loop thr1.2 iteration 2 (5 max) file /nas/schram/gitcbmc-lazy-po/experiments/pthread-atomic/lamport_true-unreach-call.c line 28 function thr1 thread 1
Unwinding loop thr1.2 iteration 3 (5 max) file /nas/schram/gitcbmc-lazy-po/experiments/pthread-atomic/lamport_true-unreach-call.c line 28 function thr1 thread 1
Unwinding loop thr1.2 iteration 4 (5 max) file /nas/schram/gitcbmc-lazy-po/experiments/pthread-atomic/lamport_true-unreach-call.c line 28 function thr1 thread 1
Not unwinding loop thr1.2 iteration 5 (5 max) file /nas/schram/gitcbmc-lazy-po/experiments/pthread-atomic/lamport_true-unreach-call.c line 28 function thr1 thread 1
Unwinding loop thr1.3 iteration 1 (5 max) file /nas/schram/gitcbmc-lazy-po/experiments/pthread-atomic/lamport_true-unreach-call.c line 15 function thr1 thread 1
Unwinding loop thr1.0 iteration 1 (5 max) file /nas/schram/gitcbmc-lazy-po/experiments/pthread-atomic/lamport_true-unreach-call.c line 20 function thr1 thread 1
Unwinding loop thr1.0 iteration 2 (5 max) file /nas/schram/gitcbmc-lazy-po/experiments/pthread-atomic/lamport_true-unreach-call.c line 20 function thr1 thread 1
Unwinding loop thr1.0 iteration 3 (5 max) file /nas/schram/gitcbmc-lazy-po/experiments/pthread-atomic/lamport_true-unreach-call.c line 20 function thr1 thread 1
Unwinding loop thr1.0 iteration 4 (5 max) file /nas/schram/gitcbmc-lazy-po/experiments/pthread-atomic/lamport_true-unreach-call.c line 20 function thr1 thread 1
Not unwinding loop thr1.0 iteration 5 (5 max) file /nas/schram/gitcbmc-lazy-po/experiments/pthread-atomic/lamport_true-unreach-call.c line 20 function thr1 thread 1
Unwinding loop thr1.1 iteration 1 (5 max) file /nas/schram/gitcbmc-lazy-po/experiments/pthread-atomic/lamport_true-unreach-call.c line 26 function thr1 thread 1
Unwinding loop thr1.1 iteration 2 (5 max) file /nas/schram/gitcbmc-lazy-po/experiments/pthread-atomic/lamport_true-unreach-call.c line 26 function thr1 thread 1
Unwinding loop thr1.1 iteration 3 (5 max) file /nas/schram/gitcbmc-lazy-po/experiments/pthread-atomic/lamport_true-unreach-call.c line 26 function thr1 thread 1
Unwinding loop thr1.1 iteration 4 (5 max) file /nas/schram/gitcbmc-lazy-po/experiments/pthread-atomic/lamport_true-unreach-call.c line 26 function thr1 thread 1
Not unwinding loop thr1.1 iteration 5 (5 max) file /nas/schram/gitcbmc-lazy-po/experiments/pthread-atomic/lamport_true-unreach-call.c line 26 function thr1 thread 1
Unwinding loop thr1.2 iteration 1 (5 max) file /nas/schram/gitcbmc-lazy-po/experiments/pthread-atomic/lamport_true-unreach-call.c line 28 function thr1 thread 1
Unwinding loop thr1.2 iteration 2 (5 max) file /nas/schram/gitcbmc-lazy-po/experiments/pthread-atomic/lamport_true-unreach-call.c line 28 function thr1 thread 1
Unwinding loop thr1.2 iteration 3 (5 max) file /nas/schram/gitcbmc-lazy-po/experiments/pthread-atomic/lamport_true-unreach-call.c line 28 function thr1 thread 1
Unwinding loop thr1.2 iteration 4 (5 max) file /nas/schram/gitcbmc-lazy-po/experiments/pthread-atomic/lamport_true-unreach-call.c line 28 function thr1 thread 1
Not unwinding loop thr1.2 iteration 5 (5 max) file /nas/schram/gitcbmc-lazy-po/experiments/pthread-atomic/lamport_true-unreach-call.c line 28 function thr1 thread 1
Unwinding loop thr1.3 iteration 2 (5 max) file /nas/schram/gitcbmc-lazy-po/experiments/pthread-atomic/lamport_true-unreach-call.c line 15 function thr1 thread 1
Unwinding loop thr1.0 iteration 1 (5 max) file /nas/schram/gitcbmc-lazy-po/experiments/pthread-atomic/lamport_true-unreach-call.c line 20 function thr1 thread 1
Unwinding loop thr1.0 iteration 2 (5 max) file /nas/schram/gitcbmc-lazy-po/experiments/pthread-atomic/lamport_true-unreach-call.c line 20 function thr1 thread 1
Unwinding loop thr1.0 iteration 3 (5 max) file /nas/schram/gitcbmc-lazy-po/experiments/pthread-atomic/lamport_true-unreach-call.c line 20 function thr1 thread 1
Unwinding loop thr1.0 iteration 4 (5 max) file /nas/schram/gitcbmc-lazy-po/experiments/pthread-atomic/lamport_true-unreach-call.c line 20 function thr1 thread 1
Not unwinding loop thr1.0 iteration 5 (5 max) file /nas/schram/gitcbmc-lazy-po/experiments/pthread-atomic/lamport_true-unreach-call.c line 20 function thr1 thread 1
Unwinding loop thr1.1 iteration 1 (5 max) file /nas/schram/gitcbmc-lazy-po/experiments/pthread-atomic/lamport_true-unreach-call.c line 26 function thr1 thread 1
Unwinding loop thr1.1 iteration 2 (5 max) file /nas/schram/gitcbmc-lazy-po/experiments/pthread-atomic/lamport_true-unreach-call.c line 26 function thr1 thread 1
Unwinding loop thr1.1 iteration 3 (5 max) file /nas/schram/gitcbmc-lazy-po/experiments/pthread-atomic/lamport_true-unreach-call.c line 26 function thr1 thread 1
Unwinding loop thr1.1 iteration 4 (5 max) file /nas/schram/gitcbmc-lazy-po/experiments/pthread-atomic/lamport_true-unreach-call.c line 26 function thr1 thread 1
Not unwinding loop thr1.1 iteration 5 (5 max) file /nas/schram/gitcbmc-lazy-po/experiments/pthread-atomic/lamport_true-unreach-call.c line 26 function thr1 thread 1
Unwinding loop thr1.2 iteration 1 (5 max) file /nas/schram/gitcbmc-lazy-po/experiments/pthread-atomic/lamport_true-unreach-call.c line 28 function thr1 thread 1
Unwinding loop thr1.2 iteration 2 (5 max) file /nas/schram/gitcbmc-lazy-po/experiments/pthread-atomic/lamport_true-unreach-call.c line 28 function thr1 thread 1
Unwinding loop thr1.2 iteration 3 (5 max) file /nas/schram/gitcbmc-lazy-po/experiments/pthread-atomic/lamport_true-unreach-call.c line 28 function thr1 thread 1
Unwinding loop thr1.2 iteration 4 (5 max) file /nas/schram/gitcbmc-lazy-po/experiments/pthread-atomic/lamport_true-unreach-call.c line 28 function thr1 thread 1
Not unwinding loop thr1.2 iteration 5 (5 max) file /nas/schram/gitcbmc-lazy-po/experiments/pthread-atomic/lamport_true-unreach-call.c line 28 function thr1 thread 1
Unwinding loop thr1.3 iteration 3 (5 max) file /nas/schram/gitcbmc-lazy-po/experiments/pthread-atomic/lamport_true-unreach-call.c line 15 function thr1 thread 1
Unwinding loop thr1.0 iteration 1 (5 max) file /nas/schram/gitcbmc-lazy-po/experiments/pthread-atomic/lamport_true-unreach-call.c line 20 function thr1 thread 1
Unwinding loop thr1.0 iteration 2 (5 max) file /nas/schram/gitcbmc-lazy-po/experiments/pthread-atomic/lamport_true-unreach-call.c line 20 function thr1 thread 1
Unwinding loop thr1.0 iteration 3 (5 max) file /nas/schram/gitcbmc-lazy-po/experiments/pthread-atomic/lamport_true-unreach-call.c line 20 function thr1 thread 1
Unwinding loop thr1.0 iteration 4 (5 max) file /nas/schram/gitcbmc-lazy-po/experiments/pthread-atomic/lamport_true-unreach-call.c line 20 function thr1 thread 1
Not unwinding loop thr1.0 iteration 5 (5 max) file /nas/schram/gitcbmc-lazy-po/experiments/pthread-atomic/lamport_true-unreach-call.c line 20 function thr1 thread 1
Unwinding loop thr1.1 iteration 1 (5 max) file /nas/schram/gitcbmc-lazy-po/experiments/pthread-atomic/lamport_true-unreach-call.c line 26 function thr1 thread 1
Unwinding loop thr1.1 iteration 2 (5 max) file /nas/schram/gitcbmc-lazy-po/experiments/pthread-atomic/lamport_true-unreach-call.c line 26 function thr1 thread 1
Unwinding loop thr1.1 iteration 3 (5 max) file /nas/schram/gitcbmc-lazy-po/experiments/pthread-atomic/lamport_true-unreach-call.c line 26 function thr1 thread 1
Unwinding loop thr1.1 iteration 4 (5 max) file /nas/schram/gitcbmc-lazy-po/experiments/pthread-atomic/lamport_true-unreach-call.c line 26 function thr1 thread 1
Not unwinding loop thr1.1 iteration 5 (5 max) file /nas/schram/gitcbmc-lazy-po/experiments/pthread-atomic/lamport_true-unreach-call.c line 26 function thr1 thread 1
Unwinding loop thr1.2 iteration 1 (5 max) file /nas/schram/gitcbmc-lazy-po/experiments/pthread-atomic/lamport_true-unreach-call.c line 28 function thr1 thread 1
Unwinding loop thr1.2 iteration 2 (5 max) file /nas/schram/gitcbmc-lazy-po/experiments/pthread-atomic/lamport_true-unreach-call.c line 28 function thr1 thread 1
Unwinding loop thr1.2 iteration 3 (5 max) file /nas/schram/gitcbmc-lazy-po/experiments/pthread-atomic/lamport_true-unreach-call.c line 28 function thr1 thread 1
Unwinding loop thr1.2 iteration 4 (5 max) file /nas/schram/gitcbmc-lazy-po/experiments/pthread-atomic/lamport_true-unreach-call.c line 28 function thr1 thread 1
Not unwinding loop thr1.2 iteration 5 (5 max) file /nas/schram/gitcbmc-lazy-po/experiments/pthread-atomic/lamport_true-unreach-call.c line 28 function thr1 thread 1
Unwinding loop thr1.3 iteration 4 (5 max) file /nas/schram/gitcbmc-lazy-po/experiments/pthread-atomic/lamport_true-unreach-call.c line 15 function thr1 thread 1
Unwinding loop thr1.0 iteration 1 (5 max) file /nas/schram/gitcbmc-lazy-po/experiments/pthread-atomic/lamport_true-unreach-call.c line 20 function thr1 thread 1
Unwinding loop thr1.0 iteration 2 (5 max) file /nas/schram/gitcbmc-lazy-po/experiments/pthread-atomic/lamport_true-unreach-call.c line 20 function thr1 thread 1
Unwinding loop thr1.0 iteration 3 (5 max) file /nas/schram/gitcbmc-lazy-po/experiments/pthread-atomic/lamport_true-unreach-call.c line 20 function thr1 thread 1
Unwinding loop thr1.0 iteration 4 (5 max) file /nas/schram/gitcbmc-lazy-po/experiments/pthread-atomic/lamport_true-unreach-call.c line 20 function thr1 thread 1
Not unwinding loop thr1.0 iteration 5 (5 max) file /nas/schram/gitcbmc-lazy-po/experiments/pthread-atomic/lamport_true-unreach-call.c line 20 function thr1 thread 1
Unwinding loop thr1.1 iteration 1 (5 max) file /nas/schram/gitcbmc-lazy-po/experiments/pthread-atomic/lamport_true-unreach-call.c line 26 function thr1 thread 1
Unwinding loop thr1.1 iteration 2 (5 max) file /nas/schram/gitcbmc-lazy-po/experiments/pthread-atomic/lamport_true-unreach-call.c line 26 function thr1 thread 1
Unwinding loop thr1.1 iteration 3 (5 max) file /nas/schram/gitcbmc-lazy-po/experiments/pthread-atomic/lamport_true-unreach-call.c line 26 function thr1 thread 1
Unwinding loop thr1.1 iteration 4 (5 max) file /nas/schram/gitcbmc-lazy-po/experiments/pthread-atomic/lamport_true-unreach-call.c line 26 function thr1 thread 1
Not unwinding loop thr1.1 iteration 5 (5 max) file /nas/schram/gitcbmc-lazy-po/experiments/pthread-atomic/lamport_true-unreach-call.c line 26 function thr1 thread 1
Unwinding loop thr1.2 iteration 1 (5 max) file /nas/schram/gitcbmc-lazy-po/experiments/pthread-atomic/lamport_true-unreach-call.c line 28 function thr1 thread 1
Unwinding loop thr1.2 iteration 2 (5 max) file /nas/schram/gitcbmc-lazy-po/experiments/pthread-atomic/lamport_true-unreach-call.c line 28 function thr1 thread 1
Unwinding loop thr1.2 iteration 3 (5 max) file /nas/schram/gitcbmc-lazy-po/experiments/pthread-atomic/lamport_true-unreach-call.c line 28 function thr1 thread 1
Unwinding loop thr1.2 iteration 4 (5 max) file /nas/schram/gitcbmc-lazy-po/experiments/pthread-atomic/lamport_true-unreach-call.c line 28 function thr1 thread 1
Not unwinding loop thr1.2 iteration 5 (5 max) file /nas/schram/gitcbmc-lazy-po/experiments/pthread-atomic/lamport_true-unreach-call.c line 28 function thr1 thread 1
Not unwinding loop thr1.3 iteration 5 (5 max) file /nas/schram/gitcbmc-lazy-po/experiments/pthread-atomic/lamport_true-unreach-call.c line 15 function thr1 thread 1
Unwinding loop thr2.0 iteration 1 (5 max) file /nas/schram/gitcbmc-lazy-po/experiments/pthread-atomic/lamport_true-unreach-call.c line 48 function thr2 thread 2
Unwinding loop thr2.0 iteration 2 (5 max) file /nas/schram/gitcbmc-lazy-po/experiments/pthread-atomic/lamport_true-unreach-call.c line 48 function thr2 thread 2
Unwinding loop thr2.0 iteration 3 (5 max) file /nas/schram/gitcbmc-lazy-po/experiments/pthread-atomic/lamport_true-unreach-call.c line 48 function thr2 thread 2
Unwinding loop thr2.0 iteration 4 (5 max) file /nas/schram/gitcbmc-lazy-po/experiments/pthread-atomic/lamport_true-unreach-call.c line 48 function thr2 thread 2
Not unwinding loop thr2.0 iteration 5 (5 max) file /nas/schram/gitcbmc-lazy-po/experiments/pthread-atomic/lamport_true-unreach-call.c line 48 function thr2 thread 2
Unwinding loop thr2.1 iteration 1 (5 max) file /nas/schram/gitcbmc-lazy-po/experiments/pthread-atomic/lamport_true-unreach-call.c line 54 function thr2 thread 2
Unwinding loop thr2.1 iteration 2 (5 max) file /nas/schram/gitcbmc-lazy-po/experiments/pthread-atomic/lamport_true-unreach-call.c line 54 function thr2 thread 2
Unwinding loop thr2.1 iteration 3 (5 max) file /nas/schram/gitcbmc-lazy-po/experiments/pthread-atomic/lamport_true-unreach-call.c line 54 function thr2 thread 2
Unwinding loop thr2.1 iteration 4 (5 max) file /nas/schram/gitcbmc-lazy-po/experiments/pthread-atomic/lamport_true-unreach-call.c line 54 function thr2 thread 2
Not unwinding loop thr2.1 iteration 5 (5 max) file /nas/schram/gitcbmc-lazy-po/experiments/pthread-atomic/lamport_true-unreach-call.c line 54 function thr2 thread 2
Unwinding loop thr2.2 iteration 1 (5 max) file /nas/schram/gitcbmc-lazy-po/experiments/pthread-atomic/lamport_true-unreach-call.c line 56 function thr2 thread 2
Unwinding loop thr2.2 iteration 2 (5 max) file /nas/schram/gitcbmc-lazy-po/experiments/pthread-atomic/lamport_true-unreach-call.c line 56 function thr2 thread 2
Unwinding loop thr2.2 iteration 3 (5 max) file /nas/schram/gitcbmc-lazy-po/experiments/pthread-atomic/lamport_true-unreach-call.c line 56 function thr2 thread 2
Unwinding loop thr2.2 iteration 4 (5 max) file /nas/schram/gitcbmc-lazy-po/experiments/pthread-atomic/lamport_true-unreach-call.c line 56 function thr2 thread 2
Not unwinding loop thr2.2 iteration 5 (5 max) file /nas/schram/gitcbmc-lazy-po/experiments/pthread-atomic/lamport_true-unreach-call.c line 56 function thr2 thread 2
Unwinding loop thr2.3 iteration 1 (5 max) file /nas/schram/gitcbmc-lazy-po/experiments/pthread-atomic/lamport_true-unreach-call.c line 43 function thr2 thread 2
Unwinding loop thr2.0 iteration 1 (5 max) file /nas/schram/gitcbmc-lazy-po/experiments/pthread-atomic/lamport_true-unreach-call.c line 48 function thr2 thread 2
Unwinding loop thr2.0 iteration 2 (5 max) file /nas/schram/gitcbmc-lazy-po/experiments/pthread-atomic/lamport_true-unreach-call.c line 48 function thr2 thread 2
Unwinding loop thr2.0 iteration 3 (5 max) file /nas/schram/gitcbmc-lazy-po/experiments/pthread-atomic/lamport_true-unreach-call.c line 48 function thr2 thread 2
Unwinding loop thr2.0 iteration 4 (5 max) file /nas/schram/gitcbmc-lazy-po/experiments/pthread-atomic/lamport_true-unreach-call.c line 48 function thr2 thread 2
Not unwinding loop thr2.0 iteration 5 (5 max) file /nas/schram/gitcbmc-lazy-po/experiments/pthread-atomic/lamport_true-unreach-call.c line 48 function thr2 thread 2
Unwinding loop thr2.1 iteration 1 (5 max) file /nas/schram/gitcbmc-lazy-po/experiments/pthread-atomic/lamport_true-unreach-call.c line 54 function thr2 thread 2
Unwinding loop thr2.1 iteration 2 (5 max) file /nas/schram/gitcbmc-lazy-po/experiments/pthread-atomic/lamport_true-unreach-call.c line 54 function thr2 thread 2
Unwinding loop thr2.1 iteration 3 (5 max) file /nas/schram/gitcbmc-lazy-po/experiments/pthread-atomic/lamport_true-unreach-call.c line 54 function thr2 thread 2
Unwinding loop thr2.1 iteration 4 (5 max) file /nas/schram/gitcbmc-lazy-po/experiments/pthread-atomic/lamport_true-unreach-call.c line 54 function thr2 thread 2
Not unwinding loop thr2.1 iteration 5 (5 max) file /nas/schram/gitcbmc-lazy-po/experiments/pthread-atomic/lamport_true-unreach-call.c line 54 function thr2 thread 2
Unwinding loop thr2.2 iteration 1 (5 max) file /nas/schram/gitcbmc-lazy-po/experiments/pthread-atomic/lamport_true-unreach-call.c line 56 function thr2 thread 2
Unwinding loop thr2.2 iteration 2 (5 max) file /nas/schram/gitcbmc-lazy-po/experiments/pthread-atomic/lamport_true-unreach-call.c line 56 function thr2 thread 2
Unwinding loop thr2.2 iteration 3 (5 max) file /nas/schram/gitcbmc-lazy-po/experiments/pthread-atomic/lamport_true-unreach-call.c line 56 function thr2 thread 2
Unwinding loop thr2.2 iteration 4 (5 max) file /nas/schram/gitcbmc-lazy-po/experiments/pthread-atomic/lamport_true-unreach-call.c line 56 function thr2 thread 2
Not unwinding loop thr2.2 iteration 5 (5 max) file /nas/schram/gitcbmc-lazy-po/experiments/pthread-atomic/lamport_true-unreach-call.c line 56 function thr2 thread 2
Unwinding loop thr2.3 iteration 2 (5 max) file /nas/schram/gitcbmc-lazy-po/experiments/pthread-atomic/lamport_true-unreach-call.c line 43 function thr2 thread 2
Unwinding loop thr2.0 iteration 1 (5 max) file /nas/schram/gitcbmc-lazy-po/experiments/pthread-atomic/lamport_true-unreach-call.c line 48 function thr2 thread 2
Unwinding loop thr2.0 iteration 2 (5 max) file /nas/schram/gitcbmc-lazy-po/experiments/pthread-atomic/lamport_true-unreach-call.c line 48 function thr2 thread 2
Unwinding loop thr2.0 iteration 3 (5 max) file /nas/schram/gitcbmc-lazy-po/experiments/pthread-atomic/lamport_true-unreach-call.c line 48 function thr2 thread 2
Unwinding loop thr2.0 iteration 4 (5 max) file /nas/schram/gitcbmc-lazy-po/experiments/pthread-atomic/lamport_true-unreach-call.c line 48 function thr2 thread 2
Not unwinding loop thr2.0 iteration 5 (5 max) file /nas/schram/gitcbmc-lazy-po/experiments/pthread-atomic/lamport_true-unreach-call.c line 48 function thr2 thread 2
Unwinding loop thr2.1 iteration 1 (5 max) file /nas/schram/gitcbmc-lazy-po/experiments/pthread-atomic/lamport_true-unreach-call.c line 54 function thr2 thread 2
Unwinding loop thr2.1 iteration 2 (5 max) file /nas/schram/gitcbmc-lazy-po/experiments/pthread-atomic/lamport_true-unreach-call.c line 54 function thr2 thread 2
Unwinding loop thr2.1 iteration 3 (5 max) file /nas/schram/gitcbmc-lazy-po/experiments/pthread-atomic/lamport_true-unreach-call.c line 54 function thr2 thread 2
Unwinding loop thr2.1 iteration 4 (5 max) file /nas/schram/gitcbmc-lazy-po/experiments/pthread-atomic/lamport_true-unreach-call.c line 54 function thr2 thread 2
Not unwinding loop thr2.1 iteration 5 (5 max) file /nas/schram/gitcbmc-lazy-po/experiments/pthread-atomic/lamport_true-unreach-call.c line 54 function thr2 thread 2
Unwinding loop thr2.2 iteration 1 (5 max) file /nas/schram/gitcbmc-lazy-po/experiments/pthread-atomic/lamport_true-unreach-call.c line 56 function thr2 thread 2
Unwinding loop thr2.2 iteration 2 (5 max) file /nas/schram/gitcbmc-lazy-po/experiments/pthread-atomic/lamport_true-unreach-call.c line 56 function thr2 thread 2
Unwinding loop thr2.2 iteration 3 (5 max) file /nas/schram/gitcbmc-lazy-po/experiments/pthread-atomic/lamport_true-unreach-call.c line 56 function thr2 thread 2
Unwinding loop thr2.2 iteration 4 (5 max) file /nas/schram/gitcbmc-lazy-po/experiments/pthread-atomic/lamport_true-unreach-call.c line 56 function thr2 thread 2
Not unwinding loop thr2.2 iteration 5 (5 max) file /nas/schram/gitcbmc-lazy-po/experiments/pthread-atomic/lamport_true-unreach-call.c line 56 function thr2 thread 2
Unwinding loop thr2.3 iteration 3 (5 max) file /nas/schram/gitcbmc-lazy-po/experiments/pthread-atomic/lamport_true-unreach-call.c line 43 function thr2 thread 2
Unwinding loop thr2.0 iteration 1 (5 max) file /nas/schram/gitcbmc-lazy-po/experiments/pthread-atomic/lamport_true-unreach-call.c line 48 function thr2 thread 2
Unwinding loop thr2.0 iteration 2 (5 max) file /nas/schram/gitcbmc-lazy-po/experiments/pthread-atomic/lamport_true-unreach-call.c line 48 function thr2 thread 2
Unwinding loop thr2.0 iteration 3 (5 max) file /nas/schram/gitcbmc-lazy-po/experiments/pthread-atomic/lamport_true-unreach-call.c line 48 function thr2 thread 2
Unwinding loop thr2.0 iteration 4 (5 max) file /nas/schram/gitcbmc-lazy-po/experiments/pthread-atomic/lamport_true-unreach-call.c line 48 function thr2 thread 2
Not unwinding loop thr2.0 iteration 5 (5 max) file /nas/schram/gitcbmc-lazy-po/experiments/pthread-atomic/lamport_true-unreach-call.c line 48 function thr2 thread 2
Unwinding loop thr2.1 iteration 1 (5 max) file /nas/schram/gitcbmc-lazy-po/experiments/pthread-atomic/lamport_true-unreach-call.c line 54 function thr2 thread 2
Unwinding loop thr2.1 iteration 2 (5 max) file /nas/schram/gitcbmc-lazy-po/experiments/pthread-atomic/lamport_true-unreach-call.c line 54 function thr2 thread 2
Unwinding loop thr2.1 iteration 3 (5 max) file /nas/schram/gitcbmc-lazy-po/experiments/pthread-atomic/lamport_true-unreach-call.c line 54 function thr2 thread 2
Unwinding loop thr2.1 iteration 4 (5 max) file /nas/schram/gitcbmc-lazy-po/experiments/pthread-atomic/lamport_true-unreach-call.c line 54 function thr2 thread 2
Not unwinding loop thr2.1 iteration 5 (5 max) file /nas/schram/gitcbmc-lazy-po/experiments/pthread-atomic/lamport_true-unreach-call.c line 54 function thr2 thread 2
Unwinding loop thr2.2 iteration 1 (5 max) file /nas/schram/gitcbmc-lazy-po/experiments/pthread-atomic/lamport_true-unreach-call.c line 56 function thr2 thread 2
Unwinding loop thr2.2 iteration 2 (5 max) file /nas/schram/gitcbmc-lazy-po/experiments/pthread-atomic/lamport_true-unreach-call.c line 56 function thr2 thread 2
Unwinding loop thr2.2 iteration 3 (5 max) file /nas/schram/gitcbmc-lazy-po/experiments/pthread-atomic/lamport_true-unreach-call.c line 56 function thr2 thread 2
Unwinding loop thr2.2 iteration 4 (5 max) file /nas/schram/gitcbmc-lazy-po/experiments/pthread-atomic/lamport_true-unreach-call.c line 56 function thr2 thread 2
Not unwinding loop thr2.2 iteration 5 (5 max) file /nas/schram/gitcbmc-lazy-po/experiments/pthread-atomic/lamport_true-unreach-call.c line 56 function thr2 thread 2
Unwinding loop thr2.3 iteration 4 (5 max) file /nas/schram/gitcbmc-lazy-po/experiments/pthread-atomic/lamport_true-unreach-call.c line 43 function thr2 thread 2
Unwinding loop thr2.0 iteration 1 (5 max) file /nas/schram/gitcbmc-lazy-po/experiments/pthread-atomic/lamport_true-unreach-call.c line 48 function thr2 thread 2
Unwinding loop thr2.0 iteration 2 (5 max) file /nas/schram/gitcbmc-lazy-po/experiments/pthread-atomic/lamport_true-unreach-call.c line 48 function thr2 thread 2
Unwinding loop thr2.0 iteration 3 (5 max) file /nas/schram/gitcbmc-lazy-po/experiments/pthread-atomic/lamport_true-unreach-call.c line 48 function thr2 thread 2
Unwinding loop thr2.0 iteration 4 (5 max) file /nas/schram/gitcbmc-lazy-po/experiments/pthread-atomic/lamport_true-unreach-call.c line 48 function thr2 thread 2
Not unwinding loop thr2.0 iteration 5 (5 max) file /nas/schram/gitcbmc-lazy-po/experiments/pthread-atomic/lamport_true-unreach-call.c line 48 function thr2 thread 2
Unwinding loop thr2.1 iteration 1 (5 max) file /nas/schram/gitcbmc-lazy-po/experiments/pthread-atomic/lamport_true-unreach-call.c line 54 function thr2 thread 2
Unwinding loop thr2.1 iteration 2 (5 max) file /nas/schram/gitcbmc-lazy-po/experiments/pthread-atomic/lamport_true-unreach-call.c line 54 function thr2 thread 2
Unwinding loop thr2.1 iteration 3 (5 max) file /nas/schram/gitcbmc-lazy-po/experiments/pthread-atomic/lamport_true-unreach-call.c line 54 function thr2 thread 2
Unwinding loop thr2.1 iteration 4 (5 max) file /nas/schram/gitcbmc-lazy-po/experiments/pthread-atomic/lamport_true-unreach-call.c line 54 function thr2 thread 2
Not unwinding loop thr2.1 iteration 5 (5 max) file /nas/schram/gitcbmc-lazy-po/experiments/pthread-atomic/lamport_true-unreach-call.c line 54 function thr2 thread 2
Unwinding loop thr2.2 iteration 1 (5 max) file /nas/schram/gitcbmc-lazy-po/experiments/pthread-atomic/lamport_true-unreach-call.c line 56 function thr2 thread 2
Unwinding loop thr2.2 iteration 2 (5 max) file /nas/schram/gitcbmc-lazy-po/experiments/pthread-atomic/lamport_true-unreach-call.c line 56 function thr2 thread 2
Unwinding loop thr2.2 iteration 3 (5 max) file /nas/schram/gitcbmc-lazy-po/experiments/pthread-atomic/lamport_true-unreach-call.c line 56 function thr2 thread 2
Unwinding loop thr2.2 iteration 4 (5 max) file /nas/schram/gitcbmc-lazy-po/experiments/pthread-atomic/lamport_true-unreach-call.c line 56 function thr2 thread 2
Not unwinding loop thr2.2 iteration 5 (5 max) file /nas/schram/gitcbmc-lazy-po/experiments/pthread-atomic/lamport_true-unreach-call.c line 56 function thr2 thread 2
Not unwinding loop thr2.3 iteration 5 (5 max) file /nas/schram/gitcbmc-lazy-po/experiments/pthread-atomic/lamport_true-unreach-call.c line 43 function thr2 thread 2
Adding PSO constraints
size of program expression: 37064 steps
no slicing due to threads
Generated 4 VCC(s), 4 remaining after simplification
Passing problem to refinement loop with MiniSAT 2.2.0 with simplifier
converting SSA
36365 steps converted
Running refinement loop with MiniSAT 2.2.0 with simplifier
BV-Refinement: post-processing
BV-Refinement: iteration 1
12364 variables, 23982 clauses
SAT checker: negated claim is SATISFIABLE, i.e., does not hold
BV-Refinement: 4 partial order constraints become active
BV-Refinement: 35587 inactive partial order constraints
BV-Refinement: got SAT, and it is spurious, refining
BV-Refinement: iteration 2
12395 variables, 17790 clauses
SAT checker: negated claim is SATISFIABLE, i.e., does not hold
BV-Refinement: 4 partial order constraints become active
BV-Refinement: 35583 inactive partial order constraints
BV-Refinement: got SAT, and it is spurious, refining
BV-Refinement: iteration 3
12501 variables, 17987 clauses
SAT checker: negated claim is SATISFIABLE, i.e., does not hold
BV-Refinement: 2 partial order constraints become active
BV-Refinement: 35581 inactive partial order constraints
BV-Refinement: got SAT, and it is spurious, refining
BV-Refinement: iteration 4
12554 variables, 18087 clauses
SAT checker: negated claim is SATISFIABLE, i.e., does not hold
BV-Refinement: 3 partial order constraints become active
BV-Refinement: 35578 inactive partial order constraints
BV-Refinement: got SAT, and it is spurious, refining
BV-Refinement: iteration 5
12629 variables, 18345 clauses
SAT checker: negated claim is SATISFIABLE, i.e., does not hold
BV-Refinement: 1 partial order constraints become active
BV-Refinement: 35577 inactive partial order constraints
BV-Refinement: got SAT, and it is spurious, refining
BV-Refinement: iteration 6
12660 variables, 18368 clauses
SAT checker: negated claim is SATISFIABLE, i.e., does not hold
BV-Refinement: 2 partial order constraints become active
BV-Refinement: 35575 inactive partial order constraints
BV-Refinement: got SAT, and it is spurious, refining
BV-Refinement: iteration 7
12745 variables, 18657 clauses
SAT checker: negated claim is SATISFIABLE, i.e., does not hold
BV-Refinement: 3 partial order constraints become active
BV-Refinement: 35572 inactive partial order constraints
BV-Refinement: got SAT, and it is spurious, refining
BV-Refinement: iteration 8
12875 variables, 19140 clauses
SAT checker: negated claim is SATISFIABLE, i.e., does not hold
BV-Refinement: 5 partial order constraints become active
BV-Refinement: 35567 inactive partial order constraints
BV-Refinement: got SAT, and it is spurious, refining
BV-Refinement: iteration 9
13029 variables, 19782 clauses
SAT checker: negated claim is SATISFIABLE, i.e., does not hold
BV-Refinement: 5 partial order constraints become active
BV-Refinement: 35562 inactive partial order constraints
BV-Refinement: got SAT, and it is spurious, refining
BV-Refinement: iteration 10
13203 variables, 20473 clauses
SAT checker: negated claim is SATISFIABLE, i.e., does not hold
BV-Refinement: 10 partial order constraints become active
BV-Refinement: 35552 inactive partial order constraints
BV-Refinement: got SAT, and it is spurious, refining
BV-Refinement: iteration 11
13343 variables, 21089 clauses
SAT checker: negated claim is SATISFIABLE, i.e., does not hold
BV-Refinement: 3 partial order constraints become active
BV-Refinement: 35549 inactive partial order constraints
BV-Refinement: got SAT, and it is spurious, refining
BV-Refinement: iteration 12
13369 variables, 21042 clauses
SAT checker: negated claim is SATISFIABLE, i.e., does not hold
BV-Refinement: 2 partial order constraints become active
BV-Refinement: 35547 inactive partial order constraints
BV-Refinement: got SAT, and it is spurious, refining
BV-Refinement: iteration 13
13422 variables, 21242 clauses
SAT checker: negated claim is SATISFIABLE, i.e., does not hold
BV-Refinement: 8 partial order constraints become active
BV-Refinement: 35539 inactive partial order constraints
BV-Refinement: got SAT, and it is spurious, refining
BV-Refinement: iteration 14
13442 variables, 21473 clauses
SAT checker: negated claim is SATISFIABLE, i.e., does not hold
BV-Refinement: 4 partial order constraints become active
BV-Refinement: 35535 inactive partial order constraints
BV-Refinement: got SAT, and it is spurious, refining
BV-Refinement: iteration 15
13499 variables, 21752 clauses
SAT checker: negated claim is SATISFIABLE, i.e., does not hold
BV-Refinement: 14 partial order constraints become active
BV-Refinement: 35521 inactive partial order constraints
BV-Refinement: got SAT, and it is spurious, refining
BV-Refinement: iteration 16
13665 variables, 22761 clauses
SAT checker: negated claim is SATISFIABLE, i.e., does not hold
BV-Refinement: 4 partial order constraints become active
BV-Refinement: 35517 inactive partial order constraints
BV-Refinement: got SAT, and it is spurious, refining
BV-Refinement: iteration 17
13735 variables, 23037 clauses
SAT checker: negated claim is SATISFIABLE, i.e., does not hold
BV-Refinement: 2 partial order constraints become active
BV-Refinement: 35515 inactive partial order constraints
BV-Refinement: got SAT, and it is spurious, refining
BV-Refinement: iteration 18
13788 variables, 23201 clauses
SAT checker: negated claim is SATISFIABLE, i.e., does not hold
BV-Refinement: 6 partial order constraints become active
BV-Refinement: 35509 inactive partial order constraints
BV-Refinement: got SAT, and it is spurious, refining
BV-Refinement: iteration 19
13864 variables, 23593 clauses
SAT checker: negated claim is SATISFIABLE, i.e., does not hold
BV-Refinement: 11 partial order constraints become active
BV-Refinement: 35498 inactive partial order constraints
BV-Refinement: got SAT, and it is spurious, refining
BV-Refinement: iteration 20
13952 variables, 24187 clauses
SAT checker: negated claim is SATISFIABLE, i.e., does not hold
BV-Refinement: 9 partial order constraints become active
BV-Refinement: 35489 inactive partial order constraints
BV-Refinement: got SAT, and it is spurious, refining
BV-Refinement: iteration 21
13975 variables, 24464 clauses
SAT checker: negated claim is SATISFIABLE, i.e., does not hold
BV-Refinement: 18 partial order constraints become active
BV-Refinement: 35471 inactive partial order constraints
BV-Refinement: got SAT, and it is spurious, refining
BV-Refinement: iteration 22
14024 variables, 25119 clauses
SAT checker: negated claim is SATISFIABLE, i.e., does not hold
BV-Refinement: 18 partial order constraints become active
BV-Refinement: 35453 inactive partial order constraints
BV-Refinement: got SAT, and it is spurious, refining
BV-Refinement: iteration 23
14073 variables, 25774 clauses
SAT checker: negated claim is SATISFIABLE, i.e., does not hold
BV-Refinement: 4 partial order constraints become active
BV-Refinement: 35449 inactive partial order constraints
BV-Refinement: got SAT, and it is spurious, refining
BV-Refinement: iteration 24
14270 variables, 26406 clauses
SAT checker: negated claim is SATISFIABLE, i.e., does not hold
BV-Refinement: 3 partial order constraints become active
BV-Refinement: 35446 inactive partial order constraints
BV-Refinement: got SAT, and it is spurious, refining
BV-Refinement: iteration 25
14345 variables, 26628 clauses
SAT checker: negated claim is SATISFIABLE, i.e., does not hold
BV-Refinement: 27 partial order constraints become active
BV-Refinement: 35419 inactive partial order constraints
BV-Refinement: got SAT, and it is spurious, refining
BV-Refinement: iteration 26
15003 variables, 29252 clauses
SAT checker: negated claim is SATISFIABLE, i.e., does not hold
BV-Refinement: 13 partial order constraints become active
BV-Refinement: 35406 inactive partial order constraints
BV-Refinement: got SAT, and it is spurious, refining
BV-Refinement: iteration 27
15342 variables, 30482 clauses
SAT checker: negated claim is SATISFIABLE, i.e., does not hold
BV-Refinement: 3 partial order constraints become active
BV-Refinement: 35403 inactive partial order constraints
BV-Refinement: got SAT, and it is spurious, refining
BV-Refinement: iteration 28
15417 variables, 30533 clauses
SAT checker: negated claim is SATISFIABLE, i.e., does not hold
BV-Refinement: 3 partial order constraints become active
BV-Refinement: 35400 inactive partial order constraints
BV-Refinement: got SAT, and it is spurious, refining
BV-Refinement: iteration 29
15501 variables, 30764 clauses
SAT checker: negated claim is SATISFIABLE, i.e., does not hold
BV-Refinement: 3 partial order constraints become active
BV-Refinement: 35397 inactive partial order constraints
BV-Refinement: got SAT, and it is spurious, refining
BV-Refinement: iteration 30
15617 variables, 31103 clauses
SAT checker: negated claim is SATISFIABLE, i.e., does not hold
BV-Refinement: 3 partial order constraints become active
BV-Refinement: 35394 inactive partial order constraints
BV-Refinement: got SAT, and it is spurious, refining
BV-Refinement: iteration 31
15724 variables, 31451 clauses
SAT checker: negated claim is SATISFIABLE, i.e., does not hold
BV-Refinement: 16 partial order constraints become active
BV-Refinement: 35378 inactive partial order constraints
BV-Refinement: got SAT, and it is spurious, refining
BV-Refinement: iteration 32
16042 variables, 32870 clauses
SAT checker: negated claim is SATISFIABLE, i.e., does not hold
BV-Refinement: 3 partial order constraints become active
BV-Refinement: 35375 inactive partial order constraints
BV-Refinement: got SAT, and it is spurious, refining
BV-Refinement: iteration 33
16117 variables, 32804 clauses
SAT checker: negated claim is SATISFIABLE, i.e., does not hold
BV-Refinement: 7 partial order constraints become active
BV-Refinement: 35368 inactive partial order constraints
BV-Refinement: got SAT, and it is spurious, refining
BV-Refinement: iteration 34
16348 variables, 33559 clauses
SAT checker: negated claim is SATISFIABLE, i.e., does not hold
BV-Refinement: 8 partial order constraints become active
BV-Refinement: 35360 inactive partial order constraints
BV-Refinement: got SAT, and it is spurious, refining
BV-Refinement: iteration 35
16533 variables, 34211 clauses
SAT checker: negated claim is SATISFIABLE, i.e., does not hold
BV-Refinement: 5 partial order constraints become active
BV-Refinement: 35355 inactive partial order constraints
BV-Refinement: got SAT, and it is spurious, refining
BV-Refinement: iteration 36
16661 variables, 34515 clauses
SAT checker: negated claim is SATISFIABLE, i.e., does not hold
BV-Refinement: 4 partial order constraints become active
BV-Refinement: 35351 inactive partial order constraints
BV-Refinement: got SAT, and it is spurious, refining
BV-Refinement: iteration 37
16758 variables, 34796 clauses
SAT checker: negated claim is SATISFIABLE, i.e., does not hold
BV-Refinement: 2 partial order constraints become active
BV-Refinement: 35349 inactive partial order constraints
BV-Refinement: got SAT, and it is spurious, refining
BV-Refinement: iteration 38
16852 variables, 35004 clauses
SAT checker: negated claim is SATISFIABLE, i.e., does not hold
BV-Refinement: 12 partial order constraints become active
BV-Refinement: 35337 inactive partial order constraints
BV-Refinement: got SAT, and it is spurious, refining
BV-Refinement: iteration 39
17170 variables, 36418 clauses
SAT checker: negated claim is SATISFIABLE, i.e., does not hold
BV-Refinement: 9 partial order constraints become active
BV-Refinement: 35328 inactive partial order constraints
BV-Refinement: got SAT, and it is spurious, refining
BV-Refinement: iteration 40
17423 variables, 37246 clauses
SAT checker: negated claim is SATISFIABLE, i.e., does not hold
BV-Refinement: 6 partial order constraints become active
BV-Refinement: 35322 inactive partial order constraints
BV-Refinement: got SAT, and it is spurious, refining
BV-Refinement: iteration 41
17632 variables, 37972 clauses
SAT checker: negated claim is SATISFIABLE, i.e., does not hold
BV-Refinement: 5 partial order constraints become active
BV-Refinement: 35317 inactive partial order constraints
BV-Refinement: got SAT, and it is spurious, refining
BV-Refinement: iteration 42
17782 variables, 38480 clauses
SAT checker: negated claim is SATISFIABLE, i.e., does not hold
BV-Refinement: 6 partial order constraints become active
BV-Refinement: 35311 inactive partial order constraints
BV-Refinement: got SAT, and it is spurious, refining
BV-Refinement: iteration 43
17978 variables, 39200 clauses
SAT checker: negated claim is SATISFIABLE, i.e., does not hold
BV-Refinement: 5 partial order constraints become active
BV-Refinement: 35306 inactive partial order constraints
BV-Refinement: got SAT, and it is spurious, refining
BV-Refinement: iteration 44
18175 variables, 39954 clauses
SAT checker: negated claim is SATISFIABLE, i.e., does not hold
BV-Refinement: 8 partial order constraints become active
BV-Refinement: 35298 inactive partial order constraints
BV-Refinement: got SAT, and it is spurious, refining
BV-Refinement: iteration 45
18436 variables, 41002 clauses
SAT checker: negated claim is SATISFIABLE, i.e., does not hold
BV-Refinement: 10 partial order constraints become active
BV-Refinement: 35288 inactive partial order constraints
BV-Refinement: got SAT, and it is spurious, refining
BV-Refinement: iteration 46
18674 variables, 41853 clauses
SAT checker: negated claim is SATISFIABLE, i.e., does not hold
BV-Refinement: 9 partial order constraints become active
BV-Refinement: 35279 inactive partial order constraints
BV-Refinement: got SAT, and it is spurious, refining
BV-Refinement: iteration 47
18882 variables, 42522 clauses
SAT checker: negated claim is SATISFIABLE, i.e., does not hold
BV-Refinement: 2 partial order constraints become active
BV-Refinement: 35277 inactive partial order constraints
BV-Refinement: got SAT, and it is spurious, refining
BV-Refinement: iteration 48
18927 variables, 42513 clauses
SAT checker: negated claim is SATISFIABLE, i.e., does not hold
Time: 901.771393
