CBMC version 5.0 64-bit x86_64 linux
Parsing /nas/schram/gitcbmc-lazy-po/experiments/wmm-core/mix037.c
Converting
Type-checking mix037
Generating GOTO Program
Adding CPROVER library
Function Pointer Removal
Partial Inlining
Generic Property Instrumentation
Starting Bounded Model Checking
Adding TSO constraints
size of program expression: 677 steps
no slicing due to threads
Generated 1 VCC(s), 1 remaining after simplification
Passing problem to refinement loop with MiniSAT 2.2.0 with simplifier
converting SSA
574 steps converted
Running refinement loop with MiniSAT 2.2.0 with simplifier
BV-Refinement: post-processing
BV-Refinement: iteration 1
802 variables, 912 clauses
SAT checker: negated claim is SATISFIABLE, i.e., does not hold
BV-Refinement: 3 partial order constraints become active
BV-Refinement: 530 inactive partial order constraints
BV-Refinement: got SAT, and it is spurious, refining
BV-Refinement: iteration 2
805 variables, 886 clauses
SAT checker: negated claim is SATISFIABLE, i.e., does not hold
BV-Refinement: 6 partial order constraints become active
BV-Refinement: 524 inactive partial order constraints
BV-Refinement: got SAT, and it is spurious, refining
BV-Refinement: iteration 3
943 variables, 1245 clauses
SAT checker: negated claim is SATISFIABLE, i.e., does not hold
BV-Refinement: 5 partial order constraints become active
BV-Refinement: 519 inactive partial order constraints
BV-Refinement: got SAT, and it is spurious, refining
BV-Refinement: iteration 4
1047 variables, 1766 clauses
SAT checker: negated claim is SATISFIABLE, i.e., does not hold
BV-Refinement: 5 partial order constraints become active
BV-Refinement: 514 inactive partial order constraints
BV-Refinement: got SAT, and it is spurious, refining
BV-Refinement: iteration 5
1151 variables, 2287 clauses
SAT checker: negated claim is SATISFIABLE, i.e., does not hold
BV-Refinement: 5 partial order constraints become active
BV-Refinement: 509 inactive partial order constraints
BV-Refinement: got SAT, and it is spurious, refining
BV-Refinement: iteration 6
1255 variables, 2808 clauses
SAT checker: negated claim is SATISFIABLE, i.e., does not hold
BV-Refinement: 0 partial order constraints become active
BV-Refinement: 509 inactive partial order constraints
BV-Refinement: got SAT, and it simulates => SAT
Total iterations: 6
PROFILING: main_solver: 0.013
PROFILING: sat_check: 0.846
PROFILING: clustering: 0
Runtime decision procedure: 0.865s
Building error trace

Counterexample:

Violated property:
  file /nas/schram/gitcbmc-lazy-po/experiments/wmm-core/mix037.c line 58 function main
  Program proven to be relaxed for X86, model checker says YES.
  !(x == 2 && __unbuffered_p1_EAX == 0 && __unbuffered_p2_EAX == 0 && __unbuffered_p3_EAX == 1 && __unbuffered_p3_EBX == 0)

VERIFICATION FAILED
Partial order constraints used: 24/533
  fr: 0/106
  po: 0/290
  rf: 17/33
  rf-order: 0/33
  rf-some: 5/14
  rfi: 2/7
  thread-spawn: 0/8
  ws-ext: 0/42
Time: 1.268417
