CBMC version 5.0 64-bit x86_64 linux
Parsing /nas/schram/gitcbmc-lazy-po/experiments/wmm-core/mix021.c
Converting
Type-checking mix021
Generating GOTO Program
Adding CPROVER library
Function Pointer Removal
Partial Inlining
Generic Property Instrumentation
Starting Bounded Model Checking
Adding TSO constraints
size of program expression: 624 steps
no slicing due to threads
Generated 1 VCC(s), 1 remaining after simplification
Passing problem to refinement loop with MiniSAT 2.2.0 with simplifier
converting SSA
525 steps converted
Running refinement loop with MiniSAT 2.2.0 with simplifier
BV-Refinement: post-processing
BV-Refinement: iteration 1
770 variables, 912 clauses
SAT checker: negated claim is SATISFIABLE, i.e., does not hold
BV-Refinement: 3 partial order constraints become active
BV-Refinement: 482 inactive partial order constraints
BV-Refinement: got SAT, and it is spurious, refining
BV-Refinement: iteration 2
773 variables, 886 clauses
SAT checker: negated claim is SATISFIABLE, i.e., does not hold
BV-Refinement: 6 partial order constraints become active
BV-Refinement: 476 inactive partial order constraints
BV-Refinement: got SAT, and it is spurious, refining
BV-Refinement: iteration 3
911 variables, 1245 clauses
SAT checker: negated claim is SATISFIABLE, i.e., does not hold
BV-Refinement: 5 partial order constraints become active
BV-Refinement: 471 inactive partial order constraints
BV-Refinement: got SAT, and it is spurious, refining
BV-Refinement: iteration 4
1015 variables, 1766 clauses
SAT checker: negated claim is SATISFIABLE, i.e., does not hold
BV-Refinement: 5 partial order constraints become active
BV-Refinement: 466 inactive partial order constraints
BV-Refinement: got SAT, and it is spurious, refining
BV-Refinement: iteration 5
1119 variables, 2287 clauses
SAT checker: negated claim is SATISFIABLE, i.e., does not hold
BV-Refinement: 5 partial order constraints become active
BV-Refinement: 461 inactive partial order constraints
BV-Refinement: got SAT, and it is spurious, refining
BV-Refinement: iteration 6
1223 variables, 2808 clauses
SAT checker: negated claim is SATISFIABLE, i.e., does not hold
BV-Refinement: 0 partial order constraints become active
BV-Refinement: 461 inactive partial order constraints
BV-Refinement: got SAT, and it simulates => SAT
Total iterations: 6
PROFILING: main_solver: 0.012
PROFILING: sat_check: 0.788
PROFILING: clustering: 0
Runtime decision procedure: 0.805s
Building error trace

Counterexample:

Violated property:
  file /nas/schram/gitcbmc-lazy-po/experiments/wmm-core/mix021.c line 55 function main
  Program proven to be relaxed for X86, model checker says YES.
  !(x == 2 && y == 2 && __unbuffered_p2_EAX == 0 && __unbuffered_p3_EAX == 1 && __unbuffered_p3_EBX == 0)

VERIFICATION FAILED
Partial order constraints used: 24/485
  fr: 0/108
  po: 0/243
  rf: 17/32
  rf-order: 0/32
  rf-some: 5/13
  rfi: 2/7
  thread-spawn: 0/8
  ws-ext: 0/42
Time: 1.218101
