CBMC version 5.0 64-bit x86_64 linux
Parsing /nas/schram/gitcbmc-lazy-po/experiments/wmm-core/rfe001.c
Converting
Type-checking rfe001
Generating GOTO Program
Adding CPROVER library
Function Pointer Removal
Partial Inlining
Generic Property Instrumentation
Starting Bounded Model Checking
Adding TSO constraints
size of program expression: 760 steps
no slicing due to threads
Generated 1 VCC(s), 1 remaining after simplification
Passing problem to refinement loop with MiniSAT 2.2.0 with simplifier
converting SSA
659 steps converted
Running refinement loop with MiniSAT 2.2.0 with simplifier
BV-Refinement: post-processing
BV-Refinement: iteration 1
996 variables, 1079 clauses
SAT checker: negated claim is SATISFIABLE, i.e., does not hold
BV-Refinement: 5 partial order constraints become active
BV-Refinement: 620 inactive partial order constraints
BV-Refinement: got SAT, and it is spurious, refining
BV-Refinement: iteration 2
1100 variables, 1318 clauses
SAT checker: negated claim is SATISFIABLE, i.e., does not hold
BV-Refinement: 4 partial order constraints become active
BV-Refinement: 616 inactive partial order constraints
BV-Refinement: got SAT, and it is spurious, refining
BV-Refinement: iteration 3
1170 variables, 1677 clauses
SAT checker: negated claim is SATISFIABLE, i.e., does not hold
BV-Refinement: 4 partial order constraints become active
BV-Refinement: 612 inactive partial order constraints
BV-Refinement: got SAT, and it is spurious, refining
BV-Refinement: iteration 4
1240 variables, 2036 clauses
SAT checker: negated claim is SATISFIABLE, i.e., does not hold
BV-Refinement: 3 partial order constraints become active
BV-Refinement: 609 inactive partial order constraints
BV-Refinement: got SAT, and it is spurious, refining
BV-Refinement: iteration 5
1243 variables, 2070 clauses
SAT checker: negated claim is SATISFIABLE, i.e., does not hold
BV-Refinement: 4 partial order constraints become active
BV-Refinement: 605 inactive partial order constraints
BV-Refinement: got SAT, and it is spurious, refining
BV-Refinement: iteration 6
1313 variables, 2395 clauses
SAT checker: negated claim is SATISFIABLE, i.e., does not hold
BV-Refinement: 3 partial order constraints become active
BV-Refinement: 602 inactive partial order constraints
BV-Refinement: got SAT, and it is spurious, refining
BV-Refinement: iteration 7
1316 variables, 2429 clauses
SAT checker: negated claim is SATISFIABLE, i.e., does not hold
BV-Refinement: 3 partial order constraints become active
BV-Refinement: 599 inactive partial order constraints
BV-Refinement: got SAT, and it is spurious, refining
BV-Refinement: iteration 8
1319 variables, 2429 clauses
SAT checker: negated claim is SATISFIABLE, i.e., does not hold
BV-Refinement: 3 partial order constraints become active
BV-Refinement: 596 inactive partial order constraints
BV-Refinement: got SAT, and it is spurious, refining
BV-Refinement: iteration 9
1355 variables, 2493 clauses
SAT checker: negated claim is SATISFIABLE, i.e., does not hold
BV-Refinement: 3 partial order constraints become active
BV-Refinement: 593 inactive partial order constraints
BV-Refinement: got SAT, and it is spurious, refining
BV-Refinement: iteration 10
1391 variables, 2493 clauses
SAT checker: negated claim is SATISFIABLE, i.e., does not hold
BV-Refinement: 3 partial order constraints become active
BV-Refinement: 590 inactive partial order constraints
BV-Refinement: got SAT, and it is spurious, refining
BV-Refinement: iteration 11
1427 variables, 2493 clauses
SAT checker: negated claim is SATISFIABLE, i.e., does not hold
BV-Refinement: 6 partial order constraints become active
BV-Refinement: 584 inactive partial order constraints
BV-Refinement: got SAT, and it is spurious, refining
BV-Refinement: iteration 12
1628 variables, 3016 clauses
SAT checker: negated claim is UNSATISFIABLE, i.e., holds
BV-Refinement: got UNSAT, and the proof passes => UNSAT
Total iterations: 12
PROFILING: main_solver: 0.024
PROFILING: sat_check: 1.842
PROFILING: clustering: 0
Runtime decision procedure: 1.872s
VERIFICATION SUCCESSFUL
Partial order constraints used: 41/625
  fr: 0/69
  po: 3/422
  rf: 21/30
  rf-order: 3/30
  rf-some: 10/19
  rfi: 4/13
  thread-spawn: 0/6
  ws-ext: 0/36
Time: 2.270815
