CBMC version 5.1 64-bit x86_64 linux
Parsing /nas/schram/gitcbmc-lazy-po/experiments/wmm-core/mix046.c
Converting
Type-checking mix046
Generating GOTO Program
Adding CPROVER library
Function Pointer Removal
Partial Inlining
Generic Property Instrumentation
Starting Bounded Model Checking
Adding TSO constraints
size of program expression: 430 steps
no slicing due to threads
Generated 1 VCC(s), 1 remaining after simplification
Passing problem to refinement loop with MiniSAT 2.2.0 with simplifier
converting SSA
329 steps converted
Running refinement loop with MiniSAT 2.2.0 with simplifier
BV-Refinement: post-processing
BV-Refinement: iteration 1
5205 variables, 19625 clauses
SAT checker: negated claim is SATISFIABLE, i.e., does not hold
BV-Refinement: 22 partial order constraints become active
BV-Refinement: 201 inactive partial order constraints
BV-Refinement: got SAT, and it is spurious, refining
BV-Refinement: iteration 2
5905 variables, 17106 clauses
SAT checker: negated claim is SATISFIABLE, i.e., does not hold
BV-Refinement: 17 partial order constraints become active
BV-Refinement: 184 inactive partial order constraints
BV-Refinement: got SAT, and it is spurious, refining
BV-Refinement: iteration 3
6342 variables, 18814 clauses
SAT checker: negated claim is SATISFIABLE, i.e., does not hold
BV-Refinement: 14 partial order constraints become active
BV-Refinement: 170 inactive partial order constraints
BV-Refinement: got SAT, and it is spurious, refining
BV-Refinement: iteration 4
6741 variables, 20447 clauses
SAT checker: negated claim is SATISFIABLE, i.e., does not hold
BV-Refinement: 11 partial order constraints become active
BV-Refinement: 159 inactive partial order constraints
BV-Refinement: got SAT, and it is spurious, refining
BV-Refinement: iteration 5
7013 variables, 21584 clauses
SAT checker: negated claim is SATISFIABLE, i.e., does not hold
BV-Refinement: 13 partial order constraints become active
BV-Refinement: 146 inactive partial order constraints
BV-Refinement: got SAT, and it is spurious, refining
BV-Refinement: iteration 6
7345 variables, 23060 clauses
SAT checker: negated claim is SATISFIABLE, i.e., does not hold
BV-Refinement: 7 partial order constraints become active
BV-Refinement: 139 inactive partial order constraints
BV-Refinement: got SAT, and it is spurious, refining
BV-Refinement: iteration 7
7495 variables, 23672 clauses
SAT checker: negated claim is SATISFIABLE, i.e., does not hold
BV-Refinement: 10 partial order constraints become active
BV-Refinement: 129 inactive partial order constraints
BV-Refinement: got SAT, and it is spurious, refining
BV-Refinement: iteration 8
7728 variables, 24766 clauses
SAT checker: negated claim is SATISFIABLE, i.e., does not hold
BV-Refinement: 6 partial order constraints become active
BV-Refinement: 123 inactive partial order constraints
BV-Refinement: got SAT, and it is spurious, refining
BV-Refinement: iteration 9
7760 variables, 24805 clauses
SAT checker: negated claim is SATISFIABLE, i.e., does not hold
BV-Refinement: 3 partial order constraints become active
BV-Refinement: 120 inactive partial order constraints
BV-Refinement: got SAT, and it is spurious, refining
BV-Refinement: iteration 10
7763 variables, 24800 clauses
SAT checker: negated claim is SATISFIABLE, i.e., does not hold
BV-Refinement: 3 partial order constraints become active
BV-Refinement: 117 inactive partial order constraints
BV-Refinement: got SAT, and it is spurious, refining
BV-Refinement: iteration 11
7822 variables, 25081 clauses
SAT checker: negated claim is SATISFIABLE, i.e., does not hold
BV-Refinement: 2 partial order constraints become active
BV-Refinement: 115 inactive partial order constraints
BV-Refinement: got SAT, and it is spurious, refining
BV-Refinement: iteration 12
7881 variables, 25333 clauses
SAT checker: negated claim is SATISFIABLE, i.e., does not hold
BV-Refinement: 4 partial order constraints become active
BV-Refinement: 111 inactive partial order constraints
BV-Refinement: got SAT, and it is spurious, refining
BV-Refinement: iteration 13
8004 variables, 25865 clauses
SAT checker: negated claim is SATISFIABLE, i.e., does not hold
BV-Refinement: 6 partial order constraints become active
BV-Refinement: 105 inactive partial order constraints
BV-Refinement: got SAT, and it is spurious, refining
BV-Refinement: iteration 14
8099 variables, 26265 clauses
SAT checker: negated claim is SATISFIABLE, i.e., does not hold
BV-Refinement: 6 partial order constraints become active
BV-Refinement: 99 inactive partial order constraints
BV-Refinement: got SAT, and it is spurious, refining
BV-Refinement: iteration 15
8194 variables, 26635 clauses
SAT checker: negated claim is SATISFIABLE, i.e., does not hold
BV-Refinement: 3 partial order constraints become active
BV-Refinement: 96 inactive partial order constraints
BV-Refinement: got SAT, and it is spurious, refining
BV-Refinement: iteration 16
8194 variables, 26596 clauses
SAT checker: negated claim is SATISFIABLE, i.e., does not hold
BV-Refinement: 0 partial order constraints become active
BV-Refinement: 96 inactive partial order constraints
BV-Refinement: got SAT, and it simulates => SAT
Total iterations: 16
PROFILING: main_solver: 0.564
PROFILING: sat_check: 0.673
PROFILING: clustering: 0
Runtime decision procedure: 1.282s
Building error trace

Counterexample:

State 58 file /nas/schram/gitcbmc-lazy-po/experiments/wmm-core/mix046.c line 24 function P1 thread 2
----------------------------------------------------
  x=1 (00000000000000000000000000000001)

State 59 file /nas/schram/gitcbmc-lazy-po/experiments/wmm-core/mix046.c line 16 function P0 thread 1
----------------------------------------------------
  b=1 (00000000000000000000000000000001)

State 60 file /nas/schram/gitcbmc-lazy-po/experiments/wmm-core/mix046.c line 17 function P0 thread 1
----------------------------------------------------
  __unbuffered_p0_EAX=0 (00000000000000000000000000000000)

State 65 file /nas/schram/gitcbmc-lazy-po/experiments/wmm-core/mix046.c line 25 function P1 thread 2
----------------------------------------------------
  y=1 (00000000000000000000000000000001)

State 70 file /nas/schram/gitcbmc-lazy-po/experiments/wmm-core/mix046.c line 32 function P2 thread 3
----------------------------------------------------
  y=2 (00000000000000000000000000000010)

State 71 file /nas/schram/gitcbmc-lazy-po/experiments/wmm-core/mix046.c line 28 function P1 thread 2
----------------------------------------------------
  __unbuffered_cnt=1 (00000000000000000000000000000001)

State 77 file /nas/schram/gitcbmc-lazy-po/experiments/wmm-core/mix046.c line 52 function main thread 3
----------------------------------------------------
  arg=NULL (0000000000000000000000000000000000000000000000000000000000000000)

State 78 file /nas/schram/gitcbmc-lazy-po/experiments/wmm-core/mix046.c line 33 function P2 thread 3
----------------------------------------------------
  z=1 (00000000000000000000000000000001)

State 83 file /nas/schram/gitcbmc-lazy-po/experiments/wmm-core/mix046.c line 40 function P3 thread 4
----------------------------------------------------
  z=2 (00000000000000000000000000000010)

State 84 file /nas/schram/gitcbmc-lazy-po/experiments/wmm-core/mix046.c line 41 function P3 thread 4
----------------------------------------------------
  a=1 (00000000000000000000000000000001)

State 85 file /nas/schram/gitcbmc-lazy-po/experiments/wmm-core/mix046.c line 42 function P3 thread 4
----------------------------------------------------
  __unbuffered_p3_EAX=1 (00000000000000000000000000000001)

State 86 file /nas/schram/gitcbmc-lazy-po/experiments/wmm-core/mix046.c line 36 function P2 thread 3
----------------------------------------------------
  __unbuffered_cnt=2 (00000000000000000000000000000010)

State 92 file /nas/schram/gitcbmc-lazy-po/experiments/wmm-core/mix046.c line 53 function main thread 4
----------------------------------------------------
  arg=NULL (0000000000000000000000000000000000000000000000000000000000000000)

State 93 file /nas/schram/gitcbmc-lazy-po/experiments/wmm-core/mix046.c line 43 function P3 thread 4
----------------------------------------------------
  __unbuffered_p3_EBX=0 (00000000000000000000000000000000)

State 98 file /nas/schram/gitcbmc-lazy-po/experiments/wmm-core/mix046.c line 46 function P3 thread 4
----------------------------------------------------
  __unbuffered_cnt=3 (00000000000000000000000000000011)

State 102 file /nas/schram/gitcbmc-lazy-po/experiments/wmm-core/mix046.c line 20 function P0 thread 1
----------------------------------------------------
  __unbuffered_cnt=4 (00000000000000000000000000000100)

State 108 file /nas/schram/gitcbmc-lazy-po/experiments/wmm-core/mix046.c line 51 function main thread 2
----------------------------------------------------
  arg=NULL (0000000000000000000000000000000000000000000000000000000000000000)

Violated property:
  file /nas/schram/gitcbmc-lazy-po/experiments/wmm-core/mix046.c line 57 function main
  Program proven to be relaxed for X86, model checker says YES.
  !(y == 2 && z == 2 && __unbuffered_p0_EAX == 0 && __unbuffered_p3_EAX == 1 && __unbuffered_p3_EBX == 0)

VERIFICATION FAILED
Partial order constraints used: 415/511
  fr: 45/108
  po: 267/267
  rf: 23/32
  rf-order: 27/32
  rf-some: 13/13
  rfi: 4/7
  thread-spawn: 8/8
  ws-ext: 28/44
Time: 1.668529
