CBMC version 5.1 64-bit x86_64 linux
Parsing /nas/schram/gitcbmc-lazy-po/experiments/wmm-core/safe081.c
Converting
Type-checking safe081
Generating GOTO Program
Adding CPROVER library
Function Pointer Removal
Partial Inlining
Generic Property Instrumentation
Starting Bounded Model Checking
Adding TSO constraints
size of program expression: 470 steps
no slicing due to threads
Generated 1 VCC(s), 1 remaining after simplification
Passing problem to refinement loop with MiniSAT 2.2.0 with simplifier
converting SSA
369 steps converted
Running refinement loop with MiniSAT 2.2.0 with simplifier
BV-Refinement: post-processing
BV-Refinement: iteration 1
5928 variables, 22735 clauses
SAT checker: negated claim is SATISFIABLE, i.e., does not hold
BV-Refinement: 22 partial order constraints become active
BV-Refinement: 157 inactive partial order constraints
BV-Refinement: got SAT, and it is spurious, refining
BV-Refinement: iteration 2
6505 variables, 18724 clauses
SAT checker: negated claim is SATISFIABLE, i.e., does not hold
BV-Refinement: 21 partial order constraints become active
BV-Refinement: 136 inactive partial order constraints
BV-Refinement: got SAT, and it is spurious, refining
BV-Refinement: iteration 3
7028 variables, 20956 clauses
SAT checker: negated claim is SATISFIABLE, i.e., does not hold
BV-Refinement: 19 partial order constraints become active
BV-Refinement: 117 inactive partial order constraints
BV-Refinement: got SAT, and it is spurious, refining
BV-Refinement: iteration 4
7526 variables, 22774 clauses
SAT checker: negated claim is SATISFIABLE, i.e., does not hold
BV-Refinement: 11 partial order constraints become active
BV-Refinement: 106 inactive partial order constraints
BV-Refinement: got SAT, and it is spurious, refining
BV-Refinement: iteration 5
7713 variables, 23467 clauses
SAT checker: negated claim is SATISFIABLE, i.e., does not hold
BV-Refinement: 13 partial order constraints become active
BV-Refinement: 93 inactive partial order constraints
BV-Refinement: got SAT, and it is spurious, refining
BV-Refinement: iteration 6
7923 variables, 24346 clauses
SAT checker: negated claim is SATISFIABLE, i.e., does not hold
BV-Refinement: 10 partial order constraints become active
BV-Refinement: 83 inactive partial order constraints
BV-Refinement: got SAT, and it is spurious, refining
BV-Refinement: iteration 7
8080 variables, 24853 clauses
SAT checker: negated claim is SATISFIABLE, i.e., does not hold
BV-Refinement: 2 partial order constraints become active
BV-Refinement: 81 inactive partial order constraints
BV-Refinement: got SAT, and it is spurious, refining
BV-Refinement: iteration 8
8111 variables, 24369 clauses
SAT checker: negated claim is SATISFIABLE, i.e., does not hold
BV-Refinement: 2 partial order constraints become active
BV-Refinement: 79 inactive partial order constraints
BV-Refinement: got SAT, and it is spurious, refining
BV-Refinement: iteration 9
8170 variables, 24635 clauses
SAT checker: negated claim is SATISFIABLE, i.e., does not hold
BV-Refinement: 1 partial order constraints become active
BV-Refinement: 78 inactive partial order constraints
BV-Refinement: got SAT, and it is spurious, refining
BV-Refinement: iteration 10
8199 variables, 24747 clauses
SAT checker: negated claim is UNSATISFIABLE, i.e., holds
BV-Refinement: got UNSAT, and the proof passes => UNSAT
Total iterations: 10
PROFILING: main_solver: 0.489
PROFILING: sat_check: 0.327
PROFILING: clustering: 0
Runtime decision procedure: 0.867s
VERIFICATION SUCCESSFUL
Partial order constraints used: 439/517
  fr: 29/75
  po: 316/316
  rf: 25/30
  rf-order: 21/30
  rf-some: 16/16
  rfi: 10/10
  thread-spawn: 6/6
  ws-ext: 16/34
Time: 1.217421
