CBMC version 5.0 64-bit x86_64 linux
Parsing /nas/schram/gitcbmc-lazy-po/experiments/pthread/bigshot_p_false-unreach-call.c
Converting
Type-checking bigshot_p_false-unreach-call
Generating GOTO Program
Adding CPROVER library
Function Pointer Removal
Partial Inlining
Generic Property Instrumentation
Starting Bounded Model Checking
Unwinding loop thread2.0 iteration 1 (5 max) file /nas/schram/gitcbmc-lazy-po/experiments/pthread/bigshot_p_false-unreach-call.c line 18 function thread2 thread 2
Unwinding loop thread2.0 iteration 2 (5 max) file /nas/schram/gitcbmc-lazy-po/experiments/pthread/bigshot_p_false-unreach-call.c line 18 function thread2 thread 2
Unwinding loop thread2.0 iteration 3 (5 max) file /nas/schram/gitcbmc-lazy-po/experiments/pthread/bigshot_p_false-unreach-call.c line 18 function thread2 thread 2
Unwinding loop thread2.0 iteration 4 (5 max) file /nas/schram/gitcbmc-lazy-po/experiments/pthread/bigshot_p_false-unreach-call.c line 18 function thread2 thread 2
Not unwinding loop thread2.0 iteration 5 (5 max) file /nas/schram/gitcbmc-lazy-po/experiments/pthread/bigshot_p_false-unreach-call.c line 18 function thread2 thread 2
Adding TSO constraints
size of program expression: 1275 steps
no slicing due to threads
Generated 2 VCC(s), 2 remaining after simplification
Partial order constraints used: 0/979
  fr: 0/157
  po: 0/682
  rf: 0/19
  rf-order: 0/19
  rf-some: 0/33
  rfi: 0/49
  thread-spawn: 0/2
  ws-ext: 0/18
Partial order constraint sizes: 
  fr: 4218 variables, 15989 clauses
  po: 12294 variables, 55646 clauses
  rf: 1580 variables, 3242 clauses
  rf-order: 968 variables, 3078 clauses
  rf-some: 145 variables, 45 clauses
  rfi: 4551 variables, 13516 clauses
  thread-spawn: 120 variables, 316 clauses
  ws-ext: 813 variables, 2916 clauses
Time: 1.923540
