CBMC version 5.0 64-bit x86_64 linux
Parsing /nas/schram/gitcbmc-lazy-po/experiments/wmm-core/aclwdrr008.c
Converting
Type-checking aclwdrr008
Generating GOTO Program
Adding CPROVER library
Function Pointer Removal
Partial Inlining
Generic Property Instrumentation
Starting Bounded Model Checking
Adding TSO constraints
size of program expression: 594 steps
no slicing due to threads
Generated 1 VCC(s), 1 remaining after simplification
Passing problem to refinement loop with MiniSAT 2.2.0 with simplifier
converting SSA
Running refinement loop with MiniSAT 2.2.0 with simplifier
BV-Refinement: post-processing
BV-Refinement: iteration 1
3491 variables, 11866 clauses
SAT checker: negated claim is SATISFIABLE, i.e., does not hold
BV-Refinement: 83 partial order constraints become active
BV-Refinement: 265 inactive partial order constraints
BV-Refinement: got SAT, and it is spurious, refining
BV-Refinement: iteration 2
4735 variables, 16433 clauses
SAT checker: negated claim is SATISFIABLE, i.e., does not hold
BV-Refinement: 45 partial order constraints become active
BV-Refinement: 220 inactive partial order constraints
BV-Refinement: got SAT, and it is spurious, refining
BV-Refinement: iteration 3
5434 variables, 17528 clauses
SAT checker: negated claim is SATISFIABLE, i.e., does not hold
BV-Refinement: 17 partial order constraints become active
BV-Refinement: 203 inactive partial order constraints
BV-Refinement: got SAT, and it is spurious, refining
BV-Refinement: iteration 4
5681 variables, 17838 clauses
SAT checker: negated claim is UNSATISFIABLE, i.e., holds
BV-Refinement: got UNSAT, and the proof passes => UNSAT
Total iterations: 4
PROFILING: main_solver: 0.411
PROFILING: sat_check: 0.096
Runtime decision procedure: 0.538s
VERIFICATION SUCCESSFUL
Partial order constraints used: 260/463
  fr: 20/71
  po: 125/277
  rf: 27/27
  rf-order: 27/27
  rf-some: 14/14
  rfi: 9/9
  thread-spawn: 6/6
  ws-ext: 32/32
Time: 0.916830
