CBMC version 5.0 64-bit x86_64 linux
Parsing /nas/schram/gitcbmc-lazy-po/experiments/wmm-core/aclwsrr002.c
Converting
Type-checking aclwsrr002
Generating GOTO Program
Adding CPROVER library
Function Pointer Removal
Partial Inlining
Generic Property Instrumentation
Starting Bounded Model Checking
Adding TSO constraints
size of program expression: 498 steps
no slicing due to threads
Generated 1 VCC(s), 1 remaining after simplification
Passing problem to refinement loop with MiniSAT 2.2.0 with simplifier
converting SSA
Running refinement loop with MiniSAT 2.2.0 with simplifier
BV-Refinement: post-processing
BV-Refinement: iteration 1
2573 variables, 8097 clauses
SAT checker: negated claim is SATISFIABLE, i.e., does not hold
BV-Refinement: 80 partial order constraints become active
BV-Refinement: 233 inactive partial order constraints
BV-Refinement: got SAT, and it is spurious, refining
BV-Refinement: iteration 2
3774 variables, 12935 clauses
SAT checker: negated claim is SATISFIABLE, i.e., does not hold
BV-Refinement: 45 partial order constraints become active
BV-Refinement: 188 inactive partial order constraints
BV-Refinement: got SAT, and it is spurious, refining
BV-Refinement: iteration 3
4455 variables, 14566 clauses
SAT checker: negated claim is SATISFIABLE, i.e., does not hold
BV-Refinement: 8 partial order constraints become active
BV-Refinement: 180 inactive partial order constraints
BV-Refinement: got SAT, and it is spurious, refining
BV-Refinement: iteration 4
4589 variables, 14207 clauses
SAT checker: negated claim is SATISFIABLE, i.e., does not hold
BV-Refinement: 3 partial order constraints become active
BV-Refinement: 177 inactive partial order constraints
BV-Refinement: got SAT, and it is spurious, refining
BV-Refinement: iteration 5
4652 variables, 14334 clauses
SAT checker: negated claim is UNSATISFIABLE, i.e., holds
BV-Refinement: got UNSAT, and the proof passes => UNSAT
Total iterations: 5
PROFILING: main_solver: 0.244
PROFILING: sat_check: 0.107
Runtime decision procedure: 0.373s
VERIFICATION SUCCESSFUL
Partial order constraints used: 217/394
  fr: 11/32
  po: 125/281
  rf: 18/18
  rf-order: 18/18
  rf-some: 12/12
  rfi: 7/7
  thread-spawn: 4/4
  ws-ext: 22/22
Time: 0.716363
