CBMC version 5.0 64-bit x86_64 linux
Parsing /nas/schram/gitcbmc-lazy-po/experiments/wmm-core/bclwdww005.c
Converting
Type-checking bclwdww005
Generating GOTO Program
Adding CPROVER library
Function Pointer Removal
Partial Inlining
Generic Property Instrumentation
Starting Bounded Model Checking
Adding TSO constraints
size of program expression: 602 steps
no slicing due to threads
Generated 1 VCC(s), 1 remaining after simplification
Passing problem to refinement loop with MiniSAT 2.2.0 with simplifier
converting SSA
Running refinement loop with MiniSAT 2.2.0 with simplifier
BV-Refinement: post-processing
BV-Refinement: iteration 1
3372 variables, 11303 clauses
SAT checker: negated claim is SATISFIABLE, i.e., does not hold
BV-Refinement: 94 partial order constraints become active
BV-Refinement: 265 inactive partial order constraints
BV-Refinement: got SAT, and it is spurious, refining
BV-Refinement: iteration 2
4756 variables, 16729 clauses
SAT checker: negated claim is SATISFIABLE, i.e., does not hold
BV-Refinement: 52 partial order constraints become active
BV-Refinement: 213 inactive partial order constraints
BV-Refinement: got SAT, and it is spurious, refining
BV-Refinement: iteration 3
5550 variables, 18462 clauses
SAT checker: negated claim is SATISFIABLE, i.e., does not hold
BV-Refinement: 20 partial order constraints become active
BV-Refinement: 193 inactive partial order constraints
BV-Refinement: got SAT, and it is spurious, refining
BV-Refinement: iteration 4
5869 variables, 18913 clauses
SAT checker: negated claim is UNSATISFIABLE, i.e., holds
BV-Refinement: got UNSAT, and the proof passes => UNSAT
Total iterations: 4
PROFILING: main_solver: 0.66
PROFILING: sat_check: 0.102
Runtime decision procedure: 0.792s
VERIFICATION SUCCESSFUL
Partial order constraints used: 275/468
  fr: 17/61
  po: 149/298
  rf: 24/24
  rf-order: 24/24
  rf-some: 13/13
  rfi: 8/8
  thread-spawn: 6/6
  ws-ext: 34/34
Time: 1.167494
