CBMC version 5.0 64-bit x86_64 linux
Parsing /nas/schram/gitcbmc-lazy-po/experiments/wmm-core/mix046.c
Converting
Type-checking mix046
Generating GOTO Program
Adding CPROVER library
Function Pointer Removal
Partial Inlining
Generic Property Instrumentation
Starting Bounded Model Checking
Adding TSO constraints
size of program expression: 653 steps
no slicing due to threads
Generated 1 VCC(s), 1 remaining after simplification
Passing problem to refinement loop with MiniSAT 2.2.0 with simplifier
converting SSA
Running refinement loop with MiniSAT 2.2.0 with simplifier
BV-Refinement: post-processing
BV-Refinement: iteration 1
4169 variables, 14882 clauses
SAT checker: negated claim is SATISFIABLE, i.e., does not hold
BV-Refinement: 69 partial order constraints become active
BV-Refinement: 306 inactive partial order constraints
BV-Refinement: got SAT, and it is spurious, refining
BV-Refinement: iteration 2
5247 variables, 18589 clauses
SAT checker: negated claim is SATISFIABLE, i.e., does not hold
BV-Refinement: 42 partial order constraints become active
BV-Refinement: 264 inactive partial order constraints
BV-Refinement: got SAT, and it is spurious, refining
BV-Refinement: iteration 3
6022 variables, 20926 clauses
SAT checker: negated claim is SATISFIABLE, i.e., does not hold
BV-Refinement: 26 partial order constraints become active
BV-Refinement: 238 inactive partial order constraints
BV-Refinement: got SAT, and it is spurious, refining
BV-Refinement: iteration 4
6323 variables, 21579 clauses
SAT checker: negated claim is SATISFIABLE, i.e., does not hold
BV-Refinement: 13 partial order constraints become active
BV-Refinement: 225 inactive partial order constraints
BV-Refinement: got SAT, and it is spurious, refining
BV-Refinement: iteration 5
6472 variables, 21847 clauses
SAT checker: negated claim is SATISFIABLE, i.e., does not hold
BV-Refinement: 2 partial order constraints become active
BV-Refinement: 223 inactive partial order constraints
BV-Refinement: got SAT, and it is spurious, refining
BV-Refinement: iteration 6
6506 variables, 21843 clauses
SAT checker: negated claim is SATISFIABLE, i.e., does not hold
BV-Refinement: 7 partial order constraints become active
BV-Refinement: 216 inactive partial order constraints
BV-Refinement: got SAT, and it is spurious, refining
BV-Refinement: iteration 7
6569 variables, 22081 clauses
SAT checker: negated claim is SATISFIABLE, i.e., does not hold
BV-Refinement: 2 partial order constraints become active
BV-Refinement: 214 inactive partial order constraints
BV-Refinement: got SAT, and it is spurious, refining
BV-Refinement: iteration 8
6603 variables, 22161 clauses
SAT checker: negated claim is SATISFIABLE, i.e., does not hold
BV-Refinement: 2 partial order constraints become active
BV-Refinement: 212 inactive partial order constraints
BV-Refinement: got SAT, and it is spurious, refining
BV-Refinement: iteration 9
6637 variables, 22255 clauses
SAT checker: negated claim is SATISFIABLE, i.e., does not hold
BV-Refinement: 2 partial order constraints become active
BV-Refinement: 210 inactive partial order constraints
BV-Refinement: got SAT, and it is spurious, refining
BV-Refinement: iteration 10
6671 variables, 22349 clauses
SAT checker: negated claim is SATISFIABLE, i.e., does not hold
BV-Refinement: 5 partial order constraints become active
BV-Refinement: 205 inactive partial order constraints
BV-Refinement: got SAT, and it is spurious, refining
BV-Refinement: iteration 11
6685 variables, 22379 clauses
SAT checker: negated claim is SATISFIABLE, i.e., does not hold
BV-Refinement: 5 partial order constraints become active
BV-Refinement: 200 inactive partial order constraints
BV-Refinement: got SAT, and it is spurious, refining
BV-Refinement: iteration 12
6714 variables, 22502 clauses
SAT checker: negated claim is SATISFIABLE, i.e., does not hold
BV-Refinement: 0 partial order constraints become active
BV-Refinement: 200 inactive partial order constraints
BV-Refinement: got SAT, and it simulates => SAT
Total iterations: 12
PROFILING: main_solver: 0.502
PROFILING: sat_check: 0.22
Runtime decision procedure: 0.76s
Building error trace

Counterexample:

State 58 file /nas/schram/gitcbmc-lazy-po/experiments/wmm-core/mix046.c line 16 function P0 thread 1
----------------------------------------------------
  b=1 (00000000000000000000000000000001)

State 59 file /nas/schram/gitcbmc-lazy-po/experiments/wmm-core/mix046.c line 17 function P0 thread 1
----------------------------------------------------
  __unbuffered_p0_EAX=0 (00000000000000000000000000000000)

State 64 file /nas/schram/gitcbmc-lazy-po/experiments/wmm-core/mix046.c line 20 function P0 thread 1
----------------------------------------------------
  __unbuffered_cnt=1 (00000000000000000000000000000001)

State 70 file /nas/schram/gitcbmc-lazy-po/experiments/wmm-core/mix046.c line 51 function main thread 2
----------------------------------------------------
  arg=NULL (0000000000000000000000000000000000000000000000000000000000000000)

State 71 file /nas/schram/gitcbmc-lazy-po/experiments/wmm-core/mix046.c line 24 function P1 thread 2
----------------------------------------------------
  x=1 (00000000000000000000000000000001)

State 72 file /nas/schram/gitcbmc-lazy-po/experiments/wmm-core/mix046.c line 25 function P1 thread 2
----------------------------------------------------
  y=1 (00000000000000000000000000000001)

State 77 file /nas/schram/gitcbmc-lazy-po/experiments/wmm-core/mix046.c line 32 function P2 thread 3
----------------------------------------------------
  y=2 (00000000000000000000000000000010)

State 78 file /nas/schram/gitcbmc-lazy-po/experiments/wmm-core/mix046.c line 33 function P2 thread 3
----------------------------------------------------
  z=1 (00000000000000000000000000000001)

State 83 file /nas/schram/gitcbmc-lazy-po/experiments/wmm-core/mix046.c line 40 function P3 thread 4
----------------------------------------------------
  z=2 (00000000000000000000000000000010)

State 84 file /nas/schram/gitcbmc-lazy-po/experiments/wmm-core/mix046.c line 41 function P3 thread 4
----------------------------------------------------
  a=1 (00000000000000000000000000000001)

State 85 file /nas/schram/gitcbmc-lazy-po/experiments/wmm-core/mix046.c line 42 function P3 thread 4
----------------------------------------------------
  __unbuffered_p3_EAX=1 (00000000000000000000000000000001)

State 86 file /nas/schram/gitcbmc-lazy-po/experiments/wmm-core/mix046.c line 43 function P3 thread 4
----------------------------------------------------
  __unbuffered_p3_EBX=0 (00000000000000000000000000000000)

State 91 file /nas/schram/gitcbmc-lazy-po/experiments/wmm-core/mix046.c line 28 function P1 thread 2
----------------------------------------------------
  __unbuffered_cnt=2 (00000000000000000000000000000010)

State 97 file /nas/schram/gitcbmc-lazy-po/experiments/wmm-core/mix046.c line 52 function main thread 3
----------------------------------------------------
  arg=NULL (0000000000000000000000000000000000000000000000000000000000000000)

State 98 file /nas/schram/gitcbmc-lazy-po/experiments/wmm-core/mix046.c line 46 function P3 thread 4
----------------------------------------------------
  __unbuffered_cnt=3 (00000000000000000000000000000011)

State 102 file /nas/schram/gitcbmc-lazy-po/experiments/wmm-core/mix046.c line 36 function P2 thread 3
----------------------------------------------------
  __unbuffered_cnt=4 (00000000000000000000000000000100)

State 108 file /nas/schram/gitcbmc-lazy-po/experiments/wmm-core/mix046.c line 53 function main thread 4
----------------------------------------------------
  arg=NULL (0000000000000000000000000000000000000000000000000000000000000000)

Violated property:
  file /nas/schram/gitcbmc-lazy-po/experiments/wmm-core/mix046.c line 57 function main
  Program proven to be relaxed for X86, model checker says YES.
  !(y == 2 && z == 2 && __unbuffered_p0_EAX == 0 && __unbuffered_p3_EAX == 1 && __unbuffered_p3_EBX == 0)

VERIFICATION FAILED
Partial order constraints used: 311/511
  fr: 49/108
  po: 126/267
  rf: 32/32
  rf-order: 32/32
  rf-some: 13/13
  rfi: 7/7
  thread-spawn: 8/8
  ws-ext: 44/44
Time: 1.167450
