CBMC version 5.0 64-bit x86_64 linux
Parsing /nas/schram/gitcbmc-lazy-po/experiments/wmm-core/podrwposwr007.c
Converting
Type-checking podrwposwr007
Generating GOTO Program
Adding CPROVER library
Function Pointer Removal
Partial Inlining
Generic Property Instrumentation
Starting Bounded Model Checking
Adding TSO constraints
size of program expression: 780 steps
no slicing due to threads
Generated 1 VCC(s), 1 remaining after simplification
Passing problem to refinement loop with MiniSAT 2.2.0 with simplifier
converting SSA
Running refinement loop with MiniSAT 2.2.0 with simplifier
BV-Refinement: post-processing
BV-Refinement: iteration 1
4040 variables, 13305 clauses
SAT checker: negated claim is SATISFIABLE, i.e., does not hold
BV-Refinement: 149 partial order constraints become active
BV-Refinement: 359 inactive partial order constraints
BV-Refinement: got SAT, and it is spurious, refining
BV-Refinement: iteration 2
6230 variables, 22503 clauses
SAT checker: negated claim is SATISFIABLE, i.e., does not hold
BV-Refinement: 99 partial order constraints become active
BV-Refinement: 260 inactive partial order constraints
BV-Refinement: got SAT, and it is spurious, refining
BV-Refinement: iteration 3
7745 variables, 26763 clauses
SAT checker: negated claim is SATISFIABLE, i.e., does not hold
BV-Refinement: 17 partial order constraints become active
BV-Refinement: 243 inactive partial order constraints
BV-Refinement: got SAT, and it is spurious, refining
BV-Refinement: iteration 4
8020 variables, 26125 clauses
SAT checker: negated claim is UNSATISFIABLE, i.e., holds
BV-Refinement: got UNSAT, and the proof passes => UNSAT
Total iterations: 4
PROFILING: main_solver: 0.834
PROFILING: sat_check: 0.133
Runtime decision procedure: 1.003s
VERIFICATION SUCCESSFUL
Partial order constraints used: 393/636
  fr: 25/65
  po: 240/443
  rf: 28/28
  rf-order: 28/28
  rf-some: 17/17
  rfi: 11/11
  thread-spawn: 6/6
  ws-ext: 38/38
Time: 1.418075
