CBMC version 5.0 64-bit x86_64 linux
Parsing /nas/schram/gitcbmc-lazy-po/experiments/wmm-core/podrwposwr011.c
Converting
Type-checking podrwposwr011
Generating GOTO Program
Adding CPROVER library
Function Pointer Removal
Partial Inlining
Generic Property Instrumentation
Starting Bounded Model Checking
Adding TSO constraints
size of program expression: 798 steps
no slicing due to threads
Generated 1 VCC(s), 1 remaining after simplification
Passing problem to refinement loop with MiniSAT 2.2.0 with simplifier
converting SSA
Running refinement loop with MiniSAT 2.2.0 with simplifier
BV-Refinement: post-processing
BV-Refinement: iteration 1
4140 variables, 13771 clauses
SAT checker: negated claim is SATISFIABLE, i.e., does not hold
BV-Refinement: 156 partial order constraints become active
BV-Refinement: 363 inactive partial order constraints
BV-Refinement: got SAT, and it is spurious, refining
BV-Refinement: iteration 2
6436 variables, 23458 clauses
SAT checker: negated claim is SATISFIABLE, i.e., does not hold
BV-Refinement: 75 partial order constraints become active
BV-Refinement: 288 inactive partial order constraints
BV-Refinement: got SAT, and it is spurious, refining
BV-Refinement: iteration 3
7532 variables, 25506 clauses
SAT checker: negated claim is SATISFIABLE, i.e., does not hold
BV-Refinement: 27 partial order constraints become active
BV-Refinement: 261 inactive partial order constraints
BV-Refinement: got SAT, and it is spurious, refining
BV-Refinement: iteration 4
7926 variables, 25710 clauses
SAT checker: negated claim is UNSATISFIABLE, i.e., holds
BV-Refinement: got UNSAT, and the proof passes => UNSAT
Total iterations: 4
PROFILING: main_solver: 0.782
PROFILING: sat_check: 0.137
Runtime decision procedure: 0.956s
VERIFICATION SUCCESSFUL
Partial order constraints used: 391/652
  fr: 24/69
  po: 234/450
  rf: 28/28
  rf-order: 28/28
  rf-some: 17/17
  rfi: 12/12
  thread-spawn: 6/6
  ws-ext: 42/42
Time: 1.368158
