CBMC version 5.0 64-bit x86_64 linux
Parsing /nas/schram/gitcbmc-lazy-po/experiments/wmm-core/safe102.c
Converting
Type-checking safe102
Generating GOTO Program
Adding CPROVER library
Function Pointer Removal
Partial Inlining
Generic Property Instrumentation
Starting Bounded Model Checking
Adding TSO constraints
size of program expression: 595 steps
no slicing due to threads
Generated 1 VCC(s), 1 remaining after simplification
Passing problem to refinement loop with MiniSAT 2.2.0 with simplifier
converting SSA
Running refinement loop with MiniSAT 2.2.0 with simplifier
BV-Refinement: post-processing
BV-Refinement: iteration 1
3520 variables, 11842 clauses
SAT checker: negated claim is SATISFIABLE, i.e., does not hold
BV-Refinement: 74 partial order constraints become active
BV-Refinement: 274 inactive partial order constraints
BV-Refinement: got SAT, and it is spurious, refining
BV-Refinement: iteration 2
4703 variables, 16002 clauses
SAT checker: negated claim is SATISFIABLE, i.e., does not hold
BV-Refinement: 59 partial order constraints become active
BV-Refinement: 215 inactive partial order constraints
BV-Refinement: got SAT, and it is spurious, refining
BV-Refinement: iteration 3
5537 variables, 17824 clauses
SAT checker: negated claim is SATISFIABLE, i.e., does not hold
BV-Refinement: 23 partial order constraints become active
BV-Refinement: 192 inactive partial order constraints
BV-Refinement: got SAT, and it is spurious, refining
BV-Refinement: iteration 4
5883 variables, 18212 clauses
SAT checker: negated claim is UNSATISFIABLE, i.e., holds
BV-Refinement: got UNSAT, and the proof passes => UNSAT
Total iterations: 4
PROFILING: main_solver: 0.271
PROFILING: sat_check: 0.094
Runtime decision procedure: 0.396s
VERIFICATION SUCCESSFUL
Partial order constraints used: 272/464
  fr: 17/71
  po: 139/277
  rf: 28/28
  rf-order: 28/28
  rf-some: 14/14
  rfi: 8/8
  thread-spawn: 6/6
  ws-ext: 32/32
Time: 0.766348
