CBMC version 5.0 64-bit x86_64 linux
Parsing /nas/schram/gitcbmc-lazy-po/experiments/pthread/fib_bench_false-unreach-call.c
Converting
Type-checking fib_bench_false-unreach-call
Generating GOTO Program
Adding CPROVER library
Function Pointer Removal
Partial Inlining
Generic Property Instrumentation
Starting Bounded Model Checking
Unwinding loop t1.0 iteration 1 (5 max) file /nas/schram/gitcbmc-lazy-po/experiments/pthread/fib_bench_false-unreach-call.c line 14 function t1 thread 1
Unwinding loop t1.0 iteration 2 (5 max) file /nas/schram/gitcbmc-lazy-po/experiments/pthread/fib_bench_false-unreach-call.c line 14 function t1 thread 1
Unwinding loop t1.0 iteration 3 (5 max) file /nas/schram/gitcbmc-lazy-po/experiments/pthread/fib_bench_false-unreach-call.c line 14 function t1 thread 1
Unwinding loop t1.0 iteration 4 (5 max) file /nas/schram/gitcbmc-lazy-po/experiments/pthread/fib_bench_false-unreach-call.c line 14 function t1 thread 1
Not unwinding loop t1.0 iteration 5 (5 max) file /nas/schram/gitcbmc-lazy-po/experiments/pthread/fib_bench_false-unreach-call.c line 14 function t1 thread 1
Unwinding loop t2.0 iteration 1 (5 max) file /nas/schram/gitcbmc-lazy-po/experiments/pthread/fib_bench_false-unreach-call.c line 25 function t2 thread 2
Unwinding loop t2.0 iteration 2 (5 max) file /nas/schram/gitcbmc-lazy-po/experiments/pthread/fib_bench_false-unreach-call.c line 25 function t2 thread 2
Unwinding loop t2.0 iteration 3 (5 max) file /nas/schram/gitcbmc-lazy-po/experiments/pthread/fib_bench_false-unreach-call.c line 25 function t2 thread 2
Unwinding loop t2.0 iteration 4 (5 max) file /nas/schram/gitcbmc-lazy-po/experiments/pthread/fib_bench_false-unreach-call.c line 25 function t2 thread 2
Not unwinding loop t2.0 iteration 5 (5 max) file /nas/schram/gitcbmc-lazy-po/experiments/pthread/fib_bench_false-unreach-call.c line 25 function t2 thread 2
Adding TSO constraints
size of program expression: 1096 steps
no slicing due to threads
Generated 2 VCC(s), 2 remaining after simplification
Passing problem to refinement loop with MiniSAT 2.2.0 with simplifier
converting SSA
994 steps converted
Running refinement loop with MiniSAT 2.2.0 with simplifier
BV-Refinement: post-processing
BV-Refinement: iteration 1
2256 variables, 5686 clauses
SAT checker: negated claim is SATISFIABLE, i.e., does not hold
BV-Refinement: 2 partial order constraints become active
BV-Refinement: 912 inactive partial order constraints
BV-Refinement: got SAT, and it is spurious, refining
BV-Refinement: iteration 2
2258 variables, 5041 clauses
SAT checker: negated claim is SATISFIABLE, i.e., does not hold
BV-Refinement: 7 partial order constraints become active
BV-Refinement: 905 inactive partial order constraints
BV-Refinement: got SAT, and it is spurious, refining
BV-Refinement: iteration 3
2430 variables, 5633 clauses
SAT checker: negated claim is SATISFIABLE, i.e., does not hold
BV-Refinement: 2 partial order constraints become active
BV-Refinement: 903 inactive partial order constraints
BV-Refinement: got SAT, and it is spurious, refining
BV-Refinement: iteration 4
2432 variables, 5667 clauses
SAT checker: negated claim is SATISFIABLE, i.e., does not hold
BV-Refinement: 7 partial order constraints become active
BV-Refinement: 896 inactive partial order constraints
BV-Refinement: got SAT, and it is spurious, refining
BV-Refinement: iteration 5
2604 variables, 6259 clauses
SAT checker: negated claim is SATISFIABLE, i.e., does not hold
BV-Refinement: 7 partial order constraints become active
BV-Refinement: 889 inactive partial order constraints
BV-Refinement: got SAT, and it is spurious, refining
BV-Refinement: iteration 6
2776 variables, 7104 clauses
SAT checker: negated claim is SATISFIABLE, i.e., does not hold
BV-Refinement: 5 partial order constraints become active
BV-Refinement: 884 inactive partial order constraints
BV-Refinement: got SAT, and it is spurious, refining
BV-Refinement: iteration 7
2880 variables, 7625 clauses
SAT checker: negated claim is SATISFIABLE, i.e., does not hold
BV-Refinement: 6 partial order constraints become active
BV-Refinement: 878 inactive partial order constraints
BV-Refinement: got SAT, and it is spurious, refining
BV-Refinement: iteration 8
3018 variables, 8308 clauses
SAT checker: negated claim is SATISFIABLE, i.e., does not hold
BV-Refinement: 3 partial order constraints become active
BV-Refinement: 875 inactive partial order constraints
BV-Refinement: got SAT, and it is spurious, refining
BV-Refinement: iteration 9
3054 variables, 8505 clauses
SAT checker: negated claim is SATISFIABLE, i.e., does not hold
BV-Refinement: 7 partial order constraints become active
BV-Refinement: 868 inactive partial order constraints
BV-Refinement: got SAT, and it is spurious, refining
BV-Refinement: iteration 10
3226 variables, 9350 clauses
SAT checker: negated claim is SATISFIABLE, i.e., does not hold
BV-Refinement: 6 partial order constraints become active
BV-Refinement: 862 inactive partial order constraints
BV-Refinement: got SAT, and it is spurious, refining
BV-Refinement: iteration 11
3364 variables, 10033 clauses
SAT checker: negated claim is SATISFIABLE, i.e., does not hold
BV-Refinement: 4 partial order constraints become active
BV-Refinement: 858 inactive partial order constraints
BV-Refinement: got SAT, and it is spurious, refining
BV-Refinement: iteration 12
3434 variables, 10392 clauses
SAT checker: negated claim is SATISFIABLE, i.e., does not hold
BV-Refinement: 3 partial order constraints become active
BV-Refinement: 855 inactive partial order constraints
BV-Refinement: got SAT, and it is spurious, refining
BV-Refinement: iteration 13
3470 variables, 10589 clauses
SAT checker: negated claim is SATISFIABLE, i.e., does not hold
BV-Refinement: 4 partial order constraints become active
BV-Refinement: 851 inactive partial order constraints
BV-Refinement: got SAT, and it is spurious, refining
BV-Refinement: iteration 14
3540 variables, 10948 clauses
SAT checker: negated claim is SATISFIABLE, i.e., does not hold
BV-Refinement: 5 partial order constraints become active
BV-Refinement: 846 inactive partial order constraints
BV-Refinement: got SAT, and it is spurious, refining
BV-Refinement: iteration 15
3644 variables, 11469 clauses
SAT checker: negated claim is SATISFIABLE, i.e., does not hold
BV-Refinement: 7 partial order constraints become active
BV-Refinement: 839 inactive partial order constraints
BV-Refinement: got SAT, and it is spurious, refining
BV-Refinement: iteration 16
3816 variables, 12314 clauses
SAT checker: negated claim is SATISFIABLE, i.e., does not hold
BV-Refinement: 7 partial order constraints become active
BV-Refinement: 832 inactive partial order constraints
BV-Refinement: got SAT, and it is spurious, refining
BV-Refinement: iteration 17
3988 variables, 13159 clauses
SAT checker: negated claim is SATISFIABLE, i.e., does not hold
BV-Refinement: 7 partial order constraints become active
BV-Refinement: 825 inactive partial order constraints
BV-Refinement: got SAT, and it is spurious, refining
BV-Refinement: iteration 18
4160 variables, 14004 clauses
SAT checker: negated claim is SATISFIABLE, i.e., does not hold
BV-Refinement: 7 partial order constraints become active
BV-Refinement: 818 inactive partial order constraints
BV-Refinement: got SAT, and it is spurious, refining
BV-Refinement: iteration 19
4332 variables, 14849 clauses
SAT checker: negated claim is SATISFIABLE, i.e., does not hold
BV-Refinement: 7 partial order constraints become active
BV-Refinement: 811 inactive partial order constraints
BV-Refinement: got SAT, and it is spurious, refining
BV-Refinement: iteration 20
4504 variables, 15694 clauses
SAT checker: negated claim is SATISFIABLE, i.e., does not hold
BV-Refinement: 7 partial order constraints become active
BV-Refinement: 804 inactive partial order constraints
BV-Refinement: got SAT, and it is spurious, refining
BV-Refinement: iteration 21
4676 variables, 16539 clauses
SAT checker: negated claim is SATISFIABLE, i.e., does not hold
BV-Refinement: 7 partial order constraints become active
BV-Refinement: 797 inactive partial order constraints
BV-Refinement: got SAT, and it is spurious, refining
BV-Refinement: iteration 22
4848 variables, 17384 clauses
SAT checker: negated claim is SATISFIABLE, i.e., does not hold
BV-Refinement: 7 partial order constraints become active
BV-Refinement: 790 inactive partial order constraints
BV-Refinement: got SAT, and it is spurious, refining
BV-Refinement: iteration 23
5020 variables, 18229 clauses
SAT checker: negated claim is SATISFIABLE, i.e., does not hold
BV-Refinement: 4 partial order constraints become active
BV-Refinement: 786 inactive partial order constraints
BV-Refinement: got SAT, and it is spurious, refining
BV-Refinement: iteration 24
5154 variables, 18645 clauses
SAT checker: negated claim is SATISFIABLE, i.e., does not hold
BV-Refinement: 1 partial order constraints become active
BV-Refinement: 785 inactive partial order constraints
BV-Refinement: got SAT, and it is spurious, refining
BV-Refinement: iteration 25
5195 variables, 18715 clauses
SAT checker: negated claim is SATISFIABLE, i.e., does not hold
BV-Refinement: 2 partial order constraints become active
BV-Refinement: 783 inactive partial order constraints
BV-Refinement: got SAT, and it is spurious, refining
BV-Refinement: iteration 26
5235 variables, 18837 clauses
SAT checker: negated claim is SATISFIABLE, i.e., does not hold
BV-Refinement: 1 partial order constraints become active
BV-Refinement: 782 inactive partial order constraints
BV-Refinement: got SAT, and it is spurious, refining
BV-Refinement: iteration 27
5255 variables, 18863 clauses
SAT checker: negated claim is SATISFIABLE, i.e., does not hold
BV-Refinement: 2 partial order constraints become active
BV-Refinement: 780 inactive partial order constraints
BV-Refinement: got SAT, and it is spurious, refining
BV-Refinement: iteration 28
5316 variables, 19050 clauses
SAT checker: negated claim is SATISFIABLE, i.e., does not hold
BV-Refinement: 10 partial order constraints become active
BV-Refinement: 770 inactive partial order constraints
BV-Refinement: got SAT, and it is spurious, refining
BV-Refinement: iteration 29
5528 variables, 19983 clauses
SAT checker: negated claim is SATISFIABLE, i.e., does not hold
BV-Refinement: 3 partial order constraints become active
BV-Refinement: 767 inactive partial order constraints
BV-Refinement: got SAT, and it is spurious, refining
BV-Refinement: iteration 30
5582 variables, 20005 clauses
SAT checker: negated claim is SATISFIABLE, i.e., does not hold
BV-Refinement: 3 partial order constraints become active
BV-Refinement: 764 inactive partial order constraints
BV-Refinement: got SAT, and it is spurious, refining
BV-Refinement: iteration 31
5636 variables, 20146 clauses
SAT checker: negated claim is SATISFIABLE, i.e., does not hold
BV-Refinement: 2 partial order constraints become active
BV-Refinement: 762 inactive partial order constraints
BV-Refinement: got SAT, and it is spurious, refining
BV-Refinement: iteration 32
5691 variables, 20291 clauses
SAT checker: negated claim is SATISFIABLE, i.e., does not hold
BV-Refinement: 9 partial order constraints become active
BV-Refinement: 753 inactive partial order constraints
BV-Refinement: got SAT, and it is spurious, refining
BV-Refinement: iteration 33
5872 variables, 21017 clauses
SAT checker: negated claim is SATISFIABLE, i.e., does not hold
BV-Refinement: 9 partial order constraints become active
BV-Refinement: 744 inactive partial order constraints
BV-Refinement: got SAT, and it is spurious, refining
BV-Refinement: iteration 34
6070 variables, 21770 clauses
SAT checker: negated claim is SATISFIABLE, i.e., does not hold
BV-Refinement: 8 partial order constraints become active
BV-Refinement: 736 inactive partial order constraints
BV-Refinement: got SAT, and it is spurious, refining
BV-Refinement: iteration 35
6240 variables, 22374 clauses
SAT checker: negated claim is SATISFIABLE, i.e., does not hold
BV-Refinement: 9 partial order constraints become active
BV-Refinement: 727 inactive partial order constraints
BV-Refinement: got SAT, and it is spurious, refining
BV-Refinement: iteration 36
6382 variables, 22885 clauses
SAT checker: negated claim is SATISFIABLE, i.e., does not hold
BV-Refinement: 7 partial order constraints become active
BV-Refinement: 720 inactive partial order constraints
BV-Refinement: got SAT, and it is spurious, refining
BV-Refinement: iteration 37
6559 variables, 23562 clauses
SAT checker: negated claim is SATISFIABLE, i.e., does not hold
BV-Refinement: 5 partial order constraints become active
BV-Refinement: 715 inactive partial order constraints
BV-Refinement: got SAT, and it is spurious, refining
BV-Refinement: iteration 38
6686 variables, 23996 clauses
SAT checker: negated claim is SATISFIABLE, i.e., does not hold
BV-Refinement: 20 partial order constraints become active
BV-Refinement: 695 inactive partial order constraints
BV-Refinement: got SAT, and it is spurious, refining
BV-Refinement: iteration 39
7041 variables, 25575 clauses
SAT checker: negated claim is SATISFIABLE, i.e., does not hold
BV-Refinement: 10 partial order constraints become active
BV-Refinement: 685 inactive partial order constraints
BV-Refinement: got SAT, and it is spurious, refining
BV-Refinement: iteration 40
7174 variables, 25883 clauses
SAT checker: negated claim is SATISFIABLE, i.e., does not hold
BV-Refinement: 9 partial order constraints become active
BV-Refinement: 676 inactive partial order constraints
BV-Refinement: got SAT, and it is spurious, refining
BV-Refinement: iteration 41
7434 variables, 26894 clauses
SAT checker: negated claim is SATISFIABLE, i.e., does not hold
BV-Refinement: 11 partial order constraints become active
BV-Refinement: 665 inactive partial order constraints
BV-Refinement: got SAT, and it is spurious, refining
BV-Refinement: iteration 42
7617 variables, 27563 clauses
SAT checker: negated claim is SATISFIABLE, i.e., does not hold
BV-Refinement: 15 partial order constraints become active
BV-Refinement: 650 inactive partial order constraints
BV-Refinement: got SAT, and it is spurious, refining
BV-Refinement: iteration 43
7845 variables, 28423 clauses
SAT checker: negated claim is SATISFIABLE, i.e., does not hold
BV-Refinement: 4 partial order constraints become active
BV-Refinement: 646 inactive partial order constraints
BV-Refinement: got SAT, and it is spurious, refining
BV-Refinement: iteration 44
7971 variables, 28777 clauses
SAT checker: negated claim is SATISFIABLE, i.e., does not hold
BV-Refinement: 7 partial order constraints become active
BV-Refinement: 639 inactive partial order constraints
BV-Refinement: got SAT, and it is spurious, refining
BV-Refinement: iteration 45
8135 variables, 29455 clauses
SAT checker: negated claim is SATISFIABLE, i.e., does not hold
BV-Refinement: 11 partial order constraints become active
BV-Refinement: 628 inactive partial order constraints
BV-Refinement: got SAT, and it is spurious, refining
BV-Refinement: iteration 46
8332 variables, 30176 clauses
SAT checker: negated claim is SATISFIABLE, i.e., does not hold
BV-Refinement: 14 partial order constraints become active
BV-Refinement: 614 inactive partial order constraints
BV-Refinement: got SAT, and it is spurious, refining
BV-Refinement: iteration 47
8558 variables, 31089 clauses
SAT checker: negated claim is SATISFIABLE, i.e., does not hold
BV-Refinement: 16 partial order constraints become active
BV-Refinement: 598 inactive partial order constraints
BV-Refinement: got SAT, and it is spurious, refining
BV-Refinement: iteration 48
8829 variables, 32140 clauses
SAT checker: negated claim is SATISFIABLE, i.e., does not hold
BV-Refinement: 22 partial order constraints become active
BV-Refinement: 576 inactive partial order constraints
BV-Refinement: got SAT, and it is spurious, refining
BV-Refinement: iteration 49
9235 variables, 33700 clauses
SAT checker: negated claim is SATISFIABLE, i.e., does not hold
BV-Refinement: 22 partial order constraints become active
BV-Refinement: 554 inactive partial order constraints
BV-Refinement: got SAT, and it is spurious, refining
BV-Refinement: iteration 50
9489 variables, 34452 clauses
SAT checker: negated claim is SATISFIABLE, i.e., does not hold
BV-Refinement: 30 partial order constraints become active
BV-Refinement: 524 inactive partial order constraints
BV-Refinement: got SAT, and it is spurious, refining
BV-Refinement: iteration 51
9992 variables, 36541 clauses
SAT checker: negated claim is SATISFIABLE, i.e., does not hold
BV-Refinement: 13 partial order constraints become active
BV-Refinement: 511 inactive partial order constraints
BV-Refinement: got SAT, and it is spurious, refining
BV-Refinement: iteration 52
10175 variables, 36908 clauses
SAT checker: negated claim is SATISFIABLE, i.e., does not hold
BV-Refinement: 7 partial order constraints become active
BV-Refinement: 504 inactive partial order constraints
BV-Refinement: got SAT, and it is spurious, refining
BV-Refinement: iteration 53
10302 variables, 37268 clauses
SAT checker: negated claim is SATISFIABLE, i.e., does not hold
BV-Refinement: 14 partial order constraints become active
BV-Refinement: 490 inactive partial order constraints
BV-Refinement: got SAT, and it is spurious, refining
BV-Refinement: iteration 54
10408 variables, 37634 clauses
SAT checker: negated claim is SATISFIABLE, i.e., does not hold
BV-Refinement: 4 partial order constraints become active
BV-Refinement: 486 inactive partial order constraints
BV-Refinement: got SAT, and it is spurious, refining
BV-Refinement: iteration 55
10512 variables, 37666 clauses
SAT checker: negated claim is SATISFIABLE, i.e., does not hold
BV-Refinement: 10 partial order constraints become active
BV-Refinement: 476 inactive partial order constraints
BV-Refinement: got SAT, and it is spurious, refining
BV-Refinement: iteration 56
10689 variables, 38425 clauses
SAT checker: negated claim is SATISFIABLE, i.e., does not hold
BV-Refinement: 8 partial order constraints become active
BV-Refinement: 468 inactive partial order constraints
BV-Refinement: got SAT, and it is spurious, refining
BV-Refinement: iteration 57
10853 variables, 39022 clauses
SAT checker: negated claim is SATISFIABLE, i.e., does not hold
BV-Refinement: 7 partial order constraints become active
BV-Refinement: 461 inactive partial order constraints
BV-Refinement: got SAT, and it is spurious, refining
BV-Refinement: iteration 58
11002 variables, 39338 clauses
SAT checker: negated claim is SATISFIABLE, i.e., does not hold
BV-Refinement: 3 partial order constraints become active
BV-Refinement: 458 inactive partial order constraints
BV-Refinement: got SAT, and it is spurious, refining
BV-Refinement: iteration 59
11101 variables, 39658 clauses
SAT checker: negated claim is SATISFIABLE, i.e., does not hold
BV-Refinement: 5 partial order constraints become active
BV-Refinement: 453 inactive partial order constraints
BV-Refinement: got SAT, and it is spurious, refining
BV-Refinement: iteration 60
11192 variables, 40028 clauses
SAT checker: negated claim is SATISFIABLE, i.e., does not hold
BV-Refinement: 2 partial order constraints become active
BV-Refinement: 451 inactive partial order constraints
BV-Refinement: got SAT, and it is spurious, refining
BV-Refinement: iteration 61
11226 variables, 39932 clauses
SAT checker: negated claim is SATISFIABLE, i.e., does not hold
BV-Refinement: 1 partial order constraints become active
BV-Refinement: 450 inactive partial order constraints
BV-Refinement: got SAT, and it is spurious, refining
BV-Refinement: iteration 62
11267 variables, 40030 clauses
SAT checker: negated claim is SATISFIABLE, i.e., does not hold
BV-Refinement: 9 partial order constraints become active
BV-Refinement: 441 inactive partial order constraints
BV-Refinement: got SAT, and it is spurious, refining
BV-Refinement: iteration 63
11444 variables, 40924 clauses
SAT checker: negated claim is SATISFIABLE, i.e., does not hold
BV-Refinement: 6 partial order constraints become active
BV-Refinement: 435 inactive partial order constraints
BV-Refinement: got SAT, and it is spurious, refining
BV-Refinement: iteration 64
11541 variables, 41253 clauses
SAT checker: negated claim is SATISFIABLE, i.e., does not hold
BV-Refinement: 2 partial order constraints become active
BV-Refinement: 433 inactive partial order constraints
BV-Refinement: got SAT, and it is spurious, refining
BV-Refinement: iteration 65
11575 variables, 41291 clauses
SAT checker: negated claim is SATISFIABLE, i.e., does not hold
BV-Refinement: 0 partial order constraints become active
BV-Refinement: 433 inactive partial order constraints
BV-Refinement: got SAT, and it simulates => SAT
Total iterations: 65
PROFILING: main_solver: 45.164
PROFILING: sat_check: 7.418
PROFILING: clustering: 0
Runtime decision procedure: 52.601s
Building error trace

Counterexample:

State 19  thread 0
----------------------------------------------------
  argv'[2]=irep("(\"nil\")")[2] (?)

State 22 file /nas/schram/gitcbmc-lazy-po/experiments/pthread/fib_bench_false-unreach-call.c line 32 thread 0
----------------------------------------------------
  argc=2 (00000000000000000000000000000010)

State 23 file /nas/schram/gitcbmc-lazy-po/experiments/pthread/fib_bench_false-unreach-call.c line 32 thread 0
----------------------------------------------------
  argv=argv' (0000001000000000000000000000000000000000000000000000000000000000)

State 24 file /nas/schram/gitcbmc-lazy-po/experiments/pthread/fib_bench_false-unreach-call.c line 34 function main thread 0
----------------------------------------------------
  id1=0 (0000000000000000000000000000000000000000000000000000000000000000)

State 25 file /nas/schram/gitcbmc-lazy-po/experiments/pthread/fib_bench_false-unreach-call.c line 34 function main thread 0
----------------------------------------------------
  id2=0 (0000000000000000000000000000000000000000000000000000000000000000)

State 86 file /nas/schram/gitcbmc-lazy-po/experiments/pthread/fib_bench_false-unreach-call.c line 15 function t1 thread 1
----------------------------------------------------
  i=2 (00000000000000000000000000000010)

State 87 file /nas/schram/gitcbmc-lazy-po/experiments/pthread/fib_bench_false-unreach-call.c line 14 function t1 thread 1
----------------------------------------------------
  k=1 (00000000000000000000000000000001)

State 89 file /nas/schram/gitcbmc-lazy-po/experiments/pthread/fib_bench_false-unreach-call.c line 26 function t2 thread 2
----------------------------------------------------
  j=3 (00000000000000000000000000000011)

State 90 file /nas/schram/gitcbmc-lazy-po/experiments/pthread/fib_bench_false-unreach-call.c line 25 function t2 thread 2
----------------------------------------------------
  k=1 (00000000000000000000000000000001)

State 92 file /nas/schram/gitcbmc-lazy-po/experiments/pthread/fib_bench_false-unreach-call.c line 15 function t1 thread 1
----------------------------------------------------
  i=5 (00000000000000000000000000000101)

State 93 file /nas/schram/gitcbmc-lazy-po/experiments/pthread/fib_bench_false-unreach-call.c line 14 function t1 thread 1
----------------------------------------------------
  k=2 (00000000000000000000000000000010)

State 95 file /nas/schram/gitcbmc-lazy-po/experiments/pthread/fib_bench_false-unreach-call.c line 26 function t2 thread 2
----------------------------------------------------
  j=8 (00000000000000000000000000001000)

State 96 file /nas/schram/gitcbmc-lazy-po/experiments/pthread/fib_bench_false-unreach-call.c line 25 function t2 thread 2
----------------------------------------------------
  k=2 (00000000000000000000000000000010)

State 98 file /nas/schram/gitcbmc-lazy-po/experiments/pthread/fib_bench_false-unreach-call.c line 15 function t1 thread 1
----------------------------------------------------
  i=13 (00000000000000000000000000001101)

State 99 file /nas/schram/gitcbmc-lazy-po/experiments/pthread/fib_bench_false-unreach-call.c line 14 function t1 thread 1
----------------------------------------------------
  k=3 (00000000000000000000000000000011)

State 101 file /nas/schram/gitcbmc-lazy-po/experiments/pthread/fib_bench_false-unreach-call.c line 26 function t2 thread 2
----------------------------------------------------
  j=21 (00000000000000000000000000010101)

State 102 file /nas/schram/gitcbmc-lazy-po/experiments/pthread/fib_bench_false-unreach-call.c line 25 function t2 thread 2
----------------------------------------------------
  k=3 (00000000000000000000000000000011)

State 104 file /nas/schram/gitcbmc-lazy-po/experiments/pthread/fib_bench_false-unreach-call.c line 15 function t1 thread 1
----------------------------------------------------
  i=34 (00000000000000000000000000100010)

State 105 file /nas/schram/gitcbmc-lazy-po/experiments/pthread/fib_bench_false-unreach-call.c line 14 function t1 thread 1
----------------------------------------------------
  k=4 (00000000000000000000000000000100)

State 107 file /nas/schram/gitcbmc-lazy-po/experiments/pthread/fib_bench_false-unreach-call.c line 26 function t2 thread 2
----------------------------------------------------
  j=55 (00000000000000000000000000110111)

State 108 file /nas/schram/gitcbmc-lazy-po/experiments/pthread/fib_bench_false-unreach-call.c line 25 function t2 thread 2
----------------------------------------------------
  k=4 (00000000000000000000000000000100)

State 110 file /nas/schram/gitcbmc-lazy-po/experiments/pthread/fib_bench_false-unreach-call.c line 15 function t1 thread 1
----------------------------------------------------
  i=89 (00000000000000000000000001011001)

State 111 file /nas/schram/gitcbmc-lazy-po/experiments/pthread/fib_bench_false-unreach-call.c line 14 function t1 thread 1
----------------------------------------------------
  k=5 (00000000000000000000000000000101)

State 117 file <builtin-library>-pthread_create line 20 function __actual_thread_spawn thread 2
----------------------------------------------------
  arg=NULL (0000000000000000000000000000000000000000000000000000000000000000)

State 118 file /nas/schram/gitcbmc-lazy-po/experiments/pthread/fib_bench_false-unreach-call.c line 23 function t2 thread 2
----------------------------------------------------
  k=0 (00000000000000000000000000000000)

State 119 file /nas/schram/gitcbmc-lazy-po/experiments/pthread/fib_bench_false-unreach-call.c line 23 function t2 thread 2
----------------------------------------------------
  k=0 (00000000000000000000000000000000)

State 120 file /nas/schram/gitcbmc-lazy-po/experiments/pthread/fib_bench_false-unreach-call.c line 25 function t2 thread 2
----------------------------------------------------
  k=0 (00000000000000000000000000000000)

State 122 file /nas/schram/gitcbmc-lazy-po/experiments/pthread/fib_bench_false-unreach-call.c line 26 function t2 thread 2
----------------------------------------------------
  j=144 (00000000000000000000000010010000)

State 123 file /nas/schram/gitcbmc-lazy-po/experiments/pthread/fib_bench_false-unreach-call.c line 25 function t2 thread 2
----------------------------------------------------
  k=5 (00000000000000000000000000000101)

Violated property:
  file /nas/schram/gitcbmc-lazy-po/experiments/pthread/fib_bench_false-unreach-call.c line 40 function main
  error label ERROR
  FALSE

VERIFICATION FAILED
Partial order constraints used: 481/914
  fr: 147/373
  po: 149/310
  rf: 80/80
  rf-order: 55/80
  rf-some: 23/23
  rfi: 23/24
  thread-spawn: 4/4
  ws-ext: 0/20
Time: 53.486872
