CBMC version 5.0 64-bit x86_64 linux
Parsing /nas/schram/gitcbmc-lazy-po/experiments/pthread/queue_ok_true-unreach-call.c
Converting
Type-checking queue_ok_true-unreach-call
Generating GOTO Program
Adding CPROVER library
Function Pointer Removal
Partial Inlining
Generic Property Instrumentation
Starting Bounded Model Checking
Unwinding loop t1.0 iteration 1 (5 max) file /nas/schram/gitcbmc-lazy-po/experiments/pthread/queue_ok_true-unreach-call.c line 94 function t1 thread 1
Unwinding loop t1.0 iteration 2 (5 max) file /nas/schram/gitcbmc-lazy-po/experiments/pthread/queue_ok_true-unreach-call.c line 94 function t1 thread 1
Unwinding loop t1.0 iteration 3 (5 max) file /nas/schram/gitcbmc-lazy-po/experiments/pthread/queue_ok_true-unreach-call.c line 94 function t1 thread 1
Unwinding loop t1.0 iteration 4 (5 max) file /nas/schram/gitcbmc-lazy-po/experiments/pthread/queue_ok_true-unreach-call.c line 94 function t1 thread 1
Not unwinding loop t1.0 iteration 5 (5 max) file /nas/schram/gitcbmc-lazy-po/experiments/pthread/queue_ok_true-unreach-call.c line 94 function t1 thread 1
Unwinding loop t2.0 iteration 1 (5 max) file /nas/schram/gitcbmc-lazy-po/experiments/pthread/queue_ok_true-unreach-call.c line 115 function t2 thread 2
Unwinding loop t2.0 iteration 2 (5 max) file /nas/schram/gitcbmc-lazy-po/experiments/pthread/queue_ok_true-unreach-call.c line 115 function t2 thread 2
Unwinding loop t2.0 iteration 3 (5 max) file /nas/schram/gitcbmc-lazy-po/experiments/pthread/queue_ok_true-unreach-call.c line 115 function t2 thread 2
Unwinding loop t2.0 iteration 4 (5 max) file /nas/schram/gitcbmc-lazy-po/experiments/pthread/queue_ok_true-unreach-call.c line 115 function t2 thread 2
Not unwinding loop t2.0 iteration 5 (5 max) file /nas/schram/gitcbmc-lazy-po/experiments/pthread/queue_ok_true-unreach-call.c line 115 function t2 thread 2
Adding SC constraints
size of program expression: 95159 steps
no slicing due to threads
Generated 14 VCC(s), 14 remaining after simplification
Partial order constraints used: 0/94416
  fr: 0/88183
  po: 0/185
  rf: 0/2118
  rf-order: 0/2118
  rf-some: 0/118
  rfi: 0/772
  thread-spawn: 0/2
  ws-ext: 0/920
Partial order constraint sizes: 
  fr: 89478 variables, 509882 clauses
  po: 4728 variables, 16248 clauses
  rf: 1658753 variables, 7712883 clauses
  rf-order: 41626 variables, 192738 clauses
  rf-some: 3555 variables, 142 clauses
  rfi: 656885 variables, 2803096 clauses
  thread-spawn: 68 variables, 180 clauses
  ws-ext: 17452 variables, 83720 clauses
Time: 37.636007
