CBMC version 5.0 64-bit x86_64 linux
Parsing /nas/schram/gitcbmc-lazy-po/experiments/pthread/stack_longer_false-unreach-call.c
Converting
Type-checking stack_longer_false-unreach-call
Generating GOTO Program
Adding CPROVER library
Function Pointer Removal
Partial Inlining
Generic Property Instrumentation
Starting Bounded Model Checking
Unwinding loop t1.0 iteration 1 (5 max) file /nas/schram/gitcbmc-lazy-po/experiments/pthread/stack_longer_false-unreach-call.c line 76 function t1 thread 1
Unwinding loop t1.0 iteration 2 (5 max) file /nas/schram/gitcbmc-lazy-po/experiments/pthread/stack_longer_false-unreach-call.c line 76 function t1 thread 1
Unwinding loop t1.0 iteration 3 (5 max) file /nas/schram/gitcbmc-lazy-po/experiments/pthread/stack_longer_false-unreach-call.c line 76 function t1 thread 1
Unwinding loop t1.0 iteration 4 (5 max) file /nas/schram/gitcbmc-lazy-po/experiments/pthread/stack_longer_false-unreach-call.c line 76 function t1 thread 1
Not unwinding loop t1.0 iteration 5 (5 max) file /nas/schram/gitcbmc-lazy-po/experiments/pthread/stack_longer_false-unreach-call.c line 76 function t1 thread 1
Unwinding loop t2.0 iteration 1 (5 max) file /nas/schram/gitcbmc-lazy-po/experiments/pthread/stack_longer_false-unreach-call.c line 91 function t2 thread 2
Unwinding loop t2.0 iteration 2 (5 max) file /nas/schram/gitcbmc-lazy-po/experiments/pthread/stack_longer_false-unreach-call.c line 91 function t2 thread 2
Unwinding loop t2.0 iteration 3 (5 max) file /nas/schram/gitcbmc-lazy-po/experiments/pthread/stack_longer_false-unreach-call.c line 91 function t2 thread 2
Unwinding loop t2.0 iteration 4 (5 max) file /nas/schram/gitcbmc-lazy-po/experiments/pthread/stack_longer_false-unreach-call.c line 91 function t2 thread 2
Not unwinding loop t2.0 iteration 5 (5 max) file /nas/schram/gitcbmc-lazy-po/experiments/pthread/stack_longer_false-unreach-call.c line 91 function t2 thread 2
Adding SC constraints
size of program expression: 10815 steps
no slicing due to threads
Generated 40 VCC(s), 40 remaining after simplification
Partial order constraints used: 0/9836
  fr: 0/8124
  po: 0/125
  rf: 0/485
  rf-order: 0/485
  rf-some: 0/70
  rfi: 0/175
  thread-spawn: 0/2
  ws-ext: 0/370
Partial order constraint sizes: 
  fr: 24282 variables, 104882 clauses
  po: 2546 variables, 8482 clauses
  rf: 755035 variables, 2657310 clauses
  rf-order: 9015 variables, 38800 clauses
  rf-some: 3891 variables, 166 clauses
  rfi: 278523 variables, 798183 clauses
  thread-spawn: 60 variables, 158 clauses
  ws-ext: 6420 variables, 29600 clauses
Time: 10.489588
