CBMC version 5.0 64-bit x86_64 linux
Parsing /nas/schram/gitcbmc-lazy-po/experiments/pthread/stack_true-unreach-call.c
Converting
Type-checking stack_true-unreach-call
Generating GOTO Program
Adding CPROVER library
Function Pointer Removal
Partial Inlining
Generic Property Instrumentation
Starting Bounded Model Checking
Unwinding loop t1.0 iteration 1 (5 max) file /nas/schram/gitcbmc-lazy-po/experiments/pthread/stack_true-unreach-call.c line 79 function t1 thread 1
Unwinding loop t1.0 iteration 2 (5 max) file /nas/schram/gitcbmc-lazy-po/experiments/pthread/stack_true-unreach-call.c line 79 function t1 thread 1
Unwinding loop t1.0 iteration 3 (5 max) file /nas/schram/gitcbmc-lazy-po/experiments/pthread/stack_true-unreach-call.c line 79 function t1 thread 1
Unwinding loop t1.0 iteration 4 (5 max) file /nas/schram/gitcbmc-lazy-po/experiments/pthread/stack_true-unreach-call.c line 79 function t1 thread 1
Not unwinding loop t1.0 iteration 5 (5 max) file /nas/schram/gitcbmc-lazy-po/experiments/pthread/stack_true-unreach-call.c line 79 function t1 thread 1
Unwinding loop t2.0 iteration 1 (5 max) file /nas/schram/gitcbmc-lazy-po/experiments/pthread/stack_true-unreach-call.c line 93 function t2 thread 2
Unwinding loop t2.0 iteration 2 (5 max) file /nas/schram/gitcbmc-lazy-po/experiments/pthread/stack_true-unreach-call.c line 93 function t2 thread 2
Unwinding loop t2.0 iteration 3 (5 max) file /nas/schram/gitcbmc-lazy-po/experiments/pthread/stack_true-unreach-call.c line 93 function t2 thread 2
Unwinding loop t2.0 iteration 4 (5 max) file /nas/schram/gitcbmc-lazy-po/experiments/pthread/stack_true-unreach-call.c line 93 function t2 thread 2
Not unwinding loop t2.0 iteration 5 (5 max) file /nas/schram/gitcbmc-lazy-po/experiments/pthread/stack_true-unreach-call.c line 93 function t2 thread 2
Adding SC constraints
size of program expression: 10995 steps
no slicing due to threads
Generated 40 VCC(s), 40 remaining after simplification
Partial order constraints used: 0/10071
  fr: 0/8364
  po: 0/120
  rf: 0/485
  rf-order: 0/485
  rf-some: 0/70
  rfi: 0/185
  thread-spawn: 0/2
  ws-ext: 0/360
Partial order constraint sizes: 
  fr: 24490 variables, 106307 clauses
  po: 2431 variables, 8087 clauses
  rf: 111187 variables, 448935 clauses
  rf-order: 8973 variables, 38800 clauses
  rf-some: 3901 variables, 166 clauses
  rfi: 51481 variables, 167863 clauses
  thread-spawn: 60 variables, 158 clauses
  ws-ext: 6213 variables, 28800 clauses
Time: 7.183083
