CBMC version 5.0 64-bit x86_64 linux
Parsing /nas/schram/gitcbmc-lazy-po/experiments/pthread/reorder_5_false-unreach-call.c
Converting
Type-checking reorder_5_false-unreach-call
Generating GOTO Program
Adding CPROVER library
Function Pointer Removal
Partial Inlining
Generic Property Instrumentation
Starting Bounded Model Checking
Unwinding loop main.0 iteration 1 (5 max) file reorder_bad.c line 38 function main thread 0
Unwinding loop main.0 iteration 2 (5 max) file reorder_bad.c line 38 function main thread 0
Unwinding loop main.0 iteration 3 (5 max) file reorder_bad.c line 38 function main thread 0
Unwinding loop main.0 iteration 4 (5 max) file reorder_bad.c line 38 function main thread 0
Not unwinding loop main.0 iteration 5 (5 max) file reorder_bad.c line 38 function main thread 0
Unwinding loop main.1 iteration 1 (5 max) file reorder_bad.c line 45 function main thread 0
Unwinding loop main.1 iteration 2 (5 max) file reorder_bad.c line 45 function main thread 0
Unwinding loop main.1 iteration 3 (5 max) file reorder_bad.c line 45 function main thread 0
Unwinding loop main.1 iteration 4 (5 max) file reorder_bad.c line 45 function main thread 0
Not unwinding loop main.1 iteration 5 (5 max) file reorder_bad.c line 45 function main thread 0
Unwinding loop main.2 iteration 1 (5 max) file reorder_bad.c line 53 function main thread 0
Unwinding loop main.2 iteration 2 (5 max) file reorder_bad.c line 53 function main thread 0
Unwinding loop main.2 iteration 3 (5 max) file reorder_bad.c line 53 function main thread 0
Unwinding loop main.2 iteration 4 (5 max) file reorder_bad.c line 53 function main thread 0
Not unwinding loop main.2 iteration 5 (5 max) file reorder_bad.c line 53 function main thread 0
Unwinding loop main.3 iteration 1 (5 max) file reorder_bad.c line 60 function main thread 0
Unwinding loop main.3 iteration 2 (5 max) file reorder_bad.c line 60 function main thread 0
Unwinding loop main.3 iteration 3 (5 max) file reorder_bad.c line 60 function main thread 0
Unwinding loop main.3 iteration 4 (5 max) file reorder_bad.c line 60 function main thread 0
Not unwinding loop main.3 iteration 5 (5 max) file reorder_bad.c line 60 function main thread 0
Adding SC constraints
size of program expression: 11734 steps
no slicing due to threads
Generated 18 VCC(s), 18 remaining after simplification
Passing problem to refinement loop with MiniSAT 2.2.0 with simplifier
converting SSA
Running refinement loop with MiniSAT 2.2.0 with simplifier
BV-Refinement: post-processing
BV-Refinement: iteration 1
134206 variables, 409297 clauses
SAT checker: negated claim is SATISFIABLE, i.e., does not hold
BV-Refinement: 49 partial order constraints become active
BV-Refinement: 6948 inactive partial order constraints
BV-Refinement: got SAT, and it is spurious, refining
BV-Refinement: iteration 2
134854 variables, 366164 clauses
SAT checker: negated claim is SATISFIABLE, i.e., does not hold
BV-Refinement: 30 partial order constraints become active
BV-Refinement: 6918 inactive partial order constraints
BV-Refinement: got SAT, and it is spurious, refining
BV-Refinement: iteration 3
135404 variables, 357959 clauses
SAT checker: negated claim is SATISFIABLE, i.e., does not hold
BV-Refinement: 16 partial order constraints become active
BV-Refinement: 6902 inactive partial order constraints
BV-Refinement: got SAT, and it is spurious, refining
BV-Refinement: iteration 4
135574 variables, 358900 clauses
SAT checker: negated claim is SATISFIABLE, i.e., does not hold
BV-Refinement: 27 partial order constraints become active
BV-Refinement: 6875 inactive partial order constraints
BV-Refinement: got SAT, and it is spurious, refining
BV-Refinement: iteration 5
136138 variables, 343487 clauses
SAT checker: negated claim is SATISFIABLE, i.e., does not hold
BV-Refinement: 27 partial order constraints become active
BV-Refinement: 6848 inactive partial order constraints
BV-Refinement: got SAT, and it is spurious, refining
BV-Refinement: iteration 6
136521 variables, 345198 clauses
SAT checker: negated claim is SATISFIABLE, i.e., does not hold
BV-Refinement: 19 partial order constraints become active
BV-Refinement: 6829 inactive partial order constraints
BV-Refinement: got SAT, and it is spurious, refining
BV-Refinement: iteration 7
136917 variables, 347165 clauses
SAT checker: negated claim is SATISFIABLE, i.e., does not hold
BV-Refinement: 20 partial order constraints become active
BV-Refinement: 6809 inactive partial order constraints
BV-Refinement: got SAT, and it is spurious, refining
BV-Refinement: iteration 8
137319 variables, 349182 clauses
SAT checker: negated claim is SATISFIABLE, i.e., does not hold
BV-Refinement: 14 partial order constraints become active
BV-Refinement: 6795 inactive partial order constraints
BV-Refinement: got SAT, and it is spurious, refining
BV-Refinement: iteration 9
137567 variables, 350529 clauses
SAT checker: negated claim is SATISFIABLE, i.e., does not hold
BV-Refinement: 8 partial order constraints become active
BV-Refinement: 6787 inactive partial order constraints
BV-Refinement: got SAT, and it is spurious, refining
BV-Refinement: iteration 10
137694 variables, 351182 clauses
SAT checker: negated claim is SATISFIABLE, i.e., does not hold
BV-Refinement: 15 partial order constraints become active
BV-Refinement: 6772 inactive partial order constraints
BV-Refinement: got SAT, and it is spurious, refining
BV-Refinement: iteration 11
137892 variables, 352230 clauses
SAT checker: negated claim is SATISFIABLE, i.e., does not hold
BV-Refinement: 13 partial order constraints become active
BV-Refinement: 6759 inactive partial order constraints
BV-Refinement: got SAT, and it is spurious, refining
BV-Refinement: iteration 12
138091 variables, 353251 clauses
SAT checker: negated claim is SATISFIABLE, i.e., does not hold
BV-Refinement: 6 partial order constraints become active
BV-Refinement: 6753 inactive partial order constraints
BV-Refinement: got SAT, and it is spurious, refining
BV-Refinement: iteration 13
138199 variables, 353807 clauses
SAT checker: negated claim is SATISFIABLE, i.e., does not hold
BV-Refinement: 9 partial order constraints become active
BV-Refinement: 6744 inactive partial order constraints
BV-Refinement: got SAT, and it is spurious, refining
BV-Refinement: iteration 14
138361 variables, 354663 clauses
SAT checker: negated claim is SATISFIABLE, i.e., does not hold
BV-Refinement: 8 partial order constraints become active
BV-Refinement: 6736 inactive partial order constraints
BV-Refinement: got SAT, and it is spurious, refining
BV-Refinement: iteration 15
138451 variables, 355138 clauses
SAT checker: negated claim is SATISFIABLE, i.e., does not hold
BV-Refinement: 7 partial order constraints become active
BV-Refinement: 6729 inactive partial order constraints
BV-Refinement: got SAT, and it is spurious, refining
BV-Refinement: iteration 16
138511 variables, 355499 clauses
SAT checker: negated claim is SATISFIABLE, i.e., does not hold
BV-Refinement: 9 partial order constraints become active
BV-Refinement: 6720 inactive partial order constraints
BV-Refinement: got SAT, and it is spurious, refining
BV-Refinement: iteration 17
138533 variables, 355640 clauses
SAT checker: negated claim is SATISFIABLE, i.e., does not hold
BV-Refinement: 4 partial order constraints become active
BV-Refinement: 6716 inactive partial order constraints
BV-Refinement: got SAT, and it is spurious, refining
BV-Refinement: iteration 18
138534 variables, 355668 clauses
SAT checker: negated claim is SATISFIABLE, i.e., does not hold
BV-Refinement: 2 partial order constraints become active
BV-Refinement: 6714 inactive partial order constraints
BV-Refinement: got SAT, and it is spurious, refining
BV-Refinement: iteration 19
138554 variables, 355793 clauses
SAT checker: negated claim is SATISFIABLE, i.e., does not hold
BV-Refinement: 2 partial order constraints become active
BV-Refinement: 6712 inactive partial order constraints
BV-Refinement: got SAT, and it is spurious, refining
BV-Refinement: iteration 20
138574 variables, 355908 clauses
SAT checker: negated claim is SATISFIABLE, i.e., does not hold
BV-Refinement: 2 partial order constraints become active
BV-Refinement: 6710 inactive partial order constraints
BV-Refinement: got SAT, and it is spurious, refining
BV-Refinement: iteration 21
138594 variables, 356025 clauses
SAT checker: negated claim is SATISFIABLE, i.e., does not hold
BV-Refinement: 2 partial order constraints become active
BV-Refinement: 6708 inactive partial order constraints
BV-Refinement: got SAT, and it is spurious, refining
BV-Refinement: iteration 22
138596 variables, 356051 clauses
SAT checker: negated claim is SATISFIABLE, i.e., does not hold
BV-Refinement: 2 partial order constraints become active
BV-Refinement: 6706 inactive partial order constraints
BV-Refinement: got SAT, and it is spurious, refining
BV-Refinement: iteration 23
138616 variables, 356174 clauses
SAT checker: negated claim is SATISFIABLE, i.e., does not hold
BV-Refinement: 2 partial order constraints become active
BV-Refinement: 6704 inactive partial order constraints
BV-Refinement: got SAT, and it is spurious, refining
BV-Refinement: iteration 24
138636 variables, 356290 clauses
SAT checker: negated claim is SATISFIABLE, i.e., does not hold
BV-Refinement: 2 partial order constraints become active
BV-Refinement: 6702 inactive partial order constraints
BV-Refinement: got SAT, and it is spurious, refining
BV-Refinement: iteration 25
138672 variables, 356463 clauses
SAT checker: negated claim is SATISFIABLE, i.e., does not hold
BV-Refinement: 1 partial order constraints become active
BV-Refinement: 6701 inactive partial order constraints
BV-Refinement: got SAT, and it is spurious, refining
BV-Refinement: iteration 26
138690 variables, 356540 clauses
SAT checker: negated claim is SATISFIABLE, i.e., does not hold
BV-Refinement: 1 partial order constraints become active
BV-Refinement: 6700 inactive partial order constraints
BV-Refinement: got SAT, and it is spurious, refining
BV-Refinement: iteration 27
138708 variables, 356624 clauses
SAT checker: negated claim is SATISFIABLE, i.e., does not hold
BV-Refinement: 1 partial order constraints become active
BV-Refinement: 6699 inactive partial order constraints
BV-Refinement: got SAT, and it is spurious, refining
BV-Refinement: iteration 28
138726 variables, 356708 clauses
SAT checker: negated claim is SATISFIABLE, i.e., does not hold
BV-Refinement: 0 partial order constraints become active
BV-Refinement: 6699 inactive partial order constraints
BV-Refinement: got SAT, and it simulates => SAT
Total iterations: 28
PROFILING: main_solver: 5.846
PROFILING: sat_check: 6.821
PROFILING: clustering: 0
Runtime decision procedure: 14.829s
Building error trace

Counterexample:

State 21  thread 0
----------------------------------------------------
  argv'[3]=irep("(\"nil\")")[3] (?)

State 24 file reorder_bad.c line 20 thread 0
----------------------------------------------------
  argc=3 (00000000000000000000000000000011)

State 25 file reorder_bad.c line 20 thread 0
----------------------------------------------------
  argv=argv' (0000001000000000000000000000000000000000000000000000000000000000)

State 26 file reorder_bad.c line 21 function main thread 0
----------------------------------------------------
  i=0 (00000000000000000000000000000000)

State 27 file reorder_bad.c line 21 function main thread 0
----------------------------------------------------
  err=0 (00000000000000000000000000000000)

State 31 file reorder_bad.c line 28 function main thread 0
----------------------------------------------------
  s=((signed char *)NULL) (0000000000000000000000000000000000000000000000000000000000000000)

State 32 file reorder_bad.c line 28 function main thread 0
----------------------------------------------------
  s=((signed char *)NULL) + 1 (0000000000000000000000000000000000000000000000000000000000000001)

State 33 file reorder_bad.c line 28 function main thread 0
----------------------------------------------------
  format=((signed char *)NULL) (0000000000000000000000000000000000000000000000000000000000000000)

State 34 file reorder_bad.c line 28 function main thread 0
----------------------------------------------------
  format="%d" (0000010100000000000000000000000000000000000000000000000000000000)

State 35 file <builtin-library>-sscanf line 15 function sscanf thread 0
----------------------------------------------------
  list=((void **)NULL) (0000000000000000000000000000000000000000000000000000000000000000)

State 36 file <builtin-library>-sscanf line 16 function sscanf thread 0
----------------------------------------------------
  list=&format!0@1 (0000011000000000000000000000000000000000000000000000000000000000)

State 37 file <builtin-library>-sscanf line 17 function sscanf thread 0
----------------------------------------------------
  result=0 (00000000000000000000000000000000)

State 49 file <builtin-library>-sscanf line 18 function sscanf thread 0
----------------------------------------------------
  list=((void **)NULL) (0000000000000000000000000000000000000000000000000000000000000000)

State 53 file reorder_bad.c line 29 function main thread 0
----------------------------------------------------
  s=((signed char *)NULL) (0000000000000000000000000000000000000000000000000000000000000000)

State 54 file reorder_bad.c line 29 function main thread 0
----------------------------------------------------
  s=((signed char *)NULL) (0000000000000000000000000000000000000000000000000000000000000000)

State 55 file reorder_bad.c line 29 function main thread 0
----------------------------------------------------
  format=((signed char *)NULL) (0000000000000000000000000000000000000000000000000000000000000000)

State 56 file reorder_bad.c line 29 function main thread 0
----------------------------------------------------
  format="%d" (0000010100000000000000000000000000000000000000000000000000000000)

State 57 file <builtin-library>-sscanf line 15 function sscanf thread 0
----------------------------------------------------
  list=((void **)NULL) (0000000000000000000000000000000000000000000000000000000000000000)

State 58 file <builtin-library>-sscanf line 16 function sscanf thread 0
----------------------------------------------------
  list=&format!0@1 (0000011000000000000000000000000000000000000000000000000000000000)

State 59 file <builtin-library>-sscanf line 17 function sscanf thread 0
----------------------------------------------------
  result=0 (00000000000000000000000000000000)

State 71 file <builtin-library>-sscanf line 18 function sscanf thread 0
----------------------------------------------------
  list=((void **)NULL) (0000000000000000000000000000000000000000000000000000000000000000)

State 74 file reorder_bad.c line 35 function main thread 0
----------------------------------------------------
  err$array_size0=0 (0000000000000000000000000000000000000000000000000000000000000000)

State 75 file reorder_bad.c line 35 function main thread 0
----------------------------------------------------
  err$array_size0=4 (0000000000000000000000000000000000000000000000000000000000000100)

State 76 file reorder_bad.c line 35 function main thread 0
----------------------------------------------------
  setPool={ 0, 9223372036854775808, 9223372036854775808, 9223372036854775809 } ({ 0000000000000000000000000000000000000000000000000000000000000000, 1000000000000000000000000000000000000000000000000000000000000000, 1000000000000000000000000000000000000000000000000000000000000000, 1000000000000000000000000000000000000000000000000000000000000001 })

State 77 file reorder_bad.c line 36 function main thread 0
----------------------------------------------------
  setPool$array_size0=0 (0000000000000000000000000000000000000000000000000000000000000000)

State 78 file reorder_bad.c line 36 function main thread 0
----------------------------------------------------
  setPool$array_size0=1 (0000000000000000000000000000000000000000000000000000000000000001)

State 79 file reorder_bad.c line 36 function main thread 0
----------------------------------------------------
  checkPool={ 0 } ({ 0000000000000000000000000000000000000000000000000000000000000000 })

State 80 file reorder_bad.c line 38 function main thread 0
----------------------------------------------------
  i=0 (00000000000000000000000000000000)

State 116 file reorder_bad.c line 39 function main thread 0
----------------------------------------------------
  err=0 (00000000000000000000000000000000)

State 118 file reorder_bad.c line 38 function main thread 0
----------------------------------------------------
  i=1 (00000000000000000000000000000001)

State 157 file reorder_bad.c line 39 function main thread 0
----------------------------------------------------
  err=0 (00000000000000000000000000000000)

State 159 file reorder_bad.c line 38 function main thread 0
----------------------------------------------------
  i=2 (00000000000000000000000000000010)

State 198 file reorder_bad.c line 39 function main thread 0
----------------------------------------------------
  err=0 (00000000000000000000000000000000)

State 200 file reorder_bad.c line 38 function main thread 0
----------------------------------------------------
  i=3 (00000000000000000000000000000011)

State 239 file reorder_bad.c line 39 function main thread 0
----------------------------------------------------
  err=0 (00000000000000000000000000000000)

State 241 file reorder_bad.c line 38 function main thread 0
----------------------------------------------------
  i=4 (00000000000000000000000000000100)

State 244 file reorder_bad.c line 45 function main thread 0
----------------------------------------------------
  i=0 (00000000000000000000000000000000)

State 245 file reorder_bad.c line 71 function setThread thread 1
----------------------------------------------------
  a=1 (00000000000000000000000000000001)

State 282 file reorder_bad.c line 46 function main thread 0
----------------------------------------------------
  err=0 (00000000000000000000000000000000)

State 284 file reorder_bad.c line 45 function main thread 0
----------------------------------------------------
  i=1 (00000000000000000000000000000001)

State 287 file reorder_bad.c line 53 function main thread 0
----------------------------------------------------
  i=0 (00000000000000000000000000000000)

State 289 file reorder_bad.c line 71 function setThread thread 2
----------------------------------------------------
  a=1 (00000000000000000000000000000001)

State 290 file reorder_bad.c line 71 function setThread thread 4
----------------------------------------------------
  a=1 (00000000000000000000000000000001)

State 295 file reorder_bad.c line 72 function setThread thread 4
----------------------------------------------------
  b=-1 (11111111111111111111111111111111)

State 301 file reorder_bad.c line 71 function setThread thread 3
----------------------------------------------------
  a=1 (00000000000000000000000000000001)

State 302 file reorder_bad.c line 72 function setThread thread 3
----------------------------------------------------
  b=-1 (11111111111111111111111111111111)

State 314 file <builtin-library>-pthread_create line 20 function __actual_thread_spawn thread 6
----------------------------------------------------
  param=NULL (0000000000000000000000000000000000000000000000000000000000000000)

State 315 file reorder_bad.c line 72 function setThread thread 2
----------------------------------------------------
  b=-1 (11111111111111111111111111111111)

State 326 file <builtin-library>-pthread_create line 20 function __actual_thread_spawn thread 4
----------------------------------------------------
  param=NULL (0000000000000000000000000000000000000000000000000000000000000000)

State 332 file <builtin-library>-pthread_create line 20 function __actual_thread_spawn thread 3
----------------------------------------------------
  param=NULL (0000000000000000000000000000000000000000000000000000000000000000)

Violated property:
  file reorder_bad.c line 80 function checkThread
  error label ERROR
  FALSE

VERIFICATION FAILED
Partial order constraints used: 551/7250
  fr: 136/5500
  po: 167/167
  rf: 46/369
  rf-order: 42/569
  rf-some: 76/76
  rfi: 52/229
  thread-spawn: 10/10
  ws-ext: 22/330
Time: 20.714272
