CBMC version 5.0 64-bit x86_64 linux
Parsing /nas/schram/gitcbmc-lazy-po/experiments/pthread/twostage_3_false-unreach-call.cil.c
Converting
Type-checking twostage_3_false-unreach-call.cil
Generating GOTO Program
Adding CPROVER library
Function Pointer Removal
Partial Inlining
Generic Property Instrumentation
Starting Bounded Model Checking
Unwinding loop main.0 iteration 1 (5 max) file twostage_3_bad.c line 82 function main thread 0
Unwinding loop main.0 iteration 2 (5 max) file twostage_3_bad.c line 82 function main thread 0
Unwinding loop main.0 iteration 3 (5 max) file twostage_3_bad.c line 82 function main thread 0
Unwinding loop main.0 iteration 4 (5 max) file twostage_3_bad.c line 82 function main thread 0
Not unwinding loop main.0 iteration 5 (5 max) file twostage_3_bad.c line 82 function main thread 0
Unwinding loop main.1 iteration 1 (5 max) file twostage_3_bad.c line 89 function main thread 0
Unwinding loop main.1 iteration 2 (5 max) file twostage_3_bad.c line 89 function main thread 0
Unwinding loop main.1 iteration 3 (5 max) file twostage_3_bad.c line 89 function main thread 0
Unwinding loop main.1 iteration 4 (5 max) file twostage_3_bad.c line 89 function main thread 0
Not unwinding loop main.1 iteration 5 (5 max) file twostage_3_bad.c line 89 function main thread 0
Unwinding loop main.2 iteration 1 (5 max) file twostage_3_bad.c line 96 function main thread 0
Unwinding loop main.2 iteration 2 (5 max) file twostage_3_bad.c line 96 function main thread 0
Unwinding loop main.2 iteration 3 (5 max) file twostage_3_bad.c line 96 function main thread 0
Unwinding loop main.2 iteration 4 (5 max) file twostage_3_bad.c line 96 function main thread 0
Not unwinding loop main.2 iteration 5 (5 max) file twostage_3_bad.c line 96 function main thread 0
Unwinding loop main.3 iteration 1 (5 max) file twostage_3_bad.c line 103 function main thread 0
Unwinding loop main.3 iteration 2 (5 max) file twostage_3_bad.c line 103 function main thread 0
Unwinding loop main.3 iteration 3 (5 max) file twostage_3_bad.c line 103 function main thread 0
Unwinding loop main.3 iteration 4 (5 max) file twostage_3_bad.c line 103 function main thread 0
Not unwinding loop main.3 iteration 5 (5 max) file twostage_3_bad.c line 103 function main thread 0
Adding SC constraints
size of program expression: 172091 steps
no slicing due to threads
Generated 103 VCC(s), 103 remaining after simplification
Passing problem to refinement loop with MiniSAT 2.2.0 with simplifier
converting SSA
Running refinement loop with MiniSAT 2.2.0 with simplifier
BV-Refinement: post-processing
BV-Refinement: iteration 1
1668787 variables, 7931286 clauses
SAT checker: negated claim is SATISFIABLE, i.e., does not hold
BV-Refinement: 30 partial order constraints become active
BV-Refinement: 9638 inactive partial order constraints
BV-Refinement: got SAT, and it is spurious, refining
BV-Refinement: iteration 2
1669030 variables, 7671822 clauses
SAT checker: negated claim is SATISFIABLE, i.e., does not hold
BV-Refinement: 14 partial order constraints become active
BV-Refinement: 9624 inactive partial order constraints
BV-Refinement: got SAT, and it is spurious, refining
BV-Refinement: iteration 3
1669232 variables, 7672916 clauses
SAT checker: negated claim is SATISFIABLE, i.e., does not hold
BV-Refinement: 14 partial order constraints become active
BV-Refinement: 9610 inactive partial order constraints
BV-Refinement: got SAT, and it is spurious, refining
BV-Refinement: iteration 4
1669284 variables, 7506146 clauses
SAT checker: negated claim is SATISFIABLE, i.e., does not hold
BV-Refinement: 14 partial order constraints become active
BV-Refinement: 9596 inactive partial order constraints
BV-Refinement: got SAT, and it is spurious, refining
BV-Refinement: iteration 5
1669552 variables, 7507609 clauses
SAT checker: negated claim is SATISFIABLE, i.e., does not hold
BV-Refinement: 10 partial order constraints become active
BV-Refinement: 9586 inactive partial order constraints
BV-Refinement: got SAT, and it is spurious, refining
BV-Refinement: iteration 6
1669774 variables, 7508664 clauses
SAT checker: negated claim is SATISFIABLE, i.e., does not hold
BV-Refinement: 8 partial order constraints become active
BV-Refinement: 9578 inactive partial order constraints
BV-Refinement: got SAT, and it is spurious, refining
BV-Refinement: iteration 7
1669973 variables, 7501056 clauses
SAT checker: negated claim is SATISFIABLE, i.e., does not hold
BV-Refinement: 7 partial order constraints become active
BV-Refinement: 9571 inactive partial order constraints
BV-Refinement: got SAT, and it is spurious, refining
BV-Refinement: iteration 8
1670106 variables, 7501647 clauses
SAT checker: negated claim is SATISFIABLE, i.e., does not hold
BV-Refinement: 6 partial order constraints become active
BV-Refinement: 9565 inactive partial order constraints
BV-Refinement: got SAT, and it is spurious, refining
BV-Refinement: iteration 9
1670239 variables, 7502260 clauses
SAT checker: negated claim is SATISFIABLE, i.e., does not hold
BV-Refinement: 5 partial order constraints become active
BV-Refinement: 9560 inactive partial order constraints
BV-Refinement: got SAT, and it is spurious, refining
BV-Refinement: iteration 10
1670350 variables, 7502768 clauses
SAT checker: negated claim is SATISFIABLE, i.e., does not hold
BV-Refinement: 7 partial order constraints become active
BV-Refinement: 9553 inactive partial order constraints
BV-Refinement: got SAT, and it is spurious, refining
BV-Refinement: iteration 11
1670505 variables, 7503468 clauses
SAT checker: negated claim is SATISFIABLE, i.e., does not hold
BV-Refinement: 6 partial order constraints become active
BV-Refinement: 9547 inactive partial order constraints
BV-Refinement: got SAT, and it is spurious, refining
BV-Refinement: iteration 12
1670638 variables, 7501433 clauses
SAT checker: negated claim is SATISFIABLE, i.e., does not hold
BV-Refinement: 6 partial order constraints become active
BV-Refinement: 9541 inactive partial order constraints
BV-Refinement: got SAT, and it is spurious, refining
BV-Refinement: iteration 13
1670771 variables, 7502044 clauses
SAT checker: negated claim is SATISFIABLE, i.e., does not hold
BV-Refinement: 9 partial order constraints become active
BV-Refinement: 9532 inactive partial order constraints
BV-Refinement: got SAT, and it is spurious, refining
BV-Refinement: iteration 14
1670905 variables, 7502642 clauses
SAT checker: negated claim is SATISFIABLE, i.e., does not hold
BV-Refinement: 5 partial order constraints become active
BV-Refinement: 9527 inactive partial order constraints
BV-Refinement: got SAT, and it is spurious, refining
BV-Refinement: iteration 15
1670972 variables, 7454978 clauses
SAT checker: negated claim is SATISFIABLE, i.e., does not hold
BV-Refinement: 5 partial order constraints become active
BV-Refinement: 9522 inactive partial order constraints
BV-Refinement: got SAT, and it is spurious, refining
BV-Refinement: iteration 16
1671018 variables, 7455164 clauses
Time: 900.072152
