CBMC version 5.0 64-bit x86_64 linux
Parsing /nas/schram/gitcbmc-lazy-po/experiments/pthread/fib_bench_longest_true-unreach-call.c
Converting
Type-checking fib_bench_longest_true-unreach-call
Generating GOTO Program
Adding CPROVER library
Function Pointer Removal
Partial Inlining
Generic Property Instrumentation
Starting Bounded Model Checking
Unwinding loop t1.0 iteration 1 (5 max) file /nas/schram/gitcbmc-lazy-po/experiments/pthread/fib_bench_longest_true-unreach-call.c line 16 function t1 thread 1
Unwinding loop t1.0 iteration 2 (5 max) file /nas/schram/gitcbmc-lazy-po/experiments/pthread/fib_bench_longest_true-unreach-call.c line 16 function t1 thread 1
Unwinding loop t1.0 iteration 3 (5 max) file /nas/schram/gitcbmc-lazy-po/experiments/pthread/fib_bench_longest_true-unreach-call.c line 16 function t1 thread 1
Unwinding loop t1.0 iteration 4 (5 max) file /nas/schram/gitcbmc-lazy-po/experiments/pthread/fib_bench_longest_true-unreach-call.c line 16 function t1 thread 1
Not unwinding loop t1.0 iteration 5 (5 max) file /nas/schram/gitcbmc-lazy-po/experiments/pthread/fib_bench_longest_true-unreach-call.c line 16 function t1 thread 1
Unwinding loop t2.0 iteration 1 (5 max) file /nas/schram/gitcbmc-lazy-po/experiments/pthread/fib_bench_longest_true-unreach-call.c line 27 function t2 thread 2
Unwinding loop t2.0 iteration 2 (5 max) file /nas/schram/gitcbmc-lazy-po/experiments/pthread/fib_bench_longest_true-unreach-call.c line 27 function t2 thread 2
Unwinding loop t2.0 iteration 3 (5 max) file /nas/schram/gitcbmc-lazy-po/experiments/pthread/fib_bench_longest_true-unreach-call.c line 27 function t2 thread 2
Unwinding loop t2.0 iteration 4 (5 max) file /nas/schram/gitcbmc-lazy-po/experiments/pthread/fib_bench_longest_true-unreach-call.c line 27 function t2 thread 2
Not unwinding loop t2.0 iteration 5 (5 max) file /nas/schram/gitcbmc-lazy-po/experiments/pthread/fib_bench_longest_true-unreach-call.c line 27 function t2 thread 2
Adding PSO constraints
size of program expression: 1019 steps
no slicing due to threads
Generated 2 VCC(s), 2 remaining after simplification
Passing problem to propositional reduction
converting SSA
Running propositional reduction
Post-processing
Solving with MiniSAT 2.2.0 with simplifier
15216 variables, 66112 clauses
SAT checker: negated claim is UNSATISFIABLE, i.e., holds
Runtime decision procedure: 61.514s
VERIFICATION SUCCESSFUL
Time: 62.301949
