CBMC version 5.0 64-bit x86_64 linux
Parsing /nas/schram/gitcbmc-lazy-po/experiments/pthread/stack_longer_false-unreach-call.c
Converting
Type-checking stack_longer_false-unreach-call
Generating GOTO Program
Adding CPROVER library
Function Pointer Removal
Partial Inlining
Generic Property Instrumentation
Starting Bounded Model Checking
Unwinding loop t1.0 iteration 1 (5 max) file /nas/schram/gitcbmc-lazy-po/experiments/pthread/stack_longer_false-unreach-call.c line 76 function t1 thread 1
Unwinding loop t1.0 iteration 2 (5 max) file /nas/schram/gitcbmc-lazy-po/experiments/pthread/stack_longer_false-unreach-call.c line 76 function t1 thread 1
Unwinding loop t1.0 iteration 3 (5 max) file /nas/schram/gitcbmc-lazy-po/experiments/pthread/stack_longer_false-unreach-call.c line 76 function t1 thread 1
Unwinding loop t1.0 iteration 4 (5 max) file /nas/schram/gitcbmc-lazy-po/experiments/pthread/stack_longer_false-unreach-call.c line 76 function t1 thread 1
Not unwinding loop t1.0 iteration 5 (5 max) file /nas/schram/gitcbmc-lazy-po/experiments/pthread/stack_longer_false-unreach-call.c line 76 function t1 thread 1
Unwinding loop t2.0 iteration 1 (5 max) file /nas/schram/gitcbmc-lazy-po/experiments/pthread/stack_longer_false-unreach-call.c line 91 function t2 thread 2
Unwinding loop t2.0 iteration 2 (5 max) file /nas/schram/gitcbmc-lazy-po/experiments/pthread/stack_longer_false-unreach-call.c line 91 function t2 thread 2
Unwinding loop t2.0 iteration 3 (5 max) file /nas/schram/gitcbmc-lazy-po/experiments/pthread/stack_longer_false-unreach-call.c line 91 function t2 thread 2
Unwinding loop t2.0 iteration 4 (5 max) file /nas/schram/gitcbmc-lazy-po/experiments/pthread/stack_longer_false-unreach-call.c line 91 function t2 thread 2
Not unwinding loop t2.0 iteration 5 (5 max) file /nas/schram/gitcbmc-lazy-po/experiments/pthread/stack_longer_false-unreach-call.c line 91 function t2 thread 2
Adding PSO constraints
size of program expression: 13408 steps
no slicing due to threads
Generated 40 VCC(s), 40 remaining after simplification
Passing problem to propositional reduction
converting SSA
Running propositional reduction
Post-processing
Solving with MiniSAT 2.2.0 with simplifier
938957 variables, 4148337 clauses
SAT checker: negated claim is SATISFIABLE, i.e., does not hold
Runtime decision procedure: 549.498s
Building error trace

Counterexample:

State 20 file /nas/schram/gitcbmc-lazy-po/experiments/pthread/stack_longer_false-unreach-call.c line 106 function main thread 0
----------------------------------------------------
  id1=0 (0000000000000000000000000000000000000000000000000000000000000000)

State 21 file /nas/schram/gitcbmc-lazy-po/experiments/pthread/stack_longer_false-unreach-call.c line 106 function main thread 0
----------------------------------------------------
  id2=0 (0000000000000000000000000000000000000000000000000000000000000000)

State 131 file /nas/schram/gitcbmc-lazy-po/experiments/pthread/stack_longer_false-unreach-call.c line 91 function t2 thread 2
----------------------------------------------------
  i=1 (00000000000000000000000000000001)

State 142 file /nas/schram/gitcbmc-lazy-po/experiments/pthread/stack_longer_false-unreach-call.c line 79 function t1 thread 1
----------------------------------------------------
  tmp=58 (00000000000000000000000000111010)

State 146 file /nas/schram/gitcbmc-lazy-po/experiments/pthread/stack_longer_false-unreach-call.c line 80 function t1 thread 1
----------------------------------------------------
  stack=arr (0000011100000000000000000000000000000000000000000000000000000000)

State 147 file /nas/schram/gitcbmc-lazy-po/experiments/pthread/stack_longer_false-unreach-call.c line 80 function t1 thread 1
----------------------------------------------------
  x=58 (00000000000000000000000000111010)

State 156 file /nas/schram/gitcbmc-lazy-po/experiments/pthread/stack_longer_false-unreach-call.c line 50 function push thread 1
----------------------------------------------------
  arr[0]=58 (00000000000000000000000000111010)

State 159 file /nas/schram/gitcbmc-lazy-po/experiments/pthread/stack_longer_false-unreach-call.c line 23 function inc_top thread 1
----------------------------------------------------
  top=1 (00000000000000000000000000000001)

State 166 file /nas/schram/gitcbmc-lazy-po/experiments/pthread/stack_longer_false-unreach-call.c line 82 function t1 thread 1
----------------------------------------------------
  flag=TRUE (00000001)

State 174 file /nas/schram/gitcbmc-lazy-po/experiments/pthread/stack_longer_false-unreach-call.c line 76 function t1 thread 1
----------------------------------------------------
  i=1 (00000000000000000000000000000001)

State 187 file /nas/schram/gitcbmc-lazy-po/experiments/pthread/stack_longer_false-unreach-call.c line 96 function t2 thread 2
----------------------------------------------------
  stack=arr (0000011100000000000000000000000000000000000000000000000000000000)

State 202 file /nas/schram/gitcbmc-lazy-po/experiments/pthread/stack_longer_false-unreach-call.c line 28 function dec_top thread 2
----------------------------------------------------
  top=0 (00000000000000000000000000000000)

State 219 file /nas/schram/gitcbmc-lazy-po/experiments/pthread/stack_longer_false-unreach-call.c line 91 function t2 thread 2
----------------------------------------------------
  i=2 (00000000000000000000000000000010)

State 233 file <builtin-library>-pthread_create line 20 function __actual_thread_spawn thread 2
----------------------------------------------------
  arg=NULL (0000000000000000000000000000000000000000000000000000000000000000)

State 234 file /nas/schram/gitcbmc-lazy-po/experiments/pthread/stack_longer_false-unreach-call.c line 89 function t2 thread 2
----------------------------------------------------
  i=0 (00000000000000000000000000000000)

State 235 file /nas/schram/gitcbmc-lazy-po/experiments/pthread/stack_longer_false-unreach-call.c line 91 function t2 thread 2
----------------------------------------------------
  i=0 (00000000000000000000000000000000)

State 243 file /nas/schram/gitcbmc-lazy-po/experiments/pthread/stack_longer_false-unreach-call.c line 96 function t2 thread 2
----------------------------------------------------
  stack=arr (0000011100000000000000000000000000000000000000000000000000000000)
stack underflow


Violated property:
  file /nas/schram/gitcbmc-lazy-po/experiments/pthread/stack_longer_false-unreach-call.c line 18 function error
  error label ERROR
  FALSE

VERIFICATION FAILED
Time: 556.343574
