CBMC version 5.0 64-bit x86_64 linux
Parsing /nas/schram/gitcbmc-lazy-po/experiments/wmm-core/aclwdrr010.c
Converting
Type-checking aclwdrr010
Generating GOTO Program
Adding CPROVER library
Function Pointer Removal
Partial Inlining
Generic Property Instrumentation
Starting Bounded Model Checking
Adding PSO constraints
size of program expression: 427 steps
no slicing due to threads
Generated 1 VCC(s), 1 remaining after simplification
Passing problem to propositional reduction
converting SSA
Running propositional reduction
Post-processing
Solving with MiniSAT 2.2.0 with simplifier
6175 variables, 24378 clauses
SAT checker: negated claim is SATISFIABLE, i.e., does not hold
Runtime decision procedure: 0.257s
Building error trace

Counterexample:

State 40 file /nas/schram/gitcbmc-lazy-po/experiments/wmm-core/aclwdrr010.c line 18 function P0 thread 1
----------------------------------------------------
  z=1 (00000000000000000000000000000001)

State 53 file /nas/schram/gitcbmc-lazy-po/experiments/wmm-core/aclwdrr010.c line 17 function P0 thread 1
----------------------------------------------------
  __unbuffered_p0_r1=1 (00000000000000000000000000000001)

State 54 file /nas/schram/gitcbmc-lazy-po/experiments/wmm-core/aclwdrr010.c line 28 function P1 thread 2
----------------------------------------------------
  __unbuffered_p1_r1=2 (00000000000000000000000000000010)

State 55 file /nas/schram/gitcbmc-lazy-po/experiments/wmm-core/aclwdrr010.c line 20 function P0 thread 1
----------------------------------------------------
  __unbuffered_p0_r3=1 (00000000000000000000000000000001)

State 56 file /nas/schram/gitcbmc-lazy-po/experiments/wmm-core/aclwdrr010.c line 21 function P0 thread 1
----------------------------------------------------
  x=1 (00000000000000000000000000000001)

State 61 file /nas/schram/gitcbmc-lazy-po/experiments/wmm-core/aclwdrr010.c line 29 function P1 thread 2
----------------------------------------------------
  x=2 (00000000000000000000000000000010)

State 66 file /nas/schram/gitcbmc-lazy-po/experiments/wmm-core/aclwdrr010.c line 24 function P0 thread 1
----------------------------------------------------
  __unbuffered_cnt=1 (00000000000000000000000000000001)

State 72 file /nas/schram/gitcbmc-lazy-po/experiments/wmm-core/aclwdrr010.c line 49 function main thread 2
----------------------------------------------------
  arg=NULL (0000000000000000000000000000000000000000000000000000000000000000)

State 73 file /nas/schram/gitcbmc-lazy-po/experiments/wmm-core/aclwdrr010.c line 31 function P1 thread 2
----------------------------------------------------
  __unbuffered_p1_r3=1 (00000000000000000000000000000001)

State 74 file /nas/schram/gitcbmc-lazy-po/experiments/wmm-core/aclwdrr010.c line 32 function P1 thread 2
----------------------------------------------------
  y=1 (00000000000000000000000000000001)

State 79 file /nas/schram/gitcbmc-lazy-po/experiments/wmm-core/aclwdrr010.c line 35 function P1 thread 2
----------------------------------------------------
  __unbuffered_cnt=2 (00000000000000000000000000000010)

State 85 file /nas/schram/gitcbmc-lazy-po/experiments/wmm-core/aclwdrr010.c line 50 function main thread 3
----------------------------------------------------
  arg=NULL (0000000000000000000000000000000000000000000000000000000000000000)

State 86 file /nas/schram/gitcbmc-lazy-po/experiments/wmm-core/aclwdrr010.c line 39 function P2 thread 3
----------------------------------------------------
  __unbuffered_p2_r1=1 (00000000000000000000000000000001)

State 91 file /nas/schram/gitcbmc-lazy-po/experiments/wmm-core/aclwdrr010.c line 41 function P2 thread 3
----------------------------------------------------
  __unbuffered_p2_r3=0 (00000000000000000000000000000000)

State 96 file /nas/schram/gitcbmc-lazy-po/experiments/wmm-core/aclwdrr010.c line 44 function P2 thread 3
----------------------------------------------------
  __unbuffered_cnt=3 (00000000000000000000000000000011)

Violated property:
  file /nas/schram/gitcbmc-lazy-po/experiments/wmm-core/aclwdrr010.c line 54 function main
  Program proven to be relaxed for PPC, model checker says YES.
  !(x == 2 && __unbuffered_p2_r1 == 1 && __unbuffered_p2_r3 == 0)

VERIFICATION FAILED
Time: 0.616159
