CBMC version 5.0 64-bit x86_64 linux
Parsing /nas/schram/gitcbmc-lazy-po/experiments/wmm-core/bclwdww003.c
Converting
Type-checking bclwdww003
Generating GOTO Program
Adding CPROVER library
Function Pointer Removal
Partial Inlining
Generic Property Instrumentation
Starting Bounded Model Checking
Adding PSO constraints
size of program expression: 460 steps
no slicing due to threads
Generated 1 VCC(s), 1 remaining after simplification
Passing problem to propositional reduction
converting SSA
Running propositional reduction
Post-processing
Solving with MiniSAT 2.2.0 with simplifier
6876 variables, 27116 clauses
SAT checker: negated claim is SATISFIABLE, i.e., does not hold
Runtime decision procedure: 0.365s
Building error trace

Counterexample:

State 46 file /nas/schram/gitcbmc-lazy-po/experiments/wmm-core/bclwdww003.c line 28 function P1 thread 2
----------------------------------------------------
  x=1 (00000000000000000000000000000001)

State 54 file /nas/schram/gitcbmc-lazy-po/experiments/wmm-core/bclwdww003.c line 27 function P1 thread 2
----------------------------------------------------
  __unbuffered_p1_r1=1 (00000000000000000000000000000001)

State 55 file /nas/schram/gitcbmc-lazy-po/experiments/wmm-core/bclwdww003.c line 31 function P1 thread 2
----------------------------------------------------
  y=1 (00000000000000000000000000000001)

State 60 file /nas/schram/gitcbmc-lazy-po/experiments/wmm-core/bclwdww003.c line 38 function P2 thread 3
----------------------------------------------------
  __unbuffered_p2_r1=2 (00000000000000000000000000000010)

State 61 file /nas/schram/gitcbmc-lazy-po/experiments/wmm-core/bclwdww003.c line 30 function P1 thread 2
----------------------------------------------------
  __unbuffered_p1_r3=1 (00000000000000000000000000000001)

State 62 file /nas/schram/gitcbmc-lazy-po/experiments/wmm-core/bclwdww003.c line 39 function P2 thread 3
----------------------------------------------------
  y=2 (00000000000000000000000000000010)

State 67 file /nas/schram/gitcbmc-lazy-po/experiments/wmm-core/bclwdww003.c line 42 function P2 thread 3
----------------------------------------------------
  z=1 (00000000000000000000000000000001)

State 72 file /nas/schram/gitcbmc-lazy-po/experiments/wmm-core/bclwdww003.c line 19 function P0 thread 1
----------------------------------------------------
  __unbuffered_p0_r3=0 (00000000000000000000000000000000)

State 73 file /nas/schram/gitcbmc-lazy-po/experiments/wmm-core/bclwdww003.c line 41 function P2 thread 3
----------------------------------------------------
  __unbuffered_p2_r3=1 (00000000000000000000000000000001)

State 74 file /nas/schram/gitcbmc-lazy-po/experiments/wmm-core/bclwdww003.c line 20 function P0 thread 1
----------------------------------------------------
  __unbuffered_p0_r4=0 (00000000000000000000000000000000)

State 79 file /nas/schram/gitcbmc-lazy-po/experiments/wmm-core/bclwdww003.c line 18 function P0 thread 1
----------------------------------------------------
  __unbuffered_p0_r1=1 (00000000000000000000000000000001)

State 80 file /nas/schram/gitcbmc-lazy-po/experiments/wmm-core/bclwdww003.c line 34 function P1 thread 2
----------------------------------------------------
  __unbuffered_cnt=1 (00000000000000000000000000000001)

State 86 file /nas/schram/gitcbmc-lazy-po/experiments/wmm-core/bclwdww003.c line 51 function main thread 3
----------------------------------------------------
  arg=NULL (0000000000000000000000000000000000000000000000000000000000000000)

State 87 file /nas/schram/gitcbmc-lazy-po/experiments/wmm-core/bclwdww003.c line 23 function P0 thread 1
----------------------------------------------------
  __unbuffered_cnt=2 (00000000000000000000000000000010)

State 93 file /nas/schram/gitcbmc-lazy-po/experiments/wmm-core/bclwdww003.c line 50 function main thread 2
----------------------------------------------------
  arg=NULL (0000000000000000000000000000000000000000000000000000000000000000)

State 94 file /nas/schram/gitcbmc-lazy-po/experiments/wmm-core/bclwdww003.c line 45 function P2 thread 3
----------------------------------------------------
  __unbuffered_cnt=3 (00000000000000000000000000000011)

Violated property:
  file /nas/schram/gitcbmc-lazy-po/experiments/wmm-core/bclwdww003.c line 55 function main
  Program proven to be relaxed for PPC, model checker says YES.
  !(y == 2 && __unbuffered_p0_r1 == 1 && __unbuffered_p0_r4 == 0)

VERIFICATION FAILED
Time: 0.716459
