CBMC version 5.0 64-bit x86_64 linux
Parsing /nas/schram/gitcbmc-lazy-po/experiments/wmm-core/mix050.c
Converting
Type-checking mix050
Generating GOTO Program
Adding CPROVER library
Function Pointer Removal
Partial Inlining
Generic Property Instrumentation
Starting Bounded Model Checking
Adding PSO constraints
size of program expression: 459 steps
no slicing due to threads
Generated 1 VCC(s), 1 remaining after simplification
Passing problem to propositional reduction
converting SSA
Running propositional reduction
Post-processing
Solving with MiniSAT 2.2.0 with simplifier
6499 variables, 25780 clauses
SAT checker: negated claim is SATISFIABLE, i.e., does not hold
Runtime decision procedure: 0.271s
Building error trace

Counterexample:

State 58 file /nas/schram/gitcbmc-lazy-po/experiments/wmm-core/mix050.c line 33 function P2 thread 3
----------------------------------------------------
  __unbuffered_p2_EAX=0 (00000000000000000000000000000000)

State 63 file /nas/schram/gitcbmc-lazy-po/experiments/wmm-core/mix050.c line 41 function P3 thread 4
----------------------------------------------------
  __unbuffered_p3_EAX=0 (00000000000000000000000000000000)

State 68 file /nas/schram/gitcbmc-lazy-po/experiments/wmm-core/mix050.c line 16 function P0 thread 1
----------------------------------------------------
  a=1 (00000000000000000000000000000001)

State 69 file /nas/schram/gitcbmc-lazy-po/experiments/wmm-core/mix050.c line 40 function P3 thread 4
----------------------------------------------------
  z=1 (00000000000000000000000000000001)

State 70 file /nas/schram/gitcbmc-lazy-po/experiments/wmm-core/mix050.c line 25 function P1 thread 2
----------------------------------------------------
  __unbuffered_p1_EAX=0 (00000000000000000000000000000000)

State 75 file /nas/schram/gitcbmc-lazy-po/experiments/wmm-core/mix050.c line 44 function P3 thread 4
----------------------------------------------------
  __unbuffered_cnt=1 (00000000000000000000000000000001)

State 79 file /nas/schram/gitcbmc-lazy-po/experiments/wmm-core/mix050.c line 24 function P1 thread 2
----------------------------------------------------
  x=1 (00000000000000000000000000000001)

State 80 file /nas/schram/gitcbmc-lazy-po/experiments/wmm-core/mix050.c line 32 function P2 thread 3
----------------------------------------------------
  y=1 (00000000000000000000000000000001)

State 81 file /nas/schram/gitcbmc-lazy-po/experiments/wmm-core/mix050.c line 17 function P0 thread 1
----------------------------------------------------
  __unbuffered_p0_EAX=0 (00000000000000000000000000000000)

State 86 file /nas/schram/gitcbmc-lazy-po/experiments/wmm-core/mix050.c line 36 function P2 thread 3
----------------------------------------------------
  __unbuffered_cnt=2 (00000000000000000000000000000010)

State 92 file /nas/schram/gitcbmc-lazy-po/experiments/wmm-core/mix050.c line 51 function main thread 4
----------------------------------------------------
  arg=NULL (0000000000000000000000000000000000000000000000000000000000000000)

State 93 file /nas/schram/gitcbmc-lazy-po/experiments/wmm-core/mix050.c line 28 function P1 thread 2
----------------------------------------------------
  __unbuffered_cnt=3 (00000000000000000000000000000011)

State 99 file /nas/schram/gitcbmc-lazy-po/experiments/wmm-core/mix050.c line 50 function main thread 3
----------------------------------------------------
  arg=NULL (0000000000000000000000000000000000000000000000000000000000000000)

State 100 file /nas/schram/gitcbmc-lazy-po/experiments/wmm-core/mix050.c line 20 function P0 thread 1
----------------------------------------------------
  __unbuffered_cnt=4 (00000000000000000000000000000100)

State 106 file /nas/schram/gitcbmc-lazy-po/experiments/wmm-core/mix050.c line 49 function main thread 2
----------------------------------------------------
  arg=NULL (0000000000000000000000000000000000000000000000000000000000000000)

Violated property:
  file /nas/schram/gitcbmc-lazy-po/experiments/wmm-core/mix050.c line 55 function main
  Program proven to be relaxed for X86, model checker says YES.
  !(__unbuffered_p0_EAX == 0 && __unbuffered_p1_EAX == 0 && __unbuffered_p2_EAX == 0 && __unbuffered_p3_EAX == 0)

VERIFICATION FAILED
Time: 0.616403
