CBMC version 5.0 64-bit x86_64 linux
Parsing /nas/schram/gitcbmc-lazy-po/experiments/wmm-core/mix040.c
Converting
Type-checking mix040
Generating GOTO Program
Adding CPROVER library
Function Pointer Removal
Partial Inlining
Generic Property Instrumentation
Starting Bounded Model Checking
Adding PSO constraints
size of program expression: 491 steps
no slicing due to threads
Generated 1 VCC(s), 1 remaining after simplification
Passing problem to propositional reduction
converting SSA
Running propositional reduction
Post-processing
Solving with MiniSAT 2.2.0 with simplifier
6938 variables, 27817 clauses
SAT checker: negated claim is SATISFIABLE, i.e., does not hold
Runtime decision procedure: 0.288s
Building error trace

Counterexample:

State 58 file /nas/schram/gitcbmc-lazy-po/experiments/wmm-core/mix040.c line 17 function P0 thread 1
----------------------------------------------------
  x=1 (00000000000000000000000000000001)

State 63 file /nas/schram/gitcbmc-lazy-po/experiments/wmm-core/mix040.c line 16 function P0 thread 1
----------------------------------------------------
  b=1 (00000000000000000000000000000001)

State 64 file /nas/schram/gitcbmc-lazy-po/experiments/wmm-core/mix040.c line 25 function P1 thread 2
----------------------------------------------------
  y=1 (00000000000000000000000000000001)

State 69 file /nas/schram/gitcbmc-lazy-po/experiments/wmm-core/mix040.c line 41 function P3 thread 4
----------------------------------------------------
  a=1 (00000000000000000000000000000001)

State 70 file /nas/schram/gitcbmc-lazy-po/experiments/wmm-core/mix040.c line 42 function P3 thread 4
----------------------------------------------------
  __unbuffered_p3_EAX=1 (00000000000000000000000000000001)

State 71 file /nas/schram/gitcbmc-lazy-po/experiments/wmm-core/mix040.c line 24 function P1 thread 2
----------------------------------------------------
  x=2 (00000000000000000000000000000010)

State 72 file /nas/schram/gitcbmc-lazy-po/experiments/wmm-core/mix040.c line 43 function P3 thread 4
----------------------------------------------------
  __unbuffered_p3_EBX=0 (00000000000000000000000000000000)

State 77 file /nas/schram/gitcbmc-lazy-po/experiments/wmm-core/mix040.c line 20 function P0 thread 1
----------------------------------------------------
  __unbuffered_cnt=1 (00000000000000000000000000000001)

State 83 file /nas/schram/gitcbmc-lazy-po/experiments/wmm-core/mix040.c line 51 function main thread 2
----------------------------------------------------
  arg=NULL (0000000000000000000000000000000000000000000000000000000000000000)

State 84 file /nas/schram/gitcbmc-lazy-po/experiments/wmm-core/mix040.c line 40 function P3 thread 4
----------------------------------------------------
  z=1 (00000000000000000000000000000001)

State 85 file /nas/schram/gitcbmc-lazy-po/experiments/wmm-core/mix040.c line 32 function P2 thread 3
----------------------------------------------------
  y=2 (00000000000000000000000000000010)

State 86 file /nas/schram/gitcbmc-lazy-po/experiments/wmm-core/mix040.c line 33 function P2 thread 3
----------------------------------------------------
  __unbuffered_p2_EAX=0 (00000000000000000000000000000000)

State 91 file /nas/schram/gitcbmc-lazy-po/experiments/wmm-core/mix040.c line 46 function P3 thread 4
----------------------------------------------------
  __unbuffered_cnt=2 (00000000000000000000000000000010)

State 95 file /nas/schram/gitcbmc-lazy-po/experiments/wmm-core/mix040.c line 36 function P2 thread 3
----------------------------------------------------
  __unbuffered_cnt=3 (00000000000000000000000000000011)

State 101 file /nas/schram/gitcbmc-lazy-po/experiments/wmm-core/mix040.c line 53 function main thread 4
----------------------------------------------------
  arg=NULL (0000000000000000000000000000000000000000000000000000000000000000)

State 102 file /nas/schram/gitcbmc-lazy-po/experiments/wmm-core/mix040.c line 28 function P1 thread 2
----------------------------------------------------
  __unbuffered_cnt=4 (00000000000000000000000000000100)

State 108 file /nas/schram/gitcbmc-lazy-po/experiments/wmm-core/mix040.c line 52 function main thread 3
----------------------------------------------------
  arg=NULL (0000000000000000000000000000000000000000000000000000000000000000)

Violated property:
  file /nas/schram/gitcbmc-lazy-po/experiments/wmm-core/mix040.c line 57 function main
  Program proven to be relaxed for X86, model checker says YES.
  !(x == 2 && y == 2 && __unbuffered_p2_EAX == 0 && __unbuffered_p3_EAX == 1 && __unbuffered_p3_EBX == 0)

VERIFICATION FAILED
Time: 0.666934
