CBMC version 5.0 64-bit x86_64 linux
Parsing /nas/schram/gitcbmc-lazy-po/experiments/wmm-core/mix055.c
Converting
Type-checking mix055
Generating GOTO Program
Adding CPROVER library
Function Pointer Removal
Partial Inlining
Generic Property Instrumentation
Starting Bounded Model Checking
Adding PSO constraints
size of program expression: 447 steps
no slicing due to threads
Generated 1 VCC(s), 1 remaining after simplification
Passing problem to propositional reduction
converting SSA
Running propositional reduction
Post-processing
Solving with MiniSAT 2.2.0 with simplifier
6241 variables, 24888 clauses
SAT checker: negated claim is SATISFIABLE, i.e., does not hold
Runtime decision procedure: 0.254s
Building error trace

Counterexample:

State 49 file /nas/schram/gitcbmc-lazy-po/experiments/wmm-core/mix055.c line 39 function P3 thread 4
----------------------------------------------------
  __unbuffered_p3_EAX=0 (00000000000000000000000000000000)

State 55 file /nas/schram/gitcbmc-lazy-po/experiments/wmm-core/mix055.c line 23 function P1 thread 2
----------------------------------------------------
  __unbuffered_p1_EAX=0 (00000000000000000000000000000000)

State 65 file /nas/schram/gitcbmc-lazy-po/experiments/wmm-core/mix055.c line 15 function P0 thread 1
----------------------------------------------------
  x=1 (00000000000000000000000000000001)

State 71 file /nas/schram/gitcbmc-lazy-po/experiments/wmm-core/mix055.c line 31 function P2 thread 3
----------------------------------------------------
  z=1 (00000000000000000000000000000001)

State 76 file /nas/schram/gitcbmc-lazy-po/experiments/wmm-core/mix055.c line 14 function P0 thread 1
----------------------------------------------------
  a=1 (00000000000000000000000000000001)

State 77 file /nas/schram/gitcbmc-lazy-po/experiments/wmm-core/mix055.c line 18 function P0 thread 1
----------------------------------------------------
  __unbuffered_cnt=1 (00000000000000000000000000000001)

State 83 file /nas/schram/gitcbmc-lazy-po/experiments/wmm-core/mix055.c line 47 function main thread 2
----------------------------------------------------
  arg=NULL (0000000000000000000000000000000000000000000000000000000000000000)

State 84 file /nas/schram/gitcbmc-lazy-po/experiments/wmm-core/mix055.c line 22 function P1 thread 2
----------------------------------------------------
  x=2 (00000000000000000000000000000010)

State 85 file /nas/schram/gitcbmc-lazy-po/experiments/wmm-core/mix055.c line 26 function P1 thread 2
----------------------------------------------------
  __unbuffered_cnt=2 (00000000000000000000000000000010)

State 91 file /nas/schram/gitcbmc-lazy-po/experiments/wmm-core/mix055.c line 48 function main thread 3
----------------------------------------------------
  arg=NULL (0000000000000000000000000000000000000000000000000000000000000000)

State 92 file /nas/schram/gitcbmc-lazy-po/experiments/wmm-core/mix055.c line 38 function P3 thread 4
----------------------------------------------------
  z=2 (00000000000000000000000000000010)

State 93 file /nas/schram/gitcbmc-lazy-po/experiments/wmm-core/mix055.c line 42 function P3 thread 4
----------------------------------------------------
  __unbuffered_cnt=3 (00000000000000000000000000000011)

State 97 file /nas/schram/gitcbmc-lazy-po/experiments/wmm-core/mix055.c line 30 function P2 thread 3
----------------------------------------------------
  y=1 (00000000000000000000000000000001)

State 98 file /nas/schram/gitcbmc-lazy-po/experiments/wmm-core/mix055.c line 34 function P2 thread 3
----------------------------------------------------
  __unbuffered_cnt=4 (00000000000000000000000000000100)

State 104 file /nas/schram/gitcbmc-lazy-po/experiments/wmm-core/mix055.c line 49 function main thread 4
----------------------------------------------------
  arg=NULL (0000000000000000000000000000000000000000000000000000000000000000)

Violated property:
  file /nas/schram/gitcbmc-lazy-po/experiments/wmm-core/mix055.c line 53 function main
  Program proven to be relaxed for X86, model checker says YES.
  !(x == 2 && z == 2 && __unbuffered_p1_EAX == 0 && __unbuffered_p3_EAX == 0)

VERIFICATION FAILED
Time: 0.616152
