CBMC version 5.0 64-bit x86_64 linux
Parsing /nas/schram/gitcbmc-lazy-po/experiments/pthread/lazy01_false-unreach-call.c
Converting
Type-checking lazy01_false-unreach-call
Generating GOTO Program
Adding CPROVER library
Function Pointer Removal
Partial Inlining
Generic Property Instrumentation
Starting Bounded Model Checking
Adding SC constraints
size of program expression: 979 steps
no slicing due to threads
Generated 8 VCC(s), 8 remaining after simplification
Passing problem to propositional reduction
converting SSA
Running propositional reduction
Post-processing
Solving with MiniSAT 2.2.0 with simplifier
21348 variables, 81144 clauses
SAT checker: negated claim is SATISFIABLE, i.e., does not hold
Runtime decision procedure: 1.423s
Building error trace

Counterexample:

State 27 file /nas/schram/gitcbmc-lazy-po/experiments/pthread/lazy01_false-unreach-call.c line 40 function main thread 0
----------------------------------------------------
  t1=0 (0000000000000000000000000000000000000000000000000000000000000000)

State 28 file /nas/schram/gitcbmc-lazy-po/experiments/pthread/lazy01_false-unreach-call.c line 40 function main thread 0
----------------------------------------------------
  t2=0 (0000000000000000000000000000000000000000000000000000000000000000)

State 29 file /nas/schram/gitcbmc-lazy-po/experiments/pthread/lazy01_false-unreach-call.c line 40 function main thread 0
----------------------------------------------------
  t3=0 (0000000000000000000000000000000000000000000000000000000000000000)

State 111 file /nas/schram/gitcbmc-lazy-po/experiments/pthread/lazy01_false-unreach-call.c line 12 function thread1 thread 1
----------------------------------------------------
  data=1 (00000000000000000000000000000001)

State 161 file /nas/schram/gitcbmc-lazy-po/experiments/pthread/lazy01_false-unreach-call.c line 20 function thread2 thread 2
----------------------------------------------------
  data=3 (00000000000000000000000000000011)

State 183 file <builtin-library>-pthread_create line 20 function __actual_thread_spawn thread 3
----------------------------------------------------
  arg=NULL (0000000000000000000000000000000000000000000000000000000000000000)

State 192 file <builtin-library>-pthread_create line 20 function __actual_thread_spawn thread 2
----------------------------------------------------
  arg=NULL (0000000000000000000000000000000000000000000000000000000000000000)

Violated property:
  file /nas/schram/gitcbmc-lazy-po/experiments/pthread/lazy01_false-unreach-call.c line 29 function thread3
  error label ERROR
  FALSE

VERIFICATION FAILED
Time: 2.269865
