CBMC version 5.0 64-bit x86_64 linux
Parsing /nas/schram/gitcbmc-lazy-po/experiments/pthread/reorder_5_false-unreach-call.c
Converting
Type-checking reorder_5_false-unreach-call
Generating GOTO Program
Adding CPROVER library
Function Pointer Removal
Partial Inlining
Generic Property Instrumentation
Starting Bounded Model Checking
Unwinding loop main.0 iteration 1 (5 max) file reorder_bad.c line 38 function main thread 0
Unwinding loop main.0 iteration 2 (5 max) file reorder_bad.c line 38 function main thread 0
Unwinding loop main.0 iteration 3 (5 max) file reorder_bad.c line 38 function main thread 0
Unwinding loop main.0 iteration 4 (5 max) file reorder_bad.c line 38 function main thread 0
Not unwinding loop main.0 iteration 5 (5 max) file reorder_bad.c line 38 function main thread 0
Unwinding loop main.1 iteration 1 (5 max) file reorder_bad.c line 45 function main thread 0
Unwinding loop main.1 iteration 2 (5 max) file reorder_bad.c line 45 function main thread 0
Unwinding loop main.1 iteration 3 (5 max) file reorder_bad.c line 45 function main thread 0
Unwinding loop main.1 iteration 4 (5 max) file reorder_bad.c line 45 function main thread 0
Not unwinding loop main.1 iteration 5 (5 max) file reorder_bad.c line 45 function main thread 0
Unwinding loop main.2 iteration 1 (5 max) file reorder_bad.c line 53 function main thread 0
Unwinding loop main.2 iteration 2 (5 max) file reorder_bad.c line 53 function main thread 0
Unwinding loop main.2 iteration 3 (5 max) file reorder_bad.c line 53 function main thread 0
Unwinding loop main.2 iteration 4 (5 max) file reorder_bad.c line 53 function main thread 0
Not unwinding loop main.2 iteration 5 (5 max) file reorder_bad.c line 53 function main thread 0
Unwinding loop main.3 iteration 1 (5 max) file reorder_bad.c line 60 function main thread 0
Unwinding loop main.3 iteration 2 (5 max) file reorder_bad.c line 60 function main thread 0
Unwinding loop main.3 iteration 3 (5 max) file reorder_bad.c line 60 function main thread 0
Unwinding loop main.3 iteration 4 (5 max) file reorder_bad.c line 60 function main thread 0
Not unwinding loop main.3 iteration 5 (5 max) file reorder_bad.c line 60 function main thread 0
Adding SC constraints
size of program expression: 11734 steps
no slicing due to threads
Generated 18 VCC(s), 18 remaining after simplification
Passing problem to propositional reduction
converting SSA
Running propositional reduction
Post-processing
Solving with MiniSAT 2.2.0 with simplifier
169819 variables, 600589 clauses
SAT checker: negated claim is SATISFIABLE, i.e., does not hold
Runtime decision procedure: 8.113s
Building error trace

Counterexample:

State 21  thread 0
----------------------------------------------------
  argv'[3]=irep("(\"nil\")")[3] (?)

State 24 file reorder_bad.c line 20 thread 0
----------------------------------------------------
  argc=3 (00000000000000000000000000000011)

State 25 file reorder_bad.c line 20 thread 0
----------------------------------------------------
  argv=argv' (0000001000000000000000000000000000000000000000000000000000000000)

State 26 file reorder_bad.c line 21 function main thread 0
----------------------------------------------------
  i=0 (00000000000000000000000000000000)

State 27 file reorder_bad.c line 21 function main thread 0
----------------------------------------------------
  err=0 (00000000000000000000000000000000)

State 31 file reorder_bad.c line 28 function main thread 0
----------------------------------------------------
  s=((signed char *)NULL) (0000000000000000000000000000000000000000000000000000000000000000)

State 32 file reorder_bad.c line 28 function main thread 0
----------------------------------------------------
  s=((signed char *)NULL) (0000000000000000000000000000000000000000000000000000000000000000)

State 33 file reorder_bad.c line 28 function main thread 0
----------------------------------------------------
  format=((signed char *)NULL) (0000000000000000000000000000000000000000000000000000000000000000)

State 34 file reorder_bad.c line 28 function main thread 0
----------------------------------------------------
  format="%d" (0000010100000000000000000000000000000000000000000000000000000000)

State 35 file <builtin-library>-sscanf line 15 function sscanf thread 0
----------------------------------------------------
  list=((void **)NULL) (0000000000000000000000000000000000000000000000000000000000000000)

State 36 file <builtin-library>-sscanf line 16 function sscanf thread 0
----------------------------------------------------
  list=&format!0@1 (0000011000000000000000000000000000000000000000000000000000000000)

State 37 file <builtin-library>-sscanf line 17 function sscanf thread 0
----------------------------------------------------
  result=0 (00000000000000000000000000000000)

State 49 file <builtin-library>-sscanf line 18 function sscanf thread 0
----------------------------------------------------
  list=((void **)NULL) (0000000000000000000000000000000000000000000000000000000000000000)

State 53 file reorder_bad.c line 29 function main thread 0
----------------------------------------------------
  s=((signed char *)NULL) (0000000000000000000000000000000000000000000000000000000000000000)

State 54 file reorder_bad.c line 29 function main thread 0
----------------------------------------------------
  s=((signed char *)NULL) (0000000000000000000000000000000000000000000000000000000000000000)

State 55 file reorder_bad.c line 29 function main thread 0
----------------------------------------------------
  format=((signed char *)NULL) (0000000000000000000000000000000000000000000000000000000000000000)

State 56 file reorder_bad.c line 29 function main thread 0
----------------------------------------------------
  format="%d" (0000010100000000000000000000000000000000000000000000000000000000)

State 57 file <builtin-library>-sscanf line 15 function sscanf thread 0
----------------------------------------------------
  list=((void **)NULL) (0000000000000000000000000000000000000000000000000000000000000000)

State 58 file <builtin-library>-sscanf line 16 function sscanf thread 0
----------------------------------------------------
  list=&format!0@1 (0000011000000000000000000000000000000000000000000000000000000000)

State 59 file <builtin-library>-sscanf line 17 function sscanf thread 0
----------------------------------------------------
  result=0 (00000000000000000000000000000000)

State 71 file <builtin-library>-sscanf line 18 function sscanf thread 0
----------------------------------------------------
  list=((void **)NULL) (0000000000000000000000000000000000000000000000000000000000000000)

State 74 file reorder_bad.c line 35 function main thread 0
----------------------------------------------------
  err$array_size0=0 (0000000000000000000000000000000000000000000000000000000000000000)

State 75 file reorder_bad.c line 35 function main thread 0
----------------------------------------------------
  err$array_size0=4 (0000000000000000000000000000000000000000000000000000000000000100)

State 76 file reorder_bad.c line 35 function main thread 0
----------------------------------------------------
  setPool={ 0, 0, 0, 0 } ({ 0000000000000000000000000000000000000000000000000000000000000000, 0000000000000000000000000000000000000000000000000000000000000000, 0000000000000000000000000000000000000000000000000000000000000000, 0000000000000000000000000000000000000000000000000000000000000000 })

State 77 file reorder_bad.c line 36 function main thread 0
----------------------------------------------------
  setPool$array_size0=0 (0000000000000000000000000000000000000000000000000000000000000000)

State 78 file reorder_bad.c line 36 function main thread 0
----------------------------------------------------
  setPool$array_size0=1 (0000000000000000000000000000000000000000000000000000000000000001)

State 79 file reorder_bad.c line 36 function main thread 0
----------------------------------------------------
  checkPool={ 0 } ({ 0000000000000000000000000000000000000000000000000000000000000000 })

State 80 file reorder_bad.c line 38 function main thread 0
----------------------------------------------------
  i=0 (00000000000000000000000000000000)

State 116 file reorder_bad.c line 39 function main thread 0
----------------------------------------------------
  err=0 (00000000000000000000000000000000)

State 118 file reorder_bad.c line 38 function main thread 0
----------------------------------------------------
  i=1 (00000000000000000000000000000001)

State 157 file reorder_bad.c line 39 function main thread 0
----------------------------------------------------
  err=0 (00000000000000000000000000000000)

State 159 file reorder_bad.c line 38 function main thread 0
----------------------------------------------------
  i=2 (00000000000000000000000000000010)

State 198 file reorder_bad.c line 39 function main thread 0
----------------------------------------------------
  err=0 (00000000000000000000000000000000)

State 200 file reorder_bad.c line 38 function main thread 0
----------------------------------------------------
  i=3 (00000000000000000000000000000011)

State 239 file reorder_bad.c line 39 function main thread 0
----------------------------------------------------
  err=0 (00000000000000000000000000000000)

State 241 file reorder_bad.c line 38 function main thread 0
----------------------------------------------------
  i=4 (00000000000000000000000000000100)

State 243 file reorder_bad.c line 71 function setThread thread 3
----------------------------------------------------
  a=1 (00000000000000000000000000000001)

State 245 file reorder_bad.c line 45 function main thread 0
----------------------------------------------------
  i=0 (00000000000000000000000000000000)

State 282 file reorder_bad.c line 46 function main thread 0
----------------------------------------------------
  err=0 (00000000000000000000000000000000)

State 284 file reorder_bad.c line 45 function main thread 0
----------------------------------------------------
  i=1 (00000000000000000000000000000001)

State 287 file reorder_bad.c line 53 function main thread 0
----------------------------------------------------
  i=0 (00000000000000000000000000000000)

State 288 file reorder_bad.c line 71 function setThread thread 2
----------------------------------------------------
  a=1 (00000000000000000000000000000001)

State 290 file reorder_bad.c line 71 function setThread thread 1
----------------------------------------------------
  a=1 (00000000000000000000000000000001)

State 292 file reorder_bad.c line 71 function setThread thread 4
----------------------------------------------------
  a=1 (00000000000000000000000000000001)

State 296 file reorder_bad.c line 72 function setThread thread 4
----------------------------------------------------
  b=-1 (11111111111111111111111111111111)

State 315 file <builtin-library>-pthread_create line 20 function __actual_thread_spawn thread 1
----------------------------------------------------
  param=NULL (0000000000000000000000000000000000000000000000000000000000000000)

State 316 file reorder_bad.c line 72 function setThread thread 2
----------------------------------------------------
  b=-1 (11111111111111111111111111111111)

State 322 file reorder_bad.c line 72 function setThread thread 3
----------------------------------------------------
  b=-1 (11111111111111111111111111111111)

State 333 file <builtin-library>-pthread_create line 20 function __actual_thread_spawn thread 3
----------------------------------------------------
  param=NULL (0000000000000000000000000000000000000000000000000000000000000000)

Violated property:
  file reorder_bad.c line 80 function checkThread
  error label ERROR
  FALSE

VERIFICATION FAILED
Time: 13.996304
