CBMC version 5.0 64-bit x86_64 linux
Parsing /nas/schram/gitcbmc-lazy-po/experiments/pthread/singleton_false-unreach-call.c
Converting
Type-checking singleton_false-unreach-call
Generating GOTO Program
Adding CPROVER library
Function Pointer Removal
Partial Inlining
Generic Property Instrumentation
Starting Bounded Model Checking
Unwinding recursion pthread_create iteration 1 (5 max)
Unwinding recursion __actual_thread_spawn iteration 1 (5 max)
Unwinding recursion pthread_create iteration 1 (5 max)
Unwinding recursion __actual_thread_spawn iteration 1 (5 max)
Unwinding recursion pthread_create iteration 1 (5 max)
Unwinding recursion __actual_thread_spawn iteration 1 (5 max)
Unwinding recursion pthread_create iteration 1 (5 max)
Unwinding recursion __actual_thread_spawn iteration 1 (5 max)
Unwinding recursion pthread_create iteration 1 (5 max)
Unwinding recursion __actual_thread_spawn iteration 1 (5 max)
Adding SC constraints
size of program expression: 1931 steps
no slicing due to threads
Generated 2 VCC(s), 2 remaining after simplification
Passing problem to propositional reduction
converting SSA
Running propositional reduction
Post-processing
Solving with MiniSAT 2.2.0 with simplifier
32456 variables, 126723 clauses
SAT checker: negated claim is SATISFIABLE, i.e., does not hold
Runtime decision procedure: 5.676s
Building error trace

Counterexample:

State 16 file /nas/schram/gitcbmc-lazy-po/experiments/pthread/singleton_false-unreach-call.c line 49 function main thread 0
----------------------------------------------------
  t=0 (0000000000000000000000000000000000000000000000000000000000000000)

State 103 file /nas/schram/gitcbmc-lazy-po/experiments/pthread/singleton_false-unreach-call.c line 13 function thread1 thread 2
----------------------------------------------------
  v=&dynamic_object1 (0000001000000000000000000000000000000000000000000000000000000000)

State 114 file <builtin-library>-pthread_create line 20 function __actual_thread_spawn thread 3
----------------------------------------------------
  arg=NULL (0000000000000000000000000000000000000000000000000000000000000000)

State 260 file /nas/schram/gitcbmc-lazy-po/experiments/pthread/singleton_false-unreach-call.c line 19 function thread2 thread 5
----------------------------------------------------
  dynamic_object1=88 (01011000)

State 268 file /nas/schram/gitcbmc-lazy-po/experiments/pthread/singleton_false-unreach-call.c line 19 function thread2 thread 6
----------------------------------------------------
  dynamic_object1=88 (01011000)

State 274 file <builtin-library>-pthread_create line 20 function __actual_thread_spawn thread 6
----------------------------------------------------
  arg=NULL (0000000000000000000000000000000000000000000000000000000000000000)

State 283 file /nas/schram/gitcbmc-lazy-po/experiments/pthread/singleton_false-unreach-call.c line 25 function thread3 thread 4
----------------------------------------------------
  dynamic_object1=89 (01011001)

State 285 file /nas/schram/gitcbmc-lazy-po/experiments/pthread/singleton_false-unreach-call.c line 19 function thread2 thread 3
----------------------------------------------------
  dynamic_object1=88 (01011000)

State 301 file <builtin-library>-pthread_create line 20 function __actual_thread_spawn thread 5
----------------------------------------------------
  arg=NULL (0000000000000000000000000000000000000000000000000000000000000000)

State 307 file <builtin-library>-pthread_create line 20 function __actual_thread_spawn thread 4
----------------------------------------------------
  arg=NULL (0000000000000000000000000000000000000000000000000000000000000000)

State 345 file <builtin-library>-pthread_create line 20 function __actual_thread_spawn thread 2
----------------------------------------------------
  arg=NULL (0000000000000000000000000000000000000000000000000000000000000000)

State 354 file /nas/schram/gitcbmc-lazy-po/experiments/pthread/singleton_false-unreach-call.c line 54 function main thread 0
----------------------------------------------------
  expression=0 (00000000000000000000000000000000)

Violated property:
  file /nas/schram/gitcbmc-lazy-po/experiments/pthread/singleton_false-unreach-call.c line 7 function __VERIFIER_assert
  error label ERROR
  FALSE

VERIFICATION FAILED
Time: 6.829947
