CBMC version 5.0 64-bit x86_64 linux
Parsing /nas/schram/gitcbmc-lazy-po/experiments/pthread/stack_longer_false-unreach-call.c
Converting
Type-checking stack_longer_false-unreach-call
Generating GOTO Program
Adding CPROVER library
Function Pointer Removal
Partial Inlining
Generic Property Instrumentation
Starting Bounded Model Checking
Unwinding loop t1.0 iteration 1 (5 max) file /nas/schram/gitcbmc-lazy-po/experiments/pthread/stack_longer_false-unreach-call.c line 76 function t1 thread 1
Unwinding loop t1.0 iteration 2 (5 max) file /nas/schram/gitcbmc-lazy-po/experiments/pthread/stack_longer_false-unreach-call.c line 76 function t1 thread 1
Unwinding loop t1.0 iteration 3 (5 max) file /nas/schram/gitcbmc-lazy-po/experiments/pthread/stack_longer_false-unreach-call.c line 76 function t1 thread 1
Unwinding loop t1.0 iteration 4 (5 max) file /nas/schram/gitcbmc-lazy-po/experiments/pthread/stack_longer_false-unreach-call.c line 76 function t1 thread 1
Not unwinding loop t1.0 iteration 5 (5 max) file /nas/schram/gitcbmc-lazy-po/experiments/pthread/stack_longer_false-unreach-call.c line 76 function t1 thread 1
Unwinding loop t2.0 iteration 1 (5 max) file /nas/schram/gitcbmc-lazy-po/experiments/pthread/stack_longer_false-unreach-call.c line 91 function t2 thread 2
Unwinding loop t2.0 iteration 2 (5 max) file /nas/schram/gitcbmc-lazy-po/experiments/pthread/stack_longer_false-unreach-call.c line 91 function t2 thread 2
Unwinding loop t2.0 iteration 3 (5 max) file /nas/schram/gitcbmc-lazy-po/experiments/pthread/stack_longer_false-unreach-call.c line 91 function t2 thread 2
Unwinding loop t2.0 iteration 4 (5 max) file /nas/schram/gitcbmc-lazy-po/experiments/pthread/stack_longer_false-unreach-call.c line 91 function t2 thread 2
Not unwinding loop t2.0 iteration 5 (5 max) file /nas/schram/gitcbmc-lazy-po/experiments/pthread/stack_longer_false-unreach-call.c line 91 function t2 thread 2
Adding SC constraints
size of program expression: 10815 steps
no slicing due to threads
Generated 40 VCC(s), 40 remaining after simplification
Passing problem to propositional reduction
converting SSA
Running propositional reduction
Post-processing
Solving with MiniSAT 2.2.0 with simplifier
869857 variables, 3814418 clauses
SAT checker: negated claim is SATISFIABLE, i.e., does not hold
Runtime decision procedure: 545.009s
Building error trace

Counterexample:

State 21 file /nas/schram/gitcbmc-lazy-po/experiments/pthread/stack_longer_false-unreach-call.c line 106 function main thread 0
----------------------------------------------------
  id1=0 (0000000000000000000000000000000000000000000000000000000000000000)

State 22 file /nas/schram/gitcbmc-lazy-po/experiments/pthread/stack_longer_false-unreach-call.c line 106 function main thread 0
----------------------------------------------------
  id2=0 (0000000000000000000000000000000000000000000000000000000000000000)

State 84 file /nas/schram/gitcbmc-lazy-po/experiments/pthread/stack_longer_false-unreach-call.c line 79 function t1 thread 1
----------------------------------------------------
  tmp=0 (00000000000000000000000000000000)

State 88 file /nas/schram/gitcbmc-lazy-po/experiments/pthread/stack_longer_false-unreach-call.c line 80 function t1 thread 1
----------------------------------------------------
  stack=arr (0000011100000000000000000000000000000000000000000000000000000000)

State 89 file /nas/schram/gitcbmc-lazy-po/experiments/pthread/stack_longer_false-unreach-call.c line 80 function t1 thread 1
----------------------------------------------------
  x=0 (00000000000000000000000000000000)

State 98 file /nas/schram/gitcbmc-lazy-po/experiments/pthread/stack_longer_false-unreach-call.c line 50 function push thread 1
----------------------------------------------------
  arr[0]=0 (00000000000000000000000000000000)

State 101 file /nas/schram/gitcbmc-lazy-po/experiments/pthread/stack_longer_false-unreach-call.c line 23 function inc_top thread 1
----------------------------------------------------
  top=1 (00000000000000000000000000000001)

State 108 file /nas/schram/gitcbmc-lazy-po/experiments/pthread/stack_longer_false-unreach-call.c line 82 function t1 thread 1
----------------------------------------------------
  flag=TRUE (00000001)

State 116 file /nas/schram/gitcbmc-lazy-po/experiments/pthread/stack_longer_false-unreach-call.c line 76 function t1 thread 1
----------------------------------------------------
  i=1 (00000000000000000000000000000001)

State 127 file /nas/schram/gitcbmc-lazy-po/experiments/pthread/stack_longer_false-unreach-call.c line 79 function t1 thread 1
----------------------------------------------------
  tmp=0 (00000000000000000000000000000000)

State 131 file /nas/schram/gitcbmc-lazy-po/experiments/pthread/stack_longer_false-unreach-call.c line 80 function t1 thread 1
----------------------------------------------------
  stack=arr (0000011100000000000000000000000000000000000000000000000000000000)

State 132 file /nas/schram/gitcbmc-lazy-po/experiments/pthread/stack_longer_false-unreach-call.c line 80 function t1 thread 1
----------------------------------------------------
  x=0 (00000000000000000000000000000000)

State 141 file /nas/schram/gitcbmc-lazy-po/experiments/pthread/stack_longer_false-unreach-call.c line 50 function push thread 1
----------------------------------------------------
  arr[1]=0 (00000000000000000000000000000000)

State 144 file /nas/schram/gitcbmc-lazy-po/experiments/pthread/stack_longer_false-unreach-call.c line 23 function inc_top thread 1
----------------------------------------------------
  top=2 (00000000000000000000000000000010)

State 189 file /nas/schram/gitcbmc-lazy-po/experiments/pthread/stack_longer_false-unreach-call.c line 82 function t1 thread 1
----------------------------------------------------
  flag=TRUE (00000001)

State 197 file /nas/schram/gitcbmc-lazy-po/experiments/pthread/stack_longer_false-unreach-call.c line 76 function t1 thread 1
----------------------------------------------------
  i=2 (00000000000000000000000000000010)

State 210 file /nas/schram/gitcbmc-lazy-po/experiments/pthread/stack_longer_false-unreach-call.c line 96 function t2 thread 2
----------------------------------------------------
  stack=arr (0000011100000000000000000000000000000000000000000000000000000000)

State 226 file <builtin-library>-pthread_create line 20 function __actual_thread_spawn thread 2
----------------------------------------------------
  arg=NULL (0000000000000000000000000000000000000000000000000000000000000000)

State 227 file /nas/schram/gitcbmc-lazy-po/experiments/pthread/stack_longer_false-unreach-call.c line 89 function t2 thread 2
----------------------------------------------------
  i=0 (00000000000000000000000000000000)

State 228 file /nas/schram/gitcbmc-lazy-po/experiments/pthread/stack_longer_false-unreach-call.c line 91 function t2 thread 2
----------------------------------------------------
  i=0 (00000000000000000000000000000000)

State 232 file /nas/schram/gitcbmc-lazy-po/experiments/pthread/stack_longer_false-unreach-call.c line 28 function dec_top thread 2
----------------------------------------------------
  top=1 (00000000000000000000000000000001)

State 253 file /nas/schram/gitcbmc-lazy-po/experiments/pthread/stack_longer_false-unreach-call.c line 91 function t2 thread 2
----------------------------------------------------
  i=1 (00000000000000000000000000000001)

State 269 file /nas/schram/gitcbmc-lazy-po/experiments/pthread/stack_longer_false-unreach-call.c line 96 function t2 thread 2
----------------------------------------------------
  stack=arr (0000011100000000000000000000000000000000000000000000000000000000)

State 280 file /nas/schram/gitcbmc-lazy-po/experiments/pthread/stack_longer_false-unreach-call.c line 28 function dec_top thread 2
----------------------------------------------------
  top=0 (00000000000000000000000000000000)

State 301 file /nas/schram/gitcbmc-lazy-po/experiments/pthread/stack_longer_false-unreach-call.c line 91 function t2 thread 2
----------------------------------------------------
  i=2 (00000000000000000000000000000010)

State 314 file /nas/schram/gitcbmc-lazy-po/experiments/pthread/stack_longer_false-unreach-call.c line 96 function t2 thread 2
----------------------------------------------------
  stack=arr (0000011100000000000000000000000000000000000000000000000000000000)
stack underflow


Violated property:
  file /nas/schram/gitcbmc-lazy-po/experiments/pthread/stack_longer_false-unreach-call.c line 18 function error
  error label ERROR
  FALSE

VERIFICATION FAILED
Time: 550.811138
