CBMC version 5.0 64-bit x86_64 linux
Parsing /nas/schram/gitcbmc-lazy-po/experiments/wmm-core/lwdwr017.c
Converting
Type-checking lwdwr017
Generating GOTO Program
Adding CPROVER library
Function Pointer Removal
Partial Inlining
Generic Property Instrumentation
Starting Bounded Model Checking
Adding PSO constraints
size of program expression: 426 steps
no slicing due to threads
Generated 1 VCC(s), 1 remaining after simplification
Passing problem to refinement loop with MiniSAT 2.2.0 with simplifier
converting SSA
324 steps converted
Running refinement loop with MiniSAT 2.2.0 with simplifier
BV-Refinement: post-processing
BV-Refinement: iteration 1
708 variables, 695 clauses
SAT checker: negated claim is SATISFIABLE, i.e., does not hold
BV-Refinement: 4 partial order constraints become active
BV-Refinement: 288 inactive partial order constraints
BV-Refinement: got SAT, and it is spurious, refining
BV-Refinement: iteration 2
713 variables, 708 clauses
SAT checker: negated claim is SATISFIABLE, i.e., does not hold
BV-Refinement: 3 partial order constraints become active
BV-Refinement: 285 inactive partial order constraints
BV-Refinement: got SAT, and it is spurious, refining
BV-Refinement: iteration 3
717 variables, 777 clauses
SAT checker: negated claim is SATISFIABLE, i.e., does not hold
BV-Refinement: 5 partial order constraints become active
BV-Refinement: 280 inactive partial order constraints
BV-Refinement: got SAT, and it is spurious, refining
BV-Refinement: iteration 4
821 variables, 1072 clauses
SAT checker: negated claim is SATISFIABLE, i.e., does not hold
BV-Refinement: 4 partial order constraints become active
BV-Refinement: 276 inactive partial order constraints
BV-Refinement: got SAT, and it is spurious, refining
BV-Refinement: iteration 5
891 variables, 1431 clauses
SAT checker: negated claim is SATISFIABLE, i.e., does not hold
BV-Refinement: 4 partial order constraints become active
BV-Refinement: 272 inactive partial order constraints
BV-Refinement: got SAT, and it is spurious, refining
BV-Refinement: iteration 6
961 variables, 1790 clauses
SAT checker: negated claim is SATISFIABLE, i.e., does not hold
BV-Refinement: 4 partial order constraints become active
BV-Refinement: 268 inactive partial order constraints
BV-Refinement: got SAT, and it is spurious, refining
BV-Refinement: iteration 7
1031 variables, 2149 clauses
SAT checker: negated claim is SATISFIABLE, i.e., does not hold
BV-Refinement: 10 partial order constraints become active
BV-Refinement: 258 inactive partial order constraints
BV-Refinement: got SAT, and it is spurious, refining
BV-Refinement: iteration 8
1246 variables, 2944 clauses
SAT checker: negated claim is SATISFIABLE, i.e., does not hold
BV-Refinement: 7 partial order constraints become active
BV-Refinement: 251 inactive partial order constraints
BV-Refinement: got SAT, and it is spurious, refining
BV-Refinement: iteration 9
1438 variables, 3487 clauses
SAT checker: negated claim is SATISFIABLE, i.e., does not hold
BV-Refinement: 9 partial order constraints become active
BV-Refinement: 242 inactive partial order constraints
BV-Refinement: got SAT, and it is spurious, refining
BV-Refinement: iteration 10
1615 variables, 4086 clauses
SAT checker: negated claim is SATISFIABLE, i.e., does not hold
BV-Refinement: 3 partial order constraints become active
BV-Refinement: 239 inactive partial order constraints
BV-Refinement: got SAT, and it is spurious, refining
BV-Refinement: iteration 11
1663 variables, 4162 clauses
SAT checker: negated claim is SATISFIABLE, i.e., does not hold
BV-Refinement: 0 partial order constraints become active
BV-Refinement: 239 inactive partial order constraints
BV-Refinement: got SAT, and it simulates => SAT
Total iterations: 11
PROFILING: main_solver: 0.032
PROFILING: sat_check: 0.842
PROFILING: clustering: 0
Runtime decision procedure: 0.877s
Building error trace

Counterexample:

State 6 file /nas/schram/gitcbmc-lazy-po/experiments/wmm-core/lwdwr017.c line 39 function P2 thread 3
----------------------------------------------------
  y=1 (00000000000000000000000000000001)

State 11 file /nas/schram/gitcbmc-lazy-po/experiments/wmm-core/lwdwr017.c line 41 function P2 thread 3
----------------------------------------------------
  __unbuffered_p2_r3=0 (00000000000000000000000000000000)

State 16 file /nas/schram/gitcbmc-lazy-po/experiments/wmm-core/lwdwr017.c line 44 function P2 thread 3
----------------------------------------------------
  __unbuffered_cnt=3 (00000000000000000000000000000011)

State 27 file /nas/schram/gitcbmc-lazy-po/experiments/wmm-core/lwdwr017.c line 18 function P0 thread 1
----------------------------------------------------
  z=1 (00000000000000000000000000000001)

Violated property:
  file /nas/schram/gitcbmc-lazy-po/experiments/wmm-core/lwdwr017.c line 54 function main
  Program proven to be relaxed for PPC, model checker says YES.
  !(x == 2 && __unbuffered_p1_r3 == 0 && __unbuffered_p2_r3 == 0)

VERIFICATION FAILED
Partial order constraints used: 53/292
  fr: 3/61
  po: 14/122
  rf: 15/24
  rf-order: 0/24
  rf-some: 8/13
  rfi: 5/8
  thread-spawn: 2/6
  ws-ext: 6/34
Time: 1.268025
