CBMC version 5.0 64-bit x86_64 linux
Parsing /nas/schram/gitcbmc-lazy-po/experiments/wmm-core/thin001.c
Converting
Type-checking thin001
Generating GOTO Program
Adding CPROVER library
Function Pointer Removal
Partial Inlining
Generic Property Instrumentation
Starting Bounded Model Checking
Adding PSO constraints
size of program expression: 511 steps
no slicing due to threads
Generated 1 VCC(s), 1 remaining after simplification
Passing problem to refinement loop with MiniSAT 2.2.0 with simplifier
converting SSA
410 steps converted
Running refinement loop with MiniSAT 2.2.0 with simplifier
BV-Refinement: post-processing
BV-Refinement: iteration 1
996 variables, 1079 clauses
SAT checker: negated claim is SATISFIABLE, i.e., does not hold
BV-Refinement: 3 partial order constraints become active
BV-Refinement: 373 inactive partial order constraints
BV-Refinement: got SAT, and it is spurious, refining
BV-Refinement: iteration 2
999 variables, 1057 clauses
SAT checker: negated claim is SATISFIABLE, i.e., does not hold
BV-Refinement: 5 partial order constraints become active
BV-Refinement: 368 inactive partial order constraints
BV-Refinement: got SAT, and it is spurious, refining
BV-Refinement: iteration 3
1103 variables, 1318 clauses
SAT checker: negated claim is SATISFIABLE, i.e., does not hold
BV-Refinement: 4 partial order constraints become active
BV-Refinement: 364 inactive partial order constraints
BV-Refinement: got SAT, and it is spurious, refining
BV-Refinement: iteration 4
1173 variables, 1677 clauses
SAT checker: negated claim is SATISFIABLE, i.e., does not hold
BV-Refinement: 3 partial order constraints become active
BV-Refinement: 361 inactive partial order constraints
BV-Refinement: got SAT, and it is spurious, refining
BV-Refinement: iteration 5
1176 variables, 1711 clauses
SAT checker: negated claim is SATISFIABLE, i.e., does not hold
BV-Refinement: 3 partial order constraints become active
BV-Refinement: 358 inactive partial order constraints
BV-Refinement: got SAT, and it is spurious, refining
BV-Refinement: iteration 6
1212 variables, 1775 clauses
SAT checker: negated claim is SATISFIABLE, i.e., does not hold
BV-Refinement: 4 partial order constraints become active
BV-Refinement: 354 inactive partial order constraints
BV-Refinement: got SAT, and it is spurious, refining
BV-Refinement: iteration 7
1282 variables, 2036 clauses
SAT checker: negated claim is SATISFIABLE, i.e., does not hold
BV-Refinement: 3 partial order constraints become active
BV-Refinement: 351 inactive partial order constraints
BV-Refinement: got SAT, and it is spurious, refining
BV-Refinement: iteration 8
1285 variables, 2070 clauses
SAT checker: negated claim is SATISFIABLE, i.e., does not hold
BV-Refinement: 3 partial order constraints become active
BV-Refinement: 348 inactive partial order constraints
BV-Refinement: got SAT, and it is spurious, refining
BV-Refinement: iteration 9
1321 variables, 2134 clauses
SAT checker: negated claim is SATISFIABLE, i.e., does not hold
BV-Refinement: 3 partial order constraints become active
BV-Refinement: 345 inactive partial order constraints
BV-Refinement: got SAT, and it is spurious, refining
BV-Refinement: iteration 10
1357 variables, 2134 clauses
SAT checker: negated claim is SATISFIABLE, i.e., does not hold
BV-Refinement: 4 partial order constraints become active
BV-Refinement: 341 inactive partial order constraints
BV-Refinement: got SAT, and it is spurious, refining
BV-Refinement: iteration 11
1427 variables, 2395 clauses
SAT checker: negated claim is SATISFIABLE, i.e., does not hold
BV-Refinement: 6 partial order constraints become active
BV-Refinement: 335 inactive partial order constraints
BV-Refinement: got SAT, and it is spurious, refining
BV-Refinement: iteration 12
1628 variables, 3016 clauses
SAT checker: negated claim is UNSATISFIABLE, i.e., holds
BV-Refinement: got UNSAT, and the proof passes => UNSAT
Total iterations: 12
PROFILING: main_solver: 0.021
PROFILING: sat_check: 1.177
PROFILING: clustering: 0
Runtime decision procedure: 1.203s
VERIFICATION SUCCESSFUL
Partial order constraints used: 41/376
  fr: 0/69
  po: 3/173
  rf: 21/30
  rf-order: 3/30
  rf-some: 10/19
  rfi: 4/13
  thread-spawn: 0/6
  ws-ext: 0/36
Time: 1.568645
