CBMC version 5.0 64-bit x86_64 linux
Parsing /nas/schram/gitcbmc-lazy-po/experiments/wmm-core/aclwsrr002.c
Converting
Type-checking aclwsrr002
Generating GOTO Program
Adding CPROVER library
Function Pointer Removal
Partial Inlining
Generic Property Instrumentation
Starting Bounded Model Checking
Adding SC constraints
size of program expression: 278 steps
no slicing due to threads
Generated 1 VCC(s), 1 remaining after simplification
Passing problem to refinement loop with MiniSAT 2.2.0 with simplifier
converting SSA
Running refinement loop with MiniSAT 2.2.0 with simplifier
BV-Refinement: post-processing
BV-Refinement: iteration 1
1465 variables, 3406 clauses
SAT checker: negated claim is SATISFIABLE, i.e., does not hold
BV-Refinement: 14 partial order constraints become active
BV-Refinement: 83 inactive partial order constraints
BV-Refinement: got SAT, and it is spurious, refining
BV-Refinement: iteration 2
1729 variables, 3748 clauses
SAT checker: negated claim is SATISFIABLE, i.e., does not hold
BV-Refinement: 4 partial order constraints become active
BV-Refinement: 79 inactive partial order constraints
BV-Refinement: got SAT, and it is spurious, refining
BV-Refinement: iteration 3
1733 variables, 3748 clauses
SAT checker: negated claim is SATISFIABLE, i.e., does not hold
BV-Refinement: 6 partial order constraints become active
BV-Refinement: 73 inactive partial order constraints
BV-Refinement: got SAT, and it is spurious, refining
BV-Refinement: iteration 4
1861 variables, 4275 clauses
SAT checker: negated claim is SATISFIABLE, i.e., does not hold
BV-Refinement: 4 partial order constraints become active
BV-Refinement: 69 inactive partial order constraints
BV-Refinement: got SAT, and it is spurious, refining
BV-Refinement: iteration 5
1946 variables, 4690 clauses
SAT checker: negated claim is SATISFIABLE, i.e., does not hold
BV-Refinement: 2 partial order constraints become active
BV-Refinement: 67 inactive partial order constraints
BV-Refinement: got SAT, and it is spurious, refining
BV-Refinement: iteration 6
1980 variables, 4844 clauses
SAT checker: negated claim is UNSATISFIABLE, i.e., holds
BV-Refinement: got UNSAT, and the proof passes => UNSAT
Total iterations: 6
PROFILING: main_solver: 0.096
PROFILING: sat_check: 0.034
PROFILING: clustering: 0
Runtime decision procedure: 0.139s
VERIFICATION SUCCESSFUL
Partial order constraints used: 83/150
  fr: 7/32
  po: 39/39
  rf: 11/18
  rf-order: 6/18
  rf-some: 12/12
  rfi: 4/7
  thread-spawn: 2/2
  ws-ext: 2/22
Time: 0.465810
