CBMC version 5.0 64-bit x86_64 linux
Parsing /nas/schram/gitcbmc-lazy-po/experiments/wmm-core/safe078.c
Converting
Type-checking safe078
Generating GOTO Program
Adding CPROVER library
Function Pointer Removal
Partial Inlining
Generic Property Instrumentation
Starting Bounded Model Checking
Adding SC constraints
size of program expression: 401 steps
no slicing due to threads
Generated 1 VCC(s), 1 remaining after simplification
Passing problem to refinement loop with MiniSAT 2.2.0 with simplifier
converting SSA
Running refinement loop with MiniSAT 2.2.0 with simplifier
BV-Refinement: post-processing
BV-Refinement: iteration 1
1850 variables, 4239 clauses
SAT checker: negated claim is SATISFIABLE, i.e., does not hold
BV-Refinement: 19 partial order constraints become active
BV-Refinement: 155 inactive partial order constraints
BV-Refinement: got SAT, and it is spurious, refining
BV-Refinement: iteration 2
2150 variables, 4683 clauses
SAT checker: negated claim is SATISFIABLE, i.e., does not hold
BV-Refinement: 19 partial order constraints become active
BV-Refinement: 136 inactive partial order constraints
BV-Refinement: got SAT, and it is spurious, refining
BV-Refinement: iteration 3
2456 variables, 6156 clauses
SAT checker: negated claim is SATISFIABLE, i.e., does not hold
BV-Refinement: 9 partial order constraints become active
BV-Refinement: 127 inactive partial order constraints
BV-Refinement: got SAT, and it is spurious, refining
BV-Refinement: iteration 4
2659 variables, 6937 clauses
SAT checker: negated claim is SATISFIABLE, i.e., does not hold
BV-Refinement: 15 partial order constraints become active
BV-Refinement: 112 inactive partial order constraints
BV-Refinement: got SAT, and it is spurious, refining
BV-Refinement: iteration 5
2856 variables, 7950 clauses
SAT checker: negated claim is SATISFIABLE, i.e., does not hold
BV-Refinement: 5 partial order constraints become active
BV-Refinement: 107 inactive partial order constraints
BV-Refinement: got SAT, and it is spurious, refining
BV-Refinement: iteration 6
2927 variables, 8013 clauses
SAT checker: negated claim is SATISFIABLE, i.e., does not hold
BV-Refinement: 1 partial order constraints become active
BV-Refinement: 106 inactive partial order constraints
BV-Refinement: got SAT, and it is spurious, refining
BV-Refinement: iteration 7
2960 variables, 8139 clauses
SAT checker: negated claim is UNSATISFIABLE, i.e., holds
BV-Refinement: got UNSAT, and the proof passes => UNSAT
Total iterations: 7
PROFILING: main_solver: 0.173
PROFILING: sat_check: 0.064
PROFILING: clustering: 0
Runtime decision procedure: 0.248s
VERIFICATION SUCCESSFUL
Partial order constraints used: 134/240
  fr: 18/72
  po: 47/47
  rf: 24/30
  rf-order: 13/30
  rf-some: 16/16
  rfi: 9/10
  thread-spawn: 3/3
  ws-ext: 4/32
Time: 0.616520
