CBMC version 5.0 64-bit x86_64 linux
Parsing /nas/schram/gitcbmc-lazy-po/experiments/pthread/bigshot_p_false-unreach-call.c
Converting
Type-checking bigshot_p_false-unreach-call
Generating GOTO Program
Adding CPROVER library
Function Pointer Removal
Partial Inlining
Generic Property Instrumentation
Starting Bounded Model Checking
Unwinding loop thread2.0 iteration 1 (5 max) file /nas/schram/gitcbmc-lazy-po/experiments/pthread/bigshot_p_false-unreach-call.c line 18 function thread2 thread 2
Unwinding loop thread2.0 iteration 2 (5 max) file /nas/schram/gitcbmc-lazy-po/experiments/pthread/bigshot_p_false-unreach-call.c line 18 function thread2 thread 2
Unwinding loop thread2.0 iteration 3 (5 max) file /nas/schram/gitcbmc-lazy-po/experiments/pthread/bigshot_p_false-unreach-call.c line 18 function thread2 thread 2
Unwinding loop thread2.0 iteration 4 (5 max) file /nas/schram/gitcbmc-lazy-po/experiments/pthread/bigshot_p_false-unreach-call.c line 18 function thread2 thread 2
Not unwinding loop thread2.0 iteration 5 (5 max) file /nas/schram/gitcbmc-lazy-po/experiments/pthread/bigshot_p_false-unreach-call.c line 18 function thread2 thread 2
Adding SC constraints
size of program expression: 664 steps
no slicing due to threads
Generated 2 VCC(s), 2 remaining after simplification
Passing problem to refinement loop with MiniSAT 2.2.0 with simplifier
converting SSA
515 steps converted
Running refinement loop with MiniSAT 2.2.0 with simplifier
BV-Refinement: post-processing
BV-Refinement: iteration 1
7588 variables, 22426 clauses
SAT checker: negated claim is SATISFIABLE, i.e., does not hold
BV-Refinement: 8 partial order constraints become active
BV-Refinement: 305 inactive partial order constraints
BV-Refinement: got SAT, and it is spurious, refining
BV-Refinement: iteration 2
7674 variables, 22075 clauses
SAT checker: negated claim is SATISFIABLE, i.e., does not hold
BV-Refinement: 3 partial order constraints become active
BV-Refinement: 302 inactive partial order constraints
BV-Refinement: got SAT, and it is spurious, refining
BV-Refinement: iteration 3
7714 variables, 22099 clauses
SAT checker: negated claim is SATISFIABLE, i.e., does not hold
BV-Refinement: 3 partial order constraints become active
BV-Refinement: 299 inactive partial order constraints
BV-Refinement: got SAT, and it is spurious, refining
BV-Refinement: iteration 4
7716 variables, 22131 clauses
SAT checker: negated claim is SATISFIABLE, i.e., does not hold
BV-Refinement: 4 partial order constraints become active
BV-Refinement: 295 inactive partial order constraints
BV-Refinement: got SAT, and it is spurious, refining
BV-Refinement: iteration 5
7749 variables, 22016 clauses
SAT checker: negated claim is SATISFIABLE, i.e., does not hold
BV-Refinement: 6 partial order constraints become active
BV-Refinement: 289 inactive partial order constraints
BV-Refinement: got SAT, and it is spurious, refining
BV-Refinement: iteration 6
7880 variables, 22612 clauses
SAT checker: negated claim is SATISFIABLE, i.e., does not hold
BV-Refinement: 11 partial order constraints become active
BV-Refinement: 278 inactive partial order constraints
BV-Refinement: got SAT, and it is spurious, refining
BV-Refinement: iteration 7
8154 variables, 23672 clauses
SAT checker: negated claim is SATISFIABLE, i.e., does not hold
BV-Refinement: 3 partial order constraints become active
BV-Refinement: 275 inactive partial order constraints
BV-Refinement: got SAT, and it is spurious, refining
BV-Refinement: iteration 8
8177 variables, 23548 clauses
SAT checker: negated claim is SATISFIABLE, i.e., does not hold
BV-Refinement: 4 partial order constraints become active
BV-Refinement: 271 inactive partial order constraints
BV-Refinement: got SAT, and it is spurious, refining
BV-Refinement: iteration 9
8248 variables, 23843 clauses
SAT checker: negated claim is SATISFIABLE, i.e., does not hold
BV-Refinement: 1 partial order constraints become active
BV-Refinement: 270 inactive partial order constraints
BV-Refinement: got SAT, and it is spurious, refining
BV-Refinement: iteration 10
8271 variables, 23849 clauses
SAT checker: negated claim is SATISFIABLE, i.e., does not hold
BV-Refinement: 7 partial order constraints become active
BV-Refinement: 263 inactive partial order constraints
BV-Refinement: got SAT, and it is spurious, refining
BV-Refinement: iteration 11
8373 variables, 24276 clauses
SAT checker: negated claim is SATISFIABLE, i.e., does not hold
BV-Refinement: 5 partial order constraints become active
BV-Refinement: 258 inactive partial order constraints
BV-Refinement: got SAT, and it is spurious, refining
BV-Refinement: iteration 12
8452 variables, 24512 clauses
SAT checker: negated claim is SATISFIABLE, i.e., does not hold
BV-Refinement: 2 partial order constraints become active
BV-Refinement: 256 inactive partial order constraints
BV-Refinement: got SAT, and it is spurious, refining
BV-Refinement: iteration 13
8491 variables, 24597 clauses
SAT checker: negated claim is SATISFIABLE, i.e., does not hold
BV-Refinement: 16 partial order constraints become active
BV-Refinement: 240 inactive partial order constraints
BV-Refinement: got SAT, and it is spurious, refining
BV-Refinement: iteration 14
8831 variables, 25834 clauses
SAT checker: negated claim is SATISFIABLE, i.e., does not hold
BV-Refinement: 1 partial order constraints become active
BV-Refinement: 239 inactive partial order constraints
BV-Refinement: got SAT, and it is spurious, refining
BV-Refinement: iteration 15
8854 variables, 25591 clauses
SAT checker: negated claim is SATISFIABLE, i.e., does not hold
BV-Refinement: 3 partial order constraints become active
BV-Refinement: 236 inactive partial order constraints
BV-Refinement: got SAT, and it is spurious, refining
BV-Refinement: iteration 16
8873 variables, 25716 clauses
SAT checker: negated claim is SATISFIABLE, i.e., does not hold
BV-Refinement: 34 partial order constraints become active
BV-Refinement: 202 inactive partial order constraints
BV-Refinement: got SAT, and it is spurious, refining
BV-Refinement: iteration 17
9648 variables, 28393 clauses
SAT checker: negated claim is SATISFIABLE, i.e., does not hold
BV-Refinement: 0 partial order constraints become active
BV-Refinement: 202 inactive partial order constraints
BV-Refinement: got SAT, and it simulates => SAT
Total iterations: 17
PROFILING: main_solver: 0.335
PROFILING: sat_check: 0.414
PROFILING: clustering: 0
Runtime decision procedure: 0.81s
Building error trace

Counterexample:

State 16 file /nas/schram/gitcbmc-lazy-po/experiments/pthread/bigshot_p_false-unreach-call.c line 24 function main thread 0
----------------------------------------------------
  t1=0 (0000000000000000000000000000000000000000000000000000000000000000)

State 17 file /nas/schram/gitcbmc-lazy-po/experiments/pthread/bigshot_p_false-unreach-call.c line 24 function main thread 0
----------------------------------------------------
  t2=0 (0000000000000000000000000000000000000000000000000000000000000000)

State 111 file /nas/schram/gitcbmc-lazy-po/experiments/pthread/bigshot_p_false-unreach-call.c line 13 function thread1 thread 1
----------------------------------------------------
  v=dynamic_object1 (0000001000000000000000000000000000000000000000000000000000000000)

State 122 file <builtin-library>-pthread_create line 20 function __actual_thread_spawn thread 2
----------------------------------------------------
  arg=NULL (0000000000000000000000000000000000000000000000000000000000000000)

State 139 file /nas/schram/gitcbmc-lazy-po/experiments/pthread/bigshot_p_false-unreach-call.c line 31 function main thread 0
----------------------------------------------------
  expression=0 (00000000000000000000000000000000)

Violated property:
  file /nas/schram/gitcbmc-lazy-po/experiments/pthread/bigshot_p_false-unreach-call.c line 7 function __VERIFIER_assert
  error label ERROR
  FALSE

VERIFICATION FAILED
Partial order constraints used: 111/313
  fr: 8/146
  po: 71/71
  rf: 2/11
  rf-order: 10/19
  rf-some: 8/29
  rfi: 8/17
  thread-spawn: 2/2
  ws-ext: 2/18
Time: 1.618453
