CBMC version 5.0 64-bit x86_64 linux
Parsing /nas/schram/gitcbmc-lazy-po/experiments/pthread/bigshot_s_true-unreach-call.c
Converting
Type-checking bigshot_s_true-unreach-call
Generating GOTO Program
Adding CPROVER library
Function Pointer Removal
Partial Inlining
Generic Property Instrumentation
Starting Bounded Model Checking
Unwinding loop thread2.0 iteration 1 (5 max) file /nas/schram/gitcbmc-lazy-po/experiments/pthread/bigshot_s_true-unreach-call.c line 18 function thread2 thread 2
Unwinding loop thread2.0 iteration 2 (5 max) file /nas/schram/gitcbmc-lazy-po/experiments/pthread/bigshot_s_true-unreach-call.c line 18 function thread2 thread 2
Unwinding loop thread2.0 iteration 3 (5 max) file /nas/schram/gitcbmc-lazy-po/experiments/pthread/bigshot_s_true-unreach-call.c line 18 function thread2 thread 2
Unwinding loop thread2.0 iteration 4 (5 max) file /nas/schram/gitcbmc-lazy-po/experiments/pthread/bigshot_s_true-unreach-call.c line 18 function thread2 thread 2
Not unwinding loop thread2.0 iteration 5 (5 max) file /nas/schram/gitcbmc-lazy-po/experiments/pthread/bigshot_s_true-unreach-call.c line 18 function thread2 thread 2
Adding SC constraints
size of program expression: 663 steps
no slicing due to threads
Generated 2 VCC(s), 2 remaining after simplification
Passing problem to refinement loop with MiniSAT 2.2.0 with simplifier
converting SSA
514 steps converted
Running refinement loop with MiniSAT 2.2.0 with simplifier
BV-Refinement: post-processing
BV-Refinement: iteration 1
8959 variables, 28188 clauses
SAT checker: negated claim is SATISFIABLE, i.e., does not hold
BV-Refinement: 26 partial order constraints become active
BV-Refinement: 135 inactive partial order constraints
BV-Refinement: got SAT, and it is spurious, refining
BV-Refinement: iteration 2
9289 variables, 28548 clauses
SAT checker: negated claim is SATISFIABLE, i.e., does not hold
BV-Refinement: 22 partial order constraints become active
BV-Refinement: 113 inactive partial order constraints
BV-Refinement: got SAT, and it is spurious, refining
BV-Refinement: iteration 3
9652 variables, 30024 clauses
SAT checker: negated claim is SATISFIABLE, i.e., does not hold
BV-Refinement: 10 partial order constraints become active
BV-Refinement: 103 inactive partial order constraints
BV-Refinement: got SAT, and it is spurious, refining
BV-Refinement: iteration 4
9702 variables, 30047 clauses
SAT checker: negated claim is SATISFIABLE, i.e., does not hold
BV-Refinement: 6 partial order constraints become active
BV-Refinement: 97 inactive partial order constraints
BV-Refinement: got SAT, and it is spurious, refining
BV-Refinement: iteration 5
9796 variables, 30136 clauses
SAT checker: negated claim is SATISFIABLE, i.e., does not hold
BV-Refinement: 2 partial order constraints become active
BV-Refinement: 95 inactive partial order constraints
BV-Refinement: got SAT, and it is spurious, refining
BV-Refinement: iteration 6
9835 variables, 30171 clauses
SAT checker: negated claim is SATISFIABLE, i.e., does not hold
BV-Refinement: 3 partial order constraints become active
BV-Refinement: 92 inactive partial order constraints
BV-Refinement: got SAT, and it is spurious, refining
BV-Refinement: iteration 7
9874 variables, 30301 clauses
SAT checker: negated claim is SATISFIABLE, i.e., does not hold
BV-Refinement: 2 partial order constraints become active
BV-Refinement: 90 inactive partial order constraints
BV-Refinement: got SAT, and it is spurious, refining
BV-Refinement: iteration 8
9897 variables, 30334 clauses
SAT checker: negated claim is SATISFIABLE, i.e., does not hold
BV-Refinement: 1 partial order constraints become active
BV-Refinement: 89 inactive partial order constraints
BV-Refinement: got SAT, and it is spurious, refining
BV-Refinement: iteration 9
9920 variables, 30374 clauses
SAT checker: negated claim is SATISFIABLE, i.e., does not hold
BV-Refinement: 1 partial order constraints become active
BV-Refinement: 88 inactive partial order constraints
BV-Refinement: got SAT, and it is spurious, refining
BV-Refinement: iteration 10
9943 variables, 30431 clauses
SAT checker: negated claim is SATISFIABLE, i.e., does not hold
BV-Refinement: 1 partial order constraints become active
BV-Refinement: 87 inactive partial order constraints
BV-Refinement: got SAT, and it is spurious, refining
BV-Refinement: iteration 11
9966 variables, 30488 clauses
SAT checker: negated claim is SATISFIABLE, i.e., does not hold
BV-Refinement: 1 partial order constraints become active
BV-Refinement: 86 inactive partial order constraints
BV-Refinement: got SAT, and it is spurious, refining
BV-Refinement: iteration 12
9989 variables, 30261 clauses
SAT checker: negated claim is SATISFIABLE, i.e., does not hold
BV-Refinement: 3 partial order constraints become active
BV-Refinement: 83 inactive partial order constraints
BV-Refinement: got SAT, and it is spurious, refining
BV-Refinement: iteration 13
10051 variables, 30476 clauses
SAT checker: negated claim is SATISFIABLE, i.e., does not hold
BV-Refinement: 1 partial order constraints become active
BV-Refinement: 82 inactive partial order constraints
BV-Refinement: got SAT, and it is spurious, refining
BV-Refinement: iteration 14
10074 variables, 30489 clauses
SAT checker: negated claim is SATISFIABLE, i.e., does not hold
BV-Refinement: 1 partial order constraints become active
BV-Refinement: 81 inactive partial order constraints
BV-Refinement: got SAT, and it is spurious, refining
BV-Refinement: iteration 15
10097 variables, 30546 clauses
SAT checker: negated claim is SATISFIABLE, i.e., does not hold
BV-Refinement: 1 partial order constraints become active
BV-Refinement: 80 inactive partial order constraints
BV-Refinement: got SAT, and it is spurious, refining
BV-Refinement: iteration 16
10120 variables, 30603 clauses
SAT checker: negated claim is SATISFIABLE, i.e., does not hold
BV-Refinement: 1 partial order constraints become active
BV-Refinement: 79 inactive partial order constraints
BV-Refinement: got SAT, and it is spurious, refining
BV-Refinement: iteration 17
10143 variables, 30660 clauses
SAT checker: negated claim is SATISFIABLE, i.e., does not hold
BV-Refinement: 2 partial order constraints become active
BV-Refinement: 77 inactive partial order constraints
BV-Refinement: got SAT, and it is spurious, refining
BV-Refinement: iteration 18
10144 variables, 30639 clauses
SAT checker: negated claim is SATISFIABLE, i.e., does not hold
BV-Refinement: 2 partial order constraints become active
BV-Refinement: 75 inactive partial order constraints
BV-Refinement: got SAT, and it is spurious, refining
BV-Refinement: iteration 19
10190 variables, 30791 clauses
SAT checker: negated claim is SATISFIABLE, i.e., does not hold
BV-Refinement: 1 partial order constraints become active
BV-Refinement: 74 inactive partial order constraints
BV-Refinement: got SAT, and it is spurious, refining
BV-Refinement: iteration 20
10213 variables, 30826 clauses
SAT checker: negated claim is SATISFIABLE, i.e., does not hold
BV-Refinement: 3 partial order constraints become active
BV-Refinement: 71 inactive partial order constraints
BV-Refinement: got SAT, and it is spurious, refining
BV-Refinement: iteration 21
10260 variables, 30963 clauses
SAT checker: negated claim is SATISFIABLE, i.e., does not hold
BV-Refinement: 2 partial order constraints become active
BV-Refinement: 69 inactive partial order constraints
BV-Refinement: got SAT, and it is spurious, refining
BV-Refinement: iteration 22
10299 variables, 31076 clauses
SAT checker: negated claim is SATISFIABLE, i.e., does not hold
BV-Refinement: 2 partial order constraints become active
BV-Refinement: 67 inactive partial order constraints
BV-Refinement: got SAT, and it is spurious, refining
BV-Refinement: iteration 23
10300 variables, 31034 clauses
SAT checker: negated claim is UNSATISFIABLE, i.e., holds
BV-Refinement: got UNSAT, and the proof passes => UNSAT
Total iterations: 23
PROFILING: main_solver: 0.601
PROFILING: sat_check: 0.281
PROFILING: clustering: 0
Runtime decision procedure: 0.958s
VERIFICATION SUCCESSFUL
Partial order constraints used: 94/161
  fr: 5/15
  po: 59/71
  rf: 4/11
  rf-order: 12/19
  rf-some: 6/10
  rfi: 5/15
  thread-spawn: 1/2
  ws-ext: 2/18
Time: 1.819189
