CBMC version 5.0 64-bit x86_64 linux
Parsing /nas/schram/gitcbmc-lazy-po/experiments/pthread/queue_ok_longest_true-unreach-call.c
Converting
Type-checking queue_ok_longest_true-unreach-call
Generating GOTO Program
Adding CPROVER library
Function Pointer Removal
Partial Inlining
Generic Property Instrumentation
Starting Bounded Model Checking
Unwinding loop t1.0 iteration 1 (5 max) file /nas/schram/gitcbmc-lazy-po/experiments/pthread/queue_ok_longest_true-unreach-call.c line 93 function t1 thread 1
Unwinding loop t1.0 iteration 2 (5 max) file /nas/schram/gitcbmc-lazy-po/experiments/pthread/queue_ok_longest_true-unreach-call.c line 93 function t1 thread 1
Unwinding loop t1.0 iteration 3 (5 max) file /nas/schram/gitcbmc-lazy-po/experiments/pthread/queue_ok_longest_true-unreach-call.c line 93 function t1 thread 1
Unwinding loop t1.0 iteration 4 (5 max) file /nas/schram/gitcbmc-lazy-po/experiments/pthread/queue_ok_longest_true-unreach-call.c line 93 function t1 thread 1
Not unwinding loop t1.0 iteration 5 (5 max) file /nas/schram/gitcbmc-lazy-po/experiments/pthread/queue_ok_longest_true-unreach-call.c line 93 function t1 thread 1
Unwinding loop t2.0 iteration 1 (5 max) file /nas/schram/gitcbmc-lazy-po/experiments/pthread/queue_ok_longest_true-unreach-call.c line 114 function t2 thread 2
Unwinding loop t2.0 iteration 2 (5 max) file /nas/schram/gitcbmc-lazy-po/experiments/pthread/queue_ok_longest_true-unreach-call.c line 114 function t2 thread 2
Unwinding loop t2.0 iteration 3 (5 max) file /nas/schram/gitcbmc-lazy-po/experiments/pthread/queue_ok_longest_true-unreach-call.c line 114 function t2 thread 2
Unwinding loop t2.0 iteration 4 (5 max) file /nas/schram/gitcbmc-lazy-po/experiments/pthread/queue_ok_longest_true-unreach-call.c line 114 function t2 thread 2
Not unwinding loop t2.0 iteration 5 (5 max) file /nas/schram/gitcbmc-lazy-po/experiments/pthread/queue_ok_longest_true-unreach-call.c line 114 function t2 thread 2
Adding SC constraints
size of program expression: 95159 steps
no slicing due to threads
Generated 14 VCC(s), 14 remaining after simplification
Passing problem to refinement loop with MiniSAT 2.2.0 with simplifier
converting SSA
94763 steps converted
Running refinement loop with MiniSAT 2.2.0 with simplifier
BV-Refinement: post-processing
BV-Refinement: iteration 1
3874184 variables, 6182735 clauses
SAT checker: negated claim is SATISFIABLE, i.e., does not hold
BV-Refinement: 5 partial order constraints become active
BV-Refinement: 93445 inactive partial order constraints
BV-Refinement: got SAT, and it is spurious, refining
BV-Refinement: iteration 2
3874255 variables, 5780758 clauses
SAT checker: negated claim is SATISFIABLE, i.e., does not hold
BV-Refinement: 2 partial order constraints become active
BV-Refinement: 93443 inactive partial order constraints
BV-Refinement: got SAT, and it is spurious, refining
BV-Refinement: iteration 3
3874307 variables, 5780869 clauses
SAT checker: negated claim is SATISFIABLE, i.e., does not hold
BV-Refinement: 2 partial order constraints become active
BV-Refinement: 93441 inactive partial order constraints
BV-Refinement: got SAT, and it is spurious, refining
BV-Refinement: iteration 4
3874351 variables, 5781003 clauses
SAT checker: negated claim is SATISFIABLE, i.e., does not hold
BV-Refinement: 4 partial order constraints become active
BV-Refinement: 93437 inactive partial order constraints
BV-Refinement: got SAT, and it is spurious, refining
BV-Refinement: iteration 5
3874468 variables, 5781475 clauses
SAT checker: negated claim is SATISFIABLE, i.e., does not hold
BV-Refinement: 10 partial order constraints become active
BV-Refinement: 93427 inactive partial order constraints
BV-Refinement: got SAT, and it is spurious, refining
BV-Refinement: iteration 6
3874920 variables, 5783869 clauses
SAT checker: negated claim is SATISFIABLE, i.e., does not hold
BV-Refinement: 6 partial order constraints become active
BV-Refinement: 93421 inactive partial order constraints
BV-Refinement: got SAT, and it is spurious, refining
BV-Refinement: iteration 7
3874978 variables, 5784185 clauses
SAT checker: negated claim is SATISFIABLE, i.e., does not hold
BV-Refinement: 41 partial order constraints become active
BV-Refinement: 93380 inactive partial order constraints
BV-Refinement: got SAT, and it is spurious, refining
BV-Refinement: iteration 8
4620001 variables, 9612065 clauses
Time: 900.222999
