CBMC version 5.0 64-bit x86_64 linux
Parsing /nas/schram/gitcbmc-lazy-po/experiments/pthread/stack_false-unreach-call.c
Converting
Type-checking stack_false-unreach-call
Generating GOTO Program
Adding CPROVER library
Function Pointer Removal
Partial Inlining
Generic Property Instrumentation
Starting Bounded Model Checking
Unwinding loop t1.0 iteration 1 (5 max) file /nas/schram/gitcbmc-lazy-po/experiments/pthread/stack_false-unreach-call.c line 79 function t1 thread 1
Unwinding loop t1.0 iteration 2 (5 max) file /nas/schram/gitcbmc-lazy-po/experiments/pthread/stack_false-unreach-call.c line 79 function t1 thread 1
Unwinding loop t1.0 iteration 3 (5 max) file /nas/schram/gitcbmc-lazy-po/experiments/pthread/stack_false-unreach-call.c line 79 function t1 thread 1
Unwinding loop t1.0 iteration 4 (5 max) file /nas/schram/gitcbmc-lazy-po/experiments/pthread/stack_false-unreach-call.c line 79 function t1 thread 1
Not unwinding loop t1.0 iteration 5 (5 max) file /nas/schram/gitcbmc-lazy-po/experiments/pthread/stack_false-unreach-call.c line 79 function t1 thread 1
Unwinding loop t2.0 iteration 1 (5 max) file /nas/schram/gitcbmc-lazy-po/experiments/pthread/stack_false-unreach-call.c line 94 function t2 thread 2
Unwinding loop t2.0 iteration 2 (5 max) file /nas/schram/gitcbmc-lazy-po/experiments/pthread/stack_false-unreach-call.c line 94 function t2 thread 2
Unwinding loop t2.0 iteration 3 (5 max) file /nas/schram/gitcbmc-lazy-po/experiments/pthread/stack_false-unreach-call.c line 94 function t2 thread 2
Unwinding loop t2.0 iteration 4 (5 max) file /nas/schram/gitcbmc-lazy-po/experiments/pthread/stack_false-unreach-call.c line 94 function t2 thread 2
Not unwinding loop t2.0 iteration 5 (5 max) file /nas/schram/gitcbmc-lazy-po/experiments/pthread/stack_false-unreach-call.c line 94 function t2 thread 2
Adding SC constraints
size of program expression: 10815 steps
no slicing due to threads
Generated 40 VCC(s), 40 remaining after simplification
Passing problem to refinement loop with MiniSAT 2.2.0 with simplifier
converting SSA
10306 steps converted
Running refinement loop with MiniSAT 2.2.0 with simplifier
BV-Refinement: post-processing
BV-Refinement: iteration 1
39280 variables, 97017 clauses
SAT checker: negated claim is SATISFIABLE, i.e., does not hold
BV-Refinement: 15 partial order constraints become active
BV-Refinement: 9769 inactive partial order constraints
BV-Refinement: got SAT, and it is spurious, refining
BV-Refinement: iteration 2
39350 variables, 71745 clauses
SAT checker: negated claim is SATISFIABLE, i.e., does not hold
BV-Refinement: 8 partial order constraints become active
BV-Refinement: 9761 inactive partial order constraints
BV-Refinement: got SAT, and it is spurious, refining
BV-Refinement: iteration 3
39562 variables, 72791 clauses
SAT checker: negated claim is SATISFIABLE, i.e., does not hold
BV-Refinement: 3 partial order constraints become active
BV-Refinement: 9758 inactive partial order constraints
BV-Refinement: got SAT, and it is spurious, refining
BV-Refinement: iteration 4
39566 variables, 72924 clauses
SAT checker: negated claim is SATISFIABLE, i.e., does not hold
BV-Refinement: 13 partial order constraints become active
BV-Refinement: 9745 inactive partial order constraints
BV-Refinement: got SAT, and it is spurious, refining
BV-Refinement: iteration 5
42720 variables, 89319 clauses
SAT checker: negated claim is SATISFIABLE, i.e., does not hold
BV-Refinement: 15 partial order constraints become active
BV-Refinement: 9730 inactive partial order constraints
BV-Refinement: got SAT, and it is spurious, refining
BV-Refinement: iteration 6
46504 variables, 108730 clauses
SAT checker: negated claim is SATISFIABLE, i.e., does not hold
BV-Refinement: 13 partial order constraints become active
BV-Refinement: 9717 inactive partial order constraints
BV-Refinement: got SAT, and it is spurious, refining
BV-Refinement: iteration 7
49658 variables, 125125 clauses
SAT checker: negated claim is SATISFIABLE, i.e., does not hold
BV-Refinement: 17 partial order constraints become active
BV-Refinement: 9700 inactive partial order constraints
BV-Refinement: got SAT, and it is spurious, refining
BV-Refinement: iteration 8
54072 variables, 147814 clauses
SAT checker: negated claim is SATISFIABLE, i.e., does not hold
BV-Refinement: 14 partial order constraints become active
BV-Refinement: 9686 inactive partial order constraints
BV-Refinement: got SAT, and it is spurious, refining
BV-Refinement: iteration 9
57541 variables, 165782 clauses
SAT checker: negated claim is SATISFIABLE, i.e., does not hold
BV-Refinement: 2 partial order constraints become active
BV-Refinement: 9684 inactive partial order constraints
BV-Refinement: got SAT, and it is spurious, refining
BV-Refinement: iteration 10
57587 variables, 165940 clauses
SAT checker: negated claim is SATISFIABLE, i.e., does not hold
BV-Refinement: 2 partial order constraints become active
BV-Refinement: 9682 inactive partial order constraints
BV-Refinement: got SAT, and it is spurious, refining
BV-Refinement: iteration 11
57626 variables, 166054 clauses
SAT checker: negated claim is SATISFIABLE, i.e., does not hold
BV-Refinement: 3 partial order constraints become active
BV-Refinement: 9679 inactive partial order constraints
BV-Refinement: got SAT, and it is spurious, refining
BV-Refinement: iteration 12
57688 variables, 166248 clauses
SAT checker: negated claim is SATISFIABLE, i.e., does not hold
BV-Refinement: 10 partial order constraints become active
BV-Refinement: 9669 inactive partial order constraints
BV-Refinement: got SAT, and it is spurious, refining
BV-Refinement: iteration 13
57729 variables, 166413 clauses
SAT checker: negated claim is SATISFIABLE, i.e., does not hold
BV-Refinement: 5 partial order constraints become active
BV-Refinement: 9664 inactive partial order constraints
BV-Refinement: got SAT, and it is spurious, refining
BV-Refinement: iteration 14
57844 variables, 165419 clauses
SAT checker: negated claim is SATISFIABLE, i.e., does not hold
BV-Refinement: 1 partial order constraints become active
BV-Refinement: 9663 inactive partial order constraints
BV-Refinement: got SAT, and it is spurious, refining
BV-Refinement: iteration 15
57867 variables, 165403 clauses
SAT checker: negated claim is SATISFIABLE, i.e., does not hold
BV-Refinement: 2 partial order constraints become active
BV-Refinement: 9661 inactive partial order constraints
BV-Refinement: got SAT, and it is spurious, refining
BV-Refinement: iteration 16
57913 variables, 165539 clauses
SAT checker: negated claim is SATISFIABLE, i.e., does not hold
BV-Refinement: 3 partial order constraints become active
BV-Refinement: 9658 inactive partial order constraints
BV-Refinement: got SAT, and it is spurious, refining
BV-Refinement: iteration 17
57959 variables, 165667 clauses
SAT checker: negated claim is SATISFIABLE, i.e., does not hold
BV-Refinement: 1 partial order constraints become active
BV-Refinement: 9657 inactive partial order constraints
BV-Refinement: got SAT, and it is spurious, refining
BV-Refinement: iteration 18
57982 variables, 165702 clauses
SAT checker: negated claim is SATISFIABLE, i.e., does not hold
BV-Refinement: 2 partial order constraints become active
BV-Refinement: 9655 inactive partial order constraints
BV-Refinement: got SAT, and it is spurious, refining
BV-Refinement: iteration 19
58028 variables, 165839 clauses
SAT checker: negated claim is SATISFIABLE, i.e., does not hold
BV-Refinement: 8 partial order constraints become active
BV-Refinement: 9647 inactive partial order constraints
BV-Refinement: got SAT, and it is spurious, refining
BV-Refinement: iteration 20
58205 variables, 166702 clauses
SAT checker: negated claim is SATISFIABLE, i.e., does not hold
BV-Refinement: 1 partial order constraints become active
BV-Refinement: 9646 inactive partial order constraints
BV-Refinement: got SAT, and it is spurious, refining
BV-Refinement: iteration 21
58228 variables, 166773 clauses
SAT checker: negated claim is SATISFIABLE, i.e., does not hold
BV-Refinement: 1 partial order constraints become active
BV-Refinement: 9645 inactive partial order constraints
BV-Refinement: got SAT, and it is spurious, refining
BV-Refinement: iteration 22
58251 variables, 166830 clauses
SAT checker: negated claim is SATISFIABLE, i.e., does not hold
BV-Refinement: 1 partial order constraints become active
BV-Refinement: 9644 inactive partial order constraints
BV-Refinement: got SAT, and it is spurious, refining
BV-Refinement: iteration 23
58274 variables, 166887 clauses
SAT checker: negated claim is SATISFIABLE, i.e., does not hold
BV-Refinement: 1 partial order constraints become active
BV-Refinement: 9643 inactive partial order constraints
BV-Refinement: got SAT, and it is spurious, refining
BV-Refinement: iteration 24
58297 variables, 166944 clauses
SAT checker: negated claim is SATISFIABLE, i.e., does not hold
BV-Refinement: 1 partial order constraints become active
BV-Refinement: 9642 inactive partial order constraints
BV-Refinement: got SAT, and it is spurious, refining
BV-Refinement: iteration 25
58320 variables, 167001 clauses
SAT checker: negated claim is SATISFIABLE, i.e., does not hold
BV-Refinement: 38 partial order constraints become active
BV-Refinement: 9604 inactive partial order constraints
BV-Refinement: got SAT, and it is spurious, refining
BV-Refinement: iteration 26
59314 variables, 171309 clauses
SAT checker: negated claim is SATISFIABLE, i.e., does not hold
BV-Refinement: 3 partial order constraints become active
BV-Refinement: 9601 inactive partial order constraints
BV-Refinement: got SAT, and it is spurious, refining
BV-Refinement: iteration 27
59369 variables, 171258 clauses
SAT checker: negated claim is SATISFIABLE, i.e., does not hold
BV-Refinement: 5 partial order constraints become active
BV-Refinement: 9596 inactive partial order constraints
BV-Refinement: got SAT, and it is spurious, refining
BV-Refinement: iteration 28
59456 variables, 171636 clauses
SAT checker: negated claim is SATISFIABLE, i.e., does not hold
BV-Refinement: 3 partial order constraints become active
BV-Refinement: 9593 inactive partial order constraints
BV-Refinement: got SAT, and it is spurious, refining
BV-Refinement: iteration 29
59479 variables, 171667 clauses
SAT checker: negated claim is SATISFIABLE, i.e., does not hold
BV-Refinement: 3 partial order constraints become active
BV-Refinement: 9590 inactive partial order constraints
BV-Refinement: got SAT, and it is spurious, refining
BV-Refinement: iteration 30
59502 variables, 171726 clauses
SAT checker: negated claim is SATISFIABLE, i.e., does not hold
BV-Refinement: 5 partial order constraints become active
BV-Refinement: 9585 inactive partial order constraints
BV-Refinement: got SAT, and it is spurious, refining
BV-Refinement: iteration 31
59571 variables, 171957 clauses
SAT checker: negated claim is SATISFIABLE, i.e., does not hold
BV-Refinement: 12 partial order constraints become active
BV-Refinement: 9573 inactive partial order constraints
BV-Refinement: got SAT, and it is spurious, refining
BV-Refinement: iteration 32
59788 variables, 172740 clauses
SAT checker: negated claim is SATISFIABLE, i.e., does not hold
BV-Refinement: 14 partial order constraints become active
BV-Refinement: 9559 inactive partial order constraints
BV-Refinement: got SAT, and it is spurious, refining
BV-Refinement: iteration 33
60059 variables, 173917 clauses
SAT checker: negated claim is SATISFIABLE, i.e., does not hold
BV-Refinement: 3 partial order constraints become active
BV-Refinement: 9556 inactive partial order constraints
BV-Refinement: got SAT, and it is spurious, refining
BV-Refinement: iteration 34
60114 variables, 174042 clauses
SAT checker: negated claim is SATISFIABLE, i.e., does not hold
BV-Refinement: 5 partial order constraints become active
BV-Refinement: 9551 inactive partial order constraints
BV-Refinement: got SAT, and it is spurious, refining
BV-Refinement: iteration 35
60222 variables, 174402 clauses
SAT checker: negated claim is SATISFIABLE, i.e., does not hold
BV-Refinement: 1 partial order constraints become active
BV-Refinement: 9550 inactive partial order constraints
BV-Refinement: got SAT, and it is spurious, refining
BV-Refinement: iteration 36
60245 variables, 174386 clauses
SAT checker: negated claim is SATISFIABLE, i.e., does not hold
BV-Refinement: 2 partial order constraints become active
BV-Refinement: 9548 inactive partial order constraints
BV-Refinement: got SAT, and it is spurious, refining
BV-Refinement: iteration 37
60275 variables, 174457 clauses
SAT checker: negated claim is SATISFIABLE, i.e., does not hold
BV-Refinement: 4 partial order constraints become active
BV-Refinement: 9544 inactive partial order constraints
BV-Refinement: got SAT, and it is spurious, refining
BV-Refinement: iteration 38
60330 variables, 174688 clauses
SAT checker: negated claim is SATISFIABLE, i.e., does not hold
BV-Refinement: 6 partial order constraints become active
BV-Refinement: 9538 inactive partial order constraints
BV-Refinement: got SAT, and it is spurious, refining
BV-Refinement: iteration 39
60449 variables, 175209 clauses
SAT checker: negated claim is SATISFIABLE, i.e., does not hold
BV-Refinement: 11 partial order constraints become active
BV-Refinement: 9527 inactive partial order constraints
BV-Refinement: got SAT, and it is spurious, refining
BV-Refinement: iteration 40
60616 variables, 175930 clauses
SAT checker: negated claim is SATISFIABLE, i.e., does not hold
BV-Refinement: 12 partial order constraints become active
BV-Refinement: 9515 inactive partial order constraints
BV-Refinement: got SAT, and it is spurious, refining
BV-Refinement: iteration 41
60767 variables, 176567 clauses
SAT checker: negated claim is SATISFIABLE, i.e., does not hold
BV-Refinement: 21 partial order constraints become active
BV-Refinement: 9494 inactive partial order constraints
BV-Refinement: got SAT, and it is spurious, refining
BV-Refinement: iteration 42
61014 variables, 177706 clauses
SAT checker: negated claim is SATISFIABLE, i.e., does not hold
BV-Refinement: 15 partial order constraints become active
BV-Refinement: 9479 inactive partial order constraints
BV-Refinement: got SAT, and it is spurious, refining
BV-Refinement: iteration 43
61186 variables, 178307 clauses
SAT checker: negated claim is SATISFIABLE, i.e., does not hold
BV-Refinement: 13 partial order constraints become active
BV-Refinement: 9466 inactive partial order constraints
BV-Refinement: got SAT, and it is spurious, refining
BV-Refinement: iteration 44
61321 variables, 178858 clauses
SAT checker: negated claim is SATISFIABLE, i.e., does not hold
BV-Refinement: 11 partial order constraints become active
BV-Refinement: 9455 inactive partial order constraints
BV-Refinement: got SAT, and it is spurious, refining
BV-Refinement: iteration 45
61498 variables, 179667 clauses
SAT checker: negated claim is SATISFIABLE, i.e., does not hold
BV-Refinement: 15 partial order constraints become active
BV-Refinement: 9440 inactive partial order constraints
BV-Refinement: got SAT, and it is spurious, refining
BV-Refinement: iteration 46
61601 variables, 180078 clauses
SAT checker: negated claim is SATISFIABLE, i.e., does not hold
BV-Refinement: 2 partial order constraints become active
BV-Refinement: 9438 inactive partial order constraints
BV-Refinement: got SAT, and it is spurious, refining
BV-Refinement: iteration 47
61640 variables, 180180 clauses
SAT checker: negated claim is SATISFIABLE, i.e., does not hold
BV-Refinement: 1 partial order constraints become active
BV-Refinement: 9437 inactive partial order constraints
BV-Refinement: got SAT, and it is spurious, refining
BV-Refinement: iteration 48
61663 variables, 180230 clauses
SAT checker: negated claim is SATISFIABLE, i.e., does not hold
BV-Refinement: 9 partial order constraints become active
BV-Refinement: 9428 inactive partial order constraints
BV-Refinement: got SAT, and it is spurious, refining
BV-Refinement: iteration 49
61910 variables, 181421 clauses
SAT checker: negated claim is SATISFIABLE, i.e., does not hold
BV-Refinement: 8 partial order constraints become active
BV-Refinement: 9420 inactive partial order constraints
BV-Refinement: got SAT, and it is spurious, refining
BV-Refinement: iteration 50
62069 variables, 182209 clauses
SAT checker: negated claim is SATISFIABLE, i.e., does not hold
BV-Refinement: 1 partial order constraints become active
BV-Refinement: 9419 inactive partial order constraints
BV-Refinement: got SAT, and it is spurious, refining
BV-Refinement: iteration 51
62092 variables, 182281 clauses
SAT checker: negated claim is SATISFIABLE, i.e., does not hold
BV-Refinement: 15 partial order constraints become active
BV-Refinement: 9404 inactive partial order constraints
BV-Refinement: got SAT, and it is spurious, refining
BV-Refinement: iteration 52
62489 variables, 184208 clauses
SAT checker: negated claim is SATISFIABLE, i.e., does not hold
BV-Refinement: 5 partial order constraints become active
BV-Refinement: 9399 inactive partial order constraints
BV-Refinement: got SAT, and it is spurious, refining
BV-Refinement: iteration 53
62592 variables, 184593 clauses
SAT checker: negated claim is SATISFIABLE, i.e., does not hold
BV-Refinement: 13 partial order constraints become active
BV-Refinement: 9386 inactive partial order constraints
BV-Refinement: got SAT, and it is spurious, refining
BV-Refinement: iteration 54
62865 variables, 185901 clauses
SAT checker: negated claim is SATISFIABLE, i.e., does not hold
BV-Refinement: 17 partial order constraints become active
BV-Refinement: 9369 inactive partial order constraints
BV-Refinement: got SAT, and it is spurious, refining
BV-Refinement: iteration 55
63105 variables, 186995 clauses
SAT checker: negated claim is SATISFIABLE, i.e., does not hold
BV-Refinement: 19 partial order constraints become active
BV-Refinement: 9350 inactive partial order constraints
BV-Refinement: got SAT, and it is spurious, refining
BV-Refinement: iteration 56
63280 variables, 187760 clauses
SAT checker: negated claim is SATISFIABLE, i.e., does not hold
BV-Refinement: 22 partial order constraints become active
BV-Refinement: 9328 inactive partial order constraints
BV-Refinement: got SAT, and it is spurious, refining
BV-Refinement: iteration 57
63595 variables, 189156 clauses
SAT checker: negated claim is SATISFIABLE, i.e., does not hold
BV-Refinement: 7 partial order constraints become active
BV-Refinement: 9321 inactive partial order constraints
BV-Refinement: got SAT, and it is spurious, refining
BV-Refinement: iteration 58
63705 variables, 189593 clauses
SAT checker: negated claim is SATISFIABLE, i.e., does not hold
BV-Refinement: 3 partial order constraints become active
BV-Refinement: 9318 inactive partial order constraints
BV-Refinement: got SAT, and it is spurious, refining
BV-Refinement: iteration 59
63760 variables, 189760 clauses
SAT checker: negated claim is SATISFIABLE, i.e., does not hold
BV-Refinement: 7 partial order constraints become active
BV-Refinement: 9311 inactive partial order constraints
BV-Refinement: got SAT, and it is spurious, refining
BV-Refinement: iteration 60
63886 variables, 190283 clauses
SAT checker: negated claim is SATISFIABLE, i.e., does not hold
BV-Refinement: 20 partial order constraints become active
BV-Refinement: 9291 inactive partial order constraints
BV-Refinement: got SAT, and it is spurious, refining
BV-Refinement: iteration 61
64238 variables, 191967 clauses
SAT checker: negated claim is SATISFIABLE, i.e., does not hold
BV-Refinement: 8 partial order constraints become active
BV-Refinement: 9283 inactive partial order constraints
BV-Refinement: got SAT, and it is spurious, refining
BV-Refinement: iteration 62
64325 variables, 192276 clauses
SAT checker: negated claim is SATISFIABLE, i.e., does not hold
BV-Refinement: 2 partial order constraints become active
BV-Refinement: 9281 inactive partial order constraints
BV-Refinement: got SAT, and it is spurious, refining
BV-Refinement: iteration 63
64364 variables, 192385 clauses
SAT checker: negated claim is SATISFIABLE, i.e., does not hold
BV-Refinement: 3 partial order constraints become active
BV-Refinement: 9278 inactive partial order constraints
BV-Refinement: got SAT, and it is spurious, refining
BV-Refinement: iteration 64
64419 variables, 192595 clauses
SAT checker: negated claim is SATISFIABLE, i.e., does not hold
BV-Refinement: 2 partial order constraints become active
BV-Refinement: 9276 inactive partial order constraints
BV-Refinement: got SAT, and it is spurious, refining
BV-Refinement: iteration 65
64474 variables, 192796 clauses
SAT checker: negated claim is SATISFIABLE, i.e., does not hold
BV-Refinement: 5 partial order constraints become active
BV-Refinement: 9271 inactive partial order constraints
BV-Refinement: got SAT, and it is spurious, refining
BV-Refinement: iteration 66
64561 variables, 193188 clauses
SAT checker: negated claim is SATISFIABLE, i.e., does not hold
BV-Refinement: 5 partial order constraints become active
BV-Refinement: 9266 inactive partial order constraints
BV-Refinement: got SAT, and it is spurious, refining
BV-Refinement: iteration 67
64664 variables, 193631 clauses
SAT checker: negated claim is SATISFIABLE, i.e., does not hold
BV-Refinement: 2 partial order constraints become active
BV-Refinement: 9264 inactive partial order constraints
BV-Refinement: got SAT, and it is spurious, refining
BV-Refinement: iteration 68
64719 variables, 193812 clauses
SAT checker: negated claim is SATISFIABLE, i.e., does not hold
BV-Refinement: 3 partial order constraints become active
BV-Refinement: 9261 inactive partial order constraints
BV-Refinement: got SAT, and it is spurious, refining
BV-Refinement: iteration 69
64774 variables, 194015 clauses
SAT checker: negated claim is SATISFIABLE, i.e., does not hold
BV-Refinement: 6 partial order constraints become active
BV-Refinement: 9255 inactive partial order constraints
BV-Refinement: got SAT, and it is spurious, refining
BV-Refinement: iteration 70
64889 variables, 194389 clauses
SAT checker: negated claim is SATISFIABLE, i.e., does not hold
BV-Refinement: 4 partial order constraints become active
BV-Refinement: 9251 inactive partial order constraints
BV-Refinement: got SAT, and it is spurious, refining
BV-Refinement: iteration 71
64976 variables, 194705 clauses
SAT checker: negated claim is SATISFIABLE, i.e., does not hold
BV-Refinement: 30 partial order constraints become active
BV-Refinement: 9221 inactive partial order constraints
BV-Refinement: got SAT, and it is spurious, refining
BV-Refinement: iteration 72
65543 variables, 197466 clauses
SAT checker: negated claim is SATISFIABLE, i.e., does not hold
BV-Refinement: 12 partial order constraints become active
BV-Refinement: 9209 inactive partial order constraints
BV-Refinement: got SAT, and it is spurious, refining
BV-Refinement: iteration 73
65672 variables, 197970 clauses
SAT checker: negated claim is SATISFIABLE, i.e., does not hold
BV-Refinement: 19 partial order constraints become active
BV-Refinement: 9190 inactive partial order constraints
BV-Refinement: got SAT, and it is spurious, refining
BV-Refinement: iteration 74
66043 variables, 199728 clauses
SAT checker: negated claim is SATISFIABLE, i.e., does not hold
BV-Refinement: 7 partial order constraints become active
BV-Refinement: 9183 inactive partial order constraints
BV-Refinement: got SAT, and it is spurious, refining
BV-Refinement: iteration 75
66178 variables, 200296 clauses
SAT checker: negated claim is SATISFIABLE, i.e., does not hold
BV-Refinement: 17 partial order constraints become active
BV-Refinement: 9166 inactive partial order constraints
BV-Refinement: got SAT, and it is spurious, refining
BV-Refinement: iteration 76
67924 variables, 208902 clauses
SAT checker: negated claim is SATISFIABLE, i.e., does not hold
BV-Refinement: 4 partial order constraints become active
BV-Refinement: 9162 inactive partial order constraints
BV-Refinement: got SAT, and it is spurious, refining
BV-Refinement: iteration 77
68284 variables, 210577 clauses
SAT checker: negated claim is SATISFIABLE, i.e., does not hold
BV-Refinement: 25 partial order constraints become active
BV-Refinement: 9137 inactive partial order constraints
BV-Refinement: got SAT, and it is spurious, refining
BV-Refinement: iteration 78
68726 variables, 212734 clauses
SAT checker: negated claim is SATISFIABLE, i.e., does not hold
BV-Refinement: 36 partial order constraints become active
BV-Refinement: 9101 inactive partial order constraints
BV-Refinement: got SAT, and it is spurious, refining
BV-Refinement: iteration 79
71834 variables, 228132 clauses
SAT checker: negated claim is SATISFIABLE, i.e., does not hold
BV-Refinement: 41 partial order constraints become active
BV-Refinement: 9060 inactive partial order constraints
BV-Refinement: got SAT, and it is spurious, refining
BV-Refinement: iteration 80
74170 variables, 239655 clauses
SAT checker: negated claim is SATISFIABLE, i.e., does not hold
BV-Refinement: 24 partial order constraints become active
BV-Refinement: 9036 inactive partial order constraints
BV-Refinement: got SAT, and it is spurious, refining
BV-Refinement: iteration 81
75453 variables, 245891 clauses
SAT checker: negated claim is SATISFIABLE, i.e., does not hold
BV-Refinement: 26 partial order constraints become active
BV-Refinement: 9010 inactive partial order constraints
BV-Refinement: got SAT, and it is spurious, refining
BV-Refinement: iteration 82
76125 variables, 249472 clauses
SAT checker: negated claim is SATISFIABLE, i.e., does not hold
BV-Refinement: 31 partial order constraints become active
BV-Refinement: 8979 inactive partial order constraints
BV-Refinement: got SAT, and it is spurious, refining
BV-Refinement: iteration 83
77144 variables, 254483 clauses
SAT checker: negated claim is SATISFIABLE, i.e., does not hold
BV-Refinement: 27 partial order constraints become active
BV-Refinement: 8952 inactive partial order constraints
BV-Refinement: got SAT, and it is spurious, refining
BV-Refinement: iteration 84
77551 variables, 256327 clauses
SAT checker: negated claim is SATISFIABLE, i.e., does not hold
BV-Refinement: 43 partial order constraints become active
BV-Refinement: 8909 inactive partial order constraints
BV-Refinement: got SAT, and it is spurious, refining
BV-Refinement: iteration 85
78007 variables, 258354 clauses
SAT checker: negated claim is SATISFIABLE, i.e., does not hold
BV-Refinement: 35 partial order constraints become active
BV-Refinement: 8874 inactive partial order constraints
BV-Refinement: got SAT, and it is spurious, refining
BV-Refinement: iteration 86
79173 variables, 263993 clauses
SAT checker: negated claim is SATISFIABLE, i.e., does not hold
BV-Refinement: 36 partial order constraints become active
BV-Refinement: 8838 inactive partial order constraints
BV-Refinement: got SAT, and it is spurious, refining
BV-Refinement: iteration 87
80016 variables, 267992 clauses
SAT checker: negated claim is SATISFIABLE, i.e., does not hold
BV-Refinement: 27 partial order constraints become active
BV-Refinement: 8811 inactive partial order constraints
BV-Refinement: got SAT, and it is spurious, refining
BV-Refinement: iteration 88
81087 variables, 273146 clauses
SAT checker: negated claim is SATISFIABLE, i.e., does not hold
BV-Refinement: 31 partial order constraints become active
BV-Refinement: 8780 inactive partial order constraints
BV-Refinement: got SAT, and it is spurious, refining
BV-Refinement: iteration 89
81892 variables, 277134 clauses
SAT checker: negated claim is SATISFIABLE, i.e., does not hold
BV-Refinement: 7 partial order constraints become active
BV-Refinement: 8773 inactive partial order constraints
BV-Refinement: got SAT, and it is spurious, refining
BV-Refinement: iteration 90
81931 variables, 277221 clauses
SAT checker: negated claim is SATISFIABLE, i.e., does not hold
BV-Refinement: 17 partial order constraints become active
BV-Refinement: 8756 inactive partial order constraints
BV-Refinement: got SAT, and it is spurious, refining
BV-Refinement: iteration 91
82218 variables, 278871 clauses
SAT checker: negated claim is SATISFIABLE, i.e., does not hold
BV-Refinement: 31 partial order constraints become active
BV-Refinement: 8725 inactive partial order constraints
BV-Refinement: got SAT, and it is spurious, refining
BV-Refinement: iteration 92
83697 variables, 286077 clauses
SAT checker: negated claim is SATISFIABLE, i.e., does not hold
BV-Refinement: 14 partial order constraints become active
BV-Refinement: 8711 inactive partial order constraints
BV-Refinement: got SAT, and it is spurious, refining
BV-Refinement: iteration 93
84146 variables, 288205 clauses
SAT checker: negated claim is SATISFIABLE, i.e., does not hold
BV-Refinement: 35 partial order constraints become active
BV-Refinement: 8676 inactive partial order constraints
BV-Refinement: got SAT, and it is spurious, refining
BV-Refinement: iteration 94
85346 variables, 294095 clauses
SAT checker: negated claim is SATISFIABLE, i.e., does not hold
BV-Refinement: 29 partial order constraints become active
BV-Refinement: 8647 inactive partial order constraints
BV-Refinement: got SAT, and it is spurious, refining
BV-Refinement: iteration 95
86222 variables, 298659 clauses
SAT checker: negated claim is SATISFIABLE, i.e., does not hold
BV-Refinement: 68 partial order constraints become active
BV-Refinement: 8579 inactive partial order constraints
BV-Refinement: got SAT, and it is spurious, refining
BV-Refinement: iteration 96
87839 variables, 306576 clauses
SAT checker: negated claim is SATISFIABLE, i.e., does not hold
BV-Refinement: 45 partial order constraints become active
BV-Refinement: 8534 inactive partial order constraints
BV-Refinement: got SAT, and it is spurious, refining
BV-Refinement: iteration 97
88731 variables, 311080 clauses
SAT checker: negated claim is SATISFIABLE, i.e., does not hold
BV-Refinement: 31 partial order constraints become active
BV-Refinement: 8503 inactive partial order constraints
BV-Refinement: got SAT, and it is spurious, refining
BV-Refinement: iteration 98
89904 variables, 316812 clauses
SAT checker: negated claim is SATISFIABLE, i.e., does not hold
BV-Refinement: 36 partial order constraints become active
BV-Refinement: 8467 inactive partial order constraints
BV-Refinement: got SAT, and it is spurious, refining
BV-Refinement: iteration 99
90662 variables, 320849 clauses
SAT checker: negated claim is SATISFIABLE, i.e., does not hold
BV-Refinement: 12 partial order constraints become active
BV-Refinement: 8455 inactive partial order constraints
BV-Refinement: got SAT, and it is spurious, refining
BV-Refinement: iteration 100
91025 variables, 322614 clauses
SAT checker: negated claim is SATISFIABLE, i.e., does not hold
BV-Refinement: 55 partial order constraints become active
BV-Refinement: 8400 inactive partial order constraints
BV-Refinement: got SAT, and it is spurious, refining
BV-Refinement: iteration 101
92437 variables, 329694 clauses
SAT checker: negated claim is SATISFIABLE, i.e., does not hold
BV-Refinement: 61 partial order constraints become active
BV-Refinement: 8339 inactive partial order constraints
BV-Refinement: got SAT, and it is spurious, refining
BV-Refinement: iteration 102
94879 variables, 341818 clauses
SAT checker: negated claim is SATISFIABLE, i.e., does not hold
BV-Refinement: 55 partial order constraints become active
BV-Refinement: 8284 inactive partial order constraints
BV-Refinement: got SAT, and it is spurious, refining
BV-Refinement: iteration 103
96092 variables, 348080 clauses
SAT checker: negated claim is SATISFIABLE, i.e., does not hold
BV-Refinement: 68 partial order constraints become active
BV-Refinement: 8216 inactive partial order constraints
BV-Refinement: got SAT, and it is spurious, refining
BV-Refinement: iteration 104
99196 variables, 363459 clauses
SAT checker: negated claim is SATISFIABLE, i.e., does not hold
BV-Refinement: 16 partial order constraints become active
BV-Refinement: 8200 inactive partial order constraints
BV-Refinement: got SAT, and it is spurious, refining
BV-Refinement: iteration 105
100321 variables, 368952 clauses
SAT checker: negated claim is SATISFIABLE, i.e., does not hold
BV-Refinement: 28 partial order constraints become active
BV-Refinement: 8172 inactive partial order constraints
BV-Refinement: got SAT, and it is spurious, refining
BV-Refinement: iteration 106
100876 variables, 371869 clauses
SAT checker: negated claim is SATISFIABLE, i.e., does not hold
BV-Refinement: 41 partial order constraints become active
BV-Refinement: 8131 inactive partial order constraints
BV-Refinement: got SAT, and it is spurious, refining
BV-Refinement: iteration 107
101796 variables, 376654 clauses
SAT checker: negated claim is SATISFIABLE, i.e., does not hold
BV-Refinement: 41 partial order constraints become active
BV-Refinement: 8090 inactive partial order constraints
BV-Refinement: got SAT, and it is spurious, refining
BV-Refinement: iteration 108
102295 variables, 379658 clauses
SAT checker: negated claim is SATISFIABLE, i.e., does not hold
BV-Refinement: 35 partial order constraints become active
BV-Refinement: 8055 inactive partial order constraints
BV-Refinement: got SAT, and it is spurious, refining
BV-Refinement: iteration 109
103438 variables, 385150 clauses
SAT checker: negated claim is SATISFIABLE, i.e., does not hold
BV-Refinement: 39 partial order constraints become active
BV-Refinement: 8016 inactive partial order constraints
BV-Refinement: got SAT, and it is spurious, refining
BV-Refinement: iteration 110
104341 variables, 389948 clauses
SAT checker: negated claim is SATISFIABLE, i.e., does not hold
BV-Refinement: 26 partial order constraints become active
BV-Refinement: 7990 inactive partial order constraints
BV-Refinement: got SAT, and it is spurious, refining
BV-Refinement: iteration 111
105168 variables, 393945 clauses
SAT checker: negated claim is SATISFIABLE, i.e., does not hold
BV-Refinement: 27 partial order constraints become active
BV-Refinement: 7963 inactive partial order constraints
BV-Refinement: got SAT, and it is spurious, refining
BV-Refinement: iteration 112
106590 variables, 400940 clauses
SAT checker: negated claim is SATISFIABLE, i.e., does not hold
BV-Refinement: 27 partial order constraints become active
BV-Refinement: 7936 inactive partial order constraints
BV-Refinement: got SAT, and it is spurious, refining
BV-Refinement: iteration 113
107303 variables, 404731 clauses
SAT checker: negated claim is SATISFIABLE, i.e., does not hold
BV-Refinement: 47 partial order constraints become active
BV-Refinement: 7889 inactive partial order constraints
BV-Refinement: got SAT, and it is spurious, refining
BV-Refinement: iteration 114
110229 variables, 419625 clauses
SAT checker: negated claim is SATISFIABLE, i.e., does not hold
BV-Refinement: 37 partial order constraints become active
BV-Refinement: 7852 inactive partial order constraints
BV-Refinement: got SAT, and it is spurious, refining
BV-Refinement: iteration 115
111203 variables, 424326 clauses
SAT checker: negated claim is SATISFIABLE, i.e., does not hold
BV-Refinement: 25 partial order constraints become active
BV-Refinement: 7827 inactive partial order constraints
BV-Refinement: got SAT, and it is spurious, refining
BV-Refinement: iteration 116
111994 variables, 428152 clauses
SAT checker: negated claim is SATISFIABLE, i.e., does not hold
BV-Refinement: 25 partial order constraints become active
BV-Refinement: 7802 inactive partial order constraints
BV-Refinement: got SAT, and it is spurious, refining
BV-Refinement: iteration 117
113332 variables, 435082 clauses
SAT checker: negated claim is SATISFIABLE, i.e., does not hold
BV-Refinement: 38 partial order constraints become active
BV-Refinement: 7764 inactive partial order constraints
BV-Refinement: got SAT, and it is spurious, refining
BV-Refinement: iteration 118
119594 variables, 466653 clauses
SAT checker: negated claim is SATISFIABLE, i.e., does not hold
BV-Refinement: 27 partial order constraints become active
BV-Refinement: 7737 inactive partial order constraints
BV-Refinement: got SAT, and it is spurious, refining
BV-Refinement: iteration 119
120420 variables, 471011 clauses
SAT checker: negated claim is SATISFIABLE, i.e., does not hold
BV-Refinement: 20 partial order constraints become active
BV-Refinement: 7717 inactive partial order constraints
BV-Refinement: got SAT, and it is spurious, refining
BV-Refinement: iteration 120
120808 variables, 472871 clauses
SAT checker: negated claim is SATISFIABLE, i.e., does not hold
BV-Refinement: 22 partial order constraints become active
BV-Refinement: 7695 inactive partial order constraints
BV-Refinement: got SAT, and it is spurious, refining
BV-Refinement: iteration 121
121178 variables, 474634 clauses
SAT checker: negated claim is SATISFIABLE, i.e., does not hold
BV-Refinement: 27 partial order constraints become active
BV-Refinement: 7668 inactive partial order constraints
BV-Refinement: got SAT, and it is spurious, refining
BV-Refinement: iteration 122
125503 variables, 496153 clauses
SAT checker: negated claim is SATISFIABLE, i.e., does not hold
BV-Refinement: 13 partial order constraints become active
BV-Refinement: 7655 inactive partial order constraints
BV-Refinement: got SAT, and it is spurious, refining
BV-Refinement: iteration 123
125783 variables, 497415 clauses
SAT checker: negated claim is SATISFIABLE, i.e., does not hold
BV-Refinement: 11 partial order constraints become active
BV-Refinement: 7644 inactive partial order constraints
BV-Refinement: got SAT, and it is spurious, refining
BV-Refinement: iteration 124
126062 variables, 498742 clauses
SAT checker: negated claim is SATISFIABLE, i.e., does not hold
BV-Refinement: 15 partial order constraints become active
BV-Refinement: 7629 inactive partial order constraints
BV-Refinement: got SAT, and it is spurious, refining
BV-Refinement: iteration 125
126336 variables, 500057 clauses
SAT checker: negated claim is SATISFIABLE, i.e., does not hold
BV-Refinement: 17 partial order constraints become active
BV-Refinement: 7612 inactive partial order constraints
BV-Refinement: got SAT, and it is spurious, refining
BV-Refinement: iteration 126
126577 variables, 501180 clauses
SAT checker: negated claim is SATISFIABLE, i.e., does not hold
BV-Refinement: 46 partial order constraints become active
BV-Refinement: 7566 inactive partial order constraints
BV-Refinement: got SAT, and it is spurious, refining
BV-Refinement: iteration 127
127605 variables, 506229 clauses
SAT checker: negated claim is SATISFIABLE, i.e., does not hold
BV-Refinement: 55 partial order constraints become active
BV-Refinement: 7511 inactive partial order constraints
BV-Refinement: got SAT, and it is spurious, refining
BV-Refinement: iteration 128
128210 variables, 509089 clauses
SAT checker: negated claim is SATISFIABLE, i.e., does not hold
BV-Refinement: 7 partial order constraints become active
BV-Refinement: 7504 inactive partial order constraints
BV-Refinement: got SAT, and it is spurious, refining
BV-Refinement: iteration 129
128259 variables, 509221 clauses
SAT checker: negated claim is SATISFIABLE, i.e., does not hold
BV-Refinement: 9 partial order constraints become active
BV-Refinement: 7495 inactive partial order constraints
BV-Refinement: got SAT, and it is spurious, refining
BV-Refinement: iteration 130
128276 variables, 509288 clauses
SAT checker: negated claim is SATISFIABLE, i.e., does not hold
BV-Refinement: 24 partial order constraints become active
BV-Refinement: 7471 inactive partial order constraints
BV-Refinement: got SAT, and it is spurious, refining
BV-Refinement: iteration 131
132203 variables, 529221 clauses
SAT checker: negated claim is SATISFIABLE, i.e., does not hold
BV-Refinement: 15 partial order constraints become active
BV-Refinement: 7456 inactive partial order constraints
BV-Refinement: got SAT, and it is spurious, refining
BV-Refinement: iteration 132
132791 variables, 532060 clauses
SAT checker: negated claim is SATISFIABLE, i.e., does not hold
BV-Refinement: 14 partial order constraints become active
BV-Refinement: 7442 inactive partial order constraints
BV-Refinement: got SAT, and it is spurious, refining
BV-Refinement: iteration 133
132841 variables, 532590 clauses
SAT checker: negated claim is SATISFIABLE, i.e., does not hold
BV-Refinement: 18 partial order constraints become active
BV-Refinement: 7424 inactive partial order constraints
BV-Refinement: got SAT, and it is spurious, refining
BV-Refinement: iteration 134
133188 variables, 534636 clauses
SAT checker: negated claim is SATISFIABLE, i.e., does not hold
BV-Refinement: 5 partial order constraints become active
BV-Refinement: 7419 inactive partial order constraints
BV-Refinement: got SAT, and it is spurious, refining
BV-Refinement: iteration 135
133518 variables, 536278 clauses
SAT checker: negated claim is SATISFIABLE, i.e., does not hold
BV-Refinement: 1 partial order constraints become active
BV-Refinement: 7418 inactive partial order constraints
BV-Refinement: got SAT, and it is spurious, refining
BV-Refinement: iteration 136
133832 variables, 537847 clauses
SAT checker: negated claim is SATISFIABLE, i.e., does not hold
BV-Refinement: 5 partial order constraints become active
BV-Refinement: 7413 inactive partial order constraints
BV-Refinement: got SAT, and it is spurious, refining
BV-Refinement: iteration 137
134146 variables, 539424 clauses
SAT checker: negated claim is SATISFIABLE, i.e., does not hold
BV-Refinement: 3 partial order constraints become active
BV-Refinement: 7410 inactive partial order constraints
BV-Refinement: got SAT, and it is spurious, refining
BV-Refinement: iteration 138
134460 variables, 541001 clauses
SAT checker: negated claim is SATISFIABLE, i.e., does not hold
BV-Refinement: 1 partial order constraints become active
BV-Refinement: 7409 inactive partial order constraints
BV-Refinement: got SAT, and it is spurious, refining
BV-Refinement: iteration 139
134460 variables, 541002 clauses
SAT checker: negated claim is SATISFIABLE, i.e., does not hold
BV-Refinement: 7 partial order constraints become active
BV-Refinement: 7402 inactive partial order constraints
BV-Refinement: got SAT, and it is spurious, refining
BV-Refinement: iteration 140
134476 variables, 541088 clauses
SAT checker: negated claim is SATISFIABLE, i.e., does not hold
BV-Refinement: 5 partial order constraints become active
BV-Refinement: 7397 inactive partial order constraints
BV-Refinement: got SAT, and it is spurious, refining
BV-Refinement: iteration 141
134476 variables, 541086 clauses
SAT checker: negated claim is SATISFIABLE, i.e., does not hold
BV-Refinement: 3 partial order constraints become active
BV-Refinement: 7394 inactive partial order constraints
BV-Refinement: got SAT, and it is spurious, refining
BV-Refinement: iteration 142
134476 variables, 541089 clauses
SAT checker: negated claim is SATISFIABLE, i.e., does not hold
BV-Refinement: 1 partial order constraints become active
BV-Refinement: 7393 inactive partial order constraints
BV-Refinement: got SAT, and it is spurious, refining
BV-Refinement: iteration 143
134790 variables, 542666 clauses
SAT checker: negated claim is SATISFIABLE, i.e., does not hold
BV-Refinement: 22 partial order constraints become active
BV-Refinement: 7371 inactive partial order constraints
BV-Refinement: got SAT, and it is spurious, refining
BV-Refinement: iteration 144
136131 variables, 549307 clauses
SAT checker: negated claim is SATISFIABLE, i.e., does not hold
BV-Refinement: 35 partial order constraints become active
BV-Refinement: 7336 inactive partial order constraints
BV-Refinement: got SAT, and it is spurious, refining
BV-Refinement: iteration 145
139121 variables, 564836 clauses
SAT checker: negated claim is SATISFIABLE, i.e., does not hold
BV-Refinement: 19 partial order constraints become active
BV-Refinement: 7317 inactive partial order constraints
BV-Refinement: got SAT, and it is spurious, refining
BV-Refinement: iteration 146
139516 variables, 566687 clauses
SAT checker: negated claim is SATISFIABLE, i.e., does not hold
BV-Refinement: 3 partial order constraints become active
BV-Refinement: 7314 inactive partial order constraints
BV-Refinement: got SAT, and it is spurious, refining
BV-Refinement: iteration 147
139516 variables, 566655 clauses
SAT checker: negated claim is SATISFIABLE, i.e., does not hold
BV-Refinement: 16 partial order constraints become active
BV-Refinement: 7298 inactive partial order constraints
BV-Refinement: got SAT, and it is spurious, refining
BV-Refinement: iteration 148
139677 variables, 567461 clauses
SAT checker: negated claim is SATISFIABLE, i.e., does not hold
BV-Refinement: 2 partial order constraints become active
BV-Refinement: 7296 inactive partial order constraints
BV-Refinement: got SAT, and it is spurious, refining
BV-Refinement: iteration 149
140007 variables, 569046 clauses
SAT checker: negated claim is SATISFIABLE, i.e., does not hold
BV-Refinement: 6 partial order constraints become active
BV-Refinement: 7290 inactive partial order constraints
BV-Refinement: got SAT, and it is spurious, refining
BV-Refinement: iteration 150
140108 variables, 569534 clauses
SAT checker: negated claim is SATISFIABLE, i.e., does not hold
BV-Refinement: 22 partial order constraints become active
BV-Refinement: 7268 inactive partial order constraints
BV-Refinement: got SAT, and it is spurious, refining
BV-Refinement: iteration 151
140712 variables, 572548 clauses
SAT checker: negated claim is SATISFIABLE, i.e., does not hold
BV-Refinement: 52 partial order constraints become active
BV-Refinement: 7216 inactive partial order constraints
BV-Refinement: got SAT, and it is spurious, refining
BV-Refinement: iteration 152
141108 variables, 574395 clauses
SAT checker: negated claim is SATISFIABLE, i.e., does not hold
BV-Refinement: 37 partial order constraints become active
BV-Refinement: 7179 inactive partial order constraints
BV-Refinement: got SAT, and it is spurious, refining
BV-Refinement: iteration 153
141540 variables, 576373 clauses
SAT checker: negated claim is SATISFIABLE, i.e., does not hold
BV-Refinement: 16 partial order constraints become active
BV-Refinement: 7163 inactive partial order constraints
BV-Refinement: got SAT, and it is spurious, refining
BV-Refinement: iteration 154
141640 variables, 576779 clauses
SAT checker: negated claim is SATISFIABLE, i.e., does not hold
BV-Refinement: 5 partial order constraints become active
BV-Refinement: 7158 inactive partial order constraints
BV-Refinement: got SAT, and it is spurious, refining
BV-Refinement: iteration 155
141707 variables, 577080 clauses
SAT checker: negated claim is SATISFIABLE, i.e., does not hold
BV-Refinement: 3 partial order constraints become active
BV-Refinement: 7155 inactive partial order constraints
BV-Refinement: got SAT, and it is spurious, refining
BV-Refinement: iteration 156
142022 variables, 578642 clauses
SAT checker: negated claim is SATISFIABLE, i.e., does not hold
BV-Refinement: 3 partial order constraints become active
BV-Refinement: 7152 inactive partial order constraints
BV-Refinement: got SAT, and it is spurious, refining
BV-Refinement: iteration 157
142352 variables, 580296 clauses
SAT checker: negated claim is SATISFIABLE, i.e., does not hold
BV-Refinement: 72 partial order constraints become active
BV-Refinement: 7080 inactive partial order constraints
BV-Refinement: got SAT, and it is spurious, refining
BV-Refinement: iteration 158
142979 variables, 583484 clauses
SAT checker: negated claim is SATISFIABLE, i.e., does not hold
BV-Refinement: 48 partial order constraints become active
BV-Refinement: 7032 inactive partial order constraints
BV-Refinement: got SAT, and it is spurious, refining
BV-Refinement: iteration 159
143672 variables, 586759 clauses
SAT checker: negated claim is SATISFIABLE, i.e., does not hold
BV-Refinement: 4 partial order constraints become active
BV-Refinement: 7028 inactive partial order constraints
BV-Refinement: got SAT, and it is spurious, refining
BV-Refinement: iteration 160
143705 variables, 586816 clauses
SAT checker: negated claim is SATISFIABLE, i.e., does not hold
BV-Refinement: 4 partial order constraints become active
BV-Refinement: 7024 inactive partial order constraints
BV-Refinement: got SAT, and it is spurious, refining
BV-Refinement: iteration 161
144036 variables, 588459 clauses
SAT checker: negated claim is SATISFIABLE, i.e., does not hold
BV-Refinement: 4 partial order constraints become active
BV-Refinement: 7020 inactive partial order constraints
BV-Refinement: got SAT, and it is spurious, refining
BV-Refinement: iteration 162
144367 variables, 590108 clauses
SAT checker: negated claim is SATISFIABLE, i.e., does not hold
BV-Refinement: 20 partial order constraints become active
BV-Refinement: 7000 inactive partial order constraints
BV-Refinement: got SAT, and it is spurious, refining
BV-Refinement: iteration 163
144528 variables, 590911 clauses
SAT checker: negated claim is SATISFIABLE, i.e., does not hold
BV-Refinement: 8 partial order constraints become active
BV-Refinement: 6992 inactive partial order constraints
BV-Refinement: got SAT, and it is spurious, refining
BV-Refinement: iteration 164
144890 variables, 592661 clauses
SAT checker: negated claim is SATISFIABLE, i.e., does not hold
BV-Refinement: 5 partial order constraints become active
BV-Refinement: 6987 inactive partial order constraints
BV-Refinement: got SAT, and it is spurious, refining
BV-Refinement: iteration 165
144891 variables, 592645 clauses
SAT checker: negated claim is SATISFIABLE, i.e., does not hold
BV-Refinement: 3 partial order constraints become active
BV-Refinement: 6984 inactive partial order constraints
BV-Refinement: got SAT, and it is spurious, refining
BV-Refinement: iteration 166
144892 variables, 592648 clauses
SAT checker: negated claim is SATISFIABLE, i.e., does not hold
BV-Refinement: 5 partial order constraints become active
BV-Refinement: 6979 inactive partial order constraints
BV-Refinement: got SAT, and it is spurious, refining
BV-Refinement: iteration 167
145207 variables, 594225 clauses
SAT checker: negated claim is SATISFIABLE, i.e., does not hold
BV-Refinement: 16 partial order constraints become active
BV-Refinement: 6963 inactive partial order constraints
BV-Refinement: got SAT, and it is spurious, refining
BV-Refinement: iteration 168
145258 variables, 594488 clauses
SAT checker: negated claim is SATISFIABLE, i.e., does not hold
BV-Refinement: 2 partial order constraints become active
BV-Refinement: 6961 inactive partial order constraints
BV-Refinement: got SAT, and it is spurious, refining
BV-Refinement: iteration 169
145308 variables, 594730 clauses
SAT checker: negated claim is SATISFIABLE, i.e., does not hold
BV-Refinement: 3 partial order constraints become active
BV-Refinement: 6958 inactive partial order constraints
BV-Refinement: got SAT, and it is spurious, refining
BV-Refinement: iteration 170
145358 variables, 594971 clauses
SAT checker: negated claim is SATISFIABLE, i.e., does not hold
BV-Refinement: 3 partial order constraints become active
BV-Refinement: 6955 inactive partial order constraints
BV-Refinement: got SAT, and it is spurious, refining
BV-Refinement: iteration 171
145392 variables, 595133 clauses
SAT checker: negated claim is SATISFIABLE, i.e., does not hold
BV-Refinement: 1 partial order constraints become active
BV-Refinement: 6954 inactive partial order constraints
BV-Refinement: got SAT, and it is spurious, refining
BV-Refinement: iteration 172
145408 variables, 595213 clauses
SAT checker: negated claim is SATISFIABLE, i.e., does not hold
BV-Refinement: 3 partial order constraints become active
BV-Refinement: 6951 inactive partial order constraints
BV-Refinement: got SAT, and it is spurious, refining
BV-Refinement: iteration 173
145442 variables, 595375 clauses
SAT checker: negated claim is SATISFIABLE, i.e., does not hold
BV-Refinement: 0 partial order constraints become active
BV-Refinement: 6951 inactive partial order constraints
BV-Refinement: got SAT, and it simulates => SAT
Total iterations: 173
PROFILING: main_solver: 62.119
PROFILING: sat_check: 140.063
PROFILING: clustering: 0
Runtime decision procedure: 202.519s
Building error trace

Counterexample:

State 21 file /nas/schram/gitcbmc-lazy-po/experiments/pthread/stack_false-unreach-call.c line 109 function main thread 0
----------------------------------------------------
  id1=0 (0000000000000000000000000000000000000000000000000000000000000000)

State 22 file /nas/schram/gitcbmc-lazy-po/experiments/pthread/stack_false-unreach-call.c line 109 function main thread 0
----------------------------------------------------
  id2=0 (0000000000000000000000000000000000000000000000000000000000000000)

State 122 file /nas/schram/gitcbmc-lazy-po/experiments/pthread/stack_false-unreach-call.c line 82 function t1 thread 1
----------------------------------------------------
  tmp=1 (00000000000000000000000000000001)

State 126 file /nas/schram/gitcbmc-lazy-po/experiments/pthread/stack_false-unreach-call.c line 83 function t1 thread 1
----------------------------------------------------
  stack=arr (0000011100000000000000000000000000000000000000000000000000000000)

State 127 file /nas/schram/gitcbmc-lazy-po/experiments/pthread/stack_false-unreach-call.c line 83 function t1 thread 1
----------------------------------------------------
  x=1 (00000000000000000000000000000001)

State 136 file /nas/schram/gitcbmc-lazy-po/experiments/pthread/stack_false-unreach-call.c line 53 function push thread 1
----------------------------------------------------
  arr[0]=1 (00000000000000000000000000000001)

State 139 file /nas/schram/gitcbmc-lazy-po/experiments/pthread/stack_false-unreach-call.c line 26 function inc_top thread 1
----------------------------------------------------
  top=1 (00000000000000000000000000000001)

State 146 file /nas/schram/gitcbmc-lazy-po/experiments/pthread/stack_false-unreach-call.c line 85 function t1 thread 1
----------------------------------------------------
  flag=TRUE (00000001)

State 154 file /nas/schram/gitcbmc-lazy-po/experiments/pthread/stack_false-unreach-call.c line 79 function t1 thread 1
----------------------------------------------------
  i=1 (00000000000000000000000000000001)

State 165 file /nas/schram/gitcbmc-lazy-po/experiments/pthread/stack_false-unreach-call.c line 82 function t1 thread 1
----------------------------------------------------
  tmp=0 (00000000000000000000000000000000)

State 169 file /nas/schram/gitcbmc-lazy-po/experiments/pthread/stack_false-unreach-call.c line 83 function t1 thread 1
----------------------------------------------------
  stack=arr (0000011100000000000000000000000000000000000000000000000000000000)

State 170 file /nas/schram/gitcbmc-lazy-po/experiments/pthread/stack_false-unreach-call.c line 83 function t1 thread 1
----------------------------------------------------
  x=0 (00000000000000000000000000000000)

State 179 file /nas/schram/gitcbmc-lazy-po/experiments/pthread/stack_false-unreach-call.c line 53 function push thread 1
----------------------------------------------------
  arr[1]=0 (00000000000000000000000000000000)

State 182 file /nas/schram/gitcbmc-lazy-po/experiments/pthread/stack_false-unreach-call.c line 26 function inc_top thread 1
----------------------------------------------------
  top=2 (00000000000000000000000000000010)

State 189 file /nas/schram/gitcbmc-lazy-po/experiments/pthread/stack_false-unreach-call.c line 85 function t1 thread 1
----------------------------------------------------
  flag=TRUE (00000001)

State 197 file /nas/schram/gitcbmc-lazy-po/experiments/pthread/stack_false-unreach-call.c line 79 function t1 thread 1
----------------------------------------------------
  i=2 (00000000000000000000000000000010)

State 211 file <builtin-library>-pthread_create line 20 function __actual_thread_spawn thread 2
----------------------------------------------------
  arg=NULL (0000000000000000000000000000000000000000000000000000000000000000)

State 212 file /nas/schram/gitcbmc-lazy-po/experiments/pthread/stack_false-unreach-call.c line 92 function t2 thread 2
----------------------------------------------------
  i=0 (00000000000000000000000000000000)

State 213 file /nas/schram/gitcbmc-lazy-po/experiments/pthread/stack_false-unreach-call.c line 94 function t2 thread 2
----------------------------------------------------
  i=0 (00000000000000000000000000000000)

State 221 file /nas/schram/gitcbmc-lazy-po/experiments/pthread/stack_false-unreach-call.c line 99 function t2 thread 2
----------------------------------------------------
  stack=arr (0000011100000000000000000000000000000000000000000000000000000000)

State 232 file /nas/schram/gitcbmc-lazy-po/experiments/pthread/stack_false-unreach-call.c line 31 function dec_top thread 2
----------------------------------------------------
  top=1 (00000000000000000000000000000001)

State 253 file /nas/schram/gitcbmc-lazy-po/experiments/pthread/stack_false-unreach-call.c line 94 function t2 thread 2
----------------------------------------------------
  i=1 (00000000000000000000000000000001)

State 266 file /nas/schram/gitcbmc-lazy-po/experiments/pthread/stack_false-unreach-call.c line 99 function t2 thread 2
----------------------------------------------------
  stack=arr (0000011100000000000000000000000000000000000000000000000000000000)

State 277 file /nas/schram/gitcbmc-lazy-po/experiments/pthread/stack_false-unreach-call.c line 31 function dec_top thread 2
----------------------------------------------------
  top=0 (00000000000000000000000000000000)

State 298 file /nas/schram/gitcbmc-lazy-po/experiments/pthread/stack_false-unreach-call.c line 94 function t2 thread 2
----------------------------------------------------
  i=2 (00000000000000000000000000000010)

State 311 file /nas/schram/gitcbmc-lazy-po/experiments/pthread/stack_false-unreach-call.c line 99 function t2 thread 2
----------------------------------------------------
  stack=arr (0000011100000000000000000000000000000000000000000000000000000000)
stack underflow


Violated property:
  file /nas/schram/gitcbmc-lazy-po/experiments/pthread/stack_false-unreach-call.c line 20 function error
  error label ERROR
  FALSE

VERIFICATION FAILED
Partial order constraints used: 2833/9784
  fr: 1715/8121
  po: 124/125
  rf: 428/450
  rf-order: 320/485
  rf-some: 68/68
  rfi: 116/163
  thread-spawn: 2/2
  ws-ext: 60/370
Time: 208.246566
