CBMC version 5.0 64-bit x86_64 linux
Parsing /nas/schram/gitcbmc-lazy-po/experiments/pthread-atomic/dekker_true-unreach-call.c
Converting
Type-checking dekker_true-unreach-call
Generating GOTO Program
Adding CPROVER library
Function Pointer Removal
Partial Inlining
Generic Property Instrumentation
Starting Bounded Model Checking
Unwinding loop thr1.0 iteration 1 (5 max) file /nas/schram/gitcbmc-lazy-po/experiments/pthread-atomic/dekker_true-unreach-call.c line 19 function thr1 thread 1
Unwinding loop thr1.0 iteration 2 (5 max) file /nas/schram/gitcbmc-lazy-po/experiments/pthread-atomic/dekker_true-unreach-call.c line 19 function thr1 thread 1
Unwinding loop thr1.0 iteration 3 (5 max) file /nas/schram/gitcbmc-lazy-po/experiments/pthread-atomic/dekker_true-unreach-call.c line 19 function thr1 thread 1
Unwinding loop thr1.0 iteration 4 (5 max) file /nas/schram/gitcbmc-lazy-po/experiments/pthread-atomic/dekker_true-unreach-call.c line 19 function thr1 thread 1
Not unwinding loop thr1.0 iteration 5 (5 max) file /nas/schram/gitcbmc-lazy-po/experiments/pthread-atomic/dekker_true-unreach-call.c line 19 function thr1 thread 1
Unwinding loop thr1.1 iteration 1 (5 max) file /nas/schram/gitcbmc-lazy-po/experiments/pthread-atomic/dekker_true-unreach-call.c line 16 function thr1 thread 1
Unwinding loop thr1.0 iteration 1 (5 max) file /nas/schram/gitcbmc-lazy-po/experiments/pthread-atomic/dekker_true-unreach-call.c line 19 function thr1 thread 1
Unwinding loop thr1.0 iteration 2 (5 max) file /nas/schram/gitcbmc-lazy-po/experiments/pthread-atomic/dekker_true-unreach-call.c line 19 function thr1 thread 1
Unwinding loop thr1.0 iteration 3 (5 max) file /nas/schram/gitcbmc-lazy-po/experiments/pthread-atomic/dekker_true-unreach-call.c line 19 function thr1 thread 1
Unwinding loop thr1.0 iteration 4 (5 max) file /nas/schram/gitcbmc-lazy-po/experiments/pthread-atomic/dekker_true-unreach-call.c line 19 function thr1 thread 1
Not unwinding loop thr1.0 iteration 5 (5 max) file /nas/schram/gitcbmc-lazy-po/experiments/pthread-atomic/dekker_true-unreach-call.c line 19 function thr1 thread 1
Unwinding loop thr1.1 iteration 2 (5 max) file /nas/schram/gitcbmc-lazy-po/experiments/pthread-atomic/dekker_true-unreach-call.c line 16 function thr1 thread 1
Unwinding loop thr1.0 iteration 1 (5 max) file /nas/schram/gitcbmc-lazy-po/experiments/pthread-atomic/dekker_true-unreach-call.c line 19 function thr1 thread 1
Unwinding loop thr1.0 iteration 2 (5 max) file /nas/schram/gitcbmc-lazy-po/experiments/pthread-atomic/dekker_true-unreach-call.c line 19 function thr1 thread 1
Unwinding loop thr1.0 iteration 3 (5 max) file /nas/schram/gitcbmc-lazy-po/experiments/pthread-atomic/dekker_true-unreach-call.c line 19 function thr1 thread 1
Unwinding loop thr1.0 iteration 4 (5 max) file /nas/schram/gitcbmc-lazy-po/experiments/pthread-atomic/dekker_true-unreach-call.c line 19 function thr1 thread 1
Not unwinding loop thr1.0 iteration 5 (5 max) file /nas/schram/gitcbmc-lazy-po/experiments/pthread-atomic/dekker_true-unreach-call.c line 19 function thr1 thread 1
Unwinding loop thr1.1 iteration 3 (5 max) file /nas/schram/gitcbmc-lazy-po/experiments/pthread-atomic/dekker_true-unreach-call.c line 16 function thr1 thread 1
Unwinding loop thr1.0 iteration 1 (5 max) file /nas/schram/gitcbmc-lazy-po/experiments/pthread-atomic/dekker_true-unreach-call.c line 19 function thr1 thread 1
Unwinding loop thr1.0 iteration 2 (5 max) file /nas/schram/gitcbmc-lazy-po/experiments/pthread-atomic/dekker_true-unreach-call.c line 19 function thr1 thread 1
Unwinding loop thr1.0 iteration 3 (5 max) file /nas/schram/gitcbmc-lazy-po/experiments/pthread-atomic/dekker_true-unreach-call.c line 19 function thr1 thread 1
Unwinding loop thr1.0 iteration 4 (5 max) file /nas/schram/gitcbmc-lazy-po/experiments/pthread-atomic/dekker_true-unreach-call.c line 19 function thr1 thread 1
Not unwinding loop thr1.0 iteration 5 (5 max) file /nas/schram/gitcbmc-lazy-po/experiments/pthread-atomic/dekker_true-unreach-call.c line 19 function thr1 thread 1
Unwinding loop thr1.1 iteration 4 (5 max) file /nas/schram/gitcbmc-lazy-po/experiments/pthread-atomic/dekker_true-unreach-call.c line 16 function thr1 thread 1
Unwinding loop thr1.0 iteration 1 (5 max) file /nas/schram/gitcbmc-lazy-po/experiments/pthread-atomic/dekker_true-unreach-call.c line 19 function thr1 thread 1
Unwinding loop thr1.0 iteration 2 (5 max) file /nas/schram/gitcbmc-lazy-po/experiments/pthread-atomic/dekker_true-unreach-call.c line 19 function thr1 thread 1
Unwinding loop thr1.0 iteration 3 (5 max) file /nas/schram/gitcbmc-lazy-po/experiments/pthread-atomic/dekker_true-unreach-call.c line 19 function thr1 thread 1
Unwinding loop thr1.0 iteration 4 (5 max) file /nas/schram/gitcbmc-lazy-po/experiments/pthread-atomic/dekker_true-unreach-call.c line 19 function thr1 thread 1
Not unwinding loop thr1.0 iteration 5 (5 max) file /nas/schram/gitcbmc-lazy-po/experiments/pthread-atomic/dekker_true-unreach-call.c line 19 function thr1 thread 1
Not unwinding loop thr1.1 iteration 5 (5 max) file /nas/schram/gitcbmc-lazy-po/experiments/pthread-atomic/dekker_true-unreach-call.c line 16 function thr1 thread 1
Unwinding loop thr2.0 iteration 1 (5 max) file /nas/schram/gitcbmc-lazy-po/experiments/pthread-atomic/dekker_true-unreach-call.c line 36 function thr2 thread 2
Unwinding loop thr2.0 iteration 2 (5 max) file /nas/schram/gitcbmc-lazy-po/experiments/pthread-atomic/dekker_true-unreach-call.c line 36 function thr2 thread 2
Unwinding loop thr2.0 iteration 3 (5 max) file /nas/schram/gitcbmc-lazy-po/experiments/pthread-atomic/dekker_true-unreach-call.c line 36 function thr2 thread 2
Unwinding loop thr2.0 iteration 4 (5 max) file /nas/schram/gitcbmc-lazy-po/experiments/pthread-atomic/dekker_true-unreach-call.c line 36 function thr2 thread 2
Not unwinding loop thr2.0 iteration 5 (5 max) file /nas/schram/gitcbmc-lazy-po/experiments/pthread-atomic/dekker_true-unreach-call.c line 36 function thr2 thread 2
Unwinding loop thr2.1 iteration 1 (5 max) file /nas/schram/gitcbmc-lazy-po/experiments/pthread-atomic/dekker_true-unreach-call.c line 33 function thr2 thread 2
Unwinding loop thr2.0 iteration 1 (5 max) file /nas/schram/gitcbmc-lazy-po/experiments/pthread-atomic/dekker_true-unreach-call.c line 36 function thr2 thread 2
Unwinding loop thr2.0 iteration 2 (5 max) file /nas/schram/gitcbmc-lazy-po/experiments/pthread-atomic/dekker_true-unreach-call.c line 36 function thr2 thread 2
Unwinding loop thr2.0 iteration 3 (5 max) file /nas/schram/gitcbmc-lazy-po/experiments/pthread-atomic/dekker_true-unreach-call.c line 36 function thr2 thread 2
Unwinding loop thr2.0 iteration 4 (5 max) file /nas/schram/gitcbmc-lazy-po/experiments/pthread-atomic/dekker_true-unreach-call.c line 36 function thr2 thread 2
Not unwinding loop thr2.0 iteration 5 (5 max) file /nas/schram/gitcbmc-lazy-po/experiments/pthread-atomic/dekker_true-unreach-call.c line 36 function thr2 thread 2
Unwinding loop thr2.1 iteration 2 (5 max) file /nas/schram/gitcbmc-lazy-po/experiments/pthread-atomic/dekker_true-unreach-call.c line 33 function thr2 thread 2
Unwinding loop thr2.0 iteration 1 (5 max) file /nas/schram/gitcbmc-lazy-po/experiments/pthread-atomic/dekker_true-unreach-call.c line 36 function thr2 thread 2
Unwinding loop thr2.0 iteration 2 (5 max) file /nas/schram/gitcbmc-lazy-po/experiments/pthread-atomic/dekker_true-unreach-call.c line 36 function thr2 thread 2
Unwinding loop thr2.0 iteration 3 (5 max) file /nas/schram/gitcbmc-lazy-po/experiments/pthread-atomic/dekker_true-unreach-call.c line 36 function thr2 thread 2
Unwinding loop thr2.0 iteration 4 (5 max) file /nas/schram/gitcbmc-lazy-po/experiments/pthread-atomic/dekker_true-unreach-call.c line 36 function thr2 thread 2
Not unwinding loop thr2.0 iteration 5 (5 max) file /nas/schram/gitcbmc-lazy-po/experiments/pthread-atomic/dekker_true-unreach-call.c line 36 function thr2 thread 2
Unwinding loop thr2.1 iteration 3 (5 max) file /nas/schram/gitcbmc-lazy-po/experiments/pthread-atomic/dekker_true-unreach-call.c line 33 function thr2 thread 2
Unwinding loop thr2.0 iteration 1 (5 max) file /nas/schram/gitcbmc-lazy-po/experiments/pthread-atomic/dekker_true-unreach-call.c line 36 function thr2 thread 2
Unwinding loop thr2.0 iteration 2 (5 max) file /nas/schram/gitcbmc-lazy-po/experiments/pthread-atomic/dekker_true-unreach-call.c line 36 function thr2 thread 2
Unwinding loop thr2.0 iteration 3 (5 max) file /nas/schram/gitcbmc-lazy-po/experiments/pthread-atomic/dekker_true-unreach-call.c line 36 function thr2 thread 2
Unwinding loop thr2.0 iteration 4 (5 max) file /nas/schram/gitcbmc-lazy-po/experiments/pthread-atomic/dekker_true-unreach-call.c line 36 function thr2 thread 2
Not unwinding loop thr2.0 iteration 5 (5 max) file /nas/schram/gitcbmc-lazy-po/experiments/pthread-atomic/dekker_true-unreach-call.c line 36 function thr2 thread 2
Unwinding loop thr2.1 iteration 4 (5 max) file /nas/schram/gitcbmc-lazy-po/experiments/pthread-atomic/dekker_true-unreach-call.c line 33 function thr2 thread 2
Unwinding loop thr2.0 iteration 1 (5 max) file /nas/schram/gitcbmc-lazy-po/experiments/pthread-atomic/dekker_true-unreach-call.c line 36 function thr2 thread 2
Unwinding loop thr2.0 iteration 2 (5 max) file /nas/schram/gitcbmc-lazy-po/experiments/pthread-atomic/dekker_true-unreach-call.c line 36 function thr2 thread 2
Unwinding loop thr2.0 iteration 3 (5 max) file /nas/schram/gitcbmc-lazy-po/experiments/pthread-atomic/dekker_true-unreach-call.c line 36 function thr2 thread 2
Unwinding loop thr2.0 iteration 4 (5 max) file /nas/schram/gitcbmc-lazy-po/experiments/pthread-atomic/dekker_true-unreach-call.c line 36 function thr2 thread 2
Not unwinding loop thr2.0 iteration 5 (5 max) file /nas/schram/gitcbmc-lazy-po/experiments/pthread-atomic/dekker_true-unreach-call.c line 36 function thr2 thread 2
Not unwinding loop thr2.1 iteration 5 (5 max) file /nas/schram/gitcbmc-lazy-po/experiments/pthread-atomic/dekker_true-unreach-call.c line 33 function thr2 thread 2
Adding TSO constraints
size of program expression: 4791 steps
no slicing due to threads
Generated 4 VCC(s), 4 remaining after simplification
Passing problem to refinement loop with MiniSAT 2.2.0 with simplifier
converting SSA
Running refinement loop with MiniSAT 2.2.0 with simplifier
BV-Refinement: post-processing
BV-Refinement: iteration 1
6049 variables, 11551 clauses
SAT checker: negated claim is SATISFIABLE, i.e., does not hold
BV-Refinement: 17 partial order constraints become active
BV-Refinement: 4187 inactive partial order constraints
BV-Refinement: got SAT, and it is spurious, refining
BV-Refinement: iteration 2
6314 variables, 10931 clauses
SAT checker: negated claim is SATISFIABLE, i.e., does not hold
BV-Refinement: 13 partial order constraints become active
BV-Refinement: 4174 inactive partial order constraints
BV-Refinement: got SAT, and it is spurious, refining
BV-Refinement: iteration 3
6501 variables, 11689 clauses
SAT checker: negated claim is SATISFIABLE, i.e., does not hold
BV-Refinement: 13 partial order constraints become active
BV-Refinement: 4161 inactive partial order constraints
BV-Refinement: got SAT, and it is spurious, refining
BV-Refinement: iteration 4
6734 variables, 12747 clauses
SAT checker: negated claim is SATISFIABLE, i.e., does not hold
BV-Refinement: 41 partial order constraints become active
BV-Refinement: 4120 inactive partial order constraints
BV-Refinement: got SAT, and it is spurious, refining
BV-Refinement: iteration 5
6914 variables, 14366 clauses
SAT checker: negated claim is SATISFIABLE, i.e., does not hold
BV-Refinement: 32 partial order constraints become active
BV-Refinement: 4088 inactive partial order constraints
BV-Refinement: got SAT, and it is spurious, refining
BV-Refinement: iteration 6
7090 variables, 15839 clauses
SAT checker: negated claim is SATISFIABLE, i.e., does not hold
BV-Refinement: 11 partial order constraints become active
BV-Refinement: 4077 inactive partial order constraints
BV-Refinement: got SAT, and it is spurious, refining
BV-Refinement: iteration 7
7145 variables, 16264 clauses
SAT checker: negated claim is SATISFIABLE, i.e., does not hold
BV-Refinement: 9 partial order constraints become active
BV-Refinement: 4068 inactive partial order constraints
BV-Refinement: got SAT, and it is spurious, refining
BV-Refinement: iteration 8
7230 variables, 16769 clauses
SAT checker: negated claim is SATISFIABLE, i.e., does not hold
BV-Refinement: 13 partial order constraints become active
BV-Refinement: 4055 inactive partial order constraints
BV-Refinement: got SAT, and it is spurious, refining
BV-Refinement: iteration 9
7457 variables, 17880 clauses
SAT checker: negated claim is SATISFIABLE, i.e., does not hold
BV-Refinement: 13 partial order constraints become active
BV-Refinement: 4042 inactive partial order constraints
BV-Refinement: got SAT, and it is spurious, refining
BV-Refinement: iteration 10
7571 variables, 18548 clauses
SAT checker: negated claim is SATISFIABLE, i.e., does not hold
BV-Refinement: 18 partial order constraints become active
BV-Refinement: 4024 inactive partial order constraints
BV-Refinement: got SAT, and it is spurious, refining
BV-Refinement: iteration 11
7708 variables, 19432 clauses
SAT checker: negated claim is SATISFIABLE, i.e., does not hold
BV-Refinement: 11 partial order constraints become active
BV-Refinement: 4013 inactive partial order constraints
BV-Refinement: got SAT, and it is spurious, refining
BV-Refinement: iteration 12
7810 variables, 19962 clauses
SAT checker: negated claim is SATISFIABLE, i.e., does not hold
BV-Refinement: 9 partial order constraints become active
BV-Refinement: 4004 inactive partial order constraints
BV-Refinement: got SAT, and it is spurious, refining
BV-Refinement: iteration 13
7922 variables, 20605 clauses
SAT checker: negated claim is SATISFIABLE, i.e., does not hold
BV-Refinement: 9 partial order constraints become active
BV-Refinement: 3995 inactive partial order constraints
BV-Refinement: got SAT, and it is spurious, refining
BV-Refinement: iteration 14
8031 variables, 21175 clauses
SAT checker: negated claim is SATISFIABLE, i.e., does not hold
BV-Refinement: 10 partial order constraints become active
BV-Refinement: 3985 inactive partial order constraints
BV-Refinement: got SAT, and it is spurious, refining
BV-Refinement: iteration 15
8123 variables, 21742 clauses
SAT checker: negated claim is SATISFIABLE, i.e., does not hold
BV-Refinement: 8 partial order constraints become active
BV-Refinement: 3977 inactive partial order constraints
BV-Refinement: got SAT, and it is spurious, refining
BV-Refinement: iteration 16
8206 variables, 22181 clauses
SAT checker: negated claim is SATISFIABLE, i.e., does not hold
BV-Refinement: 12 partial order constraints become active
BV-Refinement: 3965 inactive partial order constraints
BV-Refinement: got SAT, and it is spurious, refining
BV-Refinement: iteration 17
8369 variables, 23032 clauses
SAT checker: negated claim is SATISFIABLE, i.e., does not hold
BV-Refinement: 8 partial order constraints become active
BV-Refinement: 3957 inactive partial order constraints
BV-Refinement: got SAT, and it is spurious, refining
BV-Refinement: iteration 18
8516 variables, 23627 clauses
SAT checker: negated claim is SATISFIABLE, i.e., does not hold
BV-Refinement: 10 partial order constraints become active
BV-Refinement: 3947 inactive partial order constraints
BV-Refinement: got SAT, and it is spurious, refining
BV-Refinement: iteration 19
8672 variables, 24300 clauses
SAT checker: negated claim is SATISFIABLE, i.e., does not hold
BV-Refinement: 8 partial order constraints become active
BV-Refinement: 3939 inactive partial order constraints
BV-Refinement: got SAT, and it is spurious, refining
BV-Refinement: iteration 20
8794 variables, 24738 clauses
SAT checker: negated claim is SATISFIABLE, i.e., does not hold
BV-Refinement: 4 partial order constraints become active
BV-Refinement: 3935 inactive partial order constraints
BV-Refinement: got SAT, and it is spurious, refining
BV-Refinement: iteration 21
8826 variables, 24869 clauses
SAT checker: negated claim is SATISFIABLE, i.e., does not hold
BV-Refinement: 8 partial order constraints become active
BV-Refinement: 3927 inactive partial order constraints
BV-Refinement: got SAT, and it is spurious, refining
BV-Refinement: iteration 22
9011 variables, 25698 clauses
SAT checker: negated claim is SATISFIABLE, i.e., does not hold
BV-Refinement: 21 partial order constraints become active
BV-Refinement: 3906 inactive partial order constraints
BV-Refinement: got SAT, and it is spurious, refining
BV-Refinement: iteration 23
9377 variables, 27457 clauses
SAT checker: negated claim is SATISFIABLE, i.e., does not hold
BV-Refinement: 13 partial order constraints become active
BV-Refinement: 3893 inactive partial order constraints
BV-Refinement: got SAT, and it is spurious, refining
BV-Refinement: iteration 24
9502 variables, 27795 clauses
SAT checker: negated claim is SATISFIABLE, i.e., does not hold
BV-Refinement: 14 partial order constraints become active
BV-Refinement: 3879 inactive partial order constraints
BV-Refinement: got SAT, and it is spurious, refining
BV-Refinement: iteration 25
9668 variables, 28637 clauses
SAT checker: negated claim is SATISFIABLE, i.e., does not hold
BV-Refinement: 14 partial order constraints become active
BV-Refinement: 3865 inactive partial order constraints
BV-Refinement: got SAT, and it is spurious, refining
BV-Refinement: iteration 26
9847 variables, 29550 clauses
SAT checker: negated claim is SATISFIABLE, i.e., does not hold
BV-Refinement: 10 partial order constraints become active
BV-Refinement: 3855 inactive partial order constraints
BV-Refinement: got SAT, and it is spurious, refining
BV-Refinement: iteration 27
9986 variables, 30002 clauses
SAT checker: negated claim is SATISFIABLE, i.e., does not hold
BV-Refinement: 18 partial order constraints become active
BV-Refinement: 3837 inactive partial order constraints
BV-Refinement: got SAT, and it is spurious, refining
BV-Refinement: iteration 28
10345 variables, 31642 clauses
SAT checker: negated claim is SATISFIABLE, i.e., does not hold
BV-Refinement: 14 partial order constraints become active
BV-Refinement: 3823 inactive partial order constraints
BV-Refinement: got SAT, and it is spurious, refining
BV-Refinement: iteration 29
10560 variables, 32383 clauses
SAT checker: negated claim is SATISFIABLE, i.e., does not hold
BV-Refinement: 10 partial order constraints become active
BV-Refinement: 3813 inactive partial order constraints
BV-Refinement: got SAT, and it is spurious, refining
BV-Refinement: iteration 30
10778 variables, 33235 clauses
SAT checker: negated claim is SATISFIABLE, i.e., does not hold
BV-Refinement: 5 partial order constraints become active
BV-Refinement: 3808 inactive partial order constraints
BV-Refinement: got SAT, and it is spurious, refining
BV-Refinement: iteration 31
10922 variables, 33748 clauses
SAT checker: negated claim is SATISFIABLE, i.e., does not hold
BV-Refinement: 9 partial order constraints become active
BV-Refinement: 3799 inactive partial order constraints
BV-Refinement: got SAT, and it is spurious, refining
BV-Refinement: iteration 32
11092 variables, 34461 clauses
SAT checker: negated claim is SATISFIABLE, i.e., does not hold
BV-Refinement: 2 partial order constraints become active
BV-Refinement: 3797 inactive partial order constraints
BV-Refinement: got SAT, and it is spurious, refining
BV-Refinement: iteration 33
11136 variables, 34435 clauses
SAT checker: negated claim is SATISFIABLE, i.e., does not hold
BV-Refinement: 3 partial order constraints become active
BV-Refinement: 3794 inactive partial order constraints
BV-Refinement: got SAT, and it is spurious, refining
BV-Refinement: iteration 34
11233 variables, 34769 clauses
SAT checker: negated claim is SATISFIABLE, i.e., does not hold
BV-Refinement: 9 partial order constraints become active
BV-Refinement: 3785 inactive partial order constraints
BV-Refinement: got SAT, and it is spurious, refining
BV-Refinement: iteration 35
11430 variables, 35613 clauses
SAT checker: negated claim is SATISFIABLE, i.e., does not hold
BV-Refinement: 22 partial order constraints become active
BV-Refinement: 3763 inactive partial order constraints
BV-Refinement: got SAT, and it is spurious, refining
BV-Refinement: iteration 36
11900 variables, 37682 clauses
SAT checker: negated claim is SATISFIABLE, i.e., does not hold
BV-Refinement: 7 partial order constraints become active
BV-Refinement: 3756 inactive partial order constraints
BV-Refinement: got SAT, and it is spurious, refining
BV-Refinement: iteration 37
12035 variables, 37870 clauses
SAT checker: negated claim is SATISFIABLE, i.e., does not hold
BV-Refinement: 4 partial order constraints become active
BV-Refinement: 3752 inactive partial order constraints
BV-Refinement: got SAT, and it is spurious, refining
BV-Refinement: iteration 38
12124 variables, 38106 clauses
SAT checker: negated claim is SATISFIABLE, i.e., does not hold
BV-Refinement: 2 partial order constraints become active
BV-Refinement: 3750 inactive partial order constraints
BV-Refinement: got SAT, and it is spurious, refining
BV-Refinement: iteration 39
12187 variables, 38320 clauses
SAT checker: negated claim is SATISFIABLE, i.e., does not hold
BV-Refinement: 8 partial order constraints become active
BV-Refinement: 3742 inactive partial order constraints
BV-Refinement: got SAT, and it is spurious, refining
BV-Refinement: iteration 40
12347 variables, 39003 clauses
SAT checker: negated claim is SATISFIABLE, i.e., does not hold
BV-Refinement: 5 partial order constraints become active
BV-Refinement: 3737 inactive partial order constraints
BV-Refinement: got SAT, and it is spurious, refining
BV-Refinement: iteration 41
12488 variables, 39363 clauses
SAT checker: negated claim is SATISFIABLE, i.e., does not hold
BV-Refinement: 9 partial order constraints become active
BV-Refinement: 3728 inactive partial order constraints
BV-Refinement: got SAT, and it is spurious, refining
BV-Refinement: iteration 42
12666 variables, 40067 clauses
SAT checker: negated claim is SATISFIABLE, i.e., does not hold
BV-Refinement: 7 partial order constraints become active
BV-Refinement: 3721 inactive partial order constraints
BV-Refinement: got SAT, and it is spurious, refining
BV-Refinement: iteration 43
12898 variables, 40858 clauses
SAT checker: negated claim is SATISFIABLE, i.e., does not hold
BV-Refinement: 20 partial order constraints become active
BV-Refinement: 3701 inactive partial order constraints
BV-Refinement: got SAT, and it is spurious, refining
BV-Refinement: iteration 44
13426 variables, 43200 clauses
SAT checker: negated claim is SATISFIABLE, i.e., does not hold
BV-Refinement: 17 partial order constraints become active
BV-Refinement: 3684 inactive partial order constraints
BV-Refinement: got SAT, and it is spurious, refining
BV-Refinement: iteration 45
13748 variables, 44365 clauses
SAT checker: negated claim is SATISFIABLE, i.e., does not hold
BV-Refinement: 19 partial order constraints become active
BV-Refinement: 3665 inactive partial order constraints
BV-Refinement: got SAT, and it is spurious, refining
BV-Refinement: iteration 46
14160 variables, 45872 clauses
SAT checker: negated claim is SATISFIABLE, i.e., does not hold
BV-Refinement: 31 partial order constraints become active
BV-Refinement: 3634 inactive partial order constraints
BV-Refinement: got SAT, and it is spurious, refining
BV-Refinement: iteration 47
14709 variables, 48187 clauses
SAT checker: negated claim is SATISFIABLE, i.e., does not hold
BV-Refinement: 5 partial order constraints become active
BV-Refinement: 3629 inactive partial order constraints
BV-Refinement: got SAT, and it is spurious, refining
BV-Refinement: iteration 48
14845 variables, 48135 clauses
SAT checker: negated claim is SATISFIABLE, i.e., does not hold
BV-Refinement: 15 partial order constraints become active
BV-Refinement: 3614 inactive partial order constraints
BV-Refinement: got SAT, and it is spurious, refining
BV-Refinement: iteration 49
15117 variables, 49373 clauses
SAT checker: negated claim is SATISFIABLE, i.e., does not hold
BV-Refinement: 3 partial order constraints become active
BV-Refinement: 3611 inactive partial order constraints
BV-Refinement: got SAT, and it is spurious, refining
BV-Refinement: iteration 50
15163 variables, 49300 clauses
SAT checker: negated claim is SATISFIABLE, i.e., does not hold
BV-Refinement: 2 partial order constraints become active
BV-Refinement: 3609 inactive partial order constraints
BV-Refinement: got SAT, and it is spurious, refining
BV-Refinement: iteration 51
15234 variables, 49528 clauses
SAT checker: negated claim is SATISFIABLE, i.e., does not hold
BV-Refinement: 9 partial order constraints become active
BV-Refinement: 3600 inactive partial order constraints
BV-Refinement: got SAT, and it is spurious, refining
BV-Refinement: iteration 52
15404 variables, 50301 clauses
SAT checker: negated claim is SATISFIABLE, i.e., does not hold
BV-Refinement: 13 partial order constraints become active
BV-Refinement: 3587 inactive partial order constraints
BV-Refinement: got SAT, and it is spurious, refining
BV-Refinement: iteration 53
15681 variables, 51358 clauses
SAT checker: negated claim is SATISFIABLE, i.e., does not hold
BV-Refinement: 4 partial order constraints become active
BV-Refinement: 3583 inactive partial order constraints
BV-Refinement: got SAT, and it is spurious, refining
BV-Refinement: iteration 54
15796 variables, 51522 clauses
SAT checker: negated claim is SATISFIABLE, i.e., does not hold
BV-Refinement: 5 partial order constraints become active
BV-Refinement: 3578 inactive partial order constraints
BV-Refinement: got SAT, and it is spurious, refining
BV-Refinement: iteration 55
15894 variables, 51889 clauses
SAT checker: negated claim is SATISFIABLE, i.e., does not hold
BV-Refinement: 9 partial order constraints become active
BV-Refinement: 3569 inactive partial order constraints
BV-Refinement: got SAT, and it is spurious, refining
BV-Refinement: iteration 56
16130 variables, 52866 clauses
SAT checker: negated claim is SATISFIABLE, i.e., does not hold
BV-Refinement: 7 partial order constraints become active
BV-Refinement: 3562 inactive partial order constraints
BV-Refinement: got SAT, and it is spurious, refining
BV-Refinement: iteration 57
16302 variables, 53504 clauses
SAT checker: negated claim is SATISFIABLE, i.e., does not hold
BV-Refinement: 5 partial order constraints become active
BV-Refinement: 3557 inactive partial order constraints
BV-Refinement: got SAT, and it is spurious, refining
BV-Refinement: iteration 58
16400 variables, 53811 clauses
SAT checker: negated claim is SATISFIABLE, i.e., does not hold
BV-Refinement: 2 partial order constraints become active
BV-Refinement: 3555 inactive partial order constraints
BV-Refinement: got SAT, and it is spurious, refining
BV-Refinement: iteration 59
16479 variables, 53970 clauses
SAT checker: negated claim is SATISFIABLE, i.e., does not hold
BV-Refinement: 6 partial order constraints become active
BV-Refinement: 3549 inactive partial order constraints
BV-Refinement: got SAT, and it is spurious, refining
BV-Refinement: iteration 60
16649 variables, 54661 clauses
SAT checker: negated claim is SATISFIABLE, i.e., does not hold
BV-Refinement: 3 partial order constraints become active
BV-Refinement: 3546 inactive partial order constraints
BV-Refinement: got SAT, and it is spurious, refining
BV-Refinement: iteration 61
16785 variables, 55179 clauses
SAT checker: negated claim is SATISFIABLE, i.e., does not hold
BV-Refinement: 13 partial order constraints become active
BV-Refinement: 3533 inactive partial order constraints
BV-Refinement: got SAT, and it is spurious, refining
BV-Refinement: iteration 62
17119 variables, 56660 clauses
SAT checker: negated claim is SATISFIABLE, i.e., does not hold
BV-Refinement: 30 partial order constraints become active
BV-Refinement: 3503 inactive partial order constraints
BV-Refinement: got SAT, and it is spurious, refining
BV-Refinement: iteration 63
17667 variables, 59097 clauses
SAT checker: negated claim is SATISFIABLE, i.e., does not hold
BV-Refinement: 3 partial order constraints become active
BV-Refinement: 3500 inactive partial order constraints
BV-Refinement: got SAT, and it is spurious, refining
BV-Refinement: iteration 64
17729 variables, 58677 clauses
SAT checker: negated claim is SATISFIABLE, i.e., does not hold
BV-Refinement: 2 partial order constraints become active
BV-Refinement: 3498 inactive partial order constraints
BV-Refinement: got SAT, and it is spurious, refining
BV-Refinement: iteration 65
17773 variables, 58788 clauses
SAT checker: negated claim is SATISFIABLE, i.e., does not hold
BV-Refinement: 5 partial order constraints become active
BV-Refinement: 3493 inactive partial order constraints
BV-Refinement: got SAT, and it is spurious, refining
BV-Refinement: iteration 66
17925 variables, 59380 clauses
SAT checker: negated claim is SATISFIABLE, i.e., does not hold
BV-Refinement: 16 partial order constraints become active
BV-Refinement: 3477 inactive partial order constraints
BV-Refinement: got SAT, and it is spurious, refining
BV-Refinement: iteration 67
18221 variables, 60723 clauses
SAT checker: negated claim is SATISFIABLE, i.e., does not hold
BV-Refinement: 2 partial order constraints become active
BV-Refinement: 3475 inactive partial order constraints
BV-Refinement: got SAT, and it is spurious, refining
BV-Refinement: iteration 68
18260 variables, 60543 clauses
SAT checker: negated claim is SATISFIABLE, i.e., does not hold
BV-Refinement: 4 partial order constraints become active
BV-Refinement: 3471 inactive partial order constraints
BV-Refinement: got SAT, and it is spurious, refining
BV-Refinement: iteration 69
18340 variables, 60889 clauses
SAT checker: negated claim is SATISFIABLE, i.e., does not hold
BV-Refinement: 2 partial order constraints become active
BV-Refinement: 3469 inactive partial order constraints
BV-Refinement: got SAT, and it is spurious, refining
BV-Refinement: iteration 70
18411 variables, 61071 clauses
SAT checker: negated claim is SATISFIABLE, i.e., does not hold
BV-Refinement: 18 partial order constraints become active
BV-Refinement: 3451 inactive partial order constraints
BV-Refinement: got SAT, and it is spurious, refining
BV-Refinement: iteration 71
18743 variables, 62654 clauses
SAT checker: negated claim is SATISFIABLE, i.e., does not hold
BV-Refinement: 8 partial order constraints become active
BV-Refinement: 3443 inactive partial order constraints
BV-Refinement: got SAT, and it is spurious, refining
BV-Refinement: iteration 72
18895 variables, 62960 clauses
SAT checker: negated claim is SATISFIABLE, i.e., does not hold
BV-Refinement: 2 partial order constraints become active
BV-Refinement: 3441 inactive partial order constraints
BV-Refinement: got SAT, and it is spurious, refining
BV-Refinement: iteration 73
18966 variables, 63050 clauses
SAT checker: negated claim is SATISFIABLE, i.e., does not hold
BV-Refinement: 8 partial order constraints become active
BV-Refinement: 3433 inactive partial order constraints
BV-Refinement: got SAT, and it is spurious, refining
BV-Refinement: iteration 74
19153 variables, 63827 clauses
SAT checker: negated claim is SATISFIABLE, i.e., does not hold
BV-Refinement: 31 partial order constraints become active
BV-Refinement: 3402 inactive partial order constraints
BV-Refinement: got SAT, and it is spurious, refining
BV-Refinement: iteration 75
19719 variables, 66442 clauses
SAT checker: negated claim is SATISFIABLE, i.e., does not hold
BV-Refinement: 17 partial order constraints become active
BV-Refinement: 3385 inactive partial order constraints
BV-Refinement: got SAT, and it is spurious, refining
BV-Refinement: iteration 76
20060 variables, 67353 clauses
SAT checker: negated claim is SATISFIABLE, i.e., does not hold
BV-Refinement: 12 partial order constraints become active
BV-Refinement: 3373 inactive partial order constraints
BV-Refinement: got SAT, and it is spurious, refining
BV-Refinement: iteration 77
20311 variables, 68145 clauses
SAT checker: negated claim is SATISFIABLE, i.e., does not hold
BV-Refinement: 4 partial order constraints become active
BV-Refinement: 3369 inactive partial order constraints
BV-Refinement: got SAT, and it is spurious, refining
BV-Refinement: iteration 78
20426 variables, 68332 clauses
SAT checker: negated claim is SATISFIABLE, i.e., does not hold
BV-Refinement: 23 partial order constraints become active
BV-Refinement: 3346 inactive partial order constraints
BV-Refinement: got SAT, and it is spurious, refining
BV-Refinement: iteration 79
20848 variables, 70319 clauses
SAT checker: negated claim is SATISFIABLE, i.e., does not hold
BV-Refinement: 10 partial order constraints become active
BV-Refinement: 3336 inactive partial order constraints
BV-Refinement: got SAT, and it is spurious, refining
BV-Refinement: iteration 80
21094 variables, 70972 clauses
SAT checker: negated claim is SATISFIABLE, i.e., does not hold
BV-Refinement: 4 partial order constraints become active
BV-Refinement: 3332 inactive partial order constraints
BV-Refinement: got SAT, and it is spurious, refining
BV-Refinement: iteration 81
21260 variables, 71591 clauses
SAT checker: negated claim is SATISFIABLE, i.e., does not hold
BV-Refinement: 4 partial order constraints become active
BV-Refinement: 3328 inactive partial order constraints
BV-Refinement: got SAT, and it is spurious, refining
BV-Refinement: iteration 82
21336 variables, 71883 clauses
SAT checker: negated claim is SATISFIABLE, i.e., does not hold
BV-Refinement: 3 partial order constraints become active
BV-Refinement: 3325 inactive partial order constraints
BV-Refinement: got SAT, and it is spurious, refining
BV-Refinement: iteration 83
21406 variables, 72125 clauses
SAT checker: negated claim is SATISFIABLE, i.e., does not hold
BV-Refinement: 3 partial order constraints become active
BV-Refinement: 3322 inactive partial order constraints
BV-Refinement: got SAT, and it is spurious, refining
BV-Refinement: iteration 84
21468 variables, 72326 clauses
SAT checker: negated claim is SATISFIABLE, i.e., does not hold
BV-Refinement: 3 partial order constraints become active
BV-Refinement: 3319 inactive partial order constraints
BV-Refinement: got SAT, and it is spurious, refining
BV-Refinement: iteration 85
21561 variables, 72715 clauses
SAT checker: negated claim is SATISFIABLE, i.e., does not hold
BV-Refinement: 10 partial order constraints become active
BV-Refinement: 3309 inactive partial order constraints
BV-Refinement: got SAT, and it is spurious, refining
BV-Refinement: iteration 86
21807 variables, 73846 clauses
SAT checker: negated claim is SATISFIABLE, i.e., does not hold
BV-Refinement: 9 partial order constraints become active
BV-Refinement: 3300 inactive partial order constraints
BV-Refinement: got SAT, and it is spurious, refining
BV-Refinement: iteration 87
22002 variables, 74568 clauses
SAT checker: negated claim is SATISFIABLE, i.e., does not hold
BV-Refinement: 13 partial order constraints become active
BV-Refinement: 3287 inactive partial order constraints
BV-Refinement: got SAT, and it is spurious, refining
BV-Refinement: iteration 88
22272 variables, 75735 clauses
SAT checker: negated claim is SATISFIABLE, i.e., does not hold
BV-Refinement: 3 partial order constraints become active
BV-Refinement: 3284 inactive partial order constraints
BV-Refinement: got SAT, and it is spurious, refining
BV-Refinement: iteration 89
22334 variables, 75747 clauses
SAT checker: negated claim is SATISFIABLE, i.e., does not hold
BV-Refinement: 3 partial order constraints become active
BV-Refinement: 3281 inactive partial order constraints
BV-Refinement: got SAT, and it is spurious, refining
BV-Refinement: iteration 90
22374 variables, 75870 clauses
SAT checker: negated claim is SATISFIABLE, i.e., does not hold
BV-Refinement: 19 partial order constraints become active
BV-Refinement: 3262 inactive partial order constraints
BV-Refinement: got SAT, and it is spurious, refining
BV-Refinement: iteration 91
22832 variables, 78064 clauses
SAT checker: negated claim is SATISFIABLE, i.e., does not hold
BV-Refinement: 42 partial order constraints become active
BV-Refinement: 3220 inactive partial order constraints
BV-Refinement: got SAT, and it is spurious, refining
BV-Refinement: iteration 92
23639 variables, 81712 clauses
SAT checker: negated claim is SATISFIABLE, i.e., does not hold
BV-Refinement: 8 partial order constraints become active
BV-Refinement: 3212 inactive partial order constraints
BV-Refinement: got SAT, and it is spurious, refining
BV-Refinement: iteration 93
23832 variables, 81817 clauses
SAT checker: negated claim is SATISFIABLE, i.e., does not hold
BV-Refinement: 13 partial order constraints become active
BV-Refinement: 3199 inactive partial order constraints
BV-Refinement: got SAT, and it is spurious, refining
BV-Refinement: iteration 94
24158 variables, 83229 clauses
SAT checker: negated claim is SATISFIABLE, i.e., does not hold
BV-Refinement: 22 partial order constraints become active
BV-Refinement: 3177 inactive partial order constraints
BV-Refinement: got SAT, and it is spurious, refining
BV-Refinement: iteration 95
24562 variables, 84946 clauses
SAT checker: negated claim is SATISFIABLE, i.e., does not hold
BV-Refinement: 7 partial order constraints become active
BV-Refinement: 3170 inactive partial order constraints
BV-Refinement: got SAT, and it is spurious, refining
BV-Refinement: iteration 96
24723 variables, 85164 clauses
SAT checker: negated claim is SATISFIABLE, i.e., does not hold
BV-Refinement: 11 partial order constraints become active
BV-Refinement: 3159 inactive partial order constraints
BV-Refinement: got SAT, and it is spurious, refining
BV-Refinement: iteration 97
24948 variables, 86096 clauses
SAT checker: negated claim is SATISFIABLE, i.e., does not hold
BV-Refinement: 20 partial order constraints become active
BV-Refinement: 3139 inactive partial order constraints
BV-Refinement: got SAT, and it is spurious, refining
BV-Refinement: iteration 98
25316 variables, 87652 clauses
SAT checker: negated claim is SATISFIABLE, i.e., does not hold
BV-Refinement: 3 partial order constraints become active
BV-Refinement: 3136 inactive partial order constraints
BV-Refinement: got SAT, and it is spurious, refining
BV-Refinement: iteration 99
25413 variables, 87556 clauses
SAT checker: negated claim is SATISFIABLE, i.e., does not hold
BV-Refinement: 40 partial order constraints become active
BV-Refinement: 3096 inactive partial order constraints
BV-Refinement: got SAT, and it is spurious, refining
BV-Refinement: iteration 100
26141 variables, 91096 clauses
SAT checker: negated claim is SATISFIABLE, i.e., does not hold
BV-Refinement: 5 partial order constraints become active
BV-Refinement: 3091 inactive partial order constraints
BV-Refinement: got SAT, and it is spurious, refining
BV-Refinement: iteration 101
26258 variables, 90720 clauses
SAT checker: negated claim is SATISFIABLE, i.e., does not hold
BV-Refinement: 6 partial order constraints become active
BV-Refinement: 3085 inactive partial order constraints
BV-Refinement: got SAT, and it is spurious, refining
BV-Refinement: iteration 102
26401 variables, 91248 clauses
SAT checker: negated claim is SATISFIABLE, i.e., does not hold
BV-Refinement: 23 partial order constraints become active
BV-Refinement: 3062 inactive partial order constraints
BV-Refinement: got SAT, and it is spurious, refining
BV-Refinement: iteration 103
26850 variables, 93283 clauses
SAT checker: negated claim is SATISFIABLE, i.e., does not hold
BV-Refinement: 33 partial order constraints become active
BV-Refinement: 3029 inactive partial order constraints
BV-Refinement: got SAT, and it is spurious, refining
BV-Refinement: iteration 104
27452 variables, 95733 clauses
SAT checker: negated claim is SATISFIABLE, i.e., does not hold
BV-Refinement: 5 partial order constraints become active
BV-Refinement: 3024 inactive partial order constraints
BV-Refinement: got SAT, and it is spurious, refining
BV-Refinement: iteration 105
27550 variables, 95424 clauses
SAT checker: negated claim is SATISFIABLE, i.e., does not hold
BV-Refinement: 2 partial order constraints become active
BV-Refinement: 3022 inactive partial order constraints
BV-Refinement: got SAT, and it is spurious, refining
BV-Refinement: iteration 106
27594 variables, 95489 clauses
SAT checker: negated claim is SATISFIABLE, i.e., does not hold
BV-Refinement: 6 partial order constraints become active
BV-Refinement: 3016 inactive partial order constraints
BV-Refinement: got SAT, and it is spurious, refining
BV-Refinement: iteration 107
27742 variables, 95983 clauses
SAT checker: negated claim is SATISFIABLE, i.e., does not hold
BV-Refinement: 2 partial order constraints become active
BV-Refinement: 3014 inactive partial order constraints
BV-Refinement: got SAT, and it is spurious, refining
BV-Refinement: iteration 108
27786 variables, 96025 clauses
SAT checker: negated claim is SATISFIABLE, i.e., does not hold
BV-Refinement: 0 partial order constraints become active
BV-Refinement: 3014 inactive partial order constraints
BV-Refinement: got SAT, and it simulates => SAT
Total iterations: 108
PROFILING: main_solver: 4.295
PROFILING: sat_check: 62.324
PROFILING: clustering: 0
Runtime decision procedure: 66.733s
Building error trace

Counterexample:

State 19 file /nas/schram/gitcbmc-lazy-po/experiments/pthread-atomic/dekker_true-unreach-call.c line 49 function main thread 0
----------------------------------------------------
  t1=0 (0000000000000000000000000000000000000000000000000000000000000000)

State 20 file /nas/schram/gitcbmc-lazy-po/experiments/pthread-atomic/dekker_true-unreach-call.c line 49 function main thread 0
----------------------------------------------------
  t2=0 (0000000000000000000000000000000000000000000000000000000000000000)

State 100 file <builtin-library>-pthread_create line 20 function __actual_thread_spawn thread 1
----------------------------------------------------
  va_arg0=NULL (0000000000000000000000000000000000000000000000000000000000000000)

State 101 file /nas/schram/gitcbmc-lazy-po/experiments/pthread-atomic/dekker_true-unreach-call.c line 32 function thr2 thread 2
----------------------------------------------------
  flag2=1 (00000000000000000000000000000001)

State 102 file /nas/schram/gitcbmc-lazy-po/experiments/pthread-atomic/dekker_true-unreach-call.c line 15 function thr1 thread 1
----------------------------------------------------
  flag1=1 (00000000000000000000000000000001)

State 103 file /nas/schram/gitcbmc-lazy-po/experiments/pthread-atomic/dekker_true-unreach-call.c line 24 function thr1 thread 1
----------------------------------------------------
  x=0 (00000000000000000000000000000000)

State 104 file /nas/schram/gitcbmc-lazy-po/experiments/pthread-atomic/dekker_true-unreach-call.c line 41 function thr2 thread 2
----------------------------------------------------
  x=1 (00000000000000000000000000000001)

Violated property:
  file /nas/schram/gitcbmc-lazy-po/experiments/pthread-atomic/dekker_true-unreach-call.c line 25 function thr1
  error label ERROR
  FALSE

VERIFICATION FAILED
Partial order constraints used: 1271/4285
  fr: 58/1172
  po: 818/2440
  rf: 202/254
  rf-order: 87/262
  rf-some: 77/77
  rfi: 7/10
  thread-spawn: 4/4
  ws-ext: 18/66
Time: 69.396201
