benchmark	   total  time   	   sat  time 	   iters   	   var   	   cl   	   used   	   total   
 dekker_true-unreach-call.c 	7.632323	5.148	0	71917	339324	0	0
 lamport_true-unreach-call.c 	123.547466	67.401	0	658136	3105181	0	0
 peterson_true-unreach-call.c 	1.468500	0.641	0	12779	52130	0	0
 qrcu_false-unreach-call.c 	18.205718	13.006	0	131535	599212	0	0
 qrcu_true-unreach-call.c 	27.878158	22.648	0	131535	599212	0	0
 read_write_lock_false-unreach-call.c 	2.169850	1.263	0	24530	100070	0	0
 read_write_lock_true-unreach-call.c 	2.169718	1.285	0	24498	99928	0	0
 scull_true-unreach-call.c 	0.016925	1.285	0	24498	99928	0	0
 szymanski_true-unreach-call.c 	5.677831	3.859	0	47898	220731	0	0
 time_var_mutex_true-unreach-call.c 	3.072944	2.163	0	27790	106603	0	0
 bigshot_p_false-unreach-call.c 	1.768835	0.93	0	20527	81709	0	0
 bigshot_s2_true-unreach-call.c 	1.768855	0.93	0	20230	80435	0	0
 bigshot_s_true-unreach-call.c 	1.768981	0.914	0	20450	81347	0	0
 fib_bench_false-unreach-call.cil.c 	14.145628	13.396	0	16118	66314	0	0
 fib_bench_false-unreach-call.c 	36.594781	35.778	0	15220	66184	0	0
 fib_bench_longer_false-unreach-call.cil.c 	44.110806	43.349	0	16116	66308	0	0
 fib_bench_longer_false-unreach-call.c 	54.684949	53.886	0	15218	66178	0	0
 fib_bench_longer_true-unreach-call.cil.c 	24.067183	23.307	0	16112	66236	0	0
 fib_bench_longer_true-unreach-call.c 	51.577390	50.759	0	15214	66106	0	0
 fib_bench_longest_false-unreach-call.c 	41.757324	40.931	0	15220	66184	0	0
 fib_bench_longest_true-unreach-call.c 	62.301949	61.514	0	15216	66112	0	0
 fib_bench_true-unreach-call.cil.c 	72.422828	71.672	0	16114	66242	0	0
 fib_bench_true-unreach-call.c 	57.940481	57.143	0	15216	66112	0	0
 indexer_true-unreach-call.c 	loop	57.143	0	15216	66112	0	0
 lazy01_false-unreach-call.c 	2.670814	1.77	0	26457	104123	0	0
 queue_false-unreach-call.cil.c 	900.132837	1.77	0	3565597	17214895	0	0
 queue_false-unreach-call.c 	900.118298	1.77	0	3120604	15288512	0	0
 queue_longer_false-unreach-call.c 	901.043914	1.77	0	37821064	187121092	0	0
 queue_longest_false-unreach-call.c 	901.967503	1.77	0	74347864	367997492	0	0
 queue_ok_longer_true-unreach-call.c 	900.947687	1.77	0	33555876	166109074	0	0
 queue_ok_longest_true-unreach-call.c 	901.797704	1.77	0	66523876	329257074	0	0
 queue_ok_true-unreach-call.cil.c 	451.424658	422.784	0	2815334	13596298	0	0
 queue_ok_true-unreach-call.c 	427.911370	399.179	0	2236276	11118474	0	0
 reorder_2_false-unreach-call.c 	16.803126	10.274	0	215323	830773	0	0
 reorder_5_false-unreach-call.cil.c 	20.210301	13.203	0	257204	986958	0	0
 reorder_5_false-unreach-call.c 	17.955046	11.3	0	224347	862682	0	0
 sigma_false-unreach-call.c 	2.170091	0.831	0	163156	129104	0	0
 singleton_false-unreach-call.c 	7.583066	6.337	0	45723	187878	0	0
 singleton_with-uninit-problems-true.c 	8.083150	6.832	0	45784	188058	0	0
 stack_false-unreach-call.c 	41.960616	35.308	0	235597	1083737	0	0
 stack_longer_false-unreach-call.c 	556.343574	549.498	0	938957	4148337	0	0
 stack_longer_true-unreach-call.c 	900.038052	549.498	0	936450	4136005	0	0
 stack_longest_false-unreach-call.c 	900.059173	549.498	0	1650892	7253982	0	0
 stack_longest_true-unreach-call.c 	900.059376	549.498	0	1648385	7241650	0	0
 stack_true-unreach-call.c 	900.022654	549.498	0	233090	1071405	0	0
 stateful01_false-unreach-call.c 	4.174148	3.157	0	34597	140691	0	0
 stateful01_true-unreach-call.c 	14.997568	14.007	0	34597	140691	0	0
 sync01_true-unreach-call.c 	45.968901	32.867	0	268485	1223864	0	0
 twostage_3_false-unreach-call.cil.c 	295.296324	200.971	0	2367905	11057285	0	0
 twostage_3_false-unreach-call.c 	297.897881	198.433	0	2322290	10887302	0	0
aclwdrr002.c	2.069571	1.711	0	7121	28186	0	0
aclwdrr006.c	0.515989	0.175	0	3884	14936	0	0
aclwdrr008.c	0.766587	0.417	0	6382	25368	0	0
aclwdrr010.c	0.616159	0.257	0	6175	24378	0	0
aclwdrr011.c	0.616251	0.262	0	6175	24378	0	0
aclwdrr013.c	0.666689	0.323	0	5962	23363	0	0
aclwsrr002.c	0.566113	0.215	0	5158	20103	0	0
bclwdww001.c	1.017018	0.659	0	7089	28131	0	0
bclwdww003.c	0.716459	0.365	0	6876	27116	0	0
bclwdww005.c	0.716529	0.36	0	6175	24378	0	0
iriw+lwsyncs.c	1.518494	1.142	0	7121	28186	0	0
lwdwr000.c	0.716372	0.339	0	6374	25429	0	0
lwdwr001.c	0.716731	0.339	0	6374	25429	0	0
lwdwr004.c	0.716408	0.366	0	6161	24414	0	0
lwdwr006.c	0.666513	0.298	0	6374	25429	0	0
lwdwr007.c	0.716375	0.338	0	6374	25429	0	0
lwdwr010.c	0.616177	0.267	0	6161	24414	0	0
lwdwr016.c	0.666366	0.285	0	6161	24414	0	0
lwdwr017.c	0.616109	0.26	0	6161	24414	0	0
lwdwr019.c	0.616255	0.27	0	5948	23399	0	0
mix004.c	0.666267	0.309	0	7629	30462	0	0
mix005.c	0.666387	0.301	0	7500	30016	0	0
mix007.c	0.716452	0.316	0	7560	30295	0	0
mix008.c	0.666335	0.297	0	7431	29849	0	0
mix013.c	0.716356	0.321	0	7629	30532	0	0
mix014.c	0.716816	0.322	0	7560	30400	0	0
mix017.c	0.666551	0.286	0	7057	28087	0	0
mix018.c	0.666361	0.298	0	6928	27641	0	0
mix020.c	0.666347	0.294	0	6928	27641	0	0
mix021.c	0.666745	0.278	0	6799	27195	0	0
mix023.c	0.716324	0.317	0	7491	30233	0	0
mix026.c	0.666426	0.285	0	6988	27920	0	0
mix027.c	0.666568	0.281	0	6859	27474	0	0
mix029.c	0.666525	0.293	0	6859	27474	0	0
mix030.c	0.666313	0.28	0	6730	27028	0	0
mix036.c	0.666218	0.288	0	7196	28709	0	0
mix037.c	0.666231	0.288	0	7067	28263	0	0
mix039.c	0.666298	0.301	0	7067	28263	0	0
mix040.c	0.666934	0.288	0	6938	27817	0	0
mix043.c	0.666611	0.296	0	7067	28263	0	0
mix044.c	0.666495	0.282	0	6938	27817	0	0
mix046.c	0.666357	0.284	0	6938	27817	0	0
mix047.c	0.666170	0.286	0	6809	27371	0	0
mix050.c	0.616403	0.271	0	6499	25780	0	0
mix051.c	0.616379	0.264	0	6370	25334	0	0
mix053.c	0.616110	0.259	0	6241	24888	0	0
mix055.c	0.616152	0.254	0	6241	24888	0	0
mix057.c	0.616250	0.267	0	6112	24442	0	0
podrr001.c	0.616141	0.24	0	5934	23223	0	0
podrw001.c	0.716823	0.347	0	6119	24102	0	0
podrwposwr001.c	0.766502	0.394	0	8078	32219	0	0
podrwposwr002.c	1.167468	0.777	0	8291	33234	0	0
podrwposwr003.c	0.816673	0.452	0	8078	32215	0	0
podrwposwr006.c	0.716701	0.347	0	6815	26960	0	0
podrwposwr007.c	0.766480	0.377	0	7732	30691	0	0
podrwposwr008.c	0.766470	0.375	0	7973	31842	0	0
podrwposwr010.c	0.916878	0.547	0	7028	27975	0	0
podrwposwr011.c	0.766469	0.383	0	7945	31706	0	0
podrwposwr012.c	1.117346	0.732	0	8186	32857	0	0
podrwposwr013.c	0.766892	0.382	0	6815	26956	0	0
podrwposwr014.c	0.666358	0.309	0	7732	30587	0	0
podrwposwr015.c	0.816640	0.437	0	7973	31738	0	0
posrr004.c	0.666693	0.298	0	6383	25205	0	0
rfe000.c	0.566102	0.201	0	5300	20376	0	0
rfe001.c	0.666197	0.313	0	8093	31605	0	0
rfi000.c	0.515906	0.148	0	3886	15114	0	0
rfi003.c	0.516285	0.166	0	4043	15696	0	0
safe002.c	0.566357	0.232	0	4798	18689	0	0
safe019.c	0.917102	0.535	0	7325	29424	0	0
safe025.c	0.866700	0.489	0	6624	26686	0	0
safe027.c	0.866999	0.489	0	6624	26686	0	0
safe034.c	0.566015	0.189	0	4537	17678	0	0
safe044.c	0.916792	0.535	0	7325	29424	0	0
safe049.c	0.866706	0.489	0	6624	26686	0	0
safe051.c	0.866727	0.49	0	6624	26686	0	0
safe057.c	0.566200	0.204	0	4083	15883	0	0
safe075.c	0.515834	0.182	0	4585	17674	0	0
safe078.c	0.866796	0.499	0	7053	27963	0	0
safe081.c	0.716341	0.335	0	7112	28079	0	0
safe087.c	0.666347	0.298	0	6411	25671	0	0
safe090.c	0.666327	0.326	0	6411	25671	0	0
safe100.c	0.816804	0.472	0	6382	25368	0	0
safe102.c	0.666282	0.316	0	6411	25341	0	0
safe104.c	0.516094	0.172	0	3884	14936	0	0
safe105.c	0.766572	0.389	0	6352	25225	0	0
safe107.c	0.666591	0.315	0	6411	25341	0	0
safe110.c	0.666330	0.307	0	6411	25341	0	0
thin000.c	0.566401	0.203	0	5300	20376	0	0
thin001.c	0.666296	0.305	0	8093	31605	0	0
thin002.c	0.616188	0.258	0	6555	25900	0	0
