CBMC version 5.0 64-bit x86_64 linux
Parsing /nas/schram/gitcbmc-lazy-po/experiments/pthread-atomic/lamport_true-unreach-call.c
Converting
Type-checking lamport_true-unreach-call
Generating GOTO Program
Adding CPROVER library
Function Pointer Removal
Partial Inlining
Generic Property Instrumentation
Starting Bounded Model Checking
Unwinding loop thr1.0 iteration 1 (5 max) file /nas/schram/gitcbmc-lazy-po/experiments/pthread-atomic/lamport_true-unreach-call.c line 20 function thr1 thread 1
Unwinding loop thr1.0 iteration 2 (5 max) file /nas/schram/gitcbmc-lazy-po/experiments/pthread-atomic/lamport_true-unreach-call.c line 20 function thr1 thread 1
Unwinding loop thr1.0 iteration 3 (5 max) file /nas/schram/gitcbmc-lazy-po/experiments/pthread-atomic/lamport_true-unreach-call.c line 20 function thr1 thread 1
Unwinding loop thr1.0 iteration 4 (5 max) file /nas/schram/gitcbmc-lazy-po/experiments/pthread-atomic/lamport_true-unreach-call.c line 20 function thr1 thread 1
Not unwinding loop thr1.0 iteration 5 (5 max) file /nas/schram/gitcbmc-lazy-po/experiments/pthread-atomic/lamport_true-unreach-call.c line 20 function thr1 thread 1
Unwinding loop thr1.1 iteration 1 (5 max) file /nas/schram/gitcbmc-lazy-po/experiments/pthread-atomic/lamport_true-unreach-call.c line 26 function thr1 thread 1
Unwinding loop thr1.1 iteration 2 (5 max) file /nas/schram/gitcbmc-lazy-po/experiments/pthread-atomic/lamport_true-unreach-call.c line 26 function thr1 thread 1
Unwinding loop thr1.1 iteration 3 (5 max) file /nas/schram/gitcbmc-lazy-po/experiments/pthread-atomic/lamport_true-unreach-call.c line 26 function thr1 thread 1
Unwinding loop thr1.1 iteration 4 (5 max) file /nas/schram/gitcbmc-lazy-po/experiments/pthread-atomic/lamport_true-unreach-call.c line 26 function thr1 thread 1
Not unwinding loop thr1.1 iteration 5 (5 max) file /nas/schram/gitcbmc-lazy-po/experiments/pthread-atomic/lamport_true-unreach-call.c line 26 function thr1 thread 1
Unwinding loop thr1.2 iteration 1 (5 max) file /nas/schram/gitcbmc-lazy-po/experiments/pthread-atomic/lamport_true-unreach-call.c line 28 function thr1 thread 1
Unwinding loop thr1.2 iteration 2 (5 max) file /nas/schram/gitcbmc-lazy-po/experiments/pthread-atomic/lamport_true-unreach-call.c line 28 function thr1 thread 1
Unwinding loop thr1.2 iteration 3 (5 max) file /nas/schram/gitcbmc-lazy-po/experiments/pthread-atomic/lamport_true-unreach-call.c line 28 function thr1 thread 1
Unwinding loop thr1.2 iteration 4 (5 max) file /nas/schram/gitcbmc-lazy-po/experiments/pthread-atomic/lamport_true-unreach-call.c line 28 function thr1 thread 1
Not unwinding loop thr1.2 iteration 5 (5 max) file /nas/schram/gitcbmc-lazy-po/experiments/pthread-atomic/lamport_true-unreach-call.c line 28 function thr1 thread 1
Unwinding loop thr1.3 iteration 1 (5 max) file /nas/schram/gitcbmc-lazy-po/experiments/pthread-atomic/lamport_true-unreach-call.c line 15 function thr1 thread 1
Unwinding loop thr1.0 iteration 1 (5 max) file /nas/schram/gitcbmc-lazy-po/experiments/pthread-atomic/lamport_true-unreach-call.c line 20 function thr1 thread 1
Unwinding loop thr1.0 iteration 2 (5 max) file /nas/schram/gitcbmc-lazy-po/experiments/pthread-atomic/lamport_true-unreach-call.c line 20 function thr1 thread 1
Unwinding loop thr1.0 iteration 3 (5 max) file /nas/schram/gitcbmc-lazy-po/experiments/pthread-atomic/lamport_true-unreach-call.c line 20 function thr1 thread 1
Unwinding loop thr1.0 iteration 4 (5 max) file /nas/schram/gitcbmc-lazy-po/experiments/pthread-atomic/lamport_true-unreach-call.c line 20 function thr1 thread 1
Not unwinding loop thr1.0 iteration 5 (5 max) file /nas/schram/gitcbmc-lazy-po/experiments/pthread-atomic/lamport_true-unreach-call.c line 20 function thr1 thread 1
Unwinding loop thr1.1 iteration 1 (5 max) file /nas/schram/gitcbmc-lazy-po/experiments/pthread-atomic/lamport_true-unreach-call.c line 26 function thr1 thread 1
Unwinding loop thr1.1 iteration 2 (5 max) file /nas/schram/gitcbmc-lazy-po/experiments/pthread-atomic/lamport_true-unreach-call.c line 26 function thr1 thread 1
Unwinding loop thr1.1 iteration 3 (5 max) file /nas/schram/gitcbmc-lazy-po/experiments/pthread-atomic/lamport_true-unreach-call.c line 26 function thr1 thread 1
Unwinding loop thr1.1 iteration 4 (5 max) file /nas/schram/gitcbmc-lazy-po/experiments/pthread-atomic/lamport_true-unreach-call.c line 26 function thr1 thread 1
Not unwinding loop thr1.1 iteration 5 (5 max) file /nas/schram/gitcbmc-lazy-po/experiments/pthread-atomic/lamport_true-unreach-call.c line 26 function thr1 thread 1
Unwinding loop thr1.2 iteration 1 (5 max) file /nas/schram/gitcbmc-lazy-po/experiments/pthread-atomic/lamport_true-unreach-call.c line 28 function thr1 thread 1
Unwinding loop thr1.2 iteration 2 (5 max) file /nas/schram/gitcbmc-lazy-po/experiments/pthread-atomic/lamport_true-unreach-call.c line 28 function thr1 thread 1
Unwinding loop thr1.2 iteration 3 (5 max) file /nas/schram/gitcbmc-lazy-po/experiments/pthread-atomic/lamport_true-unreach-call.c line 28 function thr1 thread 1
Unwinding loop thr1.2 iteration 4 (5 max) file /nas/schram/gitcbmc-lazy-po/experiments/pthread-atomic/lamport_true-unreach-call.c line 28 function thr1 thread 1
Not unwinding loop thr1.2 iteration 5 (5 max) file /nas/schram/gitcbmc-lazy-po/experiments/pthread-atomic/lamport_true-unreach-call.c line 28 function thr1 thread 1
Unwinding loop thr1.3 iteration 2 (5 max) file /nas/schram/gitcbmc-lazy-po/experiments/pthread-atomic/lamport_true-unreach-call.c line 15 function thr1 thread 1
Unwinding loop thr1.0 iteration 1 (5 max) file /nas/schram/gitcbmc-lazy-po/experiments/pthread-atomic/lamport_true-unreach-call.c line 20 function thr1 thread 1
Unwinding loop thr1.0 iteration 2 (5 max) file /nas/schram/gitcbmc-lazy-po/experiments/pthread-atomic/lamport_true-unreach-call.c line 20 function thr1 thread 1
Unwinding loop thr1.0 iteration 3 (5 max) file /nas/schram/gitcbmc-lazy-po/experiments/pthread-atomic/lamport_true-unreach-call.c line 20 function thr1 thread 1
Unwinding loop thr1.0 iteration 4 (5 max) file /nas/schram/gitcbmc-lazy-po/experiments/pthread-atomic/lamport_true-unreach-call.c line 20 function thr1 thread 1
Not unwinding loop thr1.0 iteration 5 (5 max) file /nas/schram/gitcbmc-lazy-po/experiments/pthread-atomic/lamport_true-unreach-call.c line 20 function thr1 thread 1
Unwinding loop thr1.1 iteration 1 (5 max) file /nas/schram/gitcbmc-lazy-po/experiments/pthread-atomic/lamport_true-unreach-call.c line 26 function thr1 thread 1
Unwinding loop thr1.1 iteration 2 (5 max) file /nas/schram/gitcbmc-lazy-po/experiments/pthread-atomic/lamport_true-unreach-call.c line 26 function thr1 thread 1
Unwinding loop thr1.1 iteration 3 (5 max) file /nas/schram/gitcbmc-lazy-po/experiments/pthread-atomic/lamport_true-unreach-call.c line 26 function thr1 thread 1
Unwinding loop thr1.1 iteration 4 (5 max) file /nas/schram/gitcbmc-lazy-po/experiments/pthread-atomic/lamport_true-unreach-call.c line 26 function thr1 thread 1
Not unwinding loop thr1.1 iteration 5 (5 max) file /nas/schram/gitcbmc-lazy-po/experiments/pthread-atomic/lamport_true-unreach-call.c line 26 function thr1 thread 1
Unwinding loop thr1.2 iteration 1 (5 max) file /nas/schram/gitcbmc-lazy-po/experiments/pthread-atomic/lamport_true-unreach-call.c line 28 function thr1 thread 1
Unwinding loop thr1.2 iteration 2 (5 max) file /nas/schram/gitcbmc-lazy-po/experiments/pthread-atomic/lamport_true-unreach-call.c line 28 function thr1 thread 1
Unwinding loop thr1.2 iteration 3 (5 max) file /nas/schram/gitcbmc-lazy-po/experiments/pthread-atomic/lamport_true-unreach-call.c line 28 function thr1 thread 1
Unwinding loop thr1.2 iteration 4 (5 max) file /nas/schram/gitcbmc-lazy-po/experiments/pthread-atomic/lamport_true-unreach-call.c line 28 function thr1 thread 1
Not unwinding loop thr1.2 iteration 5 (5 max) file /nas/schram/gitcbmc-lazy-po/experiments/pthread-atomic/lamport_true-unreach-call.c line 28 function thr1 thread 1
Unwinding loop thr1.3 iteration 3 (5 max) file /nas/schram/gitcbmc-lazy-po/experiments/pthread-atomic/lamport_true-unreach-call.c line 15 function thr1 thread 1
Unwinding loop thr1.0 iteration 1 (5 max) file /nas/schram/gitcbmc-lazy-po/experiments/pthread-atomic/lamport_true-unreach-call.c line 20 function thr1 thread 1
Unwinding loop thr1.0 iteration 2 (5 max) file /nas/schram/gitcbmc-lazy-po/experiments/pthread-atomic/lamport_true-unreach-call.c line 20 function thr1 thread 1
Unwinding loop thr1.0 iteration 3 (5 max) file /nas/schram/gitcbmc-lazy-po/experiments/pthread-atomic/lamport_true-unreach-call.c line 20 function thr1 thread 1
Unwinding loop thr1.0 iteration 4 (5 max) file /nas/schram/gitcbmc-lazy-po/experiments/pthread-atomic/lamport_true-unreach-call.c line 20 function thr1 thread 1
Not unwinding loop thr1.0 iteration 5 (5 max) file /nas/schram/gitcbmc-lazy-po/experiments/pthread-atomic/lamport_true-unreach-call.c line 20 function thr1 thread 1
Unwinding loop thr1.1 iteration 1 (5 max) file /nas/schram/gitcbmc-lazy-po/experiments/pthread-atomic/lamport_true-unreach-call.c line 26 function thr1 thread 1
Unwinding loop thr1.1 iteration 2 (5 max) file /nas/schram/gitcbmc-lazy-po/experiments/pthread-atomic/lamport_true-unreach-call.c line 26 function thr1 thread 1
Unwinding loop thr1.1 iteration 3 (5 max) file /nas/schram/gitcbmc-lazy-po/experiments/pthread-atomic/lamport_true-unreach-call.c line 26 function thr1 thread 1
Unwinding loop thr1.1 iteration 4 (5 max) file /nas/schram/gitcbmc-lazy-po/experiments/pthread-atomic/lamport_true-unreach-call.c line 26 function thr1 thread 1
Not unwinding loop thr1.1 iteration 5 (5 max) file /nas/schram/gitcbmc-lazy-po/experiments/pthread-atomic/lamport_true-unreach-call.c line 26 function thr1 thread 1
Unwinding loop thr1.2 iteration 1 (5 max) file /nas/schram/gitcbmc-lazy-po/experiments/pthread-atomic/lamport_true-unreach-call.c line 28 function thr1 thread 1
Unwinding loop thr1.2 iteration 2 (5 max) file /nas/schram/gitcbmc-lazy-po/experiments/pthread-atomic/lamport_true-unreach-call.c line 28 function thr1 thread 1
Unwinding loop thr1.2 iteration 3 (5 max) file /nas/schram/gitcbmc-lazy-po/experiments/pthread-atomic/lamport_true-unreach-call.c line 28 function thr1 thread 1
Unwinding loop thr1.2 iteration 4 (5 max) file /nas/schram/gitcbmc-lazy-po/experiments/pthread-atomic/lamport_true-unreach-call.c line 28 function thr1 thread 1
Not unwinding loop thr1.2 iteration 5 (5 max) file /nas/schram/gitcbmc-lazy-po/experiments/pthread-atomic/lamport_true-unreach-call.c line 28 function thr1 thread 1
Unwinding loop thr1.3 iteration 4 (5 max) file /nas/schram/gitcbmc-lazy-po/experiments/pthread-atomic/lamport_true-unreach-call.c line 15 function thr1 thread 1
Unwinding loop thr1.0 iteration 1 (5 max) file /nas/schram/gitcbmc-lazy-po/experiments/pthread-atomic/lamport_true-unreach-call.c line 20 function thr1 thread 1
Unwinding loop thr1.0 iteration 2 (5 max) file /nas/schram/gitcbmc-lazy-po/experiments/pthread-atomic/lamport_true-unreach-call.c line 20 function thr1 thread 1
Unwinding loop thr1.0 iteration 3 (5 max) file /nas/schram/gitcbmc-lazy-po/experiments/pthread-atomic/lamport_true-unreach-call.c line 20 function thr1 thread 1
Unwinding loop thr1.0 iteration 4 (5 max) file /nas/schram/gitcbmc-lazy-po/experiments/pthread-atomic/lamport_true-unreach-call.c line 20 function thr1 thread 1
Not unwinding loop thr1.0 iteration 5 (5 max) file /nas/schram/gitcbmc-lazy-po/experiments/pthread-atomic/lamport_true-unreach-call.c line 20 function thr1 thread 1
Unwinding loop thr1.1 iteration 1 (5 max) file /nas/schram/gitcbmc-lazy-po/experiments/pthread-atomic/lamport_true-unreach-call.c line 26 function thr1 thread 1
Unwinding loop thr1.1 iteration 2 (5 max) file /nas/schram/gitcbmc-lazy-po/experiments/pthread-atomic/lamport_true-unreach-call.c line 26 function thr1 thread 1
Unwinding loop thr1.1 iteration 3 (5 max) file /nas/schram/gitcbmc-lazy-po/experiments/pthread-atomic/lamport_true-unreach-call.c line 26 function thr1 thread 1
Unwinding loop thr1.1 iteration 4 (5 max) file /nas/schram/gitcbmc-lazy-po/experiments/pthread-atomic/lamport_true-unreach-call.c line 26 function thr1 thread 1
Not unwinding loop thr1.1 iteration 5 (5 max) file /nas/schram/gitcbmc-lazy-po/experiments/pthread-atomic/lamport_true-unreach-call.c line 26 function thr1 thread 1
Unwinding loop thr1.2 iteration 1 (5 max) file /nas/schram/gitcbmc-lazy-po/experiments/pthread-atomic/lamport_true-unreach-call.c line 28 function thr1 thread 1
Unwinding loop thr1.2 iteration 2 (5 max) file /nas/schram/gitcbmc-lazy-po/experiments/pthread-atomic/lamport_true-unreach-call.c line 28 function thr1 thread 1
Unwinding loop thr1.2 iteration 3 (5 max) file /nas/schram/gitcbmc-lazy-po/experiments/pthread-atomic/lamport_true-unreach-call.c line 28 function thr1 thread 1
Unwinding loop thr1.2 iteration 4 (5 max) file /nas/schram/gitcbmc-lazy-po/experiments/pthread-atomic/lamport_true-unreach-call.c line 28 function thr1 thread 1
Not unwinding loop thr1.2 iteration 5 (5 max) file /nas/schram/gitcbmc-lazy-po/experiments/pthread-atomic/lamport_true-unreach-call.c line 28 function thr1 thread 1
Not unwinding loop thr1.3 iteration 5 (5 max) file /nas/schram/gitcbmc-lazy-po/experiments/pthread-atomic/lamport_true-unreach-call.c line 15 function thr1 thread 1
Unwinding loop thr2.0 iteration 1 (5 max) file /nas/schram/gitcbmc-lazy-po/experiments/pthread-atomic/lamport_true-unreach-call.c line 48 function thr2 thread 2
Unwinding loop thr2.0 iteration 2 (5 max) file /nas/schram/gitcbmc-lazy-po/experiments/pthread-atomic/lamport_true-unreach-call.c line 48 function thr2 thread 2
Unwinding loop thr2.0 iteration 3 (5 max) file /nas/schram/gitcbmc-lazy-po/experiments/pthread-atomic/lamport_true-unreach-call.c line 48 function thr2 thread 2
Unwinding loop thr2.0 iteration 4 (5 max) file /nas/schram/gitcbmc-lazy-po/experiments/pthread-atomic/lamport_true-unreach-call.c line 48 function thr2 thread 2
Not unwinding loop thr2.0 iteration 5 (5 max) file /nas/schram/gitcbmc-lazy-po/experiments/pthread-atomic/lamport_true-unreach-call.c line 48 function thr2 thread 2
Unwinding loop thr2.1 iteration 1 (5 max) file /nas/schram/gitcbmc-lazy-po/experiments/pthread-atomic/lamport_true-unreach-call.c line 54 function thr2 thread 2
Unwinding loop thr2.1 iteration 2 (5 max) file /nas/schram/gitcbmc-lazy-po/experiments/pthread-atomic/lamport_true-unreach-call.c line 54 function thr2 thread 2
Unwinding loop thr2.1 iteration 3 (5 max) file /nas/schram/gitcbmc-lazy-po/experiments/pthread-atomic/lamport_true-unreach-call.c line 54 function thr2 thread 2
Unwinding loop thr2.1 iteration 4 (5 max) file /nas/schram/gitcbmc-lazy-po/experiments/pthread-atomic/lamport_true-unreach-call.c line 54 function thr2 thread 2
Not unwinding loop thr2.1 iteration 5 (5 max) file /nas/schram/gitcbmc-lazy-po/experiments/pthread-atomic/lamport_true-unreach-call.c line 54 function thr2 thread 2
Unwinding loop thr2.2 iteration 1 (5 max) file /nas/schram/gitcbmc-lazy-po/experiments/pthread-atomic/lamport_true-unreach-call.c line 56 function thr2 thread 2
Unwinding loop thr2.2 iteration 2 (5 max) file /nas/schram/gitcbmc-lazy-po/experiments/pthread-atomic/lamport_true-unreach-call.c line 56 function thr2 thread 2
Unwinding loop thr2.2 iteration 3 (5 max) file /nas/schram/gitcbmc-lazy-po/experiments/pthread-atomic/lamport_true-unreach-call.c line 56 function thr2 thread 2
Unwinding loop thr2.2 iteration 4 (5 max) file /nas/schram/gitcbmc-lazy-po/experiments/pthread-atomic/lamport_true-unreach-call.c line 56 function thr2 thread 2
Not unwinding loop thr2.2 iteration 5 (5 max) file /nas/schram/gitcbmc-lazy-po/experiments/pthread-atomic/lamport_true-unreach-call.c line 56 function thr2 thread 2
Unwinding loop thr2.3 iteration 1 (5 max) file /nas/schram/gitcbmc-lazy-po/experiments/pthread-atomic/lamport_true-unreach-call.c line 43 function thr2 thread 2
Unwinding loop thr2.0 iteration 1 (5 max) file /nas/schram/gitcbmc-lazy-po/experiments/pthread-atomic/lamport_true-unreach-call.c line 48 function thr2 thread 2
Unwinding loop thr2.0 iteration 2 (5 max) file /nas/schram/gitcbmc-lazy-po/experiments/pthread-atomic/lamport_true-unreach-call.c line 48 function thr2 thread 2
Unwinding loop thr2.0 iteration 3 (5 max) file /nas/schram/gitcbmc-lazy-po/experiments/pthread-atomic/lamport_true-unreach-call.c line 48 function thr2 thread 2
Unwinding loop thr2.0 iteration 4 (5 max) file /nas/schram/gitcbmc-lazy-po/experiments/pthread-atomic/lamport_true-unreach-call.c line 48 function thr2 thread 2
Not unwinding loop thr2.0 iteration 5 (5 max) file /nas/schram/gitcbmc-lazy-po/experiments/pthread-atomic/lamport_true-unreach-call.c line 48 function thr2 thread 2
Unwinding loop thr2.1 iteration 1 (5 max) file /nas/schram/gitcbmc-lazy-po/experiments/pthread-atomic/lamport_true-unreach-call.c line 54 function thr2 thread 2
Unwinding loop thr2.1 iteration 2 (5 max) file /nas/schram/gitcbmc-lazy-po/experiments/pthread-atomic/lamport_true-unreach-call.c line 54 function thr2 thread 2
Unwinding loop thr2.1 iteration 3 (5 max) file /nas/schram/gitcbmc-lazy-po/experiments/pthread-atomic/lamport_true-unreach-call.c line 54 function thr2 thread 2
Unwinding loop thr2.1 iteration 4 (5 max) file /nas/schram/gitcbmc-lazy-po/experiments/pthread-atomic/lamport_true-unreach-call.c line 54 function thr2 thread 2
Not unwinding loop thr2.1 iteration 5 (5 max) file /nas/schram/gitcbmc-lazy-po/experiments/pthread-atomic/lamport_true-unreach-call.c line 54 function thr2 thread 2
Unwinding loop thr2.2 iteration 1 (5 max) file /nas/schram/gitcbmc-lazy-po/experiments/pthread-atomic/lamport_true-unreach-call.c line 56 function thr2 thread 2
Unwinding loop thr2.2 iteration 2 (5 max) file /nas/schram/gitcbmc-lazy-po/experiments/pthread-atomic/lamport_true-unreach-call.c line 56 function thr2 thread 2
Unwinding loop thr2.2 iteration 3 (5 max) file /nas/schram/gitcbmc-lazy-po/experiments/pthread-atomic/lamport_true-unreach-call.c line 56 function thr2 thread 2
Unwinding loop thr2.2 iteration 4 (5 max) file /nas/schram/gitcbmc-lazy-po/experiments/pthread-atomic/lamport_true-unreach-call.c line 56 function thr2 thread 2
Not unwinding loop thr2.2 iteration 5 (5 max) file /nas/schram/gitcbmc-lazy-po/experiments/pthread-atomic/lamport_true-unreach-call.c line 56 function thr2 thread 2
Unwinding loop thr2.3 iteration 2 (5 max) file /nas/schram/gitcbmc-lazy-po/experiments/pthread-atomic/lamport_true-unreach-call.c line 43 function thr2 thread 2
Unwinding loop thr2.0 iteration 1 (5 max) file /nas/schram/gitcbmc-lazy-po/experiments/pthread-atomic/lamport_true-unreach-call.c line 48 function thr2 thread 2
Unwinding loop thr2.0 iteration 2 (5 max) file /nas/schram/gitcbmc-lazy-po/experiments/pthread-atomic/lamport_true-unreach-call.c line 48 function thr2 thread 2
Unwinding loop thr2.0 iteration 3 (5 max) file /nas/schram/gitcbmc-lazy-po/experiments/pthread-atomic/lamport_true-unreach-call.c line 48 function thr2 thread 2
Unwinding loop thr2.0 iteration 4 (5 max) file /nas/schram/gitcbmc-lazy-po/experiments/pthread-atomic/lamport_true-unreach-call.c line 48 function thr2 thread 2
Not unwinding loop thr2.0 iteration 5 (5 max) file /nas/schram/gitcbmc-lazy-po/experiments/pthread-atomic/lamport_true-unreach-call.c line 48 function thr2 thread 2
Unwinding loop thr2.1 iteration 1 (5 max) file /nas/schram/gitcbmc-lazy-po/experiments/pthread-atomic/lamport_true-unreach-call.c line 54 function thr2 thread 2
Unwinding loop thr2.1 iteration 2 (5 max) file /nas/schram/gitcbmc-lazy-po/experiments/pthread-atomic/lamport_true-unreach-call.c line 54 function thr2 thread 2
Unwinding loop thr2.1 iteration 3 (5 max) file /nas/schram/gitcbmc-lazy-po/experiments/pthread-atomic/lamport_true-unreach-call.c line 54 function thr2 thread 2
Unwinding loop thr2.1 iteration 4 (5 max) file /nas/schram/gitcbmc-lazy-po/experiments/pthread-atomic/lamport_true-unreach-call.c line 54 function thr2 thread 2
Not unwinding loop thr2.1 iteration 5 (5 max) file /nas/schram/gitcbmc-lazy-po/experiments/pthread-atomic/lamport_true-unreach-call.c line 54 function thr2 thread 2
Unwinding loop thr2.2 iteration 1 (5 max) file /nas/schram/gitcbmc-lazy-po/experiments/pthread-atomic/lamport_true-unreach-call.c line 56 function thr2 thread 2
Unwinding loop thr2.2 iteration 2 (5 max) file /nas/schram/gitcbmc-lazy-po/experiments/pthread-atomic/lamport_true-unreach-call.c line 56 function thr2 thread 2
Unwinding loop thr2.2 iteration 3 (5 max) file /nas/schram/gitcbmc-lazy-po/experiments/pthread-atomic/lamport_true-unreach-call.c line 56 function thr2 thread 2
Unwinding loop thr2.2 iteration 4 (5 max) file /nas/schram/gitcbmc-lazy-po/experiments/pthread-atomic/lamport_true-unreach-call.c line 56 function thr2 thread 2
Not unwinding loop thr2.2 iteration 5 (5 max) file /nas/schram/gitcbmc-lazy-po/experiments/pthread-atomic/lamport_true-unreach-call.c line 56 function thr2 thread 2
Unwinding loop thr2.3 iteration 3 (5 max) file /nas/schram/gitcbmc-lazy-po/experiments/pthread-atomic/lamport_true-unreach-call.c line 43 function thr2 thread 2
Unwinding loop thr2.0 iteration 1 (5 max) file /nas/schram/gitcbmc-lazy-po/experiments/pthread-atomic/lamport_true-unreach-call.c line 48 function thr2 thread 2
Unwinding loop thr2.0 iteration 2 (5 max) file /nas/schram/gitcbmc-lazy-po/experiments/pthread-atomic/lamport_true-unreach-call.c line 48 function thr2 thread 2
Unwinding loop thr2.0 iteration 3 (5 max) file /nas/schram/gitcbmc-lazy-po/experiments/pthread-atomic/lamport_true-unreach-call.c line 48 function thr2 thread 2
Unwinding loop thr2.0 iteration 4 (5 max) file /nas/schram/gitcbmc-lazy-po/experiments/pthread-atomic/lamport_true-unreach-call.c line 48 function thr2 thread 2
Not unwinding loop thr2.0 iteration 5 (5 max) file /nas/schram/gitcbmc-lazy-po/experiments/pthread-atomic/lamport_true-unreach-call.c line 48 function thr2 thread 2
Unwinding loop thr2.1 iteration 1 (5 max) file /nas/schram/gitcbmc-lazy-po/experiments/pthread-atomic/lamport_true-unreach-call.c line 54 function thr2 thread 2
Unwinding loop thr2.1 iteration 2 (5 max) file /nas/schram/gitcbmc-lazy-po/experiments/pthread-atomic/lamport_true-unreach-call.c line 54 function thr2 thread 2
Unwinding loop thr2.1 iteration 3 (5 max) file /nas/schram/gitcbmc-lazy-po/experiments/pthread-atomic/lamport_true-unreach-call.c line 54 function thr2 thread 2
Unwinding loop thr2.1 iteration 4 (5 max) file /nas/schram/gitcbmc-lazy-po/experiments/pthread-atomic/lamport_true-unreach-call.c line 54 function thr2 thread 2
Not unwinding loop thr2.1 iteration 5 (5 max) file /nas/schram/gitcbmc-lazy-po/experiments/pthread-atomic/lamport_true-unreach-call.c line 54 function thr2 thread 2
Unwinding loop thr2.2 iteration 1 (5 max) file /nas/schram/gitcbmc-lazy-po/experiments/pthread-atomic/lamport_true-unreach-call.c line 56 function thr2 thread 2
Unwinding loop thr2.2 iteration 2 (5 max) file /nas/schram/gitcbmc-lazy-po/experiments/pthread-atomic/lamport_true-unreach-call.c line 56 function thr2 thread 2
Unwinding loop thr2.2 iteration 3 (5 max) file /nas/schram/gitcbmc-lazy-po/experiments/pthread-atomic/lamport_true-unreach-call.c line 56 function thr2 thread 2
Unwinding loop thr2.2 iteration 4 (5 max) file /nas/schram/gitcbmc-lazy-po/experiments/pthread-atomic/lamport_true-unreach-call.c line 56 function thr2 thread 2
Not unwinding loop thr2.2 iteration 5 (5 max) file /nas/schram/gitcbmc-lazy-po/experiments/pthread-atomic/lamport_true-unreach-call.c line 56 function thr2 thread 2
Unwinding loop thr2.3 iteration 4 (5 max) file /nas/schram/gitcbmc-lazy-po/experiments/pthread-atomic/lamport_true-unreach-call.c line 43 function thr2 thread 2
Unwinding loop thr2.0 iteration 1 (5 max) file /nas/schram/gitcbmc-lazy-po/experiments/pthread-atomic/lamport_true-unreach-call.c line 48 function thr2 thread 2
Unwinding loop thr2.0 iteration 2 (5 max) file /nas/schram/gitcbmc-lazy-po/experiments/pthread-atomic/lamport_true-unreach-call.c line 48 function thr2 thread 2
Unwinding loop thr2.0 iteration 3 (5 max) file /nas/schram/gitcbmc-lazy-po/experiments/pthread-atomic/lamport_true-unreach-call.c line 48 function thr2 thread 2
Unwinding loop thr2.0 iteration 4 (5 max) file /nas/schram/gitcbmc-lazy-po/experiments/pthread-atomic/lamport_true-unreach-call.c line 48 function thr2 thread 2
Not unwinding loop thr2.0 iteration 5 (5 max) file /nas/schram/gitcbmc-lazy-po/experiments/pthread-atomic/lamport_true-unreach-call.c line 48 function thr2 thread 2
Unwinding loop thr2.1 iteration 1 (5 max) file /nas/schram/gitcbmc-lazy-po/experiments/pthread-atomic/lamport_true-unreach-call.c line 54 function thr2 thread 2
Unwinding loop thr2.1 iteration 2 (5 max) file /nas/schram/gitcbmc-lazy-po/experiments/pthread-atomic/lamport_true-unreach-call.c line 54 function thr2 thread 2
Unwinding loop thr2.1 iteration 3 (5 max) file /nas/schram/gitcbmc-lazy-po/experiments/pthread-atomic/lamport_true-unreach-call.c line 54 function thr2 thread 2
Unwinding loop thr2.1 iteration 4 (5 max) file /nas/schram/gitcbmc-lazy-po/experiments/pthread-atomic/lamport_true-unreach-call.c line 54 function thr2 thread 2
Not unwinding loop thr2.1 iteration 5 (5 max) file /nas/schram/gitcbmc-lazy-po/experiments/pthread-atomic/lamport_true-unreach-call.c line 54 function thr2 thread 2
Unwinding loop thr2.2 iteration 1 (5 max) file /nas/schram/gitcbmc-lazy-po/experiments/pthread-atomic/lamport_true-unreach-call.c line 56 function thr2 thread 2
Unwinding loop thr2.2 iteration 2 (5 max) file /nas/schram/gitcbmc-lazy-po/experiments/pthread-atomic/lamport_true-unreach-call.c line 56 function thr2 thread 2
Unwinding loop thr2.2 iteration 3 (5 max) file /nas/schram/gitcbmc-lazy-po/experiments/pthread-atomic/lamport_true-unreach-call.c line 56 function thr2 thread 2
Unwinding loop thr2.2 iteration 4 (5 max) file /nas/schram/gitcbmc-lazy-po/experiments/pthread-atomic/lamport_true-unreach-call.c line 56 function thr2 thread 2
Not unwinding loop thr2.2 iteration 5 (5 max) file /nas/schram/gitcbmc-lazy-po/experiments/pthread-atomic/lamport_true-unreach-call.c line 56 function thr2 thread 2
Not unwinding loop thr2.3 iteration 5 (5 max) file /nas/schram/gitcbmc-lazy-po/experiments/pthread-atomic/lamport_true-unreach-call.c line 43 function thr2 thread 2
Adding PSO constraints
size of program expression: 37064 steps
no slicing due to threads
Generated 4 VCC(s), 4 remaining after simplification
Passing problem to propositional reduction
converting SSA
Running propositional reduction
Post-processing
Solving with MiniSAT 2.2.0 with simplifier
658136 variables, 3105181 clauses
SAT checker: negated claim is SATISFIABLE, i.e., does not hold
Runtime decision procedure: 67.401s
Building error trace

Counterexample:

State 7 file /nas/schram/gitcbmc-lazy-po/experiments/pthread-atomic/lamport_true-unreach-call.c line 45 function thr2 thread 2
----------------------------------------------------
  x=2 (00000000000000000000000000000010)

State 10 file /nas/schram/gitcbmc-lazy-po/experiments/pthread-atomic/lamport_true-unreach-call.c line 17 function thr1 thread 1
----------------------------------------------------
  x=1 (00000000000000000000000000000001)

State 48 file /nas/schram/gitcbmc-lazy-po/experiments/pthread-atomic/lamport_true-unreach-call.c line 23 function thr1 thread 1
----------------------------------------------------
  y=1 (00000000000000000000000000000001)

State 49 file /nas/schram/gitcbmc-lazy-po/experiments/pthread-atomic/lamport_true-unreach-call.c line 51 function thr2 thread 2
----------------------------------------------------
  y=2 (00000000000000000000000000000010)

State 52 file /nas/schram/gitcbmc-lazy-po/experiments/pthread-atomic/lamport_true-unreach-call.c line 16 function thr1 thread 1
----------------------------------------------------
  b1=1 (00000000000000000000000000000001)

State 57 file /nas/schram/gitcbmc-lazy-po/experiments/pthread-atomic/lamport_true-unreach-call.c line 35 function thr1 thread 1
----------------------------------------------------
  X=0 (00000000000000000000000000000000)

State 58 file /nas/schram/gitcbmc-lazy-po/experiments/pthread-atomic/lamport_true-unreach-call.c line 66 function thr2 thread 2
----------------------------------------------------
  y=0 (00000000000000000000000000000000)

State 59 file <builtin-library>-pthread_create line 20 function __actual_thread_spawn thread 2
----------------------------------------------------
  va_arg0=NULL (0000000000000000000000000000000000000000000000000000000000000000)

State 64 file /nas/schram/gitcbmc-lazy-po/experiments/pthread-atomic/lamport_true-unreach-call.c line 71 function main thread 0
----------------------------------------------------
  t1=0 (0000000000000000000000000000000000000000000000000000000000000000)

State 65 file /nas/schram/gitcbmc-lazy-po/experiments/pthread-atomic/lamport_true-unreach-call.c line 71 function main thread 0
----------------------------------------------------
  t2=0 (0000000000000000000000000000000000000000000000000000000000000000)

State 73 file /nas/schram/gitcbmc-lazy-po/experiments/pthread-atomic/lamport_true-unreach-call.c line 67 function thr2 thread 2
----------------------------------------------------
  b2=0 (00000000000000000000000000000000)

State 79 file /nas/schram/gitcbmc-lazy-po/experiments/pthread-atomic/lamport_true-unreach-call.c line 63 function thr2 thread 2
----------------------------------------------------
  X=1 (00000000000000000000000000000001)

State 80 file /nas/schram/gitcbmc-lazy-po/experiments/pthread-atomic/lamport_true-unreach-call.c line 53 function thr2 thread 2
----------------------------------------------------
  b2=0 (00000000000000000000000000000000)

State 118 file /nas/schram/gitcbmc-lazy-po/experiments/pthread-atomic/lamport_true-unreach-call.c line 44 function thr2 thread 2
----------------------------------------------------
  b2=1 (00000000000000000000000000000001)

Violated property:
  file /nas/schram/gitcbmc-lazy-po/experiments/pthread-atomic/lamport_true-unreach-call.c line 36 function thr1
  error label ERROR
  FALSE

VERIFICATION FAILED
Time: 123.547466
