CBMC version 5.0 64-bit x86_64 linux
Parsing /nas/schram/gitcbmc-lazy-po/experiments/pthread-atomic/szymanski_true-unreach-call.c
Converting
Type-checking szymanski_true-unreach-call
Generating GOTO Program
Adding CPROVER library
Function Pointer Removal
Partial Inlining
Generic Property Instrumentation
Starting Bounded Model Checking
Unwinding loop thr1.0 iteration 1 (5 max) file /nas/schram/gitcbmc-lazy-po/experiments/pthread-atomic/szymanski_true-unreach-call.c line 15 function thr1 thread 1
Unwinding loop thr1.0 iteration 2 (5 max) file /nas/schram/gitcbmc-lazy-po/experiments/pthread-atomic/szymanski_true-unreach-call.c line 15 function thr1 thread 1
Unwinding loop thr1.0 iteration 3 (5 max) file /nas/schram/gitcbmc-lazy-po/experiments/pthread-atomic/szymanski_true-unreach-call.c line 15 function thr1 thread 1
Unwinding loop thr1.0 iteration 4 (5 max) file /nas/schram/gitcbmc-lazy-po/experiments/pthread-atomic/szymanski_true-unreach-call.c line 15 function thr1 thread 1
Not unwinding loop thr1.0 iteration 5 (5 max) file /nas/schram/gitcbmc-lazy-po/experiments/pthread-atomic/szymanski_true-unreach-call.c line 15 function thr1 thread 1
Unwinding loop thr1.1 iteration 1 (5 max) file /nas/schram/gitcbmc-lazy-po/experiments/pthread-atomic/szymanski_true-unreach-call.c line 19 function thr1 thread 1
Unwinding loop thr1.1 iteration 2 (5 max) file /nas/schram/gitcbmc-lazy-po/experiments/pthread-atomic/szymanski_true-unreach-call.c line 19 function thr1 thread 1
Unwinding loop thr1.1 iteration 3 (5 max) file /nas/schram/gitcbmc-lazy-po/experiments/pthread-atomic/szymanski_true-unreach-call.c line 19 function thr1 thread 1
Unwinding loop thr1.1 iteration 4 (5 max) file /nas/schram/gitcbmc-lazy-po/experiments/pthread-atomic/szymanski_true-unreach-call.c line 19 function thr1 thread 1
Not unwinding loop thr1.1 iteration 5 (5 max) file /nas/schram/gitcbmc-lazy-po/experiments/pthread-atomic/szymanski_true-unreach-call.c line 19 function thr1 thread 1
Unwinding loop thr1.2 iteration 1 (5 max) file /nas/schram/gitcbmc-lazy-po/experiments/pthread-atomic/szymanski_true-unreach-call.c line 22 function thr1 thread 1
Unwinding loop thr1.2 iteration 2 (5 max) file /nas/schram/gitcbmc-lazy-po/experiments/pthread-atomic/szymanski_true-unreach-call.c line 22 function thr1 thread 1
Unwinding loop thr1.2 iteration 3 (5 max) file /nas/schram/gitcbmc-lazy-po/experiments/pthread-atomic/szymanski_true-unreach-call.c line 22 function thr1 thread 1
Unwinding loop thr1.2 iteration 4 (5 max) file /nas/schram/gitcbmc-lazy-po/experiments/pthread-atomic/szymanski_true-unreach-call.c line 22 function thr1 thread 1
Not unwinding loop thr1.2 iteration 5 (5 max) file /nas/schram/gitcbmc-lazy-po/experiments/pthread-atomic/szymanski_true-unreach-call.c line 22 function thr1 thread 1
Unwinding loop thr1.3 iteration 1 (5 max) file /nas/schram/gitcbmc-lazy-po/experiments/pthread-atomic/szymanski_true-unreach-call.c line 27 function thr1 thread 1
Unwinding loop thr1.3 iteration 2 (5 max) file /nas/schram/gitcbmc-lazy-po/experiments/pthread-atomic/szymanski_true-unreach-call.c line 27 function thr1 thread 1
Unwinding loop thr1.3 iteration 3 (5 max) file /nas/schram/gitcbmc-lazy-po/experiments/pthread-atomic/szymanski_true-unreach-call.c line 27 function thr1 thread 1
Unwinding loop thr1.3 iteration 4 (5 max) file /nas/schram/gitcbmc-lazy-po/experiments/pthread-atomic/szymanski_true-unreach-call.c line 27 function thr1 thread 1
Not unwinding loop thr1.3 iteration 5 (5 max) file /nas/schram/gitcbmc-lazy-po/experiments/pthread-atomic/szymanski_true-unreach-call.c line 27 function thr1 thread 1
Unwinding loop thr2.0 iteration 1 (5 max) file /nas/schram/gitcbmc-lazy-po/experiments/pthread-atomic/szymanski_true-unreach-call.c line 33 function thr2 thread 2
Unwinding loop thr2.0 iteration 2 (5 max) file /nas/schram/gitcbmc-lazy-po/experiments/pthread-atomic/szymanski_true-unreach-call.c line 33 function thr2 thread 2
Unwinding loop thr2.0 iteration 3 (5 max) file /nas/schram/gitcbmc-lazy-po/experiments/pthread-atomic/szymanski_true-unreach-call.c line 33 function thr2 thread 2
Unwinding loop thr2.0 iteration 4 (5 max) file /nas/schram/gitcbmc-lazy-po/experiments/pthread-atomic/szymanski_true-unreach-call.c line 33 function thr2 thread 2
Not unwinding loop thr2.0 iteration 5 (5 max) file /nas/schram/gitcbmc-lazy-po/experiments/pthread-atomic/szymanski_true-unreach-call.c line 33 function thr2 thread 2
Unwinding loop thr2.1 iteration 1 (5 max) file /nas/schram/gitcbmc-lazy-po/experiments/pthread-atomic/szymanski_true-unreach-call.c line 37 function thr2 thread 2
Unwinding loop thr2.1 iteration 2 (5 max) file /nas/schram/gitcbmc-lazy-po/experiments/pthread-atomic/szymanski_true-unreach-call.c line 37 function thr2 thread 2
Unwinding loop thr2.1 iteration 3 (5 max) file /nas/schram/gitcbmc-lazy-po/experiments/pthread-atomic/szymanski_true-unreach-call.c line 37 function thr2 thread 2
Unwinding loop thr2.1 iteration 4 (5 max) file /nas/schram/gitcbmc-lazy-po/experiments/pthread-atomic/szymanski_true-unreach-call.c line 37 function thr2 thread 2
Not unwinding loop thr2.1 iteration 5 (5 max) file /nas/schram/gitcbmc-lazy-po/experiments/pthread-atomic/szymanski_true-unreach-call.c line 37 function thr2 thread 2
Unwinding loop thr2.2 iteration 1 (5 max) file /nas/schram/gitcbmc-lazy-po/experiments/pthread-atomic/szymanski_true-unreach-call.c line 40 function thr2 thread 2
Unwinding loop thr2.2 iteration 2 (5 max) file /nas/schram/gitcbmc-lazy-po/experiments/pthread-atomic/szymanski_true-unreach-call.c line 40 function thr2 thread 2
Unwinding loop thr2.2 iteration 3 (5 max) file /nas/schram/gitcbmc-lazy-po/experiments/pthread-atomic/szymanski_true-unreach-call.c line 40 function thr2 thread 2
Unwinding loop thr2.2 iteration 4 (5 max) file /nas/schram/gitcbmc-lazy-po/experiments/pthread-atomic/szymanski_true-unreach-call.c line 40 function thr2 thread 2
Not unwinding loop thr2.2 iteration 5 (5 max) file /nas/schram/gitcbmc-lazy-po/experiments/pthread-atomic/szymanski_true-unreach-call.c line 40 function thr2 thread 2
Unwinding loop thr2.3 iteration 1 (5 max) file /nas/schram/gitcbmc-lazy-po/experiments/pthread-atomic/szymanski_true-unreach-call.c line 45 function thr2 thread 2
Unwinding loop thr2.3 iteration 2 (5 max) file /nas/schram/gitcbmc-lazy-po/experiments/pthread-atomic/szymanski_true-unreach-call.c line 45 function thr2 thread 2
Unwinding loop thr2.3 iteration 3 (5 max) file /nas/schram/gitcbmc-lazy-po/experiments/pthread-atomic/szymanski_true-unreach-call.c line 45 function thr2 thread 2
Unwinding loop thr2.3 iteration 4 (5 max) file /nas/schram/gitcbmc-lazy-po/experiments/pthread-atomic/szymanski_true-unreach-call.c line 45 function thr2 thread 2
Not unwinding loop thr2.3 iteration 5 (5 max) file /nas/schram/gitcbmc-lazy-po/experiments/pthread-atomic/szymanski_true-unreach-call.c line 45 function thr2 thread 2
Adding PSO constraints
size of program expression: 3266 steps
no slicing due to threads
Generated 4 VCC(s), 4 remaining after simplification
Passing problem to propositional reduction
converting SSA
Running propositional reduction
Post-processing
Solving with MiniSAT 2.2.0 with simplifier
47898 variables, 220731 clauses
SAT checker: negated claim is SATISFIABLE, i.e., does not hold
Runtime decision procedure: 3.859s
Building error trace

Counterexample:

State 6 file /nas/schram/gitcbmc-lazy-po/experiments/pthread-atomic/szymanski_true-unreach-call.c line 32 function thr2 thread 2
----------------------------------------------------
  flag2=1 (00000000000000000000000000000001)

State 7 file /nas/schram/gitcbmc-lazy-po/experiments/pthread-atomic/szymanski_true-unreach-call.c line 14 function thr1 thread 1
----------------------------------------------------
  flag1=1 (00000000000000000000000000000001)

State 15 file /nas/schram/gitcbmc-lazy-po/experiments/pthread-atomic/szymanski_true-unreach-call.c line 16 function thr1 thread 1
----------------------------------------------------
  flag1=3 (00000000000000000000000000000011)

State 16 file /nas/schram/gitcbmc-lazy-po/experiments/pthread-atomic/szymanski_true-unreach-call.c line 18 function thr1 thread 1
----------------------------------------------------
  flag1=2 (00000000000000000000000000000010)

State 17 file /nas/schram/gitcbmc-lazy-po/experiments/pthread-atomic/szymanski_true-unreach-call.c line 34 function thr2 thread 2
----------------------------------------------------
  flag2=3 (00000000000000000000000000000011)

State 20 file <builtin-library>-pthread_create line 20 function __actual_thread_spawn thread 1
----------------------------------------------------
  va_arg0=NULL (0000000000000000000000000000000000000000000000000000000000000000)

State 26 file /nas/schram/gitcbmc-lazy-po/experiments/pthread-atomic/szymanski_true-unreach-call.c line 50 function main thread 0
----------------------------------------------------
  t1=0 (0000000000000000000000000000000000000000000000000000000000000000)

State 27 file /nas/schram/gitcbmc-lazy-po/experiments/pthread-atomic/szymanski_true-unreach-call.c line 50 function main thread 0
----------------------------------------------------
  t2=0 (0000000000000000000000000000000000000000000000000000000000000000)

State 66 file <builtin-library>-pthread_create line 20 function __actual_thread_spawn thread 2
----------------------------------------------------
  va_arg0=NULL (0000000000000000000000000000000000000000000000000000000000000000)

State 70 file /nas/schram/gitcbmc-lazy-po/experiments/pthread-atomic/szymanski_true-unreach-call.c line 39 function thr2 thread 2
----------------------------------------------------
  flag2=4 (00000000000000000000000000000100)

State 72 file /nas/schram/gitcbmc-lazy-po/experiments/pthread-atomic/szymanski_true-unreach-call.c line 21 function thr1 thread 1
----------------------------------------------------
  flag1=4 (00000000000000000000000000000100)

State 80 file /nas/schram/gitcbmc-lazy-po/experiments/pthread-atomic/szymanski_true-unreach-call.c line 42 function thr2 thread 2
----------------------------------------------------
  x=1 (00000000000000000000000000000001)

Violated property:
  file /nas/schram/gitcbmc-lazy-po/experiments/pthread-atomic/szymanski_true-unreach-call.c line 43 function thr2
  error label ERROR
  FALSE

VERIFICATION FAILED
Time: 5.677831
