CBMC version 5.0 64-bit x86_64 linux
Parsing /nas/schram/gitcbmc-lazy-po/experiments/wmm-core/lwdwr019.c
Converting
Type-checking lwdwr019
Generating GOTO Program
Adding CPROVER library
Function Pointer Removal
Partial Inlining
Generic Property Instrumentation
Starting Bounded Model Checking
Adding PSO constraints
size of program expression: 409 steps
no slicing due to threads
Generated 1 VCC(s), 1 remaining after simplification
Passing problem to refinement loop with MiniSAT 2.2.0 with simplifier
converting SSA
Running refinement loop with MiniSAT 2.2.0 with simplifier
BV-Refinement: post-processing
BV-Refinement: iteration 1
3272 variables, 10938 clauses
SAT checker: negated claim is SATISFIABLE, i.e., does not hold
BV-Refinement: 60 partial order constraints become active
BV-Refinement: 113 inactive partial order constraints
BV-Refinement: got SAT, and it is spurious, refining
BV-Refinement: iteration 2
4203 variables, 14515 clauses
SAT checker: negated claim is SATISFIABLE, i.e., does not hold
BV-Refinement: 25 partial order constraints become active
BV-Refinement: 88 inactive partial order constraints
BV-Refinement: got SAT, and it is spurious, refining
BV-Refinement: iteration 3
4613 variables, 15299 clauses
SAT checker: negated claim is SATISFIABLE, i.e., does not hold
BV-Refinement: 13 partial order constraints become active
BV-Refinement: 75 inactive partial order constraints
BV-Refinement: got SAT, and it is spurious, refining
BV-Refinement: iteration 4
4813 variables, 15769 clauses
SAT checker: negated claim is SATISFIABLE, i.e., does not hold
BV-Refinement: 6 partial order constraints become active
BV-Refinement: 69 inactive partial order constraints
BV-Refinement: got SAT, and it is spurious, refining
BV-Refinement: iteration 5
4943 variables, 16199 clauses
SAT checker: negated claim is SATISFIABLE, i.e., does not hold
BV-Refinement: 4 partial order constraints become active
BV-Refinement: 65 inactive partial order constraints
BV-Refinement: got SAT, and it is spurious, refining
BV-Refinement: iteration 6
4986 variables, 16294 clauses
SAT checker: negated claim is SATISFIABLE, i.e., does not hold
BV-Refinement: 0 partial order constraints become active
BV-Refinement: 65 inactive partial order constraints
BV-Refinement: got SAT, and it simulates => SAT
Total iterations: 6
PROFILING: main_solver: 0.22
PROFILING: sat_check: 0.054
Runtime decision procedure: 0.302s
Building error trace

Counterexample:

State 46 file /nas/schram/gitcbmc-lazy-po/experiments/wmm-core/lwdwr019.c line 28 function P1 thread 2
----------------------------------------------------
  x=1 (00000000000000000000000000000001)

State 53 file /nas/schram/gitcbmc-lazy-po/experiments/wmm-core/lwdwr019.c line 17 function P0 thread 1
----------------------------------------------------
  __unbuffered_p0_r1=1 (00000000000000000000000000000001)

State 54 file /nas/schram/gitcbmc-lazy-po/experiments/wmm-core/lwdwr019.c line 27 function P1 thread 2
----------------------------------------------------
  __unbuffered_p1_r1=1 (00000000000000000000000000000001)

State 55 file /nas/schram/gitcbmc-lazy-po/experiments/wmm-core/lwdwr019.c line 30 function P1 thread 2
----------------------------------------------------
  __unbuffered_p1_r3=0 (00000000000000000000000000000000)

State 60 file /nas/schram/gitcbmc-lazy-po/experiments/wmm-core/lwdwr019.c line 37 function P2 thread 3
----------------------------------------------------
  __unbuffered_p2_r1=1 (00000000000000000000000000000001)

State 61 file /nas/schram/gitcbmc-lazy-po/experiments/wmm-core/lwdwr019.c line 38 function P2 thread 3
----------------------------------------------------
  y=1 (00000000000000000000000000000001)

State 66 file /nas/schram/gitcbmc-lazy-po/experiments/wmm-core/lwdwr019.c line 33 function P1 thread 2
----------------------------------------------------
  __unbuffered_cnt=1 (00000000000000000000000000000001)

State 72 file /nas/schram/gitcbmc-lazy-po/experiments/wmm-core/lwdwr019.c line 49 function main thread 3
----------------------------------------------------
  arg=NULL (0000000000000000000000000000000000000000000000000000000000000000)

State 73 file /nas/schram/gitcbmc-lazy-po/experiments/wmm-core/lwdwr019.c line 18 function P0 thread 1
----------------------------------------------------
  z=1 (00000000000000000000000000000001)

State 78 file /nas/schram/gitcbmc-lazy-po/experiments/wmm-core/lwdwr019.c line 40 function P2 thread 3
----------------------------------------------------
  __unbuffered_p2_r3=0 (00000000000000000000000000000000)

State 83 file /nas/schram/gitcbmc-lazy-po/experiments/wmm-core/lwdwr019.c line 20 function P0 thread 1
----------------------------------------------------
  __unbuffered_p0_r3=0 (00000000000000000000000000000000)

State 88 file /nas/schram/gitcbmc-lazy-po/experiments/wmm-core/lwdwr019.c line 43 function P2 thread 3
----------------------------------------------------
  __unbuffered_cnt=2 (00000000000000000000000000000010)

State 92 file /nas/schram/gitcbmc-lazy-po/experiments/wmm-core/lwdwr019.c line 23 function P0 thread 1
----------------------------------------------------
  __unbuffered_cnt=3 (00000000000000000000000000000011)

State 98 file /nas/schram/gitcbmc-lazy-po/experiments/wmm-core/lwdwr019.c line 48 function main thread 2
----------------------------------------------------
  arg=NULL (0000000000000000000000000000000000000000000000000000000000000000)

Violated property:
  file /nas/schram/gitcbmc-lazy-po/experiments/wmm-core/lwdwr019.c line 53 function main
  Program proven to be relaxed for PPC, model checker says YES.
  !(__unbuffered_p0_r3 == 0 && __unbuffered_p1_r3 == 0 && __unbuffered_p2_r3 == 0)

VERIFICATION FAILED
Partial order constraints used: 212/277
  fr: 24/57
  po: 84/116
  rf: 24/24
  rf-order: 24/24
  rf-some: 13/13
  rfi: 7/7
  thread-spawn: 6/6
  ws-ext: 30/30
Time: 0.666227
