CBMC version 5.0 64-bit x86_64 linux
Parsing /nas/schram/gitcbmc-lazy-po/experiments/wmm-core/mix005.c
Converting
Type-checking mix005
Generating GOTO Program
Adding CPROVER library
Function Pointer Removal
Partial Inlining
Generic Property Instrumentation
Starting Bounded Model Checking
Adding PSO constraints
size of program expression: 524 steps
no slicing due to threads
Generated 1 VCC(s), 1 remaining after simplification
Passing problem to refinement loop with MiniSAT 2.2.0 with simplifier
converting SSA
Running refinement loop with MiniSAT 2.2.0 with simplifier
BV-Refinement: post-processing
BV-Refinement: iteration 1
4320 variables, 15090 clauses
SAT checker: negated claim is SATISFIABLE, i.e., does not hold
BV-Refinement: 63 partial order constraints become active
BV-Refinement: 171 inactive partial order constraints
BV-Refinement: got SAT, and it is spurious, refining
BV-Refinement: iteration 2
5352 variables, 18624 clauses
SAT checker: negated claim is SATISFIABLE, i.e., does not hold
BV-Refinement: 35 partial order constraints become active
BV-Refinement: 136 inactive partial order constraints
BV-Refinement: got SAT, and it is spurious, refining
BV-Refinement: iteration 3
5951 variables, 20267 clauses
SAT checker: negated claim is SATISFIABLE, i.e., does not hold
BV-Refinement: 14 partial order constraints become active
BV-Refinement: 122 inactive partial order constraints
BV-Refinement: got SAT, and it is spurious, refining
BV-Refinement: iteration 4
6182 variables, 20758 clauses
SAT checker: negated claim is SATISFIABLE, i.e., does not hold
BV-Refinement: 4 partial order constraints become active
BV-Refinement: 118 inactive partial order constraints
BV-Refinement: got SAT, and it is spurious, refining
BV-Refinement: iteration 5
6238 variables, 20841 clauses
SAT checker: negated claim is SATISFIABLE, i.e., does not hold
BV-Refinement: 0 partial order constraints become active
BV-Refinement: 118 inactive partial order constraints
BV-Refinement: got SAT, and it simulates => SAT
Total iterations: 5
PROFILING: main_solver: 0.239
PROFILING: sat_check: 0.06
Runtime decision procedure: 0.337s
Building error trace

Counterexample:

State 55 file /nas/schram/gitcbmc-lazy-po/experiments/wmm-core/mix005.c line 18 function P0 thread 1
----------------------------------------------------
  x=1 (00000000000000000000000000000001)

State 64 file /nas/schram/gitcbmc-lazy-po/experiments/wmm-core/mix005.c line 26 function P1 thread 2
----------------------------------------------------
  __unbuffered_p1_EAX=0 (00000000000000000000000000000000)

State 69 file /nas/schram/gitcbmc-lazy-po/experiments/wmm-core/mix005.c line 25 function P1 thread 2
----------------------------------------------------
  x=2 (00000000000000000000000000000010)

State 70 file /nas/schram/gitcbmc-lazy-po/experiments/wmm-core/mix005.c line 29 function P1 thread 2
----------------------------------------------------
  __unbuffered_cnt=1 (00000000000000000000000000000001)

State 76 file /nas/schram/gitcbmc-lazy-po/experiments/wmm-core/mix005.c line 53 function main thread 3
----------------------------------------------------
  arg=NULL (0000000000000000000000000000000000000000000000000000000000000000)

State 77 file /nas/schram/gitcbmc-lazy-po/experiments/wmm-core/mix005.c line 33 function P2 thread 3
----------------------------------------------------
  y=1 (00000000000000000000000000000001)

State 78 file /nas/schram/gitcbmc-lazy-po/experiments/wmm-core/mix005.c line 43 function P3 thread 4
----------------------------------------------------
  __unbuffered_p3_EAX=1 (00000000000000000000000000000001)

State 79 file /nas/schram/gitcbmc-lazy-po/experiments/wmm-core/mix005.c line 35 function P2 thread 3
----------------------------------------------------
  __unbuffered_p2_EBX=0 (00000000000000000000000000000000)

State 84 file /nas/schram/gitcbmc-lazy-po/experiments/wmm-core/mix005.c line 42 function P3 thread 4
----------------------------------------------------
  z=1 (00000000000000000000000000000001)

State 85 file /nas/schram/gitcbmc-lazy-po/experiments/wmm-core/mix005.c line 44 function P3 thread 4
----------------------------------------------------
  __unbuffered_p3_EBX=0 (00000000000000000000000000000000)

State 90 file /nas/schram/gitcbmc-lazy-po/experiments/wmm-core/mix005.c line 17 function P0 thread 1
----------------------------------------------------
  a=1 (00000000000000000000000000000001)

State 91 file /nas/schram/gitcbmc-lazy-po/experiments/wmm-core/mix005.c line 34 function P2 thread 3
----------------------------------------------------
  __unbuffered_p2_EAX=1 (00000000000000000000000000000001)

State 92 file /nas/schram/gitcbmc-lazy-po/experiments/wmm-core/mix005.c line 47 function P3 thread 4
----------------------------------------------------
  __unbuffered_cnt=2 (00000000000000000000000000000010)

State 96 file /nas/schram/gitcbmc-lazy-po/experiments/wmm-core/mix005.c line 38 function P2 thread 3
----------------------------------------------------
  __unbuffered_cnt=3 (00000000000000000000000000000011)

State 102 file /nas/schram/gitcbmc-lazy-po/experiments/wmm-core/mix005.c line 54 function main thread 4
----------------------------------------------------
  arg=NULL (0000000000000000000000000000000000000000000000000000000000000000)

State 103 file /nas/schram/gitcbmc-lazy-po/experiments/wmm-core/mix005.c line 21 function P0 thread 1
----------------------------------------------------
  __unbuffered_cnt=4 (00000000000000000000000000000100)

State 109 file /nas/schram/gitcbmc-lazy-po/experiments/wmm-core/mix005.c line 52 function main thread 2
----------------------------------------------------
  arg=NULL (0000000000000000000000000000000000000000000000000000000000000000)

Violated property:
  file /nas/schram/gitcbmc-lazy-po/experiments/wmm-core/mix005.c line 58 function main
  Program proven to be relaxed for X86, model checker says YES.
  !(x == 2 && __unbuffered_p1_EAX == 0 && __unbuffered_p2_EAX == 1 && __unbuffered_p2_EBX == 0 && __unbuffered_p3_EAX == 1 && __unbuffered_p3_EBX == 0)

VERIFICATION FAILED
Partial order constraints used: 261/379
  fr: 33/110
  po: 83/124
  rf: 35/35
  rf-order: 35/35
  rf-some: 16/16
  rfi: 9/9
  thread-spawn: 8/8
  ws-ext: 42/42
Time: 0.716311
