CBMC version 5.0 64-bit x86_64 linux
Parsing /nas/schram/gitcbmc-lazy-po/experiments/wmm-core/mix020.c
Converting
Type-checking mix020
Generating GOTO Program
Adding CPROVER library
Function Pointer Removal
Partial Inlining
Generic Property Instrumentation
Starting Bounded Model Checking
Adding PSO constraints
size of program expression: 488 steps
no slicing due to threads
Generated 1 VCC(s), 1 remaining after simplification
Passing problem to refinement loop with MiniSAT 2.2.0 with simplifier
converting SSA
Running refinement loop with MiniSAT 2.2.0 with simplifier
BV-Refinement: post-processing
BV-Refinement: iteration 1
4116 variables, 14497 clauses
SAT checker: negated claim is SATISFIABLE, i.e., does not hold
BV-Refinement: 66 partial order constraints become active
BV-Refinement: 146 inactive partial order constraints
BV-Refinement: got SAT, and it is spurious, refining
BV-Refinement: iteration 2
5221 variables, 18504 clauses
SAT checker: negated claim is SATISFIABLE, i.e., does not hold
BV-Refinement: 21 partial order constraints become active
BV-Refinement: 125 inactive partial order constraints
BV-Refinement: got SAT, and it is spurious, refining
BV-Refinement: iteration 3
5549 variables, 18805 clauses
SAT checker: negated claim is SATISFIABLE, i.e., does not hold
BV-Refinement: 7 partial order constraints become active
BV-Refinement: 118 inactive partial order constraints
BV-Refinement: got SAT, and it is spurious, refining
BV-Refinement: iteration 4
5648 variables, 18939 clauses
SAT checker: negated claim is SATISFIABLE, i.e., does not hold
BV-Refinement: 8 partial order constraints become active
BV-Refinement: 110 inactive partial order constraints
BV-Refinement: got SAT, and it is spurious, refining
BV-Refinement: iteration 5
5764 variables, 19370 clauses
SAT checker: negated claim is SATISFIABLE, i.e., does not hold
BV-Refinement: 1 partial order constraints become active
BV-Refinement: 109 inactive partial order constraints
BV-Refinement: got SAT, and it is spurious, refining
BV-Refinement: iteration 6
5764 variables, 19315 clauses
SAT checker: negated claim is SATISFIABLE, i.e., does not hold
BV-Refinement: 0 partial order constraints become active
BV-Refinement: 109 inactive partial order constraints
BV-Refinement: got SAT, and it simulates => SAT
Total iterations: 6
PROFILING: main_solver: 0.227
PROFILING: sat_check: 0.058
Runtime decision procedure: 0.322s
Building error trace

Counterexample:

State 54 file /nas/schram/gitcbmc-lazy-po/experiments/wmm-core/mix020.c line 42 function P3 thread 4
----------------------------------------------------
  __unbuffered_p3_EBX=0 (00000000000000000000000000000000)

State 61 file /nas/schram/gitcbmc-lazy-po/experiments/wmm-core/mix020.c line 25 function P1 thread 2
----------------------------------------------------
  y=1 (00000000000000000000000000000001)

State 68 file /nas/schram/gitcbmc-lazy-po/experiments/wmm-core/mix020.c line 17 function P0 thread 1
----------------------------------------------------
  __unbuffered_p0_EAX=0 (00000000000000000000000000000000)

State 73 file /nas/schram/gitcbmc-lazy-po/experiments/wmm-core/mix020.c line 16 function P0 thread 1
----------------------------------------------------
  a=1 (00000000000000000000000000000001)

State 74 file /nas/schram/gitcbmc-lazy-po/experiments/wmm-core/mix020.c line 32 function P2 thread 3
----------------------------------------------------
  y=2 (00000000000000000000000000000010)

State 75 file /nas/schram/gitcbmc-lazy-po/experiments/wmm-core/mix020.c line 33 function P2 thread 3
----------------------------------------------------
  __unbuffered_p2_EAX=0 (00000000000000000000000000000000)

State 80 file /nas/schram/gitcbmc-lazy-po/experiments/wmm-core/mix020.c line 24 function P1 thread 2
----------------------------------------------------
  x=1 (00000000000000000000000000000001)

State 81 file /nas/schram/gitcbmc-lazy-po/experiments/wmm-core/mix020.c line 36 function P2 thread 3
----------------------------------------------------
  __unbuffered_cnt=1 (00000000000000000000000000000001)

State 87 file /nas/schram/gitcbmc-lazy-po/experiments/wmm-core/mix020.c line 52 function main thread 4
----------------------------------------------------
  arg=NULL (0000000000000000000000000000000000000000000000000000000000000000)

State 88 file /nas/schram/gitcbmc-lazy-po/experiments/wmm-core/mix020.c line 28 function P1 thread 2
----------------------------------------------------
  __unbuffered_cnt=2 (00000000000000000000000000000010)

State 94 file /nas/schram/gitcbmc-lazy-po/experiments/wmm-core/mix020.c line 51 function main thread 3
----------------------------------------------------
  arg=NULL (0000000000000000000000000000000000000000000000000000000000000000)

State 95 file /nas/schram/gitcbmc-lazy-po/experiments/wmm-core/mix020.c line 41 function P3 thread 4
----------------------------------------------------
  __unbuffered_p3_EAX=1 (00000000000000000000000000000001)

State 96 file /nas/schram/gitcbmc-lazy-po/experiments/wmm-core/mix020.c line 40 function P3 thread 4
----------------------------------------------------
  z=1 (00000000000000000000000000000001)

State 97 file /nas/schram/gitcbmc-lazy-po/experiments/wmm-core/mix020.c line 20 function P0 thread 1
----------------------------------------------------
  __unbuffered_cnt=3 (00000000000000000000000000000011)

State 103 file /nas/schram/gitcbmc-lazy-po/experiments/wmm-core/mix020.c line 50 function main thread 2
----------------------------------------------------
  arg=NULL (0000000000000000000000000000000000000000000000000000000000000000)

State 104 file /nas/schram/gitcbmc-lazy-po/experiments/wmm-core/mix020.c line 45 function P3 thread 4
----------------------------------------------------
  __unbuffered_cnt=4 (00000000000000000000000000000100)

Violated property:
  file /nas/schram/gitcbmc-lazy-po/experiments/wmm-core/mix020.c line 56 function main
  Program proven to be relaxed for X86, model checker says YES.
  !(y == 2 && __unbuffered_p0_EAX == 0 && __unbuffered_p2_EAX == 0 && __unbuffered_p3_EAX == 1 && __unbuffered_p3_EBX == 0)

VERIFICATION FAILED
Partial order constraints used: 238/347
  fr: 31/106
  po: 72/106
  rf: 33/33
  rf-order: 33/33
  rf-some: 14/14
  rfi: 7/7
  thread-spawn: 8/8
  ws-ext: 40/40
Time: 0.716290
