CBMC version 5.0 64-bit x86_64 linux
Parsing /nas/schram/gitcbmc-lazy-po/experiments/wmm-core/mix036.c
Converting
Type-checking mix036
Generating GOTO Program
Adding CPROVER library
Function Pointer Removal
Partial Inlining
Generic Property Instrumentation
Starting Bounded Model Checking
Adding PSO constraints
size of program expression: 503 steps
no slicing due to threads
Generated 1 VCC(s), 1 remaining after simplification
Passing problem to refinement loop with MiniSAT 2.2.0 with simplifier
converting SSA
Running refinement loop with MiniSAT 2.2.0 with simplifier
BV-Refinement: post-processing
BV-Refinement: iteration 1
4229 variables, 14812 clauses
SAT checker: negated claim is SATISFIABLE, i.e., does not hold
BV-Refinement: 63 partial order constraints become active
BV-Refinement: 156 inactive partial order constraints
BV-Refinement: got SAT, and it is spurious, refining
BV-Refinement: iteration 2
5262 variables, 18419 clauses
SAT checker: negated claim is SATISFIABLE, i.e., does not hold
BV-Refinement: 21 partial order constraints become active
BV-Refinement: 135 inactive partial order constraints
BV-Refinement: got SAT, and it is spurious, refining
BV-Refinement: iteration 3
5632 variables, 18971 clauses
SAT checker: negated claim is SATISFIABLE, i.e., does not hold
BV-Refinement: 16 partial order constraints become active
BV-Refinement: 119 inactive partial order constraints
BV-Refinement: got SAT, and it is spurious, refining
BV-Refinement: iteration 4
5905 variables, 19901 clauses
SAT checker: negated claim is SATISFIABLE, i.e., does not hold
BV-Refinement: 0 partial order constraints become active
BV-Refinement: 119 inactive partial order constraints
BV-Refinement: got SAT, and it simulates => SAT
Total iterations: 4
PROFILING: main_solver: 0.272
PROFILING: sat_check: 0.051
Runtime decision procedure: 0.36s
Building error trace

Counterexample:

State 60 file /nas/schram/gitcbmc-lazy-po/experiments/wmm-core/mix036.c line 43 function P3 thread 4
----------------------------------------------------
  a=1 (00000000000000000000000000000001)

State 61 file /nas/schram/gitcbmc-lazy-po/experiments/wmm-core/mix036.c line 27 function P1 thread 2
----------------------------------------------------
  __unbuffered_p1_EAX=0 (00000000000000000000000000000000)

State 66 file /nas/schram/gitcbmc-lazy-po/experiments/wmm-core/mix036.c line 26 function P1 thread 2
----------------------------------------------------
  x=1 (00000000000000000000000000000001)

State 67 file /nas/schram/gitcbmc-lazy-po/experiments/wmm-core/mix036.c line 19 function P0 thread 1
----------------------------------------------------
  __unbuffered_p0_EAX=0 (00000000000000000000000000000000)

State 72 file /nas/schram/gitcbmc-lazy-po/experiments/wmm-core/mix036.c line 34 function P2 thread 3
----------------------------------------------------
  y=1 (00000000000000000000000000000001)

State 73 file /nas/schram/gitcbmc-lazy-po/experiments/wmm-core/mix036.c line 42 function P3 thread 4
----------------------------------------------------
  z=1 (00000000000000000000000000000001)

State 74 file /nas/schram/gitcbmc-lazy-po/experiments/wmm-core/mix036.c line 35 function P2 thread 3
----------------------------------------------------
  __unbuffered_p2_EAX=0 (00000000000000000000000000000000)

State 79 file /nas/schram/gitcbmc-lazy-po/experiments/wmm-core/mix036.c line 44 function P3 thread 4
----------------------------------------------------
  __unbuffered_p3_EAX=1 (00000000000000000000000000000001)

State 80 file /nas/schram/gitcbmc-lazy-po/experiments/wmm-core/mix036.c line 45 function P3 thread 4
----------------------------------------------------
  __unbuffered_p3_EBX=0 (00000000000000000000000000000000)

State 85 file /nas/schram/gitcbmc-lazy-po/experiments/wmm-core/mix036.c line 18 function P0 thread 1
----------------------------------------------------
  b=1 (00000000000000000000000000000001)

State 86 file /nas/schram/gitcbmc-lazy-po/experiments/wmm-core/mix036.c line 22 function P0 thread 1
----------------------------------------------------
  __unbuffered_cnt=1 (00000000000000000000000000000001)

State 92 file /nas/schram/gitcbmc-lazy-po/experiments/wmm-core/mix036.c line 53 function main thread 2
----------------------------------------------------
  arg=NULL (0000000000000000000000000000000000000000000000000000000000000000)

State 93 file /nas/schram/gitcbmc-lazy-po/experiments/wmm-core/mix036.c line 48 function P3 thread 4
----------------------------------------------------
  __unbuffered_cnt=2 (00000000000000000000000000000010)

State 97 file /nas/schram/gitcbmc-lazy-po/experiments/wmm-core/mix036.c line 38 function P2 thread 3
----------------------------------------------------
  __unbuffered_cnt=3 (00000000000000000000000000000011)

State 103 file /nas/schram/gitcbmc-lazy-po/experiments/wmm-core/mix036.c line 55 function main thread 4
----------------------------------------------------
  arg=NULL (0000000000000000000000000000000000000000000000000000000000000000)

State 104 file /nas/schram/gitcbmc-lazy-po/experiments/wmm-core/mix036.c line 30 function P1 thread 2
----------------------------------------------------
  __unbuffered_cnt=4 (00000000000000000000000000000100)

State 110 file /nas/schram/gitcbmc-lazy-po/experiments/wmm-core/mix036.c line 54 function main thread 3
----------------------------------------------------
  arg=NULL (0000000000000000000000000000000000000000000000000000000000000000)

Violated property:
  file /nas/schram/gitcbmc-lazy-po/experiments/wmm-core/mix036.c line 59 function main
  Program proven to be relaxed for X86, model checker says YES.
  !(__unbuffered_p0_EAX == 0 && __unbuffered_p1_EAX == 0 && __unbuffered_p2_EAX == 0 && __unbuffered_p3_EAX == 1 && __unbuffered_p3_EBX == 0)

VERIFICATION FAILED
Partial order constraints used: 238/357
  fr: 27/104
  po: 73/115
  rf: 34/34
  rf-order: 34/34
  rf-some: 15/15
  rfi: 7/7
  thread-spawn: 8/8
  ws-ext: 40/40
Time: 0.766785
