CBMC version 5.0 64-bit x86_64 linux
Parsing /nas/schram/gitcbmc-lazy-po/experiments/wmm-core/mix029.c
Converting
Type-checking mix029
Generating GOTO Program
Adding CPROVER library
Function Pointer Removal
Partial Inlining
Generic Property Instrumentation
Starting Bounded Model Checking
Adding PSO constraints
size of program expression: 488 steps
no slicing due to threads
Generated 1 VCC(s), 1 remaining after simplification
Passing problem to refinement loop with MiniSAT 2.2.0 with simplifier
converting SSA
Running refinement loop with MiniSAT 2.2.0 with simplifier
BV-Refinement: post-processing
BV-Refinement: iteration 1
4117 variables, 14671 clauses
SAT checker: negated claim is SATISFIABLE, i.e., does not hold
BV-Refinement: 56 partial order constraints become active
BV-Refinement: 157 inactive partial order constraints
BV-Refinement: got SAT, and it is spurious, refining
BV-Refinement: iteration 2
4992 variables, 17506 clauses
SAT checker: negated claim is SATISFIABLE, i.e., does not hold
BV-Refinement: 18 partial order constraints become active
BV-Refinement: 139 inactive partial order constraints
BV-Refinement: got SAT, and it is spurious, refining
BV-Refinement: iteration 3
5366 variables, 18192 clauses
SAT checker: negated claim is SATISFIABLE, i.e., does not hold
BV-Refinement: 16 partial order constraints become active
BV-Refinement: 123 inactive partial order constraints
BV-Refinement: got SAT, and it is spurious, refining
BV-Refinement: iteration 4
5596 variables, 19014 clauses
SAT checker: negated claim is SATISFIABLE, i.e., does not hold
BV-Refinement: 2 partial order constraints become active
BV-Refinement: 121 inactive partial order constraints
BV-Refinement: got SAT, and it is spurious, refining
BV-Refinement: iteration 5
5596 variables, 18834 clauses
SAT checker: negated claim is SATISFIABLE, i.e., does not hold
BV-Refinement: 0 partial order constraints become active
BV-Refinement: 121 inactive partial order constraints
BV-Refinement: got SAT, and it simulates => SAT
Total iterations: 5
PROFILING: main_solver: 0.248
PROFILING: sat_check: 0.052
Runtime decision procedure: 0.337s
Building error trace

Counterexample:

State 57 file /nas/schram/gitcbmc-lazy-po/experiments/wmm-core/mix029.c line 24 function P1 thread 2
----------------------------------------------------
  y=1 (00000000000000000000000000000001)

State 62 file /nas/schram/gitcbmc-lazy-po/experiments/wmm-core/mix029.c line 32 function P2 thread 3
----------------------------------------------------
  z=1 (00000000000000000000000000000001)

State 67 file /nas/schram/gitcbmc-lazy-po/experiments/wmm-core/mix029.c line 40 function P3 thread 4
----------------------------------------------------
  __unbuffered_p3_EAX=2 (00000000000000000000000000000010)

State 68 file /nas/schram/gitcbmc-lazy-po/experiments/wmm-core/mix029.c line 15 function P0 thread 1
----------------------------------------------------
  a=1 (00000000000000000000000000000001)

State 69 file /nas/schram/gitcbmc-lazy-po/experiments/wmm-core/mix029.c line 31 function P2 thread 3
----------------------------------------------------
  y=2 (00000000000000000000000000000010)

State 70 file /nas/schram/gitcbmc-lazy-po/experiments/wmm-core/mix029.c line 23 function P1 thread 2
----------------------------------------------------
  x=1 (00000000000000000000000000000001)

State 71 file /nas/schram/gitcbmc-lazy-po/experiments/wmm-core/mix029.c line 16 function P0 thread 1
----------------------------------------------------
  __unbuffered_p0_EAX=0 (00000000000000000000000000000000)

State 76 file /nas/schram/gitcbmc-lazy-po/experiments/wmm-core/mix029.c line 35 function P2 thread 3
----------------------------------------------------
  __unbuffered_cnt=1 (00000000000000000000000000000001)

State 82 file /nas/schram/gitcbmc-lazy-po/experiments/wmm-core/mix029.c line 51 function main thread 4
----------------------------------------------------
  arg=NULL (0000000000000000000000000000000000000000000000000000000000000000)

State 83 file /nas/schram/gitcbmc-lazy-po/experiments/wmm-core/mix029.c line 19 function P0 thread 1
----------------------------------------------------
  __unbuffered_cnt=2 (00000000000000000000000000000010)

State 89 file /nas/schram/gitcbmc-lazy-po/experiments/wmm-core/mix029.c line 49 function main thread 2
----------------------------------------------------
  arg=NULL (0000000000000000000000000000000000000000000000000000000000000000)

State 90 file /nas/schram/gitcbmc-lazy-po/experiments/wmm-core/mix029.c line 41 function P3 thread 4
----------------------------------------------------
  __unbuffered_p3_EBX=0 (00000000000000000000000000000000)

State 95 file /nas/schram/gitcbmc-lazy-po/experiments/wmm-core/mix029.c line 39 function P3 thread 4
----------------------------------------------------
  z=2 (00000000000000000000000000000010)

State 96 file /nas/schram/gitcbmc-lazy-po/experiments/wmm-core/mix029.c line 27 function P1 thread 2
----------------------------------------------------
  __unbuffered_cnt=3 (00000000000000000000000000000011)

State 102 file /nas/schram/gitcbmc-lazy-po/experiments/wmm-core/mix029.c line 50 function main thread 3
----------------------------------------------------
  arg=NULL (0000000000000000000000000000000000000000000000000000000000000000)

State 103 file /nas/schram/gitcbmc-lazy-po/experiments/wmm-core/mix029.c line 44 function P3 thread 4
----------------------------------------------------
  __unbuffered_cnt=4 (00000000000000000000000000000100)

Violated property:
  file /nas/schram/gitcbmc-lazy-po/experiments/wmm-core/mix029.c line 55 function main
  Program proven to be relaxed for X86, model checker says YES.
  !(y == 2 && z == 2 && __unbuffered_p0_EAX == 0 && __unbuffered_p3_EAX == 2 && __unbuffered_p3_EBX == 0)

VERIFICATION FAILED
Partial order constraints used: 228/349
  fr: 30/112
  po: 62/101
  rf: 33/33
  rf-order: 33/33
  rf-some: 13/13
  rfi: 7/7
  thread-spawn: 8/8
  ws-ext: 42/42
Time: 0.716146
