CBMC version 5.0 64-bit x86_64 linux
Parsing /nas/schram/gitcbmc-lazy-po/experiments/wmm-core/mix023.c
Converting
Type-checking mix023
Generating GOTO Program
Adding CPROVER library
Function Pointer Removal
Partial Inlining
Generic Property Instrumentation
Starting Bounded Model Checking
Adding PSO constraints
size of program expression: 530 steps
no slicing due to threads
Generated 1 VCC(s), 1 remaining after simplification
Passing problem to refinement loop with MiniSAT 2.2.0 with simplifier
converting SSA
Running refinement loop with MiniSAT 2.2.0 with simplifier
BV-Refinement: post-processing
BV-Refinement: iteration 1
4352 variables, 15508 clauses
SAT checker: negated claim is SATISFIABLE, i.e., does not hold
BV-Refinement: 72 partial order constraints become active
BV-Refinement: 167 inactive partial order constraints
BV-Refinement: got SAT, and it is spurious, refining
BV-Refinement: iteration 2
5546 variables, 19619 clauses
SAT checker: negated claim is SATISFIABLE, i.e., does not hold
BV-Refinement: 22 partial order constraints become active
BV-Refinement: 145 inactive partial order constraints
BV-Refinement: got SAT, and it is spurious, refining
BV-Refinement: iteration 3
5932 variables, 20058 clauses
SAT checker: negated claim is SATISFIABLE, i.e., does not hold
BV-Refinement: 18 partial order constraints become active
BV-Refinement: 127 inactive partial order constraints
BV-Refinement: got SAT, and it is spurious, refining
BV-Refinement: iteration 4
6175 variables, 20867 clauses
SAT checker: negated claim is SATISFIABLE, i.e., does not hold
BV-Refinement: 2 partial order constraints become active
BV-Refinement: 125 inactive partial order constraints
BV-Refinement: got SAT, and it is spurious, refining
BV-Refinement: iteration 5
6203 variables, 20772 clauses
SAT checker: negated claim is SATISFIABLE, i.e., does not hold
BV-Refinement: 0 partial order constraints become active
BV-Refinement: 125 inactive partial order constraints
BV-Refinement: got SAT, and it simulates => SAT
Total iterations: 5
PROFILING: main_solver: 0.276
PROFILING: sat_check: 0.06
Runtime decision procedure: 0.376s
Building error trace

Counterexample:

State 54 file /nas/schram/gitcbmc-lazy-po/experiments/wmm-core/mix023.c line 34 function P2 thread 3
----------------------------------------------------
  z=1 (00000000000000000000000000000001)

State 60 file /nas/schram/gitcbmc-lazy-po/experiments/wmm-core/mix023.c line 42 function P3 thread 4
----------------------------------------------------
  __unbuffered_p3_EAX=2 (00000000000000000000000000000010)

State 61 file /nas/schram/gitcbmc-lazy-po/experiments/wmm-core/mix023.c line 43 function P3 thread 4
----------------------------------------------------
  __unbuffered_p3_EBX=0 (00000000000000000000000000000000)

State 69 file /nas/schram/gitcbmc-lazy-po/experiments/wmm-core/mix023.c line 17 function P0 thread 1
----------------------------------------------------
  x=1 (00000000000000000000000000000001)

State 74 file /nas/schram/gitcbmc-lazy-po/experiments/wmm-core/mix023.c line 25 function P1 thread 2
----------------------------------------------------
  __unbuffered_p1_EAX=2 (00000000000000000000000000000010)

State 75 file /nas/schram/gitcbmc-lazy-po/experiments/wmm-core/mix023.c line 16 function P0 thread 1
----------------------------------------------------
  a=1 (00000000000000000000000000000001)

State 76 file /nas/schram/gitcbmc-lazy-po/experiments/wmm-core/mix023.c line 24 function P1 thread 2
----------------------------------------------------
  x=2 (00000000000000000000000000000010)

State 77 file /nas/schram/gitcbmc-lazy-po/experiments/wmm-core/mix023.c line 20 function P0 thread 1
----------------------------------------------------
  __unbuffered_cnt=1 (00000000000000000000000000000001)

State 83 file /nas/schram/gitcbmc-lazy-po/experiments/wmm-core/mix023.c line 51 function main thread 2
----------------------------------------------------
  arg=NULL (0000000000000000000000000000000000000000000000000000000000000000)

State 84 file /nas/schram/gitcbmc-lazy-po/experiments/wmm-core/mix023.c line 41 function P3 thread 4
----------------------------------------------------
  z=2 (00000000000000000000000000000010)

State 85 file /nas/schram/gitcbmc-lazy-po/experiments/wmm-core/mix023.c line 26 function P1 thread 2
----------------------------------------------------
  __unbuffered_p1_EBX=0 (00000000000000000000000000000000)

State 90 file /nas/schram/gitcbmc-lazy-po/experiments/wmm-core/mix023.c line 46 function P3 thread 4
----------------------------------------------------
  __unbuffered_cnt=2 (00000000000000000000000000000010)

State 94 file /nas/schram/gitcbmc-lazy-po/experiments/wmm-core/mix023.c line 29 function P1 thread 2
----------------------------------------------------
  __unbuffered_cnt=3 (00000000000000000000000000000011)

State 100 file /nas/schram/gitcbmc-lazy-po/experiments/wmm-core/mix023.c line 52 function main thread 3
----------------------------------------------------
  arg=NULL (0000000000000000000000000000000000000000000000000000000000000000)

State 101 file /nas/schram/gitcbmc-lazy-po/experiments/wmm-core/mix023.c line 33 function P2 thread 3
----------------------------------------------------
  y=1 (00000000000000000000000000000001)

State 102 file /nas/schram/gitcbmc-lazy-po/experiments/wmm-core/mix023.c line 37 function P2 thread 3
----------------------------------------------------
  __unbuffered_cnt=4 (00000000000000000000000000000100)

State 108 file /nas/schram/gitcbmc-lazy-po/experiments/wmm-core/mix023.c line 53 function main thread 4
----------------------------------------------------
  arg=NULL (0000000000000000000000000000000000000000000000000000000000000000)

Violated property:
  file /nas/schram/gitcbmc-lazy-po/experiments/wmm-core/mix023.c line 57 function main
  Program proven to be relaxed for X86, model checker says YES.
  !(x == 2 && z == 2 && __unbuffered_p1_EAX == 2 && __unbuffered_p1_EBX == 0 && __unbuffered_p3_EAX == 2 && __unbuffered_p3_EBX == 0)

VERIFICATION FAILED
Partial order constraints used: 262/387
  fr: 31/120
  po: 83/119
  rf: 36/36
  rf-order: 36/36
  rf-some: 15/15
  rfi: 9/9
  thread-spawn: 8/8
  ws-ext: 44/44
Time: 0.766245
