CBMC version 5.0 64-bit x86_64 linux
Parsing /nas/schram/gitcbmc-lazy-po/experiments/wmm-core/podrwposwr010.c
Converting
Type-checking podrwposwr010
Generating GOTO Program
Adding CPROVER library
Function Pointer Removal
Partial Inlining
Generic Property Instrumentation
Starting Bounded Model Checking
Adding PSO constraints
size of program expression: 478 steps
no slicing due to threads
Generated 1 VCC(s), 1 remaining after simplification
Passing problem to refinement loop with MiniSAT 2.2.0 with simplifier
converting SSA
Running refinement loop with MiniSAT 2.2.0 with simplifier
BV-Refinement: post-processing
BV-Refinement: iteration 1
3771 variables, 12699 clauses
SAT checker: negated claim is SATISFIABLE, i.e., does not hold
BV-Refinement: 67 partial order constraints become active
BV-Refinement: 149 inactive partial order constraints
BV-Refinement: got SAT, and it is spurious, refining
BV-Refinement: iteration 2
4859 variables, 16523 clauses
SAT checker: negated claim is SATISFIABLE, i.e., does not hold
BV-Refinement: 48 partial order constraints become active
BV-Refinement: 101 inactive partial order constraints
BV-Refinement: got SAT, and it is spurious, refining
BV-Refinement: iteration 3
5609 variables, 18821 clauses
SAT checker: negated claim is SATISFIABLE, i.e., does not hold
BV-Refinement: 10 partial order constraints become active
BV-Refinement: 91 inactive partial order constraints
BV-Refinement: got SAT, and it is spurious, refining
BV-Refinement: iteration 4
5709 variables, 18217 clauses
SAT checker: negated claim is UNSATISFIABLE, i.e., holds
BV-Refinement: got UNSAT, and the proof passes => UNSAT
Total iterations: 4
PROFILING: main_solver: 0.677
PROFILING: sat_check: 0.049
Runtime decision procedure: 0.76s
VERIFICATION SUCCESSFUL
Partial order constraints used: 251/342
  fr: 25/73
  po: 100/143
  rf: 27/27
  rf-order: 27/27
  rf-some: 15/15
  rfi: 11/11
  thread-spawn: 6/6
  ws-ext: 40/40
Time: 1.117322
