CBMC version 5.0 64-bit x86_64 linux
Parsing /nas/schram/gitcbmc-lazy-po/experiments/wmm-core/podrwposwr007.c
Converting
Type-checking podrwposwr007
Generating GOTO Program
Adding CPROVER library
Function Pointer Removal
Partial Inlining
Generic Property Instrumentation
Starting Bounded Model Checking
Adding PSO constraints
size of program expression: 509 steps
no slicing due to threads
Generated 1 VCC(s), 1 remaining after simplification
Passing problem to refinement loop with MiniSAT 2.2.0 with simplifier
converting SSA
Running refinement loop with MiniSAT 2.2.0 with simplifier
BV-Refinement: post-processing
BV-Refinement: iteration 1
4040 variables, 13305 clauses
SAT checker: negated claim is SATISFIABLE, i.e., does not hold
BV-Refinement: 96 partial order constraints become active
BV-Refinement: 141 inactive partial order constraints
BV-Refinement: got SAT, and it is spurious, refining
BV-Refinement: iteration 2
5476 variables, 18899 clauses
SAT checker: negated claim is SATISFIABLE, i.e., does not hold
BV-Refinement: 38 partial order constraints become active
BV-Refinement: 103 inactive partial order constraints
BV-Refinement: got SAT, and it is spurious, refining
BV-Refinement: iteration 3
6053 variables, 19749 clauses
SAT checker: negated claim is SATISFIABLE, i.e., does not hold
BV-Refinement: 8 partial order constraints become active
BV-Refinement: 95 inactive partial order constraints
BV-Refinement: got SAT, and it is spurious, refining
BV-Refinement: iteration 4
6195 variables, 19660 clauses
SAT checker: negated claim is SATISFIABLE, i.e., does not hold
BV-Refinement: 1 partial order constraints become active
BV-Refinement: 94 inactive partial order constraints
BV-Refinement: got SAT, and it is spurious, refining
BV-Refinement: iteration 5
6224 variables, 19595 clauses
SAT checker: negated claim is SATISFIABLE, i.e., does not hold
BV-Refinement: 10 partial order constraints become active
BV-Refinement: 84 inactive partial order constraints
BV-Refinement: got SAT, and it is spurious, refining
BV-Refinement: iteration 6
6324 variables, 20066 clauses
SAT checker: negated claim is SATISFIABLE, i.e., does not hold
BV-Refinement: 1 partial order constraints become active
BV-Refinement: 83 inactive partial order constraints
BV-Refinement: got SAT, and it is spurious, refining
BV-Refinement: iteration 7
6324 variables, 19962 clauses
SAT checker: negated claim is SATISFIABLE, i.e., does not hold
BV-Refinement: 0 partial order constraints become active
BV-Refinement: 83 inactive partial order constraints
BV-Refinement: got SAT, and it simulates => SAT
Total iterations: 7
PROFILING: main_solver: 0.351
PROFILING: sat_check: 0.07
Runtime decision procedure: 0.456s
Building error trace

Counterexample:

State 49 file /nas/schram/gitcbmc-lazy-po/experiments/wmm-core/podrwposwr007.c line 22 function P0 thread 1
----------------------------------------------------
  x=1 (00000000000000000000000000000001)

State 57 file /nas/schram/gitcbmc-lazy-po/experiments/wmm-core/podrwposwr007.c line 21 function P0 thread 1
----------------------------------------------------
  __unbuffered_p0_r1=1 (00000000000000000000000000000001)

State 58 file /nas/schram/gitcbmc-lazy-po/experiments/wmm-core/podrwposwr007.c line 24 function P0 thread 1
----------------------------------------------------
  __unbuffered_p0_r3=0 (00000000000000000000000000000000)

State 63 file /nas/schram/gitcbmc-lazy-po/experiments/wmm-core/podrwposwr007.c line 32 function P1 thread 2
----------------------------------------------------
  y=1 (00000000000000000000000000000001)

State 68 file /nas/schram/gitcbmc-lazy-po/experiments/wmm-core/podrwposwr007.c line 31 function P1 thread 2
----------------------------------------------------
  __unbuffered_p1_r1=1 (00000000000000000000000000000001)

State 69 file /nas/schram/gitcbmc-lazy-po/experiments/wmm-core/podrwposwr007.c line 34 function P1 thread 2
----------------------------------------------------
  __unbuffered_p1_r3=1 (00000000000000000000000000000001)

State 70 file /nas/schram/gitcbmc-lazy-po/experiments/wmm-core/podrwposwr007.c line 27 function P0 thread 1
----------------------------------------------------
  __unbuffered_cnt=1 (00000000000000000000000000000001)

State 76 file /nas/schram/gitcbmc-lazy-po/experiments/wmm-core/podrwposwr007.c line 55 function main thread 2
----------------------------------------------------
  arg=NULL (0000000000000000000000000000000000000000000000000000000000000000)

State 77 file /nas/schram/gitcbmc-lazy-po/experiments/wmm-core/podrwposwr007.c line 35 function P1 thread 2
----------------------------------------------------
  z=1 (00000000000000000000000000000001)

State 82 file /nas/schram/gitcbmc-lazy-po/experiments/wmm-core/podrwposwr007.c line 42 function P2 thread 3
----------------------------------------------------
  __unbuffered_p2_r1=1 (00000000000000000000000000000001)

State 83 file /nas/schram/gitcbmc-lazy-po/experiments/wmm-core/podrwposwr007.c line 43 function P2 thread 3
----------------------------------------------------
  __unbuffered_p2_r3=1 (00000000000000000000000000000001)

State 84 file /nas/schram/gitcbmc-lazy-po/experiments/wmm-core/podrwposwr007.c line 45 function P2 thread 3
----------------------------------------------------
  __unbuffered_p2_r5=1 (00000000000000000000000000000001)

State 85 file /nas/schram/gitcbmc-lazy-po/experiments/wmm-core/podrwposwr007.c line 38 function P1 thread 2
----------------------------------------------------
  __unbuffered_cnt=2 (00000000000000000000000000000010)

State 91 file /nas/schram/gitcbmc-lazy-po/experiments/wmm-core/podrwposwr007.c line 56 function main thread 3
----------------------------------------------------
  arg=NULL (0000000000000000000000000000000000000000000000000000000000000000)

State 92 file /nas/schram/gitcbmc-lazy-po/experiments/wmm-core/podrwposwr007.c line 44 function P2 thread 3
----------------------------------------------------
  a=1 (00000000000000000000000000000001)

State 93 file /nas/schram/gitcbmc-lazy-po/experiments/wmm-core/podrwposwr007.c line 46 function P2 thread 3
----------------------------------------------------
  __unbuffered_p2_r6=0 (00000000000000000000000000000000)

State 94 file /nas/schram/gitcbmc-lazy-po/experiments/wmm-core/podrwposwr007.c line 47 function P2 thread 3
----------------------------------------------------
  __unbuffered_p2_r7=0 (00000000000000000000000000000000)

State 99 file /nas/schram/gitcbmc-lazy-po/experiments/wmm-core/podrwposwr007.c line 50 function P2 thread 3
----------------------------------------------------
  __unbuffered_cnt=3 (00000000000000000000000000000011)

Violated property:
  file /nas/schram/gitcbmc-lazy-po/experiments/wmm-core/podrwposwr007.c line 60 function main
  Program proven to be relaxed for PPC, model checker says YES.
  !(__unbuffered_p0_r3 == 0 && __unbuffered_p2_r1 == 1 && __unbuffered_p2_r7 == 0)

VERIFICATION FAILED
Partial order constraints used: 282/365
  fr: 21/65
  po: 133/172
  rf: 28/28
  rf-order: 28/28
  rf-some: 17/17
  rfi: 11/11
  thread-spawn: 6/6
  ws-ext: 38/38
Time: 0.816515
