CBMC version 5.0 64-bit x86_64 linux
Parsing /nas/schram/gitcbmc-lazy-po/experiments/wmm-core/podrwposwr012.c
Converting
Type-checking podrwposwr012
Generating GOTO Program
Adding CPROVER library
Function Pointer Removal
Partial Inlining
Generic Property Instrumentation
Starting Bounded Model Checking
Adding PSO constraints
size of program expression: 545 steps
no slicing due to threads
Generated 1 VCC(s), 1 remaining after simplification
Passing problem to refinement loop with MiniSAT 2.2.0 with simplifier
converting SSA
Running refinement loop with MiniSAT 2.2.0 with simplifier
BV-Refinement: post-processing
BV-Refinement: iteration 1
4240 variables, 14237 clauses
SAT checker: negated claim is SATISFIABLE, i.e., does not hold
BV-Refinement: 107 partial order constraints become active
BV-Refinement: 152 inactive partial order constraints
BV-Refinement: got SAT, and it is spurious, refining
BV-Refinement: iteration 2
5858 variables, 20605 clauses
SAT checker: negated claim is SATISFIABLE, i.e., does not hold
BV-Refinement: 41 partial order constraints become active
BV-Refinement: 111 inactive partial order constraints
BV-Refinement: got SAT, and it is spurious, refining
BV-Refinement: iteration 3
6479 variables, 21079 clauses
SAT checker: negated claim is SATISFIABLE, i.e., does not hold
BV-Refinement: 14 partial order constraints become active
BV-Refinement: 97 inactive partial order constraints
BV-Refinement: got SAT, and it is spurious, refining
BV-Refinement: iteration 4
6679 variables, 21248 clauses
SAT checker: negated claim is UNSATISFIABLE, i.e., holds
BV-Refinement: got UNSAT, and the proof passes => UNSAT
Total iterations: 4
PROFILING: main_solver: 0.557
PROFILING: sat_check: 0.057
Runtime decision procedure: 0.651s
VERIFICATION SUCCESSFUL
Partial order constraints used: 300/397
  fr: 20/73
  po: 142/186
  rf: 28/28
  rf-order: 28/28
  rf-some: 17/17
  rfi: 13/13
  thread-spawn: 6/6
  ws-ext: 46/46
Time: 1.017048
