CBMC version 5.0 64-bit x86_64 linux
Parsing /nas/schram/gitcbmc-lazy-po/experiments/wmm-core/safe087.c
Converting
Type-checking safe087
Generating GOTO Program
Adding CPROVER library
Function Pointer Removal
Partial Inlining
Generic Property Instrumentation
Starting Bounded Model Checking
Adding PSO constraints
size of program expression: 439 steps
no slicing due to threads
Generated 1 VCC(s), 1 remaining after simplification
Passing problem to refinement loop with MiniSAT 2.2.0 with simplifier
converting SSA
Running refinement loop with MiniSAT 2.2.0 with simplifier
BV-Refinement: post-processing
BV-Refinement: iteration 1
3520 variables, 12169 clauses
SAT checker: negated claim is SATISFIABLE, i.e., does not hold
BV-Refinement: 75 partial order constraints become active
BV-Refinement: 117 inactive partial order constraints
BV-Refinement: got SAT, and it is spurious, refining
BV-Refinement: iteration 2
4737 variables, 16587 clauses
SAT checker: negated claim is SATISFIABLE, i.e., does not hold
BV-Refinement: 21 partial order constraints become active
BV-Refinement: 96 inactive partial order constraints
BV-Refinement: got SAT, and it is spurious, refining
BV-Refinement: iteration 3
5078 variables, 16769 clauses
SAT checker: negated claim is SATISFIABLE, i.e., does not hold
BV-Refinement: 6 partial order constraints become active
BV-Refinement: 90 inactive partial order constraints
BV-Refinement: got SAT, and it is spurious, refining
BV-Refinement: iteration 4
5134 variables, 15955 clauses
SAT checker: negated claim is SATISFIABLE, i.e., does not hold
BV-Refinement: 4 partial order constraints become active
BV-Refinement: 86 inactive partial order constraints
BV-Refinement: got SAT, and it is spurious, refining
BV-Refinement: iteration 5
5190 variables, 16143 clauses
SAT checker: negated claim is SATISFIABLE, i.e., does not hold
BV-Refinement: 0 partial order constraints become active
BV-Refinement: 86 inactive partial order constraints
BV-Refinement: got SAT, and it simulates => SAT
Total iterations: 5
PROFILING: main_solver: 0.252
PROFILING: sat_check: 0.053
Runtime decision procedure: 0.336s
Building error trace

Counterexample:

State 16 file /nas/schram/gitcbmc-lazy-po/experiments/wmm-core/safe087.c line 17 function P0 thread 1
----------------------------------------------------
  y=1 (00000000000000000000000000000001)

State 52 file /nas/schram/gitcbmc-lazy-po/experiments/wmm-core/safe087.c line 16 function P0 thread 1
----------------------------------------------------
  __unbuffered_p0_r1=1 (00000000000000000000000000000001)

State 53 file /nas/schram/gitcbmc-lazy-po/experiments/wmm-core/safe087.c line 36 function P2 thread 3
----------------------------------------------------
  __unbuffered_p2_r1=2 (00000000000000000000000000000010)

State 54 file /nas/schram/gitcbmc-lazy-po/experiments/wmm-core/safe087.c line 19 function P0 thread 1
----------------------------------------------------
  __unbuffered_p0_r3=1 (00000000000000000000000000000001)

State 55 file /nas/schram/gitcbmc-lazy-po/experiments/wmm-core/safe087.c line 20 function P0 thread 1
----------------------------------------------------
  x=1 (00000000000000000000000000000001)

State 60 file /nas/schram/gitcbmc-lazy-po/experiments/wmm-core/safe087.c line 27 function P1 thread 2
----------------------------------------------------
  __unbuffered_p1_r1=1 (00000000000000000000000000000001)

State 65 file /nas/schram/gitcbmc-lazy-po/experiments/wmm-core/safe087.c line 37 function P2 thread 3
----------------------------------------------------
  x=2 (00000000000000000000000000000010)

State 70 file /nas/schram/gitcbmc-lazy-po/experiments/wmm-core/safe087.c line 29 function P1 thread 2
----------------------------------------------------
  __unbuffered_p1_r3=1 (00000000000000000000000000000001)

State 75 file /nas/schram/gitcbmc-lazy-po/experiments/wmm-core/safe087.c line 39 function P2 thread 3
----------------------------------------------------
  __unbuffered_p2_r3=0 (00000000000000000000000000000000)

State 80 file /nas/schram/gitcbmc-lazy-po/experiments/wmm-core/safe087.c line 32 function P1 thread 2
----------------------------------------------------
  __unbuffered_cnt=1 (00000000000000000000000000000001)

State 86 file /nas/schram/gitcbmc-lazy-po/experiments/wmm-core/safe087.c line 48 function main thread 3
----------------------------------------------------
  arg=NULL (0000000000000000000000000000000000000000000000000000000000000000)

State 87 file /nas/schram/gitcbmc-lazy-po/experiments/wmm-core/safe087.c line 42 function P2 thread 3
----------------------------------------------------
  __unbuffered_cnt=2 (00000000000000000000000000000010)

State 91 file /nas/schram/gitcbmc-lazy-po/experiments/wmm-core/safe087.c line 23 function P0 thread 1
----------------------------------------------------
  __unbuffered_cnt=3 (00000000000000000000000000000011)

State 97 file /nas/schram/gitcbmc-lazy-po/experiments/wmm-core/safe087.c line 47 function main thread 2
----------------------------------------------------
  arg=NULL (0000000000000000000000000000000000000000000000000000000000000000)

Violated property:
  file /nas/schram/gitcbmc-lazy-po/experiments/wmm-core/safe087.c line 52 function main
  Program was expected to be safe for PPC, model checker should have said NO.
This likely is a bug in the tool chain.
  !(x == 2 && __unbuffered_p1_r1 == 1 && __unbuffered_p1_r3 == 1 && __unbuffered_p2_r3 == 0)

VERIFICATION FAILED
Partial order constraints used: 222/308
  fr: 21/71
  po: 85/121
  rf: 28/28
  rf-order: 28/28
  rf-some: 14/14
  rfi: 8/8
  thread-spawn: 6/6
  ws-ext: 32/32
Time: 0.716386
