CBMC version 5.0 64-bit x86_64 linux
Parsing /nas/schram/gitcbmc-lazy-po/experiments/wmm-core/safe075.c
Converting
Type-checking safe075
Generating GOTO Program
Adding CPROVER library
Function Pointer Removal
Partial Inlining
Generic Property Instrumentation
Starting Bounded Model Checking
Adding PSO constraints
size of program expression: 302 steps
no slicing due to threads
Generated 1 VCC(s), 1 remaining after simplification
Passing problem to refinement loop with MiniSAT 2.2.0 with simplifier
converting SSA
Running refinement loop with MiniSAT 2.2.0 with simplifier
BV-Refinement: post-processing
BV-Refinement: iteration 1
2352 variables, 7376 clauses
SAT checker: negated claim is SATISFIABLE, i.e., does not hold
BV-Refinement: 59 partial order constraints become active
BV-Refinement: 73 inactive partial order constraints
BV-Refinement: got SAT, and it is spurious, refining
BV-Refinement: iteration 2
3224 variables, 10601 clauses
SAT checker: negated claim is SATISFIABLE, i.e., does not hold
BV-Refinement: 17 partial order constraints become active
BV-Refinement: 56 inactive partial order constraints
BV-Refinement: got SAT, and it is spurious, refining
BV-Refinement: iteration 3
3507 variables, 10769 clauses
SAT checker: negated claim is SATISFIABLE, i.e., does not hold
BV-Refinement: 7 partial order constraints become active
BV-Refinement: 49 inactive partial order constraints
BV-Refinement: got SAT, and it is spurious, refining
BV-Refinement: iteration 4
3607 variables, 10913 clauses
SAT checker: negated claim is SATISFIABLE, i.e., does not hold
BV-Refinement: 1 partial order constraints become active
BV-Refinement: 48 inactive partial order constraints
BV-Refinement: got SAT, and it is spurious, refining
BV-Refinement: iteration 5
3621 variables, 10876 clauses
SAT checker: negated claim is SATISFIABLE, i.e., does not hold
BV-Refinement: 0 partial order constraints become active
BV-Refinement: 48 inactive partial order constraints
BV-Refinement: got SAT, and it simulates => SAT
Total iterations: 5
PROFILING: main_solver: 0.121
PROFILING: sat_check: 0.036
Runtime decision procedure: 0.176s
Building error trace

Counterexample:

State 12 file /nas/schram/gitcbmc-lazy-po/experiments/wmm-core/safe075.c line 16 function P0 thread 1
----------------------------------------------------
  y=1 (00000000000000000000000000000001)

State 42 file /nas/schram/gitcbmc-lazy-po/experiments/wmm-core/safe075.c line 15 function P0 thread 1
----------------------------------------------------
  __unbuffered_p0_r1=1 (00000000000000000000000000000001)

State 43 file /nas/schram/gitcbmc-lazy-po/experiments/wmm-core/safe075.c line 18 function P0 thread 1
----------------------------------------------------
  __unbuffered_p0_r3=1 (00000000000000000000000000000001)

State 44 file /nas/schram/gitcbmc-lazy-po/experiments/wmm-core/safe075.c line 19 function P0 thread 1
----------------------------------------------------
  x=1 (00000000000000000000000000000001)

State 49 file /nas/schram/gitcbmc-lazy-po/experiments/wmm-core/safe075.c line 22 function P0 thread 1
----------------------------------------------------
  __unbuffered_cnt=1 (00000000000000000000000000000001)

State 55 file /nas/schram/gitcbmc-lazy-po/experiments/wmm-core/safe075.c line 36 function main thread 2
----------------------------------------------------
  arg=NULL (0000000000000000000000000000000000000000000000000000000000000000)

State 56 file /nas/schram/gitcbmc-lazy-po/experiments/wmm-core/safe075.c line 26 function P1 thread 2
----------------------------------------------------
  __unbuffered_p1_r1=1 (00000000000000000000000000000001)

State 57 file /nas/schram/gitcbmc-lazy-po/experiments/wmm-core/safe075.c line 27 function P1 thread 2
----------------------------------------------------
  __unbuffered_p1_r3=0 (00000000000000000000000000000000)

State 58 file /nas/schram/gitcbmc-lazy-po/experiments/wmm-core/safe075.c line 28 function P1 thread 2
----------------------------------------------------
  __unbuffered_p1_r4=0 (00000000000000000000000000000000)

State 63 file /nas/schram/gitcbmc-lazy-po/experiments/wmm-core/safe075.c line 31 function P1 thread 2
----------------------------------------------------
  __unbuffered_cnt=2 (00000000000000000000000000000010)

Violated property:
  file /nas/schram/gitcbmc-lazy-po/experiments/wmm-core/safe075.c line 40 function main
  Program was expected to be safe for PPC, model checker should have said NO.
This likely is a bug in the tool chain.
  !(__unbuffered_p1_r1 == 1 && __unbuffered_p1_r4 == 0)

VERIFICATION FAILED
Partial order constraints used: 158/206
  fr: 10/30
  po: 74/102
  rf: 16/16
  rf-order: 16/16
  rf-some: 11/11
  rfi: 7/7
  thread-spawn: 4/4
  ws-ext: 20/20
Time: 0.515661
