CBMC version 5.0 64-bit x86_64 linux
Parsing /nas/schram/gitcbmc-lazy-po/experiments/wmm-core/thin001.c
Converting
Type-checking thin001
Generating GOTO Program
Adding CPROVER library
Function Pointer Removal
Partial Inlining
Generic Property Instrumentation
Starting Bounded Model Checking
Adding PSO constraints
size of program expression: 511 steps
no slicing due to threads
Generated 1 VCC(s), 1 remaining after simplification
Passing problem to refinement loop with MiniSAT 2.2.0 with simplifier
converting SSA
Running refinement loop with MiniSAT 2.2.0 with simplifier
BV-Refinement: post-processing
BV-Refinement: iteration 1
4271 variables, 13597 clauses
SAT checker: negated claim is SATISFIABLE, i.e., does not hold
BV-Refinement: 104 partial order constraints become active
BV-Refinement: 138 inactive partial order constraints
BV-Refinement: got SAT, and it is spurious, refining
BV-Refinement: iteration 2
5877 variables, 19385 clauses
SAT checker: negated claim is SATISFIABLE, i.e., does not hold
BV-Refinement: 43 partial order constraints become active
BV-Refinement: 95 inactive partial order constraints
BV-Refinement: got SAT, and it is spurious, refining
BV-Refinement: iteration 3
6572 variables, 20636 clauses
SAT checker: negated claim is UNSATISFIABLE, i.e., holds
BV-Refinement: got UNSAT, and the proof passes => UNSAT
Total iterations: 3
PROFILING: main_solver: 0.216
PROFILING: sat_check: 0.049
Runtime decision procedure: 0.302s
VERIFICATION SUCCESSFUL
Partial order constraints used: 281/376
  fr: 20/69
  po: 127/173
  rf: 30/30
  rf-order: 30/30
  rf-some: 19/19
  rfi: 13/13
  thread-spawn: 6/6
  ws-ext: 36/36
Time: 0.666228
