CBMC version 5.1 64-bit x86_64 linux
Parsing /nas/schram/gitcbmc-lazy-po/experiments/wmm-core/bclwdww005.c
Converting
Type-checking bclwdww005
Generating GOTO Program
Adding CPROVER library
Function Pointer Removal
Partial Inlining
Generic Property Instrumentation
Starting Bounded Model Checking
Adding PSO constraints
size of program expression: 276 steps
no slicing due to threads
Generated 1 VCC(s), 1 remaining after simplification
Passing problem to refinement loop with MiniSAT 2.2.0 with simplifier
converting SSA
174 steps converted
Running refinement loop with MiniSAT 2.2.0 with simplifier
BV-Refinement: post-processing
BV-Refinement: iteration 1
3080 variables, 9480 clauses
SAT checker: negated claim is SATISFIABLE, i.e., does not hold
BV-Refinement: 15 partial order constraints become active
BV-Refinement: 136 inactive partial order constraints
BV-Refinement: got SAT, and it is spurious, refining
BV-Refinement: iteration 2
3633 variables, 9378 clauses
SAT checker: negated claim is SATISFIABLE, i.e., does not hold
BV-Refinement: 15 partial order constraints become active
BV-Refinement: 121 inactive partial order constraints
BV-Refinement: got SAT, and it is spurious, refining
BV-Refinement: iteration 3
3947 variables, 10645 clauses
SAT checker: negated claim is SATISFIABLE, i.e., does not hold
BV-Refinement: 10 partial order constraints become active
BV-Refinement: 111 inactive partial order constraints
BV-Refinement: got SAT, and it is spurious, refining
BV-Refinement: iteration 4
4228 variables, 11762 clauses
SAT checker: negated claim is SATISFIABLE, i.e., does not hold
BV-Refinement: 8 partial order constraints become active
BV-Refinement: 103 inactive partial order constraints
BV-Refinement: got SAT, and it is spurious, refining
BV-Refinement: iteration 5
4393 variables, 12400 clauses
SAT checker: negated claim is SATISFIABLE, i.e., does not hold
BV-Refinement: 8 partial order constraints become active
BV-Refinement: 95 inactive partial order constraints
BV-Refinement: got SAT, and it is spurious, refining
BV-Refinement: iteration 6
4577 variables, 13263 clauses
SAT checker: negated claim is SATISFIABLE, i.e., does not hold
BV-Refinement: 9 partial order constraints become active
BV-Refinement: 86 inactive partial order constraints
BV-Refinement: got SAT, and it is spurious, refining
BV-Refinement: iteration 7
4720 variables, 13925 clauses
SAT checker: negated claim is SATISFIABLE, i.e., does not hold
BV-Refinement: 8 partial order constraints become active
BV-Refinement: 78 inactive partial order constraints
BV-Refinement: got SAT, and it is spurious, refining
BV-Refinement: iteration 8
4910 variables, 14756 clauses
SAT checker: negated claim is SATISFIABLE, i.e., does not hold
BV-Refinement: 4 partial order constraints become active
BV-Refinement: 74 inactive partial order constraints
BV-Refinement: got SAT, and it is spurious, refining
BV-Refinement: iteration 9
4954 variables, 14847 clauses
SAT checker: negated claim is SATISFIABLE, i.e., does not hold
BV-Refinement: 2 partial order constraints become active
BV-Refinement: 72 inactive partial order constraints
BV-Refinement: got SAT, and it is spurious, refining
BV-Refinement: iteration 10
4983 variables, 14967 clauses
SAT checker: negated claim is SATISFIABLE, i.e., does not hold
BV-Refinement: 0 partial order constraints become active
BV-Refinement: 72 inactive partial order constraints
BV-Refinement: got SAT, and it simulates => SAT
Total iterations: 10
PROFILING: main_solver: 0.317
PROFILING: sat_check: 0.32
PROFILING: clustering: 0
Runtime decision procedure: 0.66s
Building error trace

Counterexample:

State 38 file /nas/schram/gitcbmc-lazy-po/experiments/wmm-core/bclwdww005.c line 27 function P1 thread 2
----------------------------------------------------
  x=1 (00000000000000000000000000000001)

State 53 file /nas/schram/gitcbmc-lazy-po/experiments/wmm-core/bclwdww005.c line 26 function P1 thread 2
----------------------------------------------------
  __unbuffered_p1_r1=1 (00000000000000000000000000000001)

State 54 file /nas/schram/gitcbmc-lazy-po/experiments/wmm-core/bclwdww005.c line 37 function P2 thread 3
----------------------------------------------------
  __unbuffered_p2_r1=2 (00000000000000000000000000000010)

State 55 file /nas/schram/gitcbmc-lazy-po/experiments/wmm-core/bclwdww005.c line 29 function P1 thread 2
----------------------------------------------------
  __unbuffered_p1_r3=1 (00000000000000000000000000000001)

State 56 file /nas/schram/gitcbmc-lazy-po/experiments/wmm-core/bclwdww005.c line 30 function P1 thread 2
----------------------------------------------------
  y=1 (00000000000000000000000000000001)

State 61 file /nas/schram/gitcbmc-lazy-po/experiments/wmm-core/bclwdww005.c line 38 function P2 thread 3
----------------------------------------------------
  y=2 (00000000000000000000000000000010)

State 66 file /nas/schram/gitcbmc-lazy-po/experiments/wmm-core/bclwdww005.c line 40 function P2 thread 3
----------------------------------------------------
  __unbuffered_p2_r3=1 (00000000000000000000000000000001)

State 67 file /nas/schram/gitcbmc-lazy-po/experiments/wmm-core/bclwdww005.c line 41 function P2 thread 3
----------------------------------------------------
  z=1 (00000000000000000000000000000001)

State 72 file /nas/schram/gitcbmc-lazy-po/experiments/wmm-core/bclwdww005.c line 17 function P0 thread 1
----------------------------------------------------
  __unbuffered_p0_r1=1 (00000000000000000000000000000001)

State 77 file /nas/schram/gitcbmc-lazy-po/experiments/wmm-core/bclwdww005.c line 44 function P2 thread 3
----------------------------------------------------
  __unbuffered_cnt=1 (00000000000000000000000000000001)

State 81 file /nas/schram/gitcbmc-lazy-po/experiments/wmm-core/bclwdww005.c line 19 function P0 thread 1
----------------------------------------------------
  __unbuffered_p0_r3=0 (00000000000000000000000000000000)

State 86 file /nas/schram/gitcbmc-lazy-po/experiments/wmm-core/bclwdww005.c line 33 function P1 thread 2
----------------------------------------------------
  __unbuffered_cnt=2 (00000000000000000000000000000010)

State 92 file /nas/schram/gitcbmc-lazy-po/experiments/wmm-core/bclwdww005.c line 50 function main thread 3
----------------------------------------------------
  arg=NULL (0000000000000000000000000000000000000000000000000000000000000000)

State 93 file /nas/schram/gitcbmc-lazy-po/experiments/wmm-core/bclwdww005.c line 22 function P0 thread 1
----------------------------------------------------
  __unbuffered_cnt=3 (00000000000000000000000000000011)

State 99 file /nas/schram/gitcbmc-lazy-po/experiments/wmm-core/bclwdww005.c line 49 function main thread 2
----------------------------------------------------
  arg=NULL (0000000000000000000000000000000000000000000000000000000000000000)

Violated property:
  file /nas/schram/gitcbmc-lazy-po/experiments/wmm-core/bclwdww005.c line 54 function main
  Program proven to be relaxed for PPC, model checker says YES.
  !(y == 2 && __unbuffered_p0_r1 == 1 && __unbuffered_p0_r3 == 0)

VERIFICATION FAILED
Partial order constraints used: 221/293
  fr: 26/61
  po: 123/123
  rf: 18/24
  rf-order: 14/24
  rf-some: 13/13
  rfi: 7/8
  thread-spawn: 6/6
  ws-ext: 14/34
Time: 1.017345
