CBMC version 5.1 64-bit x86_64 linux
Parsing /nas/schram/gitcbmc-lazy-po/experiments/wmm-core/mix043.c
Converting
Type-checking mix043
Generating GOTO Program
Adding CPROVER library
Function Pointer Removal
Partial Inlining
Generic Property Instrumentation
Starting Bounded Model Checking
Adding PSO constraints
size of program expression: 276 steps
no slicing due to threads
Generated 1 VCC(s), 1 remaining after simplification
Passing problem to refinement loop with MiniSAT 2.2.0 with simplifier
converting SSA
173 steps converted
Running refinement loop with MiniSAT 2.2.0 with simplifier
BV-Refinement: post-processing
BV-Refinement: iteration 1
3058 variables, 8950 clauses
SAT checker: negated claim is SATISFIABLE, i.e., does not hold
BV-Refinement: 21 partial order constraints become active
BV-Refinement: 200 inactive partial order constraints
BV-Refinement: got SAT, and it is spurious, refining
BV-Refinement: iteration 2
3737 variables, 9628 clauses
SAT checker: negated claim is SATISFIABLE, i.e., does not hold
BV-Refinement: 22 partial order constraints become active
BV-Refinement: 178 inactive partial order constraints
BV-Refinement: got SAT, and it is spurious, refining
BV-Refinement: iteration 3
4292 variables, 12066 clauses
SAT checker: negated claim is SATISFIABLE, i.e., does not hold
BV-Refinement: 17 partial order constraints become active
BV-Refinement: 161 inactive partial order constraints
BV-Refinement: got SAT, and it is spurious, refining
BV-Refinement: iteration 4
4718 variables, 13829 clauses
SAT checker: negated claim is SATISFIABLE, i.e., does not hold
BV-Refinement: 13 partial order constraints become active
BV-Refinement: 148 inactive partial order constraints
BV-Refinement: got SAT, and it is spurious, refining
BV-Refinement: iteration 5
5056 variables, 15247 clauses
SAT checker: negated claim is SATISFIABLE, i.e., does not hold
BV-Refinement: 12 partial order constraints become active
BV-Refinement: 136 inactive partial order constraints
BV-Refinement: got SAT, and it is spurious, refining
BV-Refinement: iteration 6
5297 variables, 16238 clauses
SAT checker: negated claim is SATISFIABLE, i.e., does not hold
BV-Refinement: 10 partial order constraints become active
BV-Refinement: 126 inactive partial order constraints
BV-Refinement: got SAT, and it is spurious, refining
BV-Refinement: iteration 7
5528 variables, 17235 clauses
SAT checker: negated claim is SATISFIABLE, i.e., does not hold
BV-Refinement: 7 partial order constraints become active
BV-Refinement: 119 inactive partial order constraints
BV-Refinement: got SAT, and it is spurious, refining
BV-Refinement: iteration 8
5617 variables, 17650 clauses
SAT checker: negated claim is SATISFIABLE, i.e., does not hold
BV-Refinement: 3 partial order constraints become active
BV-Refinement: 116 inactive partial order constraints
BV-Refinement: got SAT, and it is spurious, refining
BV-Refinement: iteration 9
5621 variables, 17650 clauses
SAT checker: negated claim is SATISFIABLE, i.e., does not hold
BV-Refinement: 5 partial order constraints become active
BV-Refinement: 111 inactive partial order constraints
BV-Refinement: got SAT, and it is spurious, refining
BV-Refinement: iteration 10
5716 variables, 18105 clauses
SAT checker: negated claim is SATISFIABLE, i.e., does not hold
BV-Refinement: 4 partial order constraints become active
BV-Refinement: 107 inactive partial order constraints
BV-Refinement: got SAT, and it is spurious, refining
BV-Refinement: iteration 11
5810 variables, 18484 clauses
SAT checker: negated claim is SATISFIABLE, i.e., does not hold
BV-Refinement: 0 partial order constraints become active
BV-Refinement: 107 inactive partial order constraints
BV-Refinement: got SAT, and it simulates => SAT
Total iterations: 11
PROFILING: main_solver: 0.232
PROFILING: sat_check: 0.494
PROFILING: clustering: 0
Runtime decision procedure: 0.748s
Building error trace

Counterexample:

State 59 file /nas/schram/gitcbmc-lazy-po/experiments/wmm-core/mix043.c line 34 function P2 thread 3
----------------------------------------------------
  z=1 (00000000000000000000000000000001)

State 64 file /nas/schram/gitcbmc-lazy-po/experiments/wmm-core/mix043.c line 26 function P1 thread 2
----------------------------------------------------
  __unbuffered_p1_EAX=0 (00000000000000000000000000000000)

State 69 file /nas/schram/gitcbmc-lazy-po/experiments/wmm-core/mix043.c line 33 function P2 thread 3
----------------------------------------------------
  y=1 (00000000000000000000000000000001)

State 70 file /nas/schram/gitcbmc-lazy-po/experiments/wmm-core/mix043.c line 43 function P3 thread 4
----------------------------------------------------
  __unbuffered_p3_EAX=1 (00000000000000000000000000000001)

State 71 file /nas/schram/gitcbmc-lazy-po/experiments/wmm-core/mix043.c line 44 function P3 thread 4
----------------------------------------------------
  __unbuffered_p3_EBX=0 (00000000000000000000000000000000)

State 76 file /nas/schram/gitcbmc-lazy-po/experiments/wmm-core/mix043.c line 18 function P0 thread 1
----------------------------------------------------
  __unbuffered_p0_EAX=0 (00000000000000000000000000000000)

State 81 file /nas/schram/gitcbmc-lazy-po/experiments/wmm-core/mix043.c line 41 function P3 thread 4
----------------------------------------------------
  z=2 (00000000000000000000000000000010)

State 82 file /nas/schram/gitcbmc-lazy-po/experiments/wmm-core/mix043.c line 42 function P3 thread 4
----------------------------------------------------
  a=1 (00000000000000000000000000000001)

State 83 file /nas/schram/gitcbmc-lazy-po/experiments/wmm-core/mix043.c line 47 function P3 thread 4
----------------------------------------------------
  __unbuffered_cnt=1 (00000000000000000000000000000001)

State 87 file /nas/schram/gitcbmc-lazy-po/experiments/wmm-core/mix043.c line 25 function P1 thread 2
----------------------------------------------------
  x=1 (00000000000000000000000000000001)

State 88 file /nas/schram/gitcbmc-lazy-po/experiments/wmm-core/mix043.c line 29 function P1 thread 2
----------------------------------------------------
  __unbuffered_cnt=2 (00000000000000000000000000000010)

State 94 file /nas/schram/gitcbmc-lazy-po/experiments/wmm-core/mix043.c line 53 function main thread 3
----------------------------------------------------
  arg=NULL (0000000000000000000000000000000000000000000000000000000000000000)

State 95 file /nas/schram/gitcbmc-lazy-po/experiments/wmm-core/mix043.c line 17 function P0 thread 1
----------------------------------------------------
  b=1 (00000000000000000000000000000001)

State 96 file /nas/schram/gitcbmc-lazy-po/experiments/wmm-core/mix043.c line 37 function P2 thread 3
----------------------------------------------------
  __unbuffered_cnt=3 (00000000000000000000000000000011)

State 102 file /nas/schram/gitcbmc-lazy-po/experiments/wmm-core/mix043.c line 54 function main thread 4
----------------------------------------------------
  arg=NULL (0000000000000000000000000000000000000000000000000000000000000000)

State 103 file /nas/schram/gitcbmc-lazy-po/experiments/wmm-core/mix043.c line 21 function P0 thread 1
----------------------------------------------------
  __unbuffered_cnt=4 (00000000000000000000000000000100)

State 109 file /nas/schram/gitcbmc-lazy-po/experiments/wmm-core/mix043.c line 52 function main thread 2
----------------------------------------------------
  arg=NULL (0000000000000000000000000000000000000000000000000000000000000000)

Violated property:
  file /nas/schram/gitcbmc-lazy-po/experiments/wmm-core/mix043.c line 58 function main
  Program proven to be relaxed for X86, model checker says YES.
  !(z == 2 && __unbuffered_p0_EAX == 0 && __unbuffered_p1_EAX == 0 && __unbuffered_p3_EAX == 1 && __unbuffered_p3_EBX == 0)

VERIFICATION FAILED
Partial order constraints used: 246/353
  fr: 41/106
  po: 110/110
  rf: 27/33
  rf-order: 26/33
  rf-some: 14/14
  rfi: 4/7
  thread-spawn: 8/8
  ws-ext: 16/42
Time: 1.117514
