CBMC version 5.1 64-bit x86_64 linux
Parsing /nas/schram/gitcbmc-lazy-po/experiments/wmm-core/mix037.c
Converting
Type-checking mix037
Generating GOTO Program
Adding CPROVER library
Function Pointer Removal
Partial Inlining
Generic Property Instrumentation
Starting Bounded Model Checking
Adding PSO constraints
size of program expression: 276 steps
no slicing due to threads
Generated 1 VCC(s), 1 remaining after simplification
Passing problem to refinement loop with MiniSAT 2.2.0 with simplifier
converting SSA
173 steps converted
Running refinement loop with MiniSAT 2.2.0 with simplifier
BV-Refinement: post-processing
BV-Refinement: iteration 1
3058 variables, 8950 clauses
SAT checker: negated claim is SATISFIABLE, i.e., does not hold
BV-Refinement: 16 partial order constraints become active
BV-Refinement: 205 inactive partial order constraints
BV-Refinement: got SAT, and it is spurious, refining
BV-Refinement: iteration 2
3525 variables, 8607 clauses
SAT checker: negated claim is SATISFIABLE, i.e., does not hold
BV-Refinement: 15 partial order constraints become active
BV-Refinement: 190 inactive partial order constraints
BV-Refinement: got SAT, and it is spurious, refining
BV-Refinement: iteration 3
3948 variables, 10444 clauses
SAT checker: negated claim is SATISFIABLE, i.e., does not hold
BV-Refinement: 18 partial order constraints become active
BV-Refinement: 172 inactive partial order constraints
BV-Refinement: got SAT, and it is spurious, refining
BV-Refinement: iteration 4
4416 variables, 12497 clauses
SAT checker: negated claim is SATISFIABLE, i.e., does not hold
BV-Refinement: 15 partial order constraints become active
BV-Refinement: 157 inactive partial order constraints
BV-Refinement: got SAT, and it is spurious, refining
BV-Refinement: iteration 5
4721 variables, 13778 clauses
SAT checker: negated claim is SATISFIABLE, i.e., does not hold
BV-Refinement: 11 partial order constraints become active
BV-Refinement: 146 inactive partial order constraints
BV-Refinement: got SAT, and it is spurious, refining
BV-Refinement: iteration 6
4991 variables, 14980 clauses
SAT checker: negated claim is SATISFIABLE, i.e., does not hold
BV-Refinement: 7 partial order constraints become active
BV-Refinement: 139 inactive partial order constraints
BV-Refinement: got SAT, and it is spurious, refining
BV-Refinement: iteration 7
5158 variables, 15684 clauses
SAT checker: negated claim is SATISFIABLE, i.e., does not hold
BV-Refinement: 6 partial order constraints become active
BV-Refinement: 133 inactive partial order constraints
BV-Refinement: got SAT, and it is spurious, refining
BV-Refinement: iteration 8
5324 variables, 16375 clauses
SAT checker: negated claim is SATISFIABLE, i.e., does not hold
BV-Refinement: 5 partial order constraints become active
BV-Refinement: 128 inactive partial order constraints
BV-Refinement: got SAT, and it is spurious, refining
BV-Refinement: iteration 9
5476 variables, 16998 clauses
SAT checker: negated claim is SATISFIABLE, i.e., does not hold
BV-Refinement: 0 partial order constraints become active
BV-Refinement: 128 inactive partial order constraints
BV-Refinement: got SAT, and it simulates => SAT
Total iterations: 9
PROFILING: main_solver: 0.199
PROFILING: sat_check: 0.437
PROFILING: clustering: 0
Runtime decision procedure: 0.658s
Building error trace

Counterexample:

State 59 file /nas/schram/gitcbmc-lazy-po/experiments/wmm-core/mix037.c line 18 function P0 thread 1
----------------------------------------------------
  x=1 (00000000000000000000000000000001)

State 64 file /nas/schram/gitcbmc-lazy-po/experiments/wmm-core/mix037.c line 26 function P1 thread 2
----------------------------------------------------
  __unbuffered_p1_EAX=0 (00000000000000000000000000000000)

State 69 file /nas/schram/gitcbmc-lazy-po/experiments/wmm-core/mix037.c line 17 function P0 thread 1
----------------------------------------------------
  b=1 (00000000000000000000000000000001)

State 70 file /nas/schram/gitcbmc-lazy-po/experiments/wmm-core/mix037.c line 25 function P1 thread 2
----------------------------------------------------
  x=2 (00000000000000000000000000000010)

State 71 file /nas/schram/gitcbmc-lazy-po/experiments/wmm-core/mix037.c line 44 function P3 thread 4
----------------------------------------------------
  __unbuffered_p3_EBX=0 (00000000000000000000000000000000)

State 76 file /nas/schram/gitcbmc-lazy-po/experiments/wmm-core/mix037.c line 43 function P3 thread 4
----------------------------------------------------
  __unbuffered_p3_EAX=1 (00000000000000000000000000000001)

State 77 file /nas/schram/gitcbmc-lazy-po/experiments/wmm-core/mix037.c line 34 function P2 thread 3
----------------------------------------------------
  __unbuffered_p2_EAX=0 (00000000000000000000000000000000)

State 82 file /nas/schram/gitcbmc-lazy-po/experiments/wmm-core/mix037.c line 42 function P3 thread 4
----------------------------------------------------
  a=1 (00000000000000000000000000000001)

State 83 file /nas/schram/gitcbmc-lazy-po/experiments/wmm-core/mix037.c line 33 function P2 thread 3
----------------------------------------------------
  y=1 (00000000000000000000000000000001)

State 84 file /nas/schram/gitcbmc-lazy-po/experiments/wmm-core/mix037.c line 29 function P1 thread 2
----------------------------------------------------
  __unbuffered_cnt=1 (00000000000000000000000000000001)

State 90 file /nas/schram/gitcbmc-lazy-po/experiments/wmm-core/mix037.c line 53 function main thread 3
----------------------------------------------------
  arg=NULL (0000000000000000000000000000000000000000000000000000000000000000)

State 91 file /nas/schram/gitcbmc-lazy-po/experiments/wmm-core/mix037.c line 41 function P3 thread 4
----------------------------------------------------
  z=1 (00000000000000000000000000000001)

State 92 file /nas/schram/gitcbmc-lazy-po/experiments/wmm-core/mix037.c line 47 function P3 thread 4
----------------------------------------------------
  __unbuffered_cnt=2 (00000000000000000000000000000010)

State 96 file /nas/schram/gitcbmc-lazy-po/experiments/wmm-core/mix037.c line 37 function P2 thread 3
----------------------------------------------------
  __unbuffered_cnt=3 (00000000000000000000000000000011)

State 102 file /nas/schram/gitcbmc-lazy-po/experiments/wmm-core/mix037.c line 54 function main thread 4
----------------------------------------------------
  arg=NULL (0000000000000000000000000000000000000000000000000000000000000000)

State 103 file /nas/schram/gitcbmc-lazy-po/experiments/wmm-core/mix037.c line 21 function P0 thread 1
----------------------------------------------------
  __unbuffered_cnt=4 (00000000000000000000000000000100)

State 109 file /nas/schram/gitcbmc-lazy-po/experiments/wmm-core/mix037.c line 52 function main thread 2
----------------------------------------------------
  arg=NULL (0000000000000000000000000000000000000000000000000000000000000000)

Violated property:
  file /nas/schram/gitcbmc-lazy-po/experiments/wmm-core/mix037.c line 58 function main
  Program proven to be relaxed for X86, model checker says YES.
  !(x == 2 && __unbuffered_p1_EAX == 0 && __unbuffered_p2_EAX == 0 && __unbuffered_p3_EAX == 1 && __unbuffered_p3_EBX == 0)

VERIFICATION FAILED
Partial order constraints used: 225/353
  fr: 29/106
  po: 110/110
  rf: 23/33
  rf-order: 22/33
  rf-some: 14/14
  rfi: 3/7
  thread-spawn: 8/8
  ws-ext: 16/42
Time: 1.017449
