CBMC version 5.1 64-bit x86_64 linux
Parsing /nas/schram/gitcbmc-lazy-po/experiments/wmm-core/podrwposwr001.c
Converting
Type-checking podrwposwr001
Generating GOTO Program
Adding CPROVER library
Function Pointer Removal
Partial Inlining
Generic Property Instrumentation
Starting Bounded Model Checking
Adding PSO constraints
size of program expression: 351 steps
no slicing due to threads
Generated 1 VCC(s), 1 remaining after simplification
Passing problem to refinement loop with MiniSAT 2.2.0 with simplifier
converting SSA
241 steps converted
Running refinement loop with MiniSAT 2.2.0 with simplifier
BV-Refinement: post-processing
BV-Refinement: iteration 1
4222 variables, 13692 clauses
SAT checker: negated claim is SATISFIABLE, i.e., does not hold
BV-Refinement: 23 partial order constraints become active
BV-Refinement: 162 inactive partial order constraints
BV-Refinement: got SAT, and it is spurious, refining
BV-Refinement: iteration 2
4924 variables, 13082 clauses
SAT checker: negated claim is SATISFIABLE, i.e., does not hold
BV-Refinement: 21 partial order constraints become active
BV-Refinement: 141 inactive partial order constraints
BV-Refinement: got SAT, and it is spurious, refining
BV-Refinement: iteration 3
5324 variables, 14802 clauses
SAT checker: negated claim is SATISFIABLE, i.e., does not hold
BV-Refinement: 17 partial order constraints become active
BV-Refinement: 124 inactive partial order constraints
BV-Refinement: got SAT, and it is spurious, refining
BV-Refinement: iteration 4
5763 variables, 16394 clauses
SAT checker: negated claim is SATISFIABLE, i.e., does not hold
BV-Refinement: 13 partial order constraints become active
BV-Refinement: 111 inactive partial order constraints
BV-Refinement: got SAT, and it is spurious, refining
BV-Refinement: iteration 5
6046 variables, 17451 clauses
SAT checker: negated claim is SATISFIABLE, i.e., does not hold
BV-Refinement: 7 partial order constraints become active
BV-Refinement: 104 inactive partial order constraints
BV-Refinement: got SAT, and it is spurious, refining
BV-Refinement: iteration 6
6109 variables, 17558 clauses
SAT checker: negated claim is SATISFIABLE, i.e., does not hold
BV-Refinement: 8 partial order constraints become active
BV-Refinement: 96 inactive partial order constraints
BV-Refinement: got SAT, and it is spurious, refining
BV-Refinement: iteration 7
6292 variables, 18415 clauses
SAT checker: negated claim is SATISFIABLE, i.e., does not hold
BV-Refinement: 3 partial order constraints become active
BV-Refinement: 93 inactive partial order constraints
BV-Refinement: got SAT, and it is spurious, refining
BV-Refinement: iteration 8
6351 variables, 18640 clauses
SAT checker: negated claim is SATISFIABLE, i.e., does not hold
BV-Refinement: 2 partial order constraints become active
BV-Refinement: 91 inactive partial order constraints
BV-Refinement: got SAT, and it is spurious, refining
BV-Refinement: iteration 9
6382 variables, 18706 clauses
SAT checker: negated claim is SATISFIABLE, i.e., does not hold
BV-Refinement: 3 partial order constraints become active
BV-Refinement: 88 inactive partial order constraints
BV-Refinement: got SAT, and it is spurious, refining
BV-Refinement: iteration 10
6482 variables, 19112 clauses
SAT checker: negated claim is SATISFIABLE, i.e., does not hold
BV-Refinement: 5 partial order constraints become active
BV-Refinement: 83 inactive partial order constraints
BV-Refinement: got SAT, and it is spurious, refining
BV-Refinement: iteration 11
6638 variables, 19792 clauses
SAT checker: negated claim is SATISFIABLE, i.e., does not hold
BV-Refinement: 1 partial order constraints become active
BV-Refinement: 82 inactive partial order constraints
BV-Refinement: got SAT, and it is spurious, refining
BV-Refinement: iteration 12
6639 variables, 19770 clauses
SAT checker: negated claim is SATISFIABLE, i.e., does not hold
BV-Refinement: 0 partial order constraints become active
BV-Refinement: 82 inactive partial order constraints
BV-Refinement: got SAT, and it simulates => SAT
Total iterations: 12
PROFILING: main_solver: 0.422
PROFILING: sat_check: 0.437
PROFILING: clustering: 0
Runtime decision procedure: 0.891s
Building error trace

Counterexample:

State 51 file /nas/schram/gitcbmc-lazy-po/experiments/wmm-core/podrwposwr001.c line 32 function P1 thread 2
----------------------------------------------------
  x=1 (00000000000000000000000000000001)

State 57 file /nas/schram/gitcbmc-lazy-po/experiments/wmm-core/podrwposwr001.c line 31 function P1 thread 2
----------------------------------------------------
  __unbuffered_p1_r1=1 (00000000000000000000000000000001)

State 58 file /nas/schram/gitcbmc-lazy-po/experiments/wmm-core/podrwposwr001.c line 34 function P1 thread 2
----------------------------------------------------
  __unbuffered_p1_r3=1 (00000000000000000000000000000001)

State 59 file /nas/schram/gitcbmc-lazy-po/experiments/wmm-core/podrwposwr001.c line 35 function P1 thread 2
----------------------------------------------------
  y=1 (00000000000000000000000000000001)

State 64 file /nas/schram/gitcbmc-lazy-po/experiments/wmm-core/podrwposwr001.c line 42 function P2 thread 3
----------------------------------------------------
  __unbuffered_p2_r1=1 (00000000000000000000000000000001)

State 65 file /nas/schram/gitcbmc-lazy-po/experiments/wmm-core/podrwposwr001.c line 46 function P2 thread 3
----------------------------------------------------
  a=1 (00000000000000000000000000000001)

State 66 file /nas/schram/gitcbmc-lazy-po/experiments/wmm-core/podrwposwr001.c line 22 function P0 thread 1
----------------------------------------------------
  a=2 (00000000000000000000000000000010)

State 71 file /nas/schram/gitcbmc-lazy-po/experiments/wmm-core/podrwposwr001.c line 45 function P2 thread 3
----------------------------------------------------
  __unbuffered_p2_r6=1 (00000000000000000000000000000001)

State 72 file /nas/schram/gitcbmc-lazy-po/experiments/wmm-core/podrwposwr001.c line 21 function P0 thread 1
----------------------------------------------------
  __unbuffered_p0_r1=2 (00000000000000000000000000000010)

State 73 file /nas/schram/gitcbmc-lazy-po/experiments/wmm-core/podrwposwr001.c line 47 function P2 thread 3
----------------------------------------------------
  __unbuffered_p2_r8=1 (00000000000000000000000000000001)

State 78 file /nas/schram/gitcbmc-lazy-po/experiments/wmm-core/podrwposwr001.c line 43 function P2 thread 3
----------------------------------------------------
  __unbuffered_p2_r3=0 (00000000000000000000000000000000)

State 79 file /nas/schram/gitcbmc-lazy-po/experiments/wmm-core/podrwposwr001.c line 44 function P2 thread 3
----------------------------------------------------
  __unbuffered_p2_r4=0 (00000000000000000000000000000000)

State 80 file /nas/schram/gitcbmc-lazy-po/experiments/wmm-core/podrwposwr001.c line 24 function P0 thread 1
----------------------------------------------------
  __unbuffered_p0_r3=0 (00000000000000000000000000000000)

State 85 file /nas/schram/gitcbmc-lazy-po/experiments/wmm-core/podrwposwr001.c line 50 function P2 thread 3
----------------------------------------------------
  __unbuffered_cnt=1 (00000000000000000000000000000001)

State 89 file /nas/schram/gitcbmc-lazy-po/experiments/wmm-core/podrwposwr001.c line 27 function P0 thread 1
----------------------------------------------------
  __unbuffered_cnt=2 (00000000000000000000000000000010)

State 95 file /nas/schram/gitcbmc-lazy-po/experiments/wmm-core/podrwposwr001.c line 55 function main thread 2
----------------------------------------------------
  arg=NULL (0000000000000000000000000000000000000000000000000000000000000000)

State 96 file /nas/schram/gitcbmc-lazy-po/experiments/wmm-core/podrwposwr001.c line 38 function P1 thread 2
----------------------------------------------------
  __unbuffered_cnt=3 (00000000000000000000000000000011)

State 102 file /nas/schram/gitcbmc-lazy-po/experiments/wmm-core/podrwposwr001.c line 56 function main thread 3
----------------------------------------------------
  arg=NULL (0000000000000000000000000000000000000000000000000000000000000000)

Violated property:
  file /nas/schram/gitcbmc-lazy-po/experiments/wmm-core/podrwposwr001.c line 60 function main
  Program proven to be relaxed for PPC, model checker says YES.
  !(a == 2 && __unbuffered_p0_r3 == 0 && __unbuffered_p2_r1 == 1 && __unbuffered_p2_r8 == 1)

VERIFICATION FAILED
Partial order constraints used: 310/392
  fr: 32/73
  po: 183/183
  rf: 23/30
  rf-order: 16/30
  rf-some: 18/18
  rfi: 10/12
  thread-spawn: 6/6
  ws-ext: 22/40
Time: 1.267531
