CBMC version 5.1 64-bit x86_64 linux
Parsing /nas/schram/gitcbmc-lazy-po/experiments/wmm-core/safe104.c
Converting
Type-checking safe104
Generating GOTO Program
Adding CPROVER library
Function Pointer Removal
Partial Inlining
Generic Property Instrumentation
Starting Bounded Model Checking
Adding PSO constraints
size of program expression: 192 steps
no slicing due to threads
Generated 1 VCC(s), 1 remaining after simplification
Passing problem to refinement loop with MiniSAT 2.2.0 with simplifier
converting SSA
117 steps converted
Running refinement loop with MiniSAT 2.2.0 with simplifier
BV-Refinement: post-processing
BV-Refinement: iteration 1
2127 variables, 6471 clauses
SAT checker: negated claim is SATISFIABLE, i.e., does not hold
BV-Refinement: 12 partial order constraints become active
BV-Refinement: 65 inactive partial order constraints
BV-Refinement: got SAT, and it is spurious, refining
BV-Refinement: iteration 2
2475 variables, 6239 clauses
SAT checker: negated claim is SATISFIABLE, i.e., does not hold
BV-Refinement: 11 partial order constraints become active
BV-Refinement: 54 inactive partial order constraints
BV-Refinement: got SAT, and it is spurious, refining
BV-Refinement: iteration 3
2722 variables, 7258 clauses
SAT checker: negated claim is SATISFIABLE, i.e., does not hold
BV-Refinement: 8 partial order constraints become active
BV-Refinement: 46 inactive partial order constraints
BV-Refinement: got SAT, and it is spurious, refining
BV-Refinement: iteration 4
2909 variables, 7987 clauses
SAT checker: negated claim is SATISFIABLE, i.e., does not hold
BV-Refinement: 8 partial order constraints become active
BV-Refinement: 38 inactive partial order constraints
BV-Refinement: got SAT, and it is spurious, refining
BV-Refinement: iteration 5
3067 variables, 8605 clauses
SAT checker: negated claim is SATISFIABLE, i.e., does not hold
BV-Refinement: 3 partial order constraints become active
BV-Refinement: 35 inactive partial order constraints
BV-Refinement: got SAT, and it is spurious, refining
BV-Refinement: iteration 6
3167 variables, 8841 clauses
SAT checker: negated claim is SATISFIABLE, i.e., does not hold
BV-Refinement: 1 partial order constraints become active
BV-Refinement: 34 inactive partial order constraints
BV-Refinement: got SAT, and it is spurious, refining
BV-Refinement: iteration 7
3200 variables, 8961 clauses
SAT checker: negated claim is SATISFIABLE, i.e., does not hold
BV-Refinement: 1 partial order constraints become active
BV-Refinement: 33 inactive partial order constraints
BV-Refinement: got SAT, and it is spurious, refining
BV-Refinement: iteration 8
3201 variables, 8995 clauses
SAT checker: negated claim is SATISFIABLE, i.e., does not hold
BV-Refinement: 1 partial order constraints become active
BV-Refinement: 32 inactive partial order constraints
BV-Refinement: got SAT, and it is spurious, refining
BV-Refinement: iteration 9
3230 variables, 9135 clauses
SAT checker: negated claim is SATISFIABLE, i.e., does not hold
BV-Refinement: 0 partial order constraints become active
BV-Refinement: 32 inactive partial order constraints
BV-Refinement: got SAT, and it simulates => SAT
Total iterations: 9
PROFILING: main_solver: 0.095
PROFILING: sat_check: 0.144
PROFILING: clustering: 0
Runtime decision procedure: 0.255s
Building error trace

Counterexample:

State 16 file /nas/schram/gitcbmc-lazy-po/experiments/wmm-core/safe104.c line 15 function P0 thread 1
----------------------------------------------------
  y=1 (00000000000000000000000000000001)

State 41 file /nas/schram/gitcbmc-lazy-po/experiments/wmm-core/safe104.c line 14 function P0 thread 1
----------------------------------------------------
  __unbuffered_p0_r1=1 (00000000000000000000000000000001)

State 42 file /nas/schram/gitcbmc-lazy-po/experiments/wmm-core/safe104.c line 17 function P0 thread 1
----------------------------------------------------
  __unbuffered_p0_r3=1 (00000000000000000000000000000001)

State 43 file /nas/schram/gitcbmc-lazy-po/experiments/wmm-core/safe104.c line 18 function P0 thread 1
----------------------------------------------------
  x=1 (00000000000000000000000000000001)

State 48 file /nas/schram/gitcbmc-lazy-po/experiments/wmm-core/safe104.c line 21 function P0 thread 1
----------------------------------------------------
  __unbuffered_cnt=1 (00000000000000000000000000000001)

State 54 file /nas/schram/gitcbmc-lazy-po/experiments/wmm-core/safe104.c line 35 function main thread 2
----------------------------------------------------
  arg=NULL (0000000000000000000000000000000000000000000000000000000000000000)

State 55 file /nas/schram/gitcbmc-lazy-po/experiments/wmm-core/safe104.c line 25 function P1 thread 2
----------------------------------------------------
  __unbuffered_p1_r1=1 (00000000000000000000000000000001)

State 60 file /nas/schram/gitcbmc-lazy-po/experiments/wmm-core/safe104.c line 27 function P1 thread 2
----------------------------------------------------
  __unbuffered_p1_r3=0 (00000000000000000000000000000000)

State 65 file /nas/schram/gitcbmc-lazy-po/experiments/wmm-core/safe104.c line 30 function P1 thread 2
----------------------------------------------------
  __unbuffered_cnt=2 (00000000000000000000000000000010)

Violated property:
  file /nas/schram/gitcbmc-lazy-po/experiments/wmm-core/safe104.c line 39 function main
  Program was expected to be safe for PPC, model checker should have said NO.
This likely is a bug in the tool chain.
  !(__unbuffered_p1_r1 == 1 && __unbuffered_p1_r3 == 0)

VERIFICATION FAILED
Partial order constraints used: 142/174
  fr: 11/26
  po: 84/84
  rf: 11/14
  rf-order: 9/14
  rf-some: 9/9
  rfi: 4/5
  thread-spawn: 4/4
  ws-ext: 10/18
Time: 0.616199
