CBMC version 5.1 64-bit x86_64 linux
Parsing /nas/schram/gitcbmc-lazy-po/experiments/wmm-core/safe087.c
Converting
Type-checking safe087
Generating GOTO Program
Adding CPROVER library
Function Pointer Removal
Partial Inlining
Generic Property Instrumentation
Starting Bounded Model Checking
Adding PSO constraints
size of program expression: 272 steps
no slicing due to threads
Generated 1 VCC(s), 1 remaining after simplification
Passing problem to refinement loop with MiniSAT 2.2.0 with simplifier
converting SSA
171 steps converted
Running refinement loop with MiniSAT 2.2.0 with simplifier
BV-Refinement: post-processing
BV-Refinement: iteration 1
3044 variables, 9345 clauses
SAT checker: negated claim is SATISFIABLE, i.e., does not hold
BV-Refinement: 21 partial order constraints become active
BV-Refinement: 146 inactive partial order constraints
BV-Refinement: got SAT, and it is spurious, refining
BV-Refinement: iteration 2
3631 variables, 9503 clauses
SAT checker: negated claim is SATISFIABLE, i.e., does not hold
BV-Refinement: 19 partial order constraints become active
BV-Refinement: 127 inactive partial order constraints
BV-Refinement: got SAT, and it is spurious, refining
BV-Refinement: iteration 3
4079 variables, 11410 clauses
SAT checker: negated claim is SATISFIABLE, i.e., does not hold
BV-Refinement: 15 partial order constraints become active
BV-Refinement: 112 inactive partial order constraints
BV-Refinement: got SAT, and it is spurious, refining
BV-Refinement: iteration 4
4426 variables, 12714 clauses
SAT checker: negated claim is SATISFIABLE, i.e., does not hold
BV-Refinement: 10 partial order constraints become active
BV-Refinement: 102 inactive partial order constraints
BV-Refinement: got SAT, and it is spurious, refining
BV-Refinement: iteration 5
4613 variables, 13502 clauses
SAT checker: negated claim is SATISFIABLE, i.e., does not hold
BV-Refinement: 9 partial order constraints become active
BV-Refinement: 93 inactive partial order constraints
BV-Refinement: got SAT, and it is spurious, refining
BV-Refinement: iteration 6
4798 variables, 14339 clauses
SAT checker: negated claim is SATISFIABLE, i.e., does not hold
BV-Refinement: 5 partial order constraints become active
BV-Refinement: 88 inactive partial order constraints
BV-Refinement: got SAT, and it is spurious, refining
BV-Refinement: iteration 7
4888 variables, 14697 clauses
SAT checker: negated claim is SATISFIABLE, i.e., does not hold
BV-Refinement: 4 partial order constraints become active
BV-Refinement: 84 inactive partial order constraints
BV-Refinement: got SAT, and it is spurious, refining
BV-Refinement: iteration 8
4997 variables, 15146 clauses
SAT checker: negated claim is SATISFIABLE, i.e., does not hold
BV-Refinement: 1 partial order constraints become active
BV-Refinement: 83 inactive partial order constraints
BV-Refinement: got SAT, and it is spurious, refining
BV-Refinement: iteration 9
4998 variables, 15131 clauses
SAT checker: negated claim is SATISFIABLE, i.e., does not hold
BV-Refinement: 3 partial order constraints become active
BV-Refinement: 80 inactive partial order constraints
BV-Refinement: got SAT, and it is spurious, refining
BV-Refinement: iteration 10
5098 variables, 15551 clauses
SAT checker: negated claim is SATISFIABLE, i.e., does not hold
BV-Refinement: 4 partial order constraints become active
BV-Refinement: 76 inactive partial order constraints
BV-Refinement: got SAT, and it is spurious, refining
BV-Refinement: iteration 11
5156 variables, 15791 clauses
SAT checker: negated claim is SATISFIABLE, i.e., does not hold
BV-Refinement: 3 partial order constraints become active
BV-Refinement: 73 inactive partial order constraints
BV-Refinement: got SAT, and it is spurious, refining
BV-Refinement: iteration 12
5156 variables, 15766 clauses
SAT checker: negated claim is SATISFIABLE, i.e., does not hold
BV-Refinement: 0 partial order constraints become active
BV-Refinement: 73 inactive partial order constraints
BV-Refinement: got SAT, and it simulates => SAT
Total iterations: 12
PROFILING: main_solver: 0.332
PROFILING: sat_check: 0.401
PROFILING: clustering: 0
Runtime decision procedure: 0.756s
Building error trace

Counterexample:

State 10 file /nas/schram/gitcbmc-lazy-po/experiments/wmm-core/safe087.c line 17 function P0 thread 1
----------------------------------------------------
  y=1 (00000000000000000000000000000001)

State 52 file /nas/schram/gitcbmc-lazy-po/experiments/wmm-core/safe087.c line 16 function P0 thread 1
----------------------------------------------------
  __unbuffered_p0_r1=1 (00000000000000000000000000000001)

State 53 file /nas/schram/gitcbmc-lazy-po/experiments/wmm-core/safe087.c line 20 function P0 thread 1
----------------------------------------------------
  x=1 (00000000000000000000000000000001)

State 58 file /nas/schram/gitcbmc-lazy-po/experiments/wmm-core/safe087.c line 36 function P2 thread 3
----------------------------------------------------
  __unbuffered_p2_r1=2 (00000000000000000000000000000010)

State 59 file /nas/schram/gitcbmc-lazy-po/experiments/wmm-core/safe087.c line 27 function P1 thread 2
----------------------------------------------------
  __unbuffered_p1_r1=1 (00000000000000000000000000000001)

State 64 file /nas/schram/gitcbmc-lazy-po/experiments/wmm-core/safe087.c line 19 function P0 thread 1
----------------------------------------------------
  __unbuffered_p0_r3=1 (00000000000000000000000000000001)

State 65 file /nas/schram/gitcbmc-lazy-po/experiments/wmm-core/safe087.c line 37 function P2 thread 3
----------------------------------------------------
  x=2 (00000000000000000000000000000010)

State 70 file /nas/schram/gitcbmc-lazy-po/experiments/wmm-core/safe087.c line 39 function P2 thread 3
----------------------------------------------------
  __unbuffered_p2_r3=0 (00000000000000000000000000000000)

State 75 file /nas/schram/gitcbmc-lazy-po/experiments/wmm-core/safe087.c line 29 function P1 thread 2
----------------------------------------------------
  __unbuffered_p1_r3=1 (00000000000000000000000000000001)

State 80 file /nas/schram/gitcbmc-lazy-po/experiments/wmm-core/safe087.c line 42 function P2 thread 3
----------------------------------------------------
  __unbuffered_cnt=1 (00000000000000000000000000000001)

State 84 file /nas/schram/gitcbmc-lazy-po/experiments/wmm-core/safe087.c line 32 function P1 thread 2
----------------------------------------------------
  __unbuffered_cnt=2 (00000000000000000000000000000010)

State 90 file /nas/schram/gitcbmc-lazy-po/experiments/wmm-core/safe087.c line 48 function main thread 3
----------------------------------------------------
  arg=NULL (0000000000000000000000000000000000000000000000000000000000000000)

State 91 file /nas/schram/gitcbmc-lazy-po/experiments/wmm-core/safe087.c line 23 function P0 thread 1
----------------------------------------------------
  __unbuffered_cnt=3 (00000000000000000000000000000011)

State 97 file /nas/schram/gitcbmc-lazy-po/experiments/wmm-core/safe087.c line 47 function main thread 2
----------------------------------------------------
  arg=NULL (0000000000000000000000000000000000000000000000000000000000000000)

Violated property:
  file /nas/schram/gitcbmc-lazy-po/experiments/wmm-core/safe087.c line 52 function main
  Program was expected to be safe for PPC, model checker should have said NO.
This likely is a bug in the tool chain.
  !(x == 2 && __unbuffered_p1_r1 == 1 && __unbuffered_p1_r3 == 1 && __unbuffered_p2_r3 == 0)

VERIFICATION FAILED
Partial order constraints used: 235/308
  fr: 33/71
  po: 121/121
  rf: 22/28
  rf-order: 16/28
  rf-some: 14/14
  rfi: 7/8
  thread-spawn: 6/6
  ws-ext: 16/32
Time: 1.117413
