CBMC version 5.0 64-bit x86_64 linux
Parsing /nas/schram/gitcbmc-lazy-po/experiments/wmm-core/safe078.c
Converting
Type-checking safe078
Generating GOTO Program
Adding CPROVER library
Function Pointer Removal
Partial Inlining
Generic Property Instrumentation
Starting Bounded Model Checking
Adding TSO constraints
size of program expression: 644 steps
no slicing due to threads
Generated 1 VCC(s), 1 remaining after simplification
Passing problem to refinement loop with MiniSAT 2.2.0 with simplifier
converting SSA
Running refinement loop with MiniSAT 2.2.0 with simplifier
BV-Refinement: post-processing
BV-Refinement: iteration 1
1000 variables, 1247 clauses
SAT checker: negated claim is SATISFIABLE, i.e., does not hold
BV-Refinement: 14 partial order constraints become active
BV-Refinement: 476 inactive partial order constraints
BV-Refinement: got SAT, and it is spurious, refining
BV-Refinement: iteration 2
1236 variables, 2055 clauses
SAT checker: negated claim is SATISFIABLE, i.e., does not hold
BV-Refinement: 10 partial order constraints become active
BV-Refinement: 466 inactive partial order constraints
BV-Refinement: got SAT, and it is spurious, refining
BV-Refinement: iteration 3
1374 variables, 2549 clauses
SAT checker: negated claim is SATISFIABLE, i.e., does not hold
BV-Refinement: 8 partial order constraints become active
BV-Refinement: 458 inactive partial order constraints
BV-Refinement: got SAT, and it is spurious, refining
BV-Refinement: iteration 4
1465 variables, 2769 clauses
SAT checker: negated claim is SATISFIABLE, i.e., does not hold
BV-Refinement: 13 partial order constraints become active
BV-Refinement: 445 inactive partial order constraints
BV-Refinement: got SAT, and it is spurious, refining
BV-Refinement: iteration 5
1831 variables, 4026 clauses
SAT checker: negated claim is SATISFIABLE, i.e., does not hold
BV-Refinement: 9 partial order constraints become active
BV-Refinement: 436 inactive partial order constraints
BV-Refinement: got SAT, and it is spurious, refining
BV-Refinement: iteration 6
1985 variables, 4442 clauses
SAT checker: negated claim is SATISFIABLE, i.e., does not hold
BV-Refinement: 3 partial order constraints become active
BV-Refinement: 433 inactive partial order constraints
BV-Refinement: got SAT, and it is spurious, refining
BV-Refinement: iteration 7
2073 variables, 4647 clauses
SAT checker: negated claim is SATISFIABLE, i.e., does not hold
BV-Refinement: 6 partial order constraints become active
BV-Refinement: 427 inactive partial order constraints
BV-Refinement: got SAT, and it is spurious, refining
BV-Refinement: iteration 8
2188 variables, 5174 clauses
SAT checker: negated claim is SATISFIABLE, i.e., does not hold
BV-Refinement: 4 partial order constraints become active
BV-Refinement: 423 inactive partial order constraints
BV-Refinement: got SAT, and it is spurious, refining
BV-Refinement: iteration 9
2250 variables, 5383 clauses
SAT checker: negated claim is SATISFIABLE, i.e., does not hold
BV-Refinement: 6 partial order constraints become active
BV-Refinement: 417 inactive partial order constraints
BV-Refinement: got SAT, and it is spurious, refining
BV-Refinement: iteration 10
2404 variables, 5923 clauses
SAT checker: negated claim is SATISFIABLE, i.e., does not hold
BV-Refinement: 6 partial order constraints become active
BV-Refinement: 411 inactive partial order constraints
BV-Refinement: got SAT, and it is spurious, refining
BV-Refinement: iteration 11
2552 variables, 6326 clauses
SAT checker: negated claim is SATISFIABLE, i.e., does not hold
BV-Refinement: 5 partial order constraints become active
BV-Refinement: 406 inactive partial order constraints
BV-Refinement: got SAT, and it is spurious, refining
BV-Refinement: iteration 12
2634 variables, 6568 clauses
SAT checker: negated claim is SATISFIABLE, i.e., does not hold
BV-Refinement: 5 partial order constraints become active
BV-Refinement: 401 inactive partial order constraints
BV-Refinement: got SAT, and it is spurious, refining
BV-Refinement: iteration 13
2731 variables, 6875 clauses
SAT checker: negated claim is SATISFIABLE, i.e., does not hold
BV-Refinement: 7 partial order constraints become active
BV-Refinement: 394 inactive partial order constraints
BV-Refinement: got SAT, and it is spurious, refining
BV-Refinement: iteration 14
2900 variables, 7497 clauses
SAT checker: negated claim is SATISFIABLE, i.e., does not hold
BV-Refinement: 6 partial order constraints become active
BV-Refinement: 388 inactive partial order constraints
BV-Refinement: got SAT, and it is spurious, refining
BV-Refinement: iteration 15
3026 variables, 7943 clauses
SAT checker: negated claim is SATISFIABLE, i.e., does not hold
BV-Refinement: 2 partial order constraints become active
BV-Refinement: 386 inactive partial order constraints
BV-Refinement: got SAT, and it is spurious, refining
BV-Refinement: iteration 16
3081 variables, 8008 clauses
SAT checker: negated claim is SATISFIABLE, i.e., does not hold
BV-Refinement: 2 partial order constraints become active
BV-Refinement: 384 inactive partial order constraints
BV-Refinement: got SAT, and it is spurious, refining
BV-Refinement: iteration 17
3115 variables, 8109 clauses
SAT checker: negated claim is SATISFIABLE, i.e., does not hold
BV-Refinement: 2 partial order constraints become active
BV-Refinement: 382 inactive partial order constraints
BV-Refinement: got SAT, and it is spurious, refining
BV-Refinement: iteration 18
3174 variables, 8336 clauses
SAT checker: negated claim is SATISFIABLE, i.e., does not hold
BV-Refinement: 2 partial order constraints become active
BV-Refinement: 380 inactive partial order constraints
BV-Refinement: got SAT, and it is spurious, refining
BV-Refinement: iteration 19
3233 variables, 8588 clauses
SAT checker: negated claim is SATISFIABLE, i.e., does not hold
BV-Refinement: 4 partial order constraints become active
BV-Refinement: 376 inactive partial order constraints
BV-Refinement: got SAT, and it is spurious, refining
BV-Refinement: iteration 20
3324 variables, 8910 clauses
SAT checker: negated claim is SATISFIABLE, i.e., does not hold
BV-Refinement: 13 partial order constraints become active
BV-Refinement: 363 inactive partial order constraints
BV-Refinement: got SAT, and it is spurious, refining
BV-Refinement: iteration 21
3567 variables, 10035 clauses
SAT checker: negated claim is SATISFIABLE, i.e., does not hold
BV-Refinement: 6 partial order constraints become active
BV-Refinement: 357 inactive partial order constraints
BV-Refinement: got SAT, and it is spurious, refining
BV-Refinement: iteration 22
3717 variables, 10514 clauses
SAT checker: negated claim is SATISFIABLE, i.e., does not hold
BV-Refinement: 8 partial order constraints become active
BV-Refinement: 349 inactive partial order constraints
BV-Refinement: got SAT, and it is spurious, refining
BV-Refinement: iteration 23
3850 variables, 11032 clauses
SAT checker: negated claim is SATISFIABLE, i.e., does not hold
BV-Refinement: 6 partial order constraints become active
BV-Refinement: 343 inactive partial order constraints
BV-Refinement: got SAT, and it is spurious, refining
BV-Refinement: iteration 24
3996 variables, 11570 clauses
SAT checker: negated claim is SATISFIABLE, i.e., does not hold
BV-Refinement: 9 partial order constraints become active
BV-Refinement: 334 inactive partial order constraints
BV-Refinement: got SAT, and it is spurious, refining
BV-Refinement: iteration 25
4087 variables, 11902 clauses
SAT checker: negated claim is SATISFIABLE, i.e., does not hold
BV-Refinement: 4 partial order constraints become active
BV-Refinement: 330 inactive partial order constraints
BV-Refinement: got SAT, and it is spurious, refining
BV-Refinement: iteration 26
4149 variables, 12076 clauses
SAT checker: negated claim is SATISFIABLE, i.e., does not hold
BV-Refinement: 6 partial order constraints become active
BV-Refinement: 324 inactive partial order constraints
BV-Refinement: got SAT, and it is spurious, refining
BV-Refinement: iteration 27
4226 variables, 12338 clauses
SAT checker: negated claim is SATISFIABLE, i.e., does not hold
BV-Refinement: 2 partial order constraints become active
BV-Refinement: 322 inactive partial order constraints
BV-Refinement: got SAT, and it is spurious, refining
BV-Refinement: iteration 28
4260 variables, 12397 clauses
SAT checker: negated claim is SATISFIABLE, i.e., does not hold
BV-Refinement: 2 partial order constraints become active
BV-Refinement: 320 inactive partial order constraints
BV-Refinement: got SAT, and it is spurious, refining
BV-Refinement: iteration 29
4294 variables, 12491 clauses
SAT checker: negated claim is SATISFIABLE, i.e., does not hold
BV-Refinement: 2 partial order constraints become active
BV-Refinement: 318 inactive partial order constraints
BV-Refinement: got SAT, and it is spurious, refining
BV-Refinement: iteration 30
4359 variables, 12729 clauses
SAT checker: negated claim is SATISFIABLE, i.e., does not hold
BV-Refinement: 2 partial order constraints become active
BV-Refinement: 316 inactive partial order constraints
BV-Refinement: got SAT, and it is spurious, refining
BV-Refinement: iteration 31
4393 variables, 12837 clauses
SAT checker: negated claim is SATISFIABLE, i.e., does not hold
BV-Refinement: 2 partial order constraints become active
BV-Refinement: 314 inactive partial order constraints
BV-Refinement: got SAT, and it is spurious, refining
BV-Refinement: iteration 32
4427 variables, 12931 clauses
SAT checker: negated claim is SATISFIABLE, i.e., does not hold
BV-Refinement: 5 partial order constraints become active
BV-Refinement: 309 inactive partial order constraints
BV-Refinement: got SAT, and it is spurious, refining
BV-Refinement: iteration 33
4573 variables, 13445 clauses
SAT checker: negated claim is SATISFIABLE, i.e., does not hold
BV-Refinement: 21 partial order constraints become active
BV-Refinement: 288 inactive partial order constraints
BV-Refinement: got SAT, and it is spurious, refining
BV-Refinement: iteration 34
4892 variables, 14883 clauses
SAT checker: negated claim is SATISFIABLE, i.e., does not hold
BV-Refinement: 6 partial order constraints become active
BV-Refinement: 282 inactive partial order constraints
BV-Refinement: got SAT, and it is spurious, refining
BV-Refinement: iteration 35
4984 variables, 14909 clauses
SAT checker: negated claim is SATISFIABLE, i.e., does not hold
BV-Refinement: 4 partial order constraints become active
BV-Refinement: 278 inactive partial order constraints
BV-Refinement: got SAT, and it is spurious, refining
BV-Refinement: iteration 36
5074 variables, 15249 clauses
SAT checker: negated claim is UNSATISFIABLE, i.e., holds
BV-Refinement: got UNSAT, and the proof passes => UNSAT
Total iterations: 36
PROFILING: main_solver: 0.423
PROFILING: sat_check: 1.898
PROFILING: clustering: 0
Runtime decision procedure: 2.328s
VERIFICATION SUCCESSFUL
Partial order constraints used: 234/512
  fr: 22/72
  po: 121/316
  rf: 25/30
  rf-order: 17/30
  rf-some: 16/16
  rfi: 7/10
  thread-spawn: 6/6
  ws-ext: 20/32
Time: 2.721333
