Tool:
executable,/users/bjowac/bin/cbmc-no-mus
parameters,--lazy-encoding --error-label ERROR --unwind 5 --no-unwinding-assertions
=======
Detailed outcomes:
/nas/bjowac/cbmc-lazy-po/experiments/pthread-atomic/dekker_true-unreach-call.i,CORRECT PROOF,39.363064
/nas/bjowac/cbmc-lazy-po/experiments/pthread-atomic/lamport_true-unreach-call.i,CORRECT PROOF,814.763424
/nas/bjowac/cbmc-lazy-po/experiments/pthread-atomic/peterson_true-unreach-call.i,CORRECT PROOF,4.332601
/nas/bjowac/cbmc-lazy-po/experiments/pthread-atomic/qrcu_false-unreach-call.i,CORRECT ALARM,118.874942
