Tool:
executable,cbmc-mus2
parameters,--lazy-encoding --error-label ERROR --unwind 5 --no-unwinding-assertions
=======
Detailed outcomes:
/nas/schram/gitcbmc-lazy-po/experiments/pthread-atomic/dekker_true-unreach-call.c,CORRECT PROOF,5.126346
/nas/schram/gitcbmc-lazy-po/experiments/pthread-atomic/lamport_true-unreach-call.c,CORRECT PROOF,106.593979
/nas/schram/gitcbmc-lazy-po/experiments/pthread-atomic/peterson_true-unreach-call.c,CORRECT PROOF,1.619384
/nas/schram/gitcbmc-lazy-po/experiments/pthread-atomic/qrcu_false-unreach-call.c,CORRECT ALARM,18.056092
/nas/schram/gitcbmc-lazy-po/experiments/pthread-atomic/qrcu_true-unreach-call.c,CORRECT PROOF,117.727460
/nas/schram/gitcbmc-lazy-po/experiments/pthread-atomic/read_write_lock_false-unreach-call.c,CORRECT ALARM,1.618961
/nas/schram/gitcbmc-lazy-po/experiments/pthread-atomic/read_write_lock_true-unreach-call.c,CORRECT PROOF,15.399194
/nas/schram/gitcbmc-lazy-po/experiments/pthread-atomic/scull_true-unreach-call.c,ERROR,0.032644
/nas/schram/gitcbmc-lazy-po/experiments/pthread-atomic/szymanski_true-unreach-call.c,CORRECT PROOF,4.875831
/nas/schram/gitcbmc-lazy-po/experiments/pthread-atomic/time_var_mutex_true-unreach-call.c,CORRECT PROOF,3.422664
=======
Summary:
available results,10
correct results,9
correct proofs,7
correct alarms,2
wrong proofs,0
wrong alarms,0
unknown results,1
CPU time,274.47255516052246
score,16
