Tool:
executable,/users/bjowac/bin/cbmc-mus
parameters,--lazy-encoding --error-label ERROR --unwind 5 --no-unwinding-assertions
=======
Detailed outcomes:
/nas/schram/gitcbmc-lazy-po/experiments/pthread-atomic/dekker_true-unreach-call.c,CORRECT PROOF,95.778464
/nas/schram/gitcbmc-lazy-po/experiments/pthread-atomic/lamport_true-unreach-call.c,ERROR,900.228123
/nas/schram/gitcbmc-lazy-po/experiments/pthread-atomic/peterson_true-unreach-call.c,CORRECT PROOF,15.045107
/nas/schram/gitcbmc-lazy-po/experiments/pthread-atomic/qrcu_false-unreach-call.c,CORRECT ALARM,217.954943
/nas/schram/gitcbmc-lazy-po/experiments/pthread-atomic/qrcu_true-unreach-call.c,CORRECT PROOF,498.722887
/nas/schram/gitcbmc-lazy-po/experiments/pthread-atomic/read_write_lock_false-unreach-call.c,CORRECT ALARM,10.093704
/nas/schram/gitcbmc-lazy-po/experiments/pthread-atomic/read_write_lock_true-unreach-call.c,CORRECT PROOF,47.704877
/nas/schram/gitcbmc-lazy-po/experiments/pthread-atomic/scull_true-unreach-call.c,ERROR,0.176792
/nas/schram/gitcbmc-lazy-po/experiments/pthread-atomic/szymanski_true-unreach-call.c,CORRECT PROOF,30.876603
/nas/schram/gitcbmc-lazy-po/experiments/pthread-atomic/time_var_mutex_true-unreach-call.c,CORRECT PROOF,15.543526
=======
Summary:
available results,10
correct results,8
correct proofs,6
correct alarms,2
wrong proofs,0
wrong alarms,0
unknown results,2
CPU time,1832.1250267028809
score,14
