Tool:
executable,/users/bjowac/bin/cbmc-mus
parameters,--lazy-encoding --error-label ERROR --unwind 5 --no-unwinding-assertions
=======
Detailed outcomes:
/nas/bjowac/cbmc-lazy-po/experiments/pthread-atomic/dekker_true-unreach-call.i,CORRECT PROOF,20.810091
/nas/bjowac/cbmc-lazy-po/experiments/pthread-atomic/lamport_true-unreach-call.i,CORRECT PROOF,730.416579
/nas/bjowac/cbmc-lazy-po/experiments/pthread-atomic/peterson_true-unreach-call.i,CORRECT PROOF,4.682701
/nas/bjowac/cbmc-lazy-po/experiments/pthread-atomic/qrcu_false-unreach-call.i,CORRECT ALARM,128.294641
